{
  "physicsSample": "SMNR",
  "mc": "mc16ade",
  "prodTag": "MAR2020",
  "nSelectedJets": 5,
  "nLayers": 1,
  "embed_dim": 20, 
  "ff_dim": 20,
  "nHeads": 4,
  "dpt": 0.3,
  "lr": 0.01,
  "epoch": -1,
  "tag":""
}
