{
  "physicsSample": "SMNR",
  "mc": "mc16ade",
  "prodTag": "APR2020",
  "nSelectedJets": 5,
  "nLayers": 1,
  "embed_dim": 20, 
  "ff_dim": 20,
  "nHeads": 4,
  "dpt": 0.3,
  "trainingEvents": "even",
  "lr": 0.005,
  "epoch": -1,
  "tag": "_2b"
}
