label,pull,err
high_HT16_3b1f,-0.0329,0.6619
high_HT17_3b1f,-0.9098,0.7492
high_HT18_3b1f,1.0239,0.3622
low_HT16_3b1f,-0.1719,0.8769
low_HT17_3b1f,0.1361,0.9786
low_HT18_3b1f,1.1585,0.9376
uncorr_bkguncrt163b1f[00],-0.1731,0.9109
uncorr_bkguncrt163b1f[01],-0.1268,0.9239
uncorr_bkguncrt163b1f[02],0.0902,0.9299
uncorr_bkguncrt163b1f[03],-0.0308,0.9321
uncorr_bkguncrt163b1f[04],0.1539,0.9367
uncorr_bkguncrt163b1f[05],0.3621,0.9426
uncorr_bkguncrt163b1f[06],0.3229,0.9395
uncorr_bkguncrt163b1f[07],0.3094,0.9377
uncorr_bkguncrt163b1f[08],0.3186,0.9311
uncorr_bkguncrt163b1f[09],0.1283,0.9320
uncorr_bkguncrt163b1f[10],0.2926,0.9313
uncorr_bkguncrt163b1f[11],0.2171,0.9266
uncorr_bkguncrt163b1f[12],0.0445,0.9096
uncorr_bkguncrt163b1f[13],0.1636,0.9182
uncorr_bkguncrt163b1f[14],-0.0620,0.9088
uncorr_bkguncrt163b1f[15],0.0126,0.9080
uncorr_bkguncrt163b1f[16],0.1173,0.9116
uncorr_bkguncrt163b1f[17],0.0822,0.9029
uncorr_bkguncrt163b1f[18],-0.4149,0.8712
uncorr_bkguncrt163b1f[19],-0.0496,0.9026
uncorr_bkguncrt163b1f[20],0.1054,0.9148
uncorr_bkguncrt163b1f[21],-0.0173,0.9198
uncorr_bkguncrt163b1f[22],0.0104,0.9182
uncorr_bkguncrt163b1f[23],-0.0168,0.9215
uncorr_bkguncrt163b1f[24],-0.0234,0.8985
uncorr_bkguncrt163b1f[25],0.0765,0.8699
uncorr_bkguncrt163b1f[26],0.0385,0.9266
uncorr_bkguncrt163b1f[27],0.0845,0.9152
uncorr_bkguncrt173b1f[00],-0.0134,0.8959
uncorr_bkguncrt173b1f[01],0.3486,0.9274
uncorr_bkguncrt173b1f[02],0.0868,0.9148
uncorr_bkguncrt173b1f[03],0.2010,0.9152
uncorr_bkguncrt173b1f[04],0.2378,0.9212
uncorr_bkguncrt173b1f[05],0.3003,0.9255
uncorr_bkguncrt173b1f[06],0.2493,0.9297
uncorr_bkguncrt173b1f[07],0.1278,0.9305
uncorr_bkguncrt173b1f[08],0.0955,0.9255
uncorr_bkguncrt173b1f[09],0.3240,0.9197
uncorr_bkguncrt173b1f[10],0.1105,0.9097
uncorr_bkguncrt173b1f[11],0.3323,0.9150
uncorr_bkguncrt173b1f[12],0.2430,0.8985
uncorr_bkguncrt173b1f[13],0.2300,0.9043
uncorr_bkguncrt173b1f[14],0.1136,0.8954
uncorr_bkguncrt173b1f[15],0.1218,0.8958
uncorr_bkguncrt173b1f[16],0.0332,0.8932
uncorr_bkguncrt173b1f[17],0.1746,0.9012
uncorr_bkguncrt173b1f[18],-0.0451,0.9074
uncorr_bkguncrt173b1f[19],-0.3099,0.8964
uncorr_bkguncrt173b1f[20],-0.0265,0.8957
uncorr_bkguncrt173b1f[21],0.0417,0.9038
uncorr_bkguncrt173b1f[22],0.1293,0.9267
uncorr_bkguncrt173b1f[23],0.0965,0.9231
uncorr_bkguncrt173b1f[24],0.0971,0.9261
uncorr_bkguncrt173b1f[25],0.0455,0.8709
uncorr_bkguncrt173b1f[26],0.1784,0.9306
uncorr_bkguncrt173b1f[27],-0.0461,0.9017
uncorr_bkguncrt183b1f[00],0.0101,0.8896
uncorr_bkguncrt183b1f[01],0.2723,0.9029
uncorr_bkguncrt183b1f[02],0.5374,0.8853
uncorr_bkguncrt183b1f[03],0.9519,0.8864
uncorr_bkguncrt183b1f[04],0.9557,0.8929
uncorr_bkguncrt183b1f[05],1.1165,0.9034
uncorr_bkguncrt183b1f[06],0.9327,0.9085
uncorr_bkguncrt183b1f[07],0.3209,0.9109
uncorr_bkguncrt183b1f[08],0.3865,0.9191
uncorr_bkguncrt183b1f[09],0.2779,0.9211
uncorr_bkguncrt183b1f[10],0.1699,0.9127
uncorr_bkguncrt183b1f[11],0.0817,0.8943
uncorr_bkguncrt183b1f[12],0.2235,0.8828
uncorr_bkguncrt183b1f[13],0.0522,0.8706
uncorr_bkguncrt183b1f[14],-0.0516,0.8742
uncorr_bkguncrt183b1f[15],0.1294,0.8816
uncorr_bkguncrt183b1f[16],0.0633,0.8904
uncorr_bkguncrt183b1f[17],0.0058,0.8874
uncorr_bkguncrt183b1f[18],-0.1938,0.8850
uncorr_bkguncrt183b1f[19],-0.0775,0.8942
uncorr_bkguncrt183b1f[20],-0.1878,0.8941
uncorr_bkguncrt183b1f[21],0.1181,0.8955
uncorr_bkguncrt183b1f[22],-0.0162,0.9035
uncorr_bkguncrt183b1f[23],0.1624,0.9094
uncorr_bkguncrt183b1f[24],0.1946,0.9234
uncorr_bkguncrt183b1f[25],0.0536,0.9143
uncorr_bkguncrt183b1f[26],0.2611,0.9447
uncorr_bkguncrt183b1f[27],0.2324,0.8655
