label,pull,err
Q116_3b1f,-0.6474,0.7711
Q117_3b1f,-0.7591,0.7775
Q118_3b1f,-0.8592,0.7251
Q216_3b1f,-0.0677,0.9117
Q217_3b1f,-0.2615,0.9638
Q218_3b1f,0.1959,0.8342
Q316_3b1f,0.4600,0.8555
Q317_3b1f,0.5506,0.9008
Q318_3b1f,1.5821,0.7003
Q416_3b1f,0.1385,0.9472
Q417_3b1f,0.0670,0.9863
Q418_3b1f,0.5885,0.9149
uncorr_bkguncrt163b1f[00],-0.1666,0.9115
uncorr_bkguncrt163b1f[01],-0.1236,0.9237
uncorr_bkguncrt163b1f[02],0.0697,0.9278
uncorr_bkguncrt163b1f[03],-0.1102,0.9303
uncorr_bkguncrt163b1f[04],0.0138,0.9381
uncorr_bkguncrt163b1f[05],0.1996,0.9459
uncorr_bkguncrt163b1f[06],0.1603,0.9427
uncorr_bkguncrt163b1f[07],0.1527,0.9407
uncorr_bkguncrt163b1f[08],0.1634,0.9336
uncorr_bkguncrt163b1f[09],0.0044,0.9323
uncorr_bkguncrt163b1f[10],0.1792,0.9300
uncorr_bkguncrt163b1f[11],0.1114,0.9246
uncorr_bkguncrt163b1f[12],-0.0515,0.9070
uncorr_bkguncrt163b1f[13],0.0725,0.9149
uncorr_bkguncrt163b1f[14],-0.1469,0.9060
uncorr_bkguncrt163b1f[15],-0.0650,0.9062
uncorr_bkguncrt163b1f[16],0.0359,0.9115
uncorr_bkguncrt163b1f[17],0.0016,0.9030
uncorr_bkguncrt163b1f[18],-0.4891,0.8702
uncorr_bkguncrt163b1f[19],-0.1123,0.9022
uncorr_bkguncrt163b1f[20],0.0486,0.9144
uncorr_bkguncrt163b1f[21],-0.0678,0.9193
uncorr_bkguncrt163b1f[22],-0.0352,0.9173
uncorr_bkguncrt163b1f[23],-0.0612,0.9204
uncorr_bkguncrt163b1f[24],-0.0529,0.8978
uncorr_bkguncrt163b1f[25],0.0425,0.8691
uncorr_bkguncrt163b1f[26],0.0077,0.9246
uncorr_bkguncrt163b1f[27],0.0358,0.9116
uncorr_bkguncrt173b1f[00],-0.0094,0.8961
uncorr_bkguncrt173b1f[01],0.3174,0.9265
uncorr_bkguncrt173b1f[02],0.0407,0.9146
uncorr_bkguncrt173b1f[03],0.1396,0.9149
uncorr_bkguncrt173b1f[04],0.1549,0.9227
uncorr_bkguncrt173b1f[05],0.1940,0.9277
uncorr_bkguncrt173b1f[06],0.1300,0.9320
uncorr_bkguncrt173b1f[07],0.0057,0.9325
uncorr_bkguncrt173b1f[08],-0.0050,0.9263
uncorr_bkguncrt173b1f[09],0.2087,0.9213
uncorr_bkguncrt173b1f[10],-0.0201,0.9116
uncorr_bkguncrt173b1f[11],0.1794,0.9177
uncorr_bkguncrt173b1f[12],0.0688,0.9004
uncorr_bkguncrt173b1f[13],0.0735,0.9054
uncorr_bkguncrt173b1f[14],-0.0517,0.8957
uncorr_bkguncrt173b1f[15],-0.0291,0.8951
uncorr_bkguncrt173b1f[16],-0.0938,0.8946
uncorr_bkguncrt173b1f[17],0.0829,0.9033
uncorr_bkguncrt173b1f[18],-0.1071,0.9099
uncorr_bkguncrt173b1f[19],-0.3464,0.8984
uncorr_bkguncrt173b1f[20],-0.0624,0.8983
uncorr_bkguncrt173b1f[21],0.0127,0.9054
uncorr_bkguncrt173b1f[22],0.1046,0.9285
uncorr_bkguncrt173b1f[23],0.0692,0.9247
uncorr_bkguncrt173b1f[24],0.0837,0.9281
uncorr_bkguncrt173b1f[25],0.0403,0.8744
uncorr_bkguncrt173b1f[26],0.1568,0.9327
uncorr_bkguncrt173b1f[27],-0.0316,0.9061
uncorr_bkguncrt183b1f[00],-0.0121,0.8884
uncorr_bkguncrt183b1f[01],0.1676,0.9010
uncorr_bkguncrt183b1f[02],0.2607,0.8848
uncorr_bkguncrt183b1f[03],0.3976,0.8873
uncorr_bkguncrt183b1f[04],0.2126,0.8965
uncorr_bkguncrt183b1f[05],0.3360,0.9095
uncorr_bkguncrt183b1f[06],0.3337,0.9126
uncorr_bkguncrt183b1f[07],-0.0706,0.9123
uncorr_bkguncrt183b1f[08],0.1861,0.9169
uncorr_bkguncrt183b1f[09],0.2195,0.9162
uncorr_bkguncrt183b1f[10],0.1381,0.9085
uncorr_bkguncrt183b1f[11],0.0372,0.8925
uncorr_bkguncrt183b1f[12],0.1104,0.8828
uncorr_bkguncrt183b1f[13],-0.1488,0.8707
uncorr_bkguncrt183b1f[14],-0.2844,0.8735
uncorr_bkguncrt183b1f[15],-0.1237,0.8795
uncorr_bkguncrt183b1f[16],-0.2036,0.8881
uncorr_bkguncrt183b1f[17],-0.2554,0.8830
uncorr_bkguncrt183b1f[18],-0.4421,0.8797
uncorr_bkguncrt183b1f[19],-0.3016,0.8886
uncorr_bkguncrt183b1f[20],-0.3904,0.8881
uncorr_bkguncrt183b1f[21],-0.0868,0.8884
uncorr_bkguncrt183b1f[22],-0.1920,0.8962
uncorr_bkguncrt183b1f[23],0.0078,0.9017
uncorr_bkguncrt183b1f[24],0.0517,0.9164
uncorr_bkguncrt183b1f[25],-0.0540,0.9085
uncorr_bkguncrt183b1f[26],0.1576,0.9382
uncorr_bkguncrt183b1f[27],0.0549,0.8535
