label,pull,err
Q116_3b1f,0.0605,0.9441
Q117_3b1f,-0.0711,0.9827
Q118_3b1f,-0.1792,0.8994
Q216_3b1f,0.8509,0.8619
Q217_3b1f,0.5321,0.8911
Q218_3b1f,0.6813,0.9282
Q316_3b1f,0.8024,0.7704
Q317_3b1f,0.8625,0.7377
Q318_3b1f,1.4275,0.6486
Q416_3b1f,0.3785,0.9403
Q417_3b1f,0.3122,0.9383
Q418_3b1f,0.5849,0.9479
uncorr_bkguncrt163b1f[00],-0.1731,0.9141
uncorr_bkguncrt163b1f[01],-0.1326,0.9293
uncorr_bkguncrt163b1f[02],0.1063,0.9353
uncorr_bkguncrt163b1f[03],0.0278,0.9346
uncorr_bkguncrt163b1f[04],0.2456,0.9370
uncorr_bkguncrt163b1f[05],0.4300,0.9417
uncorr_bkguncrt163b1f[06],0.3191,0.9394
uncorr_bkguncrt163b1f[07],0.2428,0.9382
uncorr_bkguncrt163b1f[08],0.2057,0.9325
uncorr_bkguncrt163b1f[09],-0.0119,0.9326
uncorr_bkguncrt163b1f[10],0.1229,0.9290
uncorr_bkguncrt163b1f[11],0.0500,0.9247
uncorr_bkguncrt163b1f[12],-0.1419,0.9006
uncorr_bkguncrt163b1f[13],-0.0247,0.9103
uncorr_bkguncrt163b1f[14],-0.2241,0.9027
uncorr_bkguncrt163b1f[15],-0.1162,0.9027
uncorr_bkguncrt163b1f[16],0.0063,0.9120
uncorr_bkguncrt163b1f[17],-0.0310,0.8931
uncorr_bkguncrt163b1f[18],-0.5005,0.8538
uncorr_bkguncrt163b1f[19],-0.1050,0.9023
uncorr_bkguncrt163b1f[20],0.0700,0.9176
uncorr_bkguncrt163b1f[21],-0.0639,0.9236
uncorr_bkguncrt163b1f[22],-0.0129,0.9208
uncorr_bkguncrt163b1f[23],-0.0531,0.9267
uncorr_bkguncrt163b1f[24],-0.0540,0.8846
uncorr_bkguncrt163b1f[25],0.0427,0.8758
uncorr_bkguncrt163b1f[26],0.0224,0.9238
uncorr_bkguncrt163b1f[27],0.0727,0.9149
uncorr_bkguncrt173b1f[00],-0.0278,0.9080
uncorr_bkguncrt173b1f[01],0.2791,0.9288
uncorr_bkguncrt173b1f[02],-0.0158,0.9181
uncorr_bkguncrt173b1f[03],0.0720,0.9167
uncorr_bkguncrt173b1f[04],0.1479,0.9208
uncorr_bkguncrt173b1f[05],0.2194,0.9213
uncorr_bkguncrt173b1f[06],0.1682,0.9258
uncorr_bkguncrt173b1f[07],0.0515,0.9237
uncorr_bkguncrt173b1f[08],0.0712,0.9184
uncorr_bkguncrt173b1f[09],0.2716,0.9112
uncorr_bkguncrt173b1f[10],0.0127,0.9072
uncorr_bkguncrt173b1f[11],0.1643,0.9149
uncorr_bkguncrt173b1f[12],0.0133,0.8969
uncorr_bkguncrt173b1f[13],0.0081,0.9038
uncorr_bkguncrt173b1f[14],-0.1350,0.8947
uncorr_bkguncrt173b1f[15],-0.1137,0.8911
uncorr_bkguncrt173b1f[16],-0.1713,0.8932
uncorr_bkguncrt173b1f[17],0.0156,0.9049
uncorr_bkguncrt173b1f[18],-0.1613,0.9121
uncorr_bkguncrt173b1f[19],-0.3648,0.9011
uncorr_bkguncrt173b1f[20],-0.0911,0.8979
uncorr_bkguncrt173b1f[21],0.0017,0.9038
uncorr_bkguncrt173b1f[22],0.0883,0.9303
uncorr_bkguncrt173b1f[23],0.0435,0.9260
uncorr_bkguncrt173b1f[24],0.0825,0.9306
uncorr_bkguncrt173b1f[25],0.0338,0.8770
uncorr_bkguncrt173b1f[26],0.1193,0.9341
uncorr_bkguncrt173b1f[27],-0.0382,0.9152
uncorr_bkguncrt183b1f[00],-0.1195,0.8926
uncorr_bkguncrt183b1f[01],-0.0044,0.9129
uncorr_bkguncrt183b1f[02],0.0502,0.9094
uncorr_bkguncrt183b1f[03],0.2786,0.9157
uncorr_bkguncrt183b1f[04],0.2118,0.9216
uncorr_bkguncrt183b1f[05],0.3835,0.9318
uncorr_bkguncrt183b1f[06],0.3464,0.9283
uncorr_bkguncrt183b1f[07],-0.0672,0.9299
uncorr_bkguncrt183b1f[08],0.0957,0.9326
uncorr_bkguncrt183b1f[09],0.0915,0.9265
uncorr_bkguncrt183b1f[10],0.0221,0.9219
uncorr_bkguncrt183b1f[11],-0.0495,0.9047
uncorr_bkguncrt183b1f[12],0.0789,0.8945
uncorr_bkguncrt183b1f[13],-0.1328,0.8641
uncorr_bkguncrt183b1f[14],-0.2283,0.8809
uncorr_bkguncrt183b1f[15],-0.0406,0.8822
uncorr_bkguncrt183b1f[16],-0.1068,0.8921
uncorr_bkguncrt183b1f[17],-0.1294,0.8856
uncorr_bkguncrt183b1f[18],-0.3106,0.8831
uncorr_bkguncrt183b1f[19],-0.1782,0.8925
uncorr_bkguncrt183b1f[20],-0.2753,0.8920
uncorr_bkguncrt183b1f[21],0.0072,0.8913
uncorr_bkguncrt183b1f[22],-0.0998,0.9019
uncorr_bkguncrt183b1f[23],0.0977,0.9108
uncorr_bkguncrt183b1f[24],0.1006,0.9233
uncorr_bkguncrt183b1f[25],-0.0222,0.9148
uncorr_bkguncrt183b1f[26],0.1781,0.9448
uncorr_bkguncrt183b1f[27],0.1106,0.8730
