label,pull,err
high_HT16_3b1f,0.4486,0.8739
high_HT17_3b1f,0.2663,0.7643
high_HT18_3b1f,0.9743,0.8174
low_HT16_3b1f,0.6402,0.7529
low_HT17_3b1f,0.4892,0.7556
low_HT18_3b1f,1.1387,0.5587
uncorr_bkguncrt163b1f[00],-0.1291,0.9218
uncorr_bkguncrt163b1f[01],-0.0683,0.9284
uncorr_bkguncrt163b1f[02],0.1731,0.9320
uncorr_bkguncrt163b1f[03],0.0433,0.9321
uncorr_bkguncrt163b1f[04],0.1844,0.9333
uncorr_bkguncrt163b1f[05],0.3211,0.9400
uncorr_bkguncrt163b1f[06],0.2039,0.9405
uncorr_bkguncrt163b1f[07],0.1350,0.9375
uncorr_bkguncrt163b1f[08],0.1154,0.9182
uncorr_bkguncrt163b1f[09],-0.0718,0.9327
uncorr_bkguncrt163b1f[10],0.0843,0.9302
uncorr_bkguncrt163b1f[11],0.0386,0.9262
uncorr_bkguncrt163b1f[12],-0.1573,0.9019
uncorr_bkguncrt163b1f[13],-0.0031,0.9168
uncorr_bkguncrt163b1f[14],-0.1919,0.9090
uncorr_bkguncrt163b1f[15],-0.1019,0.9085
uncorr_bkguncrt163b1f[16],0.0436,0.9190
uncorr_bkguncrt163b1f[17],-0.0004,0.9118
uncorr_bkguncrt163b1f[18],-0.4171,0.8946
uncorr_bkguncrt163b1f[19],-0.0852,0.9088
uncorr_bkguncrt163b1f[20],0.0819,0.9163
uncorr_bkguncrt163b1f[21],-0.0327,0.9269
uncorr_bkguncrt163b1f[22],0.0096,0.9271
uncorr_bkguncrt163b1f[23],-0.0395,0.9259
uncorr_bkguncrt163b1f[24],-0.0358,0.8841
uncorr_bkguncrt163b1f[25],0.0757,0.9063
uncorr_bkguncrt163b1f[26],0.0115,0.9162
uncorr_bkguncrt163b1f[27],0.0486,0.9107
uncorr_bkguncrt173b1f[00],-0.0280,0.9096
uncorr_bkguncrt173b1f[01],0.2738,0.9319
uncorr_bkguncrt173b1f[02],-0.0223,0.9257
uncorr_bkguncrt173b1f[03],0.0709,0.9253
uncorr_bkguncrt173b1f[04],0.1398,0.9271
uncorr_bkguncrt173b1f[05],0.2098,0.8981
uncorr_bkguncrt173b1f[06],0.1380,0.9333
uncorr_bkguncrt173b1f[07],-0.0027,0.9305
uncorr_bkguncrt173b1f[08],0.0119,0.9231
uncorr_bkguncrt173b1f[09],0.1970,0.8816
uncorr_bkguncrt173b1f[10],-0.0316,0.9145
uncorr_bkguncrt173b1f[11],0.1370,0.9254
uncorr_bkguncrt173b1f[12],-0.0132,0.9019
uncorr_bkguncrt173b1f[13],-0.0385,0.9070
uncorr_bkguncrt173b1f[14],-0.2013,0.8974
uncorr_bkguncrt173b1f[15],-0.1841,0.8936
uncorr_bkguncrt173b1f[16],-0.2587,0.8840
uncorr_bkguncrt173b1f[17],-0.0513,0.9050
uncorr_bkguncrt173b1f[18],-0.2133,0.9101
uncorr_bkguncrt173b1f[19],-0.4249,0.8948
uncorr_bkguncrt173b1f[20],-0.1394,0.8911
uncorr_bkguncrt173b1f[21],-0.0602,0.8903
uncorr_bkguncrt173b1f[22],0.0672,0.9248
uncorr_bkguncrt173b1f[23],0.0193,0.9193
uncorr_bkguncrt173b1f[24],0.0536,0.9244
uncorr_bkguncrt173b1f[25],-0.0289,0.8618
uncorr_bkguncrt173b1f[26],0.0784,0.9280
uncorr_bkguncrt173b1f[27],-0.1202,0.9025
uncorr_bkguncrt183b1f[00],-0.1477,0.8897
uncorr_bkguncrt183b1f[01],-0.0345,0.9121
uncorr_bkguncrt183b1f[02],0.0073,0.9118
uncorr_bkguncrt183b1f[03],0.2362,0.9092
uncorr_bkguncrt183b1f[04],0.1853,0.9123
uncorr_bkguncrt183b1f[05],0.4015,0.9237
uncorr_bkguncrt183b1f[06],0.4098,0.9239
uncorr_bkguncrt183b1f[07],0.0159,0.9269
uncorr_bkguncrt183b1f[08],0.2078,0.9310
uncorr_bkguncrt183b1f[09],0.2178,0.9258
uncorr_bkguncrt183b1f[10],0.1412,0.9262
uncorr_bkguncrt183b1f[11],0.0710,0.9111
uncorr_bkguncrt183b1f[12],0.1947,0.9048
uncorr_bkguncrt183b1f[13],-0.0057,0.8733
uncorr_bkguncrt183b1f[14],-0.1057,0.8934
uncorr_bkguncrt183b1f[15],0.0832,0.8968
uncorr_bkguncrt183b1f[16],-0.0025,0.9078
uncorr_bkguncrt183b1f[17],-0.0578,0.8959
uncorr_bkguncrt183b1f[18],-0.2583,0.8941
uncorr_bkguncrt183b1f[19],-0.1578,0.9005
uncorr_bkguncrt183b1f[20],-0.2788,0.8952
uncorr_bkguncrt183b1f[21],-0.0165,0.8959
uncorr_bkguncrt183b1f[22],-0.1423,0.9014
uncorr_bkguncrt183b1f[23],0.0294,0.9071
uncorr_bkguncrt183b1f[24],0.0498,0.9202
uncorr_bkguncrt183b1f[25],-0.0866,0.9091
uncorr_bkguncrt183b1f[26],0.1295,0.9412
uncorr_bkguncrt183b1f[27],-0.0332,0.8597
