label,pull,err
high_HT16_3b1f,0.2452,0.8833
high_HT17_3b1f,0.7634,0.6744
high_HT18_3b1f,-0.0618,0.7268
low_HT16_3b1f,0.7547,0.5639
low_HT17_3b1f,0.4191,0.6387
low_HT18_3b1f,1.3780,0.4611
uncorr_bkguncrt163b1f[00],-0.1489,0.9122
uncorr_bkguncrt163b1f[01],-0.1219,0.9221
uncorr_bkguncrt163b1f[02],0.0773,0.9259
uncorr_bkguncrt163b1f[03],-0.0757,0.9277
uncorr_bkguncrt163b1f[04],0.0618,0.9332
uncorr_bkguncrt163b1f[05],0.2425,0.9369
uncorr_bkguncrt163b1f[06],0.1573,0.9327
uncorr_bkguncrt163b1f[07],0.1224,0.9266
uncorr_bkguncrt163b1f[08],0.1470,0.9211
uncorr_bkguncrt163b1f[09],-0.0285,0.9242
uncorr_bkguncrt163b1f[10],0.1621,0.9197
uncorr_bkguncrt163b1f[11],0.1397,0.9146
uncorr_bkguncrt163b1f[12],-0.0186,0.8837
uncorr_bkguncrt163b1f[13],0.1461,0.8981
uncorr_bkguncrt163b1f[14],-0.0492,0.8910
uncorr_bkguncrt163b1f[15],0.0371,0.8888
uncorr_bkguncrt163b1f[16],0.2129,0.9033
uncorr_bkguncrt163b1f[17],0.1749,0.8973
uncorr_bkguncrt163b1f[18],-0.3156,0.8830
uncorr_bkguncrt163b1f[19],0.0331,0.8967
uncorr_bkguncrt163b1f[20],0.2121,0.9086
uncorr_bkguncrt163b1f[21],0.0751,0.9194
uncorr_bkguncrt163b1f[22],0.1095,0.9219
uncorr_bkguncrt163b1f[23],0.0550,0.9218
uncorr_bkguncrt163b1f[24],0.0490,0.8538
uncorr_bkguncrt163b1f[25],0.1678,0.9069
uncorr_bkguncrt163b1f[26],0.0766,0.9057
uncorr_bkguncrt163b1f[27],0.1530,0.9098
uncorr_bkguncrt173b1f[00],-0.0561,0.9015
uncorr_bkguncrt173b1f[01],0.2449,0.9254
uncorr_bkguncrt173b1f[02],-0.0657,0.9176
uncorr_bkguncrt173b1f[03],0.0053,0.9225
uncorr_bkguncrt173b1f[04],0.0553,0.9332
uncorr_bkguncrt173b1f[05],0.1143,0.9253
uncorr_bkguncrt173b1f[06],0.0822,0.9298
uncorr_bkguncrt173b1f[07],-0.0143,0.9257
uncorr_bkguncrt173b1f[08],0.0301,0.9204
uncorr_bkguncrt173b1f[09],0.2866,0.8747
uncorr_bkguncrt173b1f[10],0.0870,0.9035
uncorr_bkguncrt173b1f[11],0.3278,0.9105
uncorr_bkguncrt173b1f[12],0.1870,0.8855
uncorr_bkguncrt173b1f[13],0.1561,0.8880
uncorr_bkguncrt173b1f[14],-0.0021,0.8745
uncorr_bkguncrt173b1f[15],-0.0060,0.8682
uncorr_bkguncrt173b1f[16],-0.0690,0.8658
uncorr_bkguncrt173b1f[17],0.1453,0.8839
uncorr_bkguncrt173b1f[18],-0.0529,0.8910
uncorr_bkguncrt173b1f[19],-0.2951,0.8723
uncorr_bkguncrt173b1f[20],0.0436,0.8702
uncorr_bkguncrt173b1f[21],0.0891,0.8719
uncorr_bkguncrt173b1f[22],0.2202,0.9156
uncorr_bkguncrt173b1f[23],0.1590,0.9116
uncorr_bkguncrt173b1f[24],0.1763,0.9192
uncorr_bkguncrt173b1f[25],0.1006,0.8602
uncorr_bkguncrt173b1f[26],0.2053,0.9260
uncorr_bkguncrt173b1f[27],0.0509,0.9000
uncorr_bkguncrt183b1f[00],-0.0432,0.8842
uncorr_bkguncrt183b1f[01],-0.0240,0.8940
uncorr_bkguncrt183b1f[02],-0.0986,0.8860
uncorr_bkguncrt183b1f[03],0.0142,0.8999
uncorr_bkguncrt183b1f[04],-0.0282,0.9090
uncorr_bkguncrt183b1f[05],0.3093,0.9173
uncorr_bkguncrt183b1f[06],0.4322,0.9156
uncorr_bkguncrt183b1f[07],0.1043,0.9125
uncorr_bkguncrt183b1f[08],0.3537,0.9144
uncorr_bkguncrt183b1f[09],0.3646,0.9124
uncorr_bkguncrt183b1f[10],0.3223,0.9110
uncorr_bkguncrt183b1f[11],0.2599,0.8910
uncorr_bkguncrt183b1f[12],0.4193,0.8758
uncorr_bkguncrt183b1f[13],0.2374,0.8353
uncorr_bkguncrt183b1f[14],0.1172,0.8557
uncorr_bkguncrt183b1f[15],0.3022,0.8609
uncorr_bkguncrt183b1f[16],0.2200,0.8760
uncorr_bkguncrt183b1f[17],0.1153,0.8614
uncorr_bkguncrt183b1f[18],-0.1166,0.8649
uncorr_bkguncrt183b1f[19],-0.0150,0.8740
uncorr_bkguncrt183b1f[20],-0.1663,0.8695
uncorr_bkguncrt183b1f[21],0.1276,0.8751
uncorr_bkguncrt183b1f[22],-0.0344,0.8805
uncorr_bkguncrt183b1f[23],0.1432,0.8931
uncorr_bkguncrt183b1f[24],0.1565,0.9063
uncorr_bkguncrt183b1f[25],-0.0108,0.8945
uncorr_bkguncrt183b1f[26],0.2067,0.9335
uncorr_bkguncrt183b1f[27],0.0666,0.8410
