label,pull,err
high_HT16_4b,-0.0018,0.7266
high_HT17_4b,-0.0005,0.4802
high_HT18_4b,0.0027,0.6805
low_HT16_4b,0.0010,0.4499
low_HT17_4b,0.0005,0.7603
low_HT18_4b,-0.0007,0.8779
uncorr_bkguncrt164b[00],-0.0006,0.8864
uncorr_bkguncrt164b[01],-0.0003,0.8898
uncorr_bkguncrt164b[02],-0.0005,0.9065
uncorr_bkguncrt164b[03],-0.0001,0.9008
uncorr_bkguncrt164b[04],-0.0000,0.8647
uncorr_bkguncrt164b[05],0.0000,0.8833
uncorr_bkguncrt164b[06],0.0003,0.8832
uncorr_bkguncrt164b[07],0.0002,0.8777
uncorr_bkguncrt164b[08],0.0005,0.8818
uncorr_bkguncrt164b[09],0.0005,0.8787
uncorr_bkguncrt164b[10],0.0005,0.8820
uncorr_bkguncrt164b[11],0.0007,0.8705
uncorr_bkguncrt164b[12],0.0010,0.8488
uncorr_bkguncrt164b[13],0.0006,0.8806
uncorr_bkguncrt164b[14],0.0006,0.8732
uncorr_bkguncrt164b[15],0.0004,0.8939
uncorr_bkguncrt164b[16],0.0002,0.8935
uncorr_bkguncrt164b[17],-0.0000,0.8945
uncorr_bkguncrt164b[18],0.0001,0.9158
uncorr_bkguncrt164b[19],0.0001,0.9090
uncorr_bkguncrt164b[20],0.0001,0.9222
uncorr_bkguncrt164b[21],-0.0001,0.9371
uncorr_bkguncrt164b[22],-0.0000,0.9463
uncorr_bkguncrt164b[23],-0.0001,0.9531
uncorr_bkguncrt164b[24],-0.0000,0.9345
uncorr_bkguncrt164b[25],0.0001,0.9225
uncorr_bkguncrt164b[26],-0.0000,0.9647
uncorr_bkguncrt164b[27],0.0000,0.9488
uncorr_bkguncrt174b[00],0.0002,0.5568
uncorr_bkguncrt174b[01],-0.0001,0.8434
uncorr_bkguncrt174b[02],0.0002,0.8867
uncorr_bkguncrt174b[03],0.0003,0.7910
uncorr_bkguncrt174b[04],0.0006,0.8582
uncorr_bkguncrt174b[05],0.0005,0.9163
uncorr_bkguncrt174b[06],0.0006,0.8939
uncorr_bkguncrt174b[07],0.0005,0.9189
uncorr_bkguncrt174b[08],0.0005,0.8918
uncorr_bkguncrt174b[09],0.0003,0.8989
uncorr_bkguncrt174b[10],0.0004,0.8381
uncorr_bkguncrt174b[11],0.0002,0.8947
uncorr_bkguncrt174b[12],0.0002,0.8455
uncorr_bkguncrt174b[13],-0.0001,0.8446
uncorr_bkguncrt174b[14],0.0001,0.8073
uncorr_bkguncrt174b[15],-0.0002,0.9081
uncorr_bkguncrt174b[16],-0.0002,0.8931
uncorr_bkguncrt174b[17],-0.0001,0.9069
uncorr_bkguncrt174b[18],-0.0000,0.9127
uncorr_bkguncrt174b[19],-0.0000,0.9056
uncorr_bkguncrt174b[20],0.0000,0.9350
uncorr_bkguncrt174b[21],0.0001,0.9342
uncorr_bkguncrt174b[22],0.0001,0.9528
uncorr_bkguncrt174b[23],0.0001,0.9506
uncorr_bkguncrt174b[24],0.0001,0.9563
uncorr_bkguncrt174b[25],0.0002,0.9281
uncorr_bkguncrt174b[26],0.0001,0.9686
uncorr_bkguncrt174b[27],0.0002,0.9435
uncorr_bkguncrt184b[00],0.0003,0.6424
uncorr_bkguncrt184b[01],-0.0000,0.7743
uncorr_bkguncrt184b[02],0.0002,0.6854
uncorr_bkguncrt184b[03],-0.0001,0.7816
uncorr_bkguncrt184b[04],-0.0005,0.8180
uncorr_bkguncrt184b[05],-0.0004,0.6878
uncorr_bkguncrt184b[06],-0.0004,0.7661
uncorr_bkguncrt184b[07],-0.0005,0.7900
uncorr_bkguncrt184b[08],-0.0005,0.8088
uncorr_bkguncrt184b[09],-0.0003,0.7980
uncorr_bkguncrt184b[10],0.0001,0.8191
uncorr_bkguncrt184b[11],0.0002,0.7626
uncorr_bkguncrt184b[12],0.0007,0.7879
uncorr_bkguncrt184b[13],0.0006,0.7645
uncorr_bkguncrt184b[14],0.0006,0.8067
uncorr_bkguncrt184b[15],0.0008,0.8116
uncorr_bkguncrt184b[16],0.0006,0.8407
uncorr_bkguncrt184b[17],0.0006,0.8578
uncorr_bkguncrt184b[18],0.0004,0.8488
uncorr_bkguncrt184b[19],0.0003,0.8707
uncorr_bkguncrt184b[20],0.0003,0.8915
uncorr_bkguncrt184b[21],0.0004,0.8575
uncorr_bkguncrt184b[22],0.0001,0.9015
uncorr_bkguncrt184b[23],0.0001,0.9319
uncorr_bkguncrt184b[24],0.0001,0.9378
uncorr_bkguncrt184b[25],0.0001,0.9515
uncorr_bkguncrt184b[26],0.0000,0.9570
uncorr_bkguncrt184b[27],0.0002,0.9197
