label,pull,err
high_HT16_4b,-0.0001,0.3242
high_HT17_4b,0.0003,0.2579
high_HT18_4b,0.0014,0.4952
low_HT16_4b,-0.0010,0.4033
low_HT17_4b,0.0001,0.3263
low_HT18_4b,-0.0013,0.4004
uncorr_bkguncrt164b[00],0.0002,0.8620
uncorr_bkguncrt164b[01],0.0003,0.9124
uncorr_bkguncrt164b[02],0.0003,0.9189
uncorr_bkguncrt164b[03],0.0002,0.9176
uncorr_bkguncrt164b[04],-0.0000,0.8972
uncorr_bkguncrt164b[05],-0.0002,0.9258
uncorr_bkguncrt164b[06],-0.0002,0.9173
uncorr_bkguncrt164b[07],-0.0001,0.9226
uncorr_bkguncrt164b[08],-0.0002,0.9259
uncorr_bkguncrt164b[09],-0.0002,0.9178
uncorr_bkguncrt164b[10],-0.0002,0.9264
uncorr_bkguncrt164b[11],-0.0003,0.9051
uncorr_bkguncrt164b[12],-0.0005,0.8724
uncorr_bkguncrt164b[13],-0.0004,0.9144
uncorr_bkguncrt164b[14],-0.0004,0.9023
uncorr_bkguncrt164b[15],-0.0004,0.9159
uncorr_bkguncrt164b[16],-0.0004,0.9237
uncorr_bkguncrt164b[17],-0.0003,0.9210
uncorr_bkguncrt164b[18],-0.0003,0.9334
uncorr_bkguncrt164b[19],-0.0003,0.9199
uncorr_bkguncrt164b[20],-0.0002,0.9321
uncorr_bkguncrt164b[21],-0.0002,0.9386
uncorr_bkguncrt164b[22],-0.0002,0.9452
uncorr_bkguncrt164b[23],-0.0001,0.9472
uncorr_bkguncrt164b[24],-0.0002,0.9164
uncorr_bkguncrt164b[25],-0.0003,0.9011
uncorr_bkguncrt164b[26],-0.0001,0.9578
uncorr_bkguncrt164b[27],-0.0002,0.9277
uncorr_bkguncrt174b[00],-0.0004,0.5876
uncorr_bkguncrt174b[01],-0.0006,0.8566
uncorr_bkguncrt174b[02],-0.0006,0.9081
uncorr_bkguncrt174b[03],-0.0005,0.8090
uncorr_bkguncrt174b[04],-0.0002,0.8282
uncorr_bkguncrt174b[05],0.0000,0.9073
uncorr_bkguncrt174b[06],0.0001,0.8855
uncorr_bkguncrt174b[07],0.0002,0.9078
uncorr_bkguncrt174b[08],0.0002,0.8864
uncorr_bkguncrt174b[09],0.0001,0.8980
uncorr_bkguncrt174b[10],0.0002,0.8124
uncorr_bkguncrt174b[11],0.0001,0.8789
uncorr_bkguncrt174b[12],0.0001,0.8355
uncorr_bkguncrt174b[13],0.0001,0.8485
uncorr_bkguncrt174b[14],0.0001,0.8270
uncorr_bkguncrt174b[15],0.0001,0.8949
uncorr_bkguncrt174b[16],0.0001,0.8842
uncorr_bkguncrt174b[17],0.0001,0.8900
uncorr_bkguncrt174b[18],0.0001,0.8954
uncorr_bkguncrt174b[19],0.0001,0.8861
uncorr_bkguncrt174b[20],0.0001,0.9154
uncorr_bkguncrt174b[21],0.0001,0.9113
uncorr_bkguncrt174b[22],0.0001,0.9335
uncorr_bkguncrt174b[23],0.0001,0.9325
uncorr_bkguncrt174b[24],0.0001,0.9376
uncorr_bkguncrt174b[25],0.0001,0.9153
uncorr_bkguncrt174b[26],0.0001,0.9601
uncorr_bkguncrt174b[27],0.0002,0.9231
uncorr_bkguncrt184b[00],-0.0006,0.6530
uncorr_bkguncrt184b[01],-0.0010,0.8427
uncorr_bkguncrt184b[02],-0.0012,0.7840
uncorr_bkguncrt184b[03],-0.0009,0.8555
uncorr_bkguncrt184b[04],-0.0003,0.8782
uncorr_bkguncrt184b[05],0.0002,0.7421
uncorr_bkguncrt184b[06],0.0004,0.8085
uncorr_bkguncrt184b[07],0.0004,0.8349
uncorr_bkguncrt184b[08],0.0003,0.8372
uncorr_bkguncrt184b[09],0.0004,0.8171
uncorr_bkguncrt184b[10],0.0004,0.8437
uncorr_bkguncrt184b[11],0.0003,0.8029
uncorr_bkguncrt184b[12],0.0004,0.8076
uncorr_bkguncrt184b[13],0.0003,0.7920
uncorr_bkguncrt184b[14],0.0003,0.8304
uncorr_bkguncrt184b[15],0.0002,0.8378
uncorr_bkguncrt184b[16],0.0003,0.8560
uncorr_bkguncrt184b[17],0.0003,0.8805
uncorr_bkguncrt184b[18],0.0003,0.8723
uncorr_bkguncrt184b[19],0.0003,0.8908
uncorr_bkguncrt184b[20],0.0003,0.9095
uncorr_bkguncrt184b[21],0.0003,0.8777
uncorr_bkguncrt184b[22],0.0002,0.9157
uncorr_bkguncrt184b[23],0.0002,0.9363
uncorr_bkguncrt184b[24],0.0002,0.9412
uncorr_bkguncrt184b[25],0.0002,0.9520
uncorr_bkguncrt184b[26],0.0002,0.9560
uncorr_bkguncrt184b[27],0.0003,0.9254
