label,pull,err
Q116_4b,0.0013,0.9331
Q117_4b,-0.0040,0.8363
Q118_4b,-0.0003,0.9114
Q216_4b,0.0001,0.8603
Q217_4b,0.0001,0.8108
Q218_4b,-0.0024,0.8083
Q316_4b,-0.0000,0.6863
Q317_4b,0.0028,0.7835
Q318_4b,0.0023,0.6922
Q416_4b,0.0015,0.9087
Q417_4b,-0.0007,0.8814
Q418_4b,-0.0009,0.9010
uncorr_bkguncrt164b[00],0.0001,0.8183
uncorr_bkguncrt164b[01],0.0003,0.8778
uncorr_bkguncrt164b[02],0.0001,0.8931
uncorr_bkguncrt164b[03],0.0004,0.8663
uncorr_bkguncrt164b[04],0.0004,0.8465
uncorr_bkguncrt164b[05],0.0002,0.8436
uncorr_bkguncrt164b[06],0.0002,0.8871
uncorr_bkguncrt164b[07],0.0002,0.8805
uncorr_bkguncrt164b[08],-0.0004,0.8547
uncorr_bkguncrt164b[09],-0.0006,0.8634
uncorr_bkguncrt164b[10],-0.0000,0.8886
uncorr_bkguncrt164b[11],-0.0000,0.8765
uncorr_bkguncrt164b[12],-0.0005,0.7998
uncorr_bkguncrt164b[13],-0.0003,0.9114
uncorr_bkguncrt164b[14],-0.0002,0.9051
uncorr_bkguncrt164b[15],0.0000,0.9286
uncorr_bkguncrt164b[16],0.0000,0.9258
uncorr_bkguncrt164b[17],0.0001,0.9155
uncorr_bkguncrt164b[18],-0.0001,0.9275
uncorr_bkguncrt164b[19],0.0000,0.9470
uncorr_bkguncrt164b[20],0.0001,0.9034
uncorr_bkguncrt164b[21],0.0001,0.9543
uncorr_bkguncrt164b[22],0.0000,0.9642
uncorr_bkguncrt164b[23],0.0000,0.9678
uncorr_bkguncrt164b[24],-0.0002,0.8984
uncorr_bkguncrt164b[25],-0.0000,0.9375
uncorr_bkguncrt164b[26],0.0000,0.9662
uncorr_bkguncrt164b[27],0.0001,0.9604
uncorr_bkguncrt174b[00],-0.0004,0.4654
uncorr_bkguncrt174b[01],0.0000,0.7287
uncorr_bkguncrt174b[02],-0.0007,0.8595
uncorr_bkguncrt174b[03],-0.0004,0.7049
uncorr_bkguncrt174b[04],-0.0001,0.8105
uncorr_bkguncrt174b[05],0.0000,0.8954
uncorr_bkguncrt174b[06],0.0004,0.8654
uncorr_bkguncrt174b[07],0.0004,0.8664
uncorr_bkguncrt174b[08],0.0004,0.8389
uncorr_bkguncrt174b[09],0.0004,0.8552
uncorr_bkguncrt174b[10],0.0004,0.7236
uncorr_bkguncrt174b[11],0.0005,0.8784
uncorr_bkguncrt174b[12],0.0003,0.7496
uncorr_bkguncrt174b[13],0.0006,0.7754
uncorr_bkguncrt174b[14],0.0009,0.8222
uncorr_bkguncrt174b[15],0.0004,0.8972
uncorr_bkguncrt174b[16],0.0004,0.8335
uncorr_bkguncrt174b[17],0.0003,0.9008
uncorr_bkguncrt174b[18],0.0003,0.9043
uncorr_bkguncrt174b[19],0.0005,0.8566
uncorr_bkguncrt174b[20],0.0002,0.9292
uncorr_bkguncrt174b[21],0.0003,0.8877
uncorr_bkguncrt174b[22],0.0001,0.9506
uncorr_bkguncrt174b[23],0.0001,0.9424
uncorr_bkguncrt174b[24],0.0001,0.9382
uncorr_bkguncrt174b[25],0.0002,0.8398
uncorr_bkguncrt174b[26],0.0001,0.9657
uncorr_bkguncrt174b[27],0.0002,0.9335
uncorr_bkguncrt184b[00],0.0004,0.5762
uncorr_bkguncrt184b[01],-0.0000,0.8205
uncorr_bkguncrt184b[02],0.0005,0.6989
uncorr_bkguncrt184b[03],0.0003,0.7836
uncorr_bkguncrt184b[04],0.0007,0.8230
uncorr_bkguncrt184b[05],0.0005,0.6697
uncorr_bkguncrt184b[06],0.0003,0.7344
uncorr_bkguncrt184b[07],0.0003,0.8069
uncorr_bkguncrt184b[08],0.0005,0.8338
uncorr_bkguncrt184b[09],0.0006,0.7782
uncorr_bkguncrt184b[10],0.0005,0.8483
uncorr_bkguncrt184b[11],0.0003,0.7847
uncorr_bkguncrt184b[12],0.0002,0.8041
uncorr_bkguncrt184b[13],0.0004,0.7897
uncorr_bkguncrt184b[14],0.0002,0.8264
uncorr_bkguncrt184b[15],0.0002,0.8273
uncorr_bkguncrt184b[16],0.0003,0.8544
uncorr_bkguncrt184b[17],0.0003,0.8813
uncorr_bkguncrt184b[18],0.0002,0.8692
uncorr_bkguncrt184b[19],0.0002,0.8917
uncorr_bkguncrt184b[20],0.0002,0.8990
uncorr_bkguncrt184b[21],0.0004,0.8301
uncorr_bkguncrt184b[22],0.0001,0.9119
uncorr_bkguncrt184b[23],0.0001,0.9347
uncorr_bkguncrt184b[24],0.0001,0.9399
uncorr_bkguncrt184b[25],0.0001,0.9488
uncorr_bkguncrt184b[26],0.0001,0.9542
uncorr_bkguncrt184b[27],0.0001,0.9059
