label,pull,err
Q116_4b,0.0027,0.7269
Q117_4b,0.0009,0.6156
Q118_4b,0.0050,0.7865
Q216_4b,-0.0028,0.7209
Q217_4b,0.0030,0.6816
Q218_4b,-0.0014,0.6807
Q316_4b,0.0007,0.7815
Q317_4b,-0.0024,0.7178
Q318_4b,0.0001,0.8410
Q416_4b,-0.0003,0.8318
Q417_4b,-0.0018,0.8458
Q418_4b,0.0001,0.8975
uncorr_bkguncrt164b[00],-0.0004,0.8732
uncorr_bkguncrt164b[01],-0.0002,0.9047
uncorr_bkguncrt164b[02],-0.0002,0.9056
uncorr_bkguncrt164b[03],-0.0001,0.9102
uncorr_bkguncrt164b[04],0.0005,0.9081
uncorr_bkguncrt164b[05],0.0003,0.9348
uncorr_bkguncrt164b[06],0.0003,0.9243
uncorr_bkguncrt164b[07],0.0001,0.9265
uncorr_bkguncrt164b[08],0.0002,0.9277
uncorr_bkguncrt164b[09],0.0001,0.9184
uncorr_bkguncrt164b[10],0.0002,0.9261
uncorr_bkguncrt164b[11],0.0004,0.9037
uncorr_bkguncrt164b[12],0.0005,0.8698
uncorr_bkguncrt164b[13],0.0004,0.9126
uncorr_bkguncrt164b[14],0.0005,0.8997
uncorr_bkguncrt164b[15],0.0005,0.9141
uncorr_bkguncrt164b[16],0.0004,0.9221
uncorr_bkguncrt164b[17],0.0003,0.9202
uncorr_bkguncrt164b[18],0.0003,0.9319
uncorr_bkguncrt164b[19],0.0003,0.9192
uncorr_bkguncrt164b[20],0.0002,0.9318
uncorr_bkguncrt164b[21],0.0003,0.9388
uncorr_bkguncrt164b[22],0.0003,0.9452
uncorr_bkguncrt164b[23],0.0002,0.9473
uncorr_bkguncrt164b[24],0.0002,0.9165
uncorr_bkguncrt164b[25],0.0003,0.9000
uncorr_bkguncrt164b[26],0.0001,0.9577
uncorr_bkguncrt164b[27],0.0001,0.9271
uncorr_bkguncrt174b[00],-0.0008,0.6238
uncorr_bkguncrt174b[01],-0.0009,0.8476
uncorr_bkguncrt174b[02],0.0003,0.8989
uncorr_bkguncrt174b[03],0.0009,0.7997
uncorr_bkguncrt174b[04],0.0013,0.8374
uncorr_bkguncrt174b[05],0.0013,0.9099
uncorr_bkguncrt174b[06],0.0015,0.8882
uncorr_bkguncrt174b[07],0.0015,0.9122
uncorr_bkguncrt174b[08],0.0016,0.8943
uncorr_bkguncrt174b[09],0.0011,0.9009
uncorr_bkguncrt174b[10],0.0011,0.8180
uncorr_bkguncrt174b[11],0.0010,0.8789
uncorr_bkguncrt174b[12],0.0009,0.8324
uncorr_bkguncrt174b[13],0.0007,0.8442
uncorr_bkguncrt174b[14],0.0001,0.8204
uncorr_bkguncrt174b[15],0.0004,0.8907
uncorr_bkguncrt174b[16],0.0002,0.8809
uncorr_bkguncrt174b[17],0.0001,0.8893
uncorr_bkguncrt174b[18],0.0000,0.8949
uncorr_bkguncrt174b[19],-0.0000,0.8857
uncorr_bkguncrt174b[20],-0.0000,0.9145
uncorr_bkguncrt174b[21],-0.0002,0.9104
uncorr_bkguncrt174b[22],-0.0001,0.9323
uncorr_bkguncrt174b[23],-0.0003,0.9315
uncorr_bkguncrt174b[24],-0.0002,0.9366
uncorr_bkguncrt174b[25],-0.0001,0.9148
uncorr_bkguncrt174b[26],-0.0002,0.9600
uncorr_bkguncrt174b[27],-0.0002,0.9214
uncorr_bkguncrt184b[00],0.0001,0.6401
uncorr_bkguncrt184b[01],0.0003,0.8276
uncorr_bkguncrt184b[02],0.0000,0.7527
uncorr_bkguncrt184b[03],0.0004,0.8443
uncorr_bkguncrt184b[04],0.0011,0.8790
uncorr_bkguncrt184b[05],0.0011,0.7450
uncorr_bkguncrt184b[06],0.0006,0.8244
uncorr_bkguncrt184b[07],0.0007,0.8431
uncorr_bkguncrt184b[08],0.0002,0.8436
uncorr_bkguncrt184b[09],0.0004,0.8223
uncorr_bkguncrt184b[10],0.0002,0.8444
uncorr_bkguncrt184b[11],0.0004,0.8041
uncorr_bkguncrt184b[12],0.0004,0.8077
uncorr_bkguncrt184b[13],0.0002,0.7918
uncorr_bkguncrt184b[14],0.0006,0.8309
uncorr_bkguncrt184b[15],0.0001,0.8376
uncorr_bkguncrt184b[16],0.0005,0.8563
uncorr_bkguncrt184b[17],0.0005,0.8806
uncorr_bkguncrt184b[18],0.0004,0.8727
uncorr_bkguncrt184b[19],0.0005,0.8910
uncorr_bkguncrt184b[20],0.0006,0.9093
uncorr_bkguncrt184b[21],0.0005,0.8764
uncorr_bkguncrt184b[22],0.0003,0.9156
uncorr_bkguncrt184b[23],0.0004,0.9353
uncorr_bkguncrt184b[24],0.0003,0.9400
uncorr_bkguncrt184b[25],0.0003,0.9514
uncorr_bkguncrt184b[26],0.0003,0.9551
uncorr_bkguncrt184b[27],0.0006,0.9224
