label,pull,err
high_HT16_4b,-0.0000,0.5454
high_HT17_4b,0.0000,0.3404
high_HT18_4b,0.0000,0.4794
low_HT16_4b,0.0000,0.4012
low_HT17_4b,0.0000,0.3390
low_HT18_4b,0.0000,0.2595
uncorr_bkguncrt164b[00],0.0000,0.8700
uncorr_bkguncrt164b[01],0.0000,0.8787
uncorr_bkguncrt164b[02],0.0000,0.8911
uncorr_bkguncrt164b[03],0.0000,0.8908
uncorr_bkguncrt164b[04],0.0000,0.8488
uncorr_bkguncrt164b[05],0.0000,0.8827
uncorr_bkguncrt164b[06],0.0000,0.8826
uncorr_bkguncrt164b[07],0.0000,0.8876
uncorr_bkguncrt164b[08],0.0000,0.8867
uncorr_bkguncrt164b[09],0.0000,0.8759
uncorr_bkguncrt164b[10],0.0000,0.8851
uncorr_bkguncrt164b[11],0.0000,0.8739
uncorr_bkguncrt164b[12],0.0000,0.8484
uncorr_bkguncrt164b[13],0.0000,0.8891
uncorr_bkguncrt164b[14],0.0000,0.8658
uncorr_bkguncrt164b[15],0.0000,0.9014
uncorr_bkguncrt164b[16],0.0000,0.9073
uncorr_bkguncrt164b[17],0.0000,0.9037
uncorr_bkguncrt164b[18],0.0000,0.9276
uncorr_bkguncrt164b[19],0.0000,0.9194
uncorr_bkguncrt164b[20],0.0000,0.9287
uncorr_bkguncrt164b[21],0.0000,0.9420
uncorr_bkguncrt164b[22],0.0000,0.9526
uncorr_bkguncrt164b[23],0.0000,0.9588
uncorr_bkguncrt164b[24],0.0000,0.9188
uncorr_bkguncrt164b[25],0.0000,0.9118
uncorr_bkguncrt164b[26],0.0000,0.9679
uncorr_bkguncrt164b[27],0.0000,0.9497
uncorr_bkguncrt174b[00],0.0000,0.4984
uncorr_bkguncrt174b[01],0.0000,0.8321
uncorr_bkguncrt174b[02],0.0000,0.8913
uncorr_bkguncrt174b[03],0.0000,0.8027
uncorr_bkguncrt174b[04],0.0000,0.8389
uncorr_bkguncrt174b[05],0.0000,0.9208
uncorr_bkguncrt174b[06],0.0000,0.8975
uncorr_bkguncrt174b[07],0.0000,0.9218
uncorr_bkguncrt174b[08],0.0000,0.8985
uncorr_bkguncrt174b[09],0.0000,0.9079
uncorr_bkguncrt174b[10],0.0000,0.8243
uncorr_bkguncrt174b[11],0.0000,0.8960
uncorr_bkguncrt174b[12],0.0000,0.8403
uncorr_bkguncrt174b[13],0.0000,0.8480
uncorr_bkguncrt174b[14],0.0000,0.7932
uncorr_bkguncrt174b[15],0.0000,0.8973
uncorr_bkguncrt174b[16],0.0000,0.8743
uncorr_bkguncrt174b[17],0.0000,0.8943
uncorr_bkguncrt174b[18],0.0000,0.8920
uncorr_bkguncrt174b[19],0.0000,0.8895
uncorr_bkguncrt174b[20],0.0000,0.9219
uncorr_bkguncrt174b[21],0.0000,0.9164
uncorr_bkguncrt174b[22],0.0000,0.9456
uncorr_bkguncrt174b[23],0.0000,0.9423
uncorr_bkguncrt174b[24],0.0000,0.9467
uncorr_bkguncrt174b[25],0.0000,0.8985
uncorr_bkguncrt174b[26],0.0000,0.9664
uncorr_bkguncrt174b[27],0.0000,0.9374
uncorr_bkguncrt184b[00],0.0000,0.6368
uncorr_bkguncrt184b[01],0.0000,0.7778
uncorr_bkguncrt184b[02],0.0000,0.7185
uncorr_bkguncrt184b[03],0.0000,0.7933
uncorr_bkguncrt184b[04],0.0000,0.7975
uncorr_bkguncrt184b[05],0.0000,0.6731
uncorr_bkguncrt184b[06],0.0000,0.7194
uncorr_bkguncrt184b[07],0.0000,0.7670
uncorr_bkguncrt184b[08],0.0000,0.7647
uncorr_bkguncrt184b[09],0.0000,0.7419
uncorr_bkguncrt184b[10],0.0000,0.7937
uncorr_bkguncrt184b[11],0.0000,0.7369
uncorr_bkguncrt184b[12],0.0000,0.7668
uncorr_bkguncrt184b[13],0.0000,0.7515
uncorr_bkguncrt184b[14],0.0000,0.7992
uncorr_bkguncrt184b[15],0.0000,0.8090
uncorr_bkguncrt184b[16],0.0000,0.8431
uncorr_bkguncrt184b[17],0.0000,0.8679
uncorr_bkguncrt184b[18],0.0000,0.8578
uncorr_bkguncrt184b[19],0.0000,0.8759
uncorr_bkguncrt184b[20],0.0000,0.8883
uncorr_bkguncrt184b[21],0.0000,0.8474
uncorr_bkguncrt184b[22],0.0000,0.9040
uncorr_bkguncrt184b[23],0.0000,0.9253
uncorr_bkguncrt184b[24],0.0000,0.9332
uncorr_bkguncrt184b[25],0.0000,0.9420
uncorr_bkguncrt184b[26],0.0000,0.9481
uncorr_bkguncrt184b[27],0.0000,0.9009
