label,pull,err
all_VRyr_cat_4b_0,1.2263,0.6194
bkg_normyr_cat_4b_0,0.0326,0.9924
uncorr_bkguncrt16cat_4b_0_Xhh-0.0-0.95[00],0.2342,0.9075
uncorr_bkguncrt16cat_4b_0_Xhh-0.0-0.95[01],0.3276,0.9324
uncorr_bkguncrt16cat_4b_0_Xhh-0.0-0.95[02],-0.3519,0.9128
uncorr_bkguncrt16cat_4b_0_Xhh-0.0-0.95[03],0.1058,0.9139
uncorr_bkguncrt16cat_4b_0_Xhh-0.0-0.95[04],0.4390,0.9328
uncorr_bkguncrt16cat_4b_0_Xhh-0.0-0.95[05],0.1965,0.9290
uncorr_bkguncrt16cat_4b_0_Xhh-0.0-0.95[06],-0.0037,0.9121
uncorr_bkguncrt16cat_4b_0_Xhh-0.0-0.95[07],-0.4619,0.9215
uncorr_bkguncrt16cat_4b_0_Xhh-0.0-0.95[08],0.2186,0.9408
uncorr_bkguncrt16cat_4b_0_Xhh-0.0-0.95[09],-0.4859,0.9085
uncorr_bkguncrt16cat_4b_0_Xhh-0.0-0.95[10],0.0973,0.9383
uncorr_bkguncrt16cat_4b_0_Xhh-0.0-0.95[11],-0.0931,0.9300
uncorr_bkguncrt16cat_4b_0_Xhh-0.0-0.95[12],0.1664,0.9396
uncorr_bkguncrt16cat_4b_0_Xhh-0.0-0.95[13],0.1964,0.9465
uncorr_bkguncrt16cat_4b_0_Xhh-0.0-0.95[14],0.3656,0.9595
uncorr_bkguncrt16cat_4b_0_Xhh-0.0-0.95[15],-0.1034,0.9474
uncorr_bkguncrt16cat_4b_0_Xhh-0.0-0.95[16],-0.3641,0.9333
uncorr_bkguncrt16cat_4b_0_Xhh-0.0-0.95[17],-0.3274,0.9367
uncorr_bkguncrt16cat_4b_0_Xhh-0.0-0.95[18],0.3848,0.9654
uncorr_bkguncrt16cat_4b_0_Xhh-0.0-0.95[19],-0.0049,0.9557
uncorr_bkguncrt16cat_4b_0_Xhh-0.0-0.95[20],0.1885,0.9689
uncorr_bkguncrt16cat_4b_0_Xhh-0.0-0.95[21],-0.2299,0.9529
uncorr_bkguncrt16cat_4b_0_Xhh-0.0-0.95[22],0.2443,0.9677
uncorr_bkguncrt16cat_4b_0_Xhh-0.0-0.95[23],-0.0021,0.9643
uncorr_bkguncrt16cat_4b_0_Xhh-0.0-0.95[24],0.2618,0.9756
uncorr_bkguncrt16cat_4b_0_Xhh-0.0-0.95[25],0.0739,0.9685
uncorr_bkguncrt16cat_4b_0_Xhh-0.0-0.95[26],0.0473,0.9707
uncorr_bkguncrt16cat_4b_0_Xhh-0.0-0.95[27],-0.1690,0.9642
uncorr_bkguncrt16cat_4b_0_Xhh-0.0-0.95[28],0.3273,0.9897
uncorr_bkguncrt16cat_4b_0_Xhh-0.0-0.95[29],0.1201,0.9802
uncorr_bkguncrt16cat_4b_0_Xhh-0.0-0.95[30],-0.1374,0.9686
uncorr_bkguncrt16cat_4b_0_Xhh-0.0-0.95[31],-0.3634,0.9551
uncorr_bkguncrt16cat_4b_0_Xhh-0.0-0.95[32],-0.3495,0.9466
uncorr_bkguncrt16cat_4b_0_Xhh-0.0-0.95[33],0.0096,0.9847
uncorr_bkguncrt16cat_4b_0_Xhh-0.95-1.6[00],-0.0025,0.8709
uncorr_bkguncrt16cat_4b_0_Xhh-0.95-1.6[01],-0.0519,0.8780
uncorr_bkguncrt16cat_4b_0_Xhh-0.95-1.6[02],0.6248,0.8809
uncorr_bkguncrt16cat_4b_0_Xhh-0.95-1.6[03],0.2233,0.8701
uncorr_bkguncrt16cat_4b_0_Xhh-0.95-1.6[04],-0.6971,0.8727
uncorr_bkguncrt16cat_4b_0_Xhh-0.95-1.6[05],0.0025,0.8939
uncorr_bkguncrt16cat_4b_0_Xhh-0.95-1.6[06],-0.5268,0.8734
uncorr_bkguncrt16cat_4b_0_Xhh-0.95-1.6[07],0.2747,0.8981
uncorr_bkguncrt16cat_4b_0_Xhh-0.95-1.6[08],-0.5507,0.8841
uncorr_bkguncrt16cat_4b_0_Xhh-0.95-1.6[09],-0.4641,0.8849
uncorr_bkguncrt16cat_4b_0_Xhh-0.95-1.6[10],0.6570,0.9126
uncorr_bkguncrt16cat_4b_0_Xhh-0.95-1.6[11],0.9136,0.9217
uncorr_bkguncrt16cat_4b_0_Xhh-0.95-1.6[12],0.4439,0.9130
uncorr_bkguncrt16cat_4b_0_Xhh-0.95-1.6[13],-0.3999,0.8974
uncorr_bkguncrt16cat_4b_0_Xhh-0.95-1.6[14],-0.3658,0.9129
uncorr_bkguncrt16cat_4b_0_Xhh-0.95-1.6[15],-0.2124,0.9140
uncorr_bkguncrt16cat_4b_0_Xhh-0.95-1.6[16],0.4227,0.9334
uncorr_bkguncrt16cat_4b_0_Xhh-0.95-1.6[17],0.4266,0.9423
uncorr_bkguncrt16cat_4b_0_Xhh-0.95-1.6[18],-0.4836,0.9236
uncorr_bkguncrt16cat_4b_0_Xhh-0.95-1.6[19],-0.0057,0.9321
uncorr_bkguncrt16cat_4b_0_Xhh-0.95-1.6[20],0.0542,0.9481
uncorr_bkguncrt16cat_4b_0_Xhh-0.95-1.6[21],0.1704,0.9338
uncorr_bkguncrt16cat_4b_0_Xhh-0.95-1.6[22],-0.4968,0.9178
uncorr_bkguncrt16cat_4b_0_Xhh-0.95-1.6[23],0.2944,0.9522
uncorr_bkguncrt16cat_4b_0_Xhh-0.95-1.6[24],-0.4154,0.9156
uncorr_bkguncrt16cat_4b_0_Xhh-0.95-1.6[25],-0.0433,0.9345
uncorr_bkguncrt16cat_4b_0_Xhh-0.95-1.6[26],-0.2885,0.9384
uncorr_bkguncrt16cat_4b_0_Xhh-0.95-1.6[27],-0.0507,0.9535
uncorr_bkguncrt16cat_4b_0_Xhh-0.95-1.6[28],0.1084,0.9653
uncorr_bkguncrt16cat_4b_0_Xhh-0.95-1.6[29],-0.0181,0.9650
uncorr_bkguncrt16cat_4b_0_Xhh-0.95-1.6[30],-0.1737,0.9046
uncorr_bkguncrt16cat_4b_0_Xhh-0.95-1.6[31],-0.1961,0.9350
uncorr_bkguncrt16cat_4b_0_Xhh-0.95-1.6[32],0.0900,0.9740
uncorr_bkguncrt16cat_4b_0_Xhh-0.95-1.6[33],-0.1285,0.9519
