label,pull,err
all_VRyr_cat_4b_0,0.4766,0.2355
all_VRyr_cat_4b_1,0.9342,0.3953
bkg_normyr_cat_4b_0,0.2620,0.9773
bkg_normyr_cat_4b_1,-0.2019,0.9652
uncorr_bkguncrt18cat_4b_0[00],0.4134,0.7630
uncorr_bkguncrt18cat_4b_0[01],0.5023,0.7922
uncorr_bkguncrt18cat_4b_0[02],-0.2826,0.7875
uncorr_bkguncrt18cat_4b_0[03],0.4862,0.8310
uncorr_bkguncrt18cat_4b_0[04],-0.3153,0.8111
uncorr_bkguncrt18cat_4b_0[05],-0.2199,0.8180
uncorr_bkguncrt18cat_4b_0[06],0.2305,0.8331
uncorr_bkguncrt18cat_4b_0[07],0.0244,0.8136
uncorr_bkguncrt18cat_4b_0[08],-0.5025,0.8224
uncorr_bkguncrt18cat_4b_0[09],-0.1050,0.8269
uncorr_bkguncrt18cat_4b_0[10],-0.4179,0.8323
uncorr_bkguncrt18cat_4b_0[11],0.7872,0.8550
uncorr_bkguncrt18cat_4b_0[12],0.6815,0.8757
uncorr_bkguncrt18cat_4b_0[13],-0.1755,0.8638
uncorr_bkguncrt18cat_4b_0[14],-0.1329,0.8724
uncorr_bkguncrt18cat_4b_0[15],-0.3548,0.8738
uncorr_bkguncrt18cat_4b_0[16],0.2222,0.8879
uncorr_bkguncrt18cat_4b_0[17],0.4995,0.9069
uncorr_bkguncrt18cat_4b_0[18],-0.4664,0.8911
uncorr_bkguncrt18cat_4b_0[19],0.4091,0.9030
uncorr_bkguncrt18cat_4b_0[20],0.0044,0.8719
uncorr_bkguncrt18cat_4b_0[21],-0.3657,0.8965
uncorr_bkguncrt18cat_4b_0[22],-0.4343,0.8837
uncorr_bkguncrt18cat_4b_0[23],-0.1742,0.9155
uncorr_bkguncrt18cat_4b_0[24],-0.2576,0.9008
uncorr_bkguncrt18cat_4b_0[25],0.4006,0.9485
uncorr_bkguncrt18cat_4b_0[26],0.3176,0.9476
uncorr_bkguncrt18cat_4b_0[27],-0.2313,0.9025
uncorr_bkguncrt18cat_4b_0[28],0.2314,0.9443
uncorr_bkguncrt18cat_4b_0[29],-0.0926,0.9451
uncorr_bkguncrt18cat_4b_0[30],0.2342,0.9590
uncorr_bkguncrt18cat_4b_0[31],0.0377,0.9303
uncorr_bkguncrt18cat_4b_0[32],0.1700,0.9667
uncorr_bkguncrt18cat_4b_0[33],0.1428,0.9629
uncorr_bkguncrt18cat_4b_1[00],-0.0069,0.9016
uncorr_bkguncrt18cat_4b_1[01],0.3333,0.9219
uncorr_bkguncrt18cat_4b_1[02],-0.4265,0.8954
uncorr_bkguncrt18cat_4b_1[03],0.6496,0.9171
uncorr_bkguncrt18cat_4b_1[04],-0.3386,0.8958
uncorr_bkguncrt18cat_4b_1[05],-0.7201,0.8966
uncorr_bkguncrt18cat_4b_1[06],-0.2649,0.9055
uncorr_bkguncrt18cat_4b_1[07],0.0615,0.8999
uncorr_bkguncrt18cat_4b_1[08],0.0626,0.9080
uncorr_bkguncrt18cat_4b_1[09],0.0086,0.9125
uncorr_bkguncrt18cat_4b_1[10],0.1963,0.9108
uncorr_bkguncrt18cat_4b_1[11],-0.5718,0.8859
uncorr_bkguncrt18cat_4b_1[12],-0.7636,0.8885
uncorr_bkguncrt18cat_4b_1[13],-0.0037,0.9013
uncorr_bkguncrt18cat_4b_1[14],-0.6400,0.8785
uncorr_bkguncrt18cat_4b_1[15],0.1773,0.9142
uncorr_bkguncrt18cat_4b_1[16],-0.0861,0.9026
uncorr_bkguncrt18cat_4b_1[17],-0.2369,0.9049
uncorr_bkguncrt18cat_4b_1[18],-0.5708,0.8689
uncorr_bkguncrt18cat_4b_1[19],0.1292,0.9153
uncorr_bkguncrt18cat_4b_1[20],0.4779,0.9185
uncorr_bkguncrt18cat_4b_1[21],-0.0566,0.9146
uncorr_bkguncrt18cat_4b_1[22],0.0153,0.9257
uncorr_bkguncrt18cat_4b_1[23],-0.0496,0.9318
uncorr_bkguncrt18cat_4b_1[24],0.2207,0.9459
uncorr_bkguncrt18cat_4b_1[25],-0.1355,0.9038
uncorr_bkguncrt18cat_4b_1[26],0.2533,0.9408
uncorr_bkguncrt18cat_4b_1[27],0.0754,0.9476
uncorr_bkguncrt18cat_4b_1[28],0.3905,0.9529
uncorr_bkguncrt18cat_4b_1[29],0.0439,0.9485
uncorr_bkguncrt18cat_4b_1[30],0.2533,0.9536
uncorr_bkguncrt18cat_4b_1[31],0.3023,0.9703
uncorr_bkguncrt18cat_4b_1[32],0.7418,0.9832
uncorr_bkguncrt18cat_4b_1[33],0.0511,0.9610
