label,pull,err
all_VRyr_cat_4b_0,-0.4329,0.5805
all_VRyr_cat_4b_1,0.6609,0.5899
all_VRyr_cat_4b_2,-0.0175,0.5980
bkg_normyr_cat_4b_0,-0.1463,0.9847
bkg_normyr_cat_4b_1,0.1797,0.9687
bkg_normyr_cat_4b_2,-0.5872,0.5571
uncorr_bkguncrt17cat_4b_0_Xhh-0.0-0.95[00],0.1173,0.9296
uncorr_bkguncrt17cat_4b_0_Xhh-0.0-0.95[01],-0.1059,0.9178
uncorr_bkguncrt17cat_4b_0_Xhh-0.0-0.95[02],0.1718,0.9470
uncorr_bkguncrt17cat_4b_0_Xhh-0.0-0.95[03],-0.2593,0.9575
uncorr_bkguncrt17cat_4b_0_Xhh-0.0-0.95[04],-0.1883,0.9336
uncorr_bkguncrt17cat_4b_0_Xhh-0.0-0.95[05],-0.0727,0.9471
uncorr_bkguncrt17cat_4b_0_Xhh-0.0-0.95[06],-0.0963,0.9427
uncorr_bkguncrt17cat_4b_0_Xhh-0.0-0.95[07],0.2970,0.9519
uncorr_bkguncrt17cat_4b_0_Xhh-0.0-0.95[08],-0.0396,0.9427
uncorr_bkguncrt17cat_4b_0_Xhh-0.0-0.95[09],-0.0638,0.9509
uncorr_bkguncrt17cat_4b_0_Xhh-0.0-0.95[10],0.0866,0.9668
uncorr_bkguncrt17cat_4b_0_Xhh-0.0-0.95[11],0.1029,0.9714
uncorr_bkguncrt17cat_4b_0_Xhh-0.0-0.95[12],-0.1151,0.9573
uncorr_bkguncrt17cat_4b_0_Xhh-0.0-0.95[13],0.5794,0.9635
uncorr_bkguncrt17cat_4b_0_Xhh-0.0-0.95[14],0.2285,0.9469
uncorr_bkguncrt17cat_4b_0_Xhh-0.0-0.95[15],-0.1636,0.9551
uncorr_bkguncrt17cat_4b_0_Xhh-0.0-0.95[16],0.1156,0.9749
uncorr_bkguncrt17cat_4b_0_Xhh-0.0-0.95[17],0.0302,0.9505
uncorr_bkguncrt17cat_4b_0_Xhh-0.0-0.95[18],-0.2274,0.9583
uncorr_bkguncrt17cat_4b_0_Xhh-0.0-0.95[19],0.1512,0.9479
uncorr_bkguncrt17cat_4b_0_Xhh-0.0-0.95[20],-0.1366,0.9768
uncorr_bkguncrt17cat_4b_0_Xhh-0.0-0.95[21],0.2816,0.9784
uncorr_bkguncrt17cat_4b_0_Xhh-0.0-0.95[22],0.3438,0.9797
uncorr_bkguncrt17cat_4b_0_Xhh-0.0-0.95[23],-0.2565,0.9661
uncorr_bkguncrt17cat_4b_0_Xhh-0.0-0.95[24],-0.1007,0.9733
uncorr_bkguncrt17cat_4b_0_Xhh-0.0-0.95[25],0.0341,0.9780
uncorr_bkguncrt17cat_4b_0_Xhh-0.0-0.95[26],-0.2237,0.9595
uncorr_bkguncrt17cat_4b_0_Xhh-0.0-0.95[27],0.0817,0.9767
uncorr_bkguncrt17cat_4b_0_Xhh-0.0-0.95[28],-0.1538,0.9562
uncorr_bkguncrt17cat_4b_0_Xhh-0.0-0.95[29],0.7832,1.0340
uncorr_bkguncrt17cat_4b_0_Xhh-0.0-0.95[30],-0.3855,0.8980
uncorr_bkguncrt17cat_4b_0_Xhh-0.0-0.95[31],0.0255,0.9877
uncorr_bkguncrt17cat_4b_0_Xhh-0.0-0.95[32],-0.2006,0.9639
uncorr_bkguncrt17cat_4b_0_Xhh-0.0-0.95[33],0.0246,0.9866
uncorr_bkguncrt17cat_4b_0_Xhh-0.95-1.6[00],0.3557,0.9135
uncorr_bkguncrt17cat_4b_0_Xhh-0.95-1.6[01],-0.2577,0.9036
uncorr_bkguncrt17cat_4b_0_Xhh-0.95-1.6[02],-0.6105,0.9117
uncorr_bkguncrt17cat_4b_0_Xhh-0.95-1.6[03],-0.5083,0.8744
uncorr_bkguncrt17cat_4b_0_Xhh-0.95-1.6[04],-0.2472,0.9318
uncorr_bkguncrt17cat_4b_0_Xhh-0.95-1.6[05],0.3434,0.9206
uncorr_bkguncrt17cat_4b_0_Xhh-0.95-1.6[06],0.5296,0.9478
uncorr_bkguncrt17cat_4b_0_Xhh-0.95-1.6[07],-0.3463,0.9229
uncorr_bkguncrt17cat_4b_0_Xhh-0.95-1.6[08],0.0492,0.9424
uncorr_bkguncrt17cat_4b_0_Xhh-0.95-1.6[09],-0.1721,0.9380
uncorr_bkguncrt17cat_4b_0_Xhh-0.95-1.6[10],-0.0597,0.9542
uncorr_bkguncrt17cat_4b_0_Xhh-0.95-1.6[11],-0.0249,0.9571
uncorr_bkguncrt17cat_4b_0_Xhh-0.95-1.6[12],-0.0616,0.9491
uncorr_bkguncrt17cat_4b_0_Xhh-0.95-1.6[13],0.0545,0.9598
uncorr_bkguncrt17cat_4b_0_Xhh-0.95-1.6[14],-0.4686,0.9370
uncorr_bkguncrt17cat_4b_0_Xhh-0.95-1.6[15],0.0152,0.9484
uncorr_bkguncrt17cat_4b_0_Xhh-0.95-1.6[16],-0.4069,0.9353
uncorr_bkguncrt17cat_4b_0_Xhh-0.95-1.6[17],-0.0698,0.9582
uncorr_bkguncrt17cat_4b_0_Xhh-0.95-1.6[18],-0.0687,0.9416
uncorr_bkguncrt17cat_4b_0_Xhh-0.95-1.6[19],0.2099,0.9722
uncorr_bkguncrt17cat_4b_0_Xhh-0.95-1.6[20],0.2691,0.9111
uncorr_bkguncrt17cat_4b_0_Xhh-0.95-1.6[21],-0.0121,0.9562
uncorr_bkguncrt17cat_4b_0_Xhh-0.95-1.6[22],0.2080,0.9740
uncorr_bkguncrt17cat_4b_0_Xhh-0.95-1.6[23],-0.4185,0.9400
uncorr_bkguncrt17cat_4b_0_Xhh-0.95-1.6[24],0.2251,0.9783
uncorr_bkguncrt17cat_4b_0_Xhh-0.95-1.6[25],0.1293,0.9774
uncorr_bkguncrt17cat_4b_0_Xhh-0.95-1.6[26],-0.0842,0.9740
uncorr_bkguncrt17cat_4b_0_Xhh-0.95-1.6[27],-0.1572,0.9698
uncorr_bkguncrt17cat_4b_0_Xhh-0.95-1.6[28],-0.0062,0.9768
uncorr_bkguncrt17cat_4b_0_Xhh-0.95-1.6[29],0.2010,0.9917
uncorr_bkguncrt17cat_4b_0_Xhh-0.95-1.6[30],-0.0529,0.9736
uncorr_bkguncrt17cat_4b_0_Xhh-0.95-1.6[31],-0.0235,0.9756
uncorr_bkguncrt17cat_4b_0_Xhh-0.95-1.6[32],0.2875,0.9879
uncorr_bkguncrt17cat_4b_0_Xhh-0.95-1.6[33],0.0709,0.9889
uncorr_bkguncrt17cat_4b_1_Xhh-0.0-0.95[00],-0.1380,0.9446
uncorr_bkguncrt17cat_4b_1_Xhh-0.0-0.95[01],-0.0257,0.9624
uncorr_bkguncrt17cat_4b_1_Xhh-0.0-0.95[02],-0.1371,0.9551
uncorr_bkguncrt17cat_4b_1_Xhh-0.0-0.95[03],0.1888,0.9627
uncorr_bkguncrt17cat_4b_1_Xhh-0.0-0.95[04],-0.1566,0.9576
uncorr_bkguncrt17cat_4b_1_Xhh-0.0-0.95[05],-0.2241,0.9476
uncorr_bkguncrt17cat_4b_1_Xhh-0.0-0.95[06],-0.0624,0.9331
uncorr_bkguncrt17cat_4b_1_Xhh-0.0-0.95[07],0.2419,0.9667
uncorr_bkguncrt17cat_4b_1_Xhh-0.0-0.95[08],0.4073,0.9691
uncorr_bkguncrt17cat_4b_1_Xhh-0.0-0.95[09],-0.2385,0.9442
uncorr_bkguncrt17cat_4b_1_Xhh-0.0-0.95[10],0.0323,0.9484
uncorr_bkguncrt17cat_4b_1_Xhh-0.0-0.95[11],0.3055,0.9689
uncorr_bkguncrt17cat_4b_1_Xhh-0.0-0.95[12],0.1861,0.9766
uncorr_bkguncrt17cat_4b_1_Xhh-0.0-0.95[13],-0.0468,0.9626
uncorr_bkguncrt17cat_4b_1_Xhh-0.0-0.95[14],-0.3603,0.9525
uncorr_bkguncrt17cat_4b_1_Xhh-0.0-0.95[15],0.2341,0.9704
uncorr_bkguncrt17cat_4b_1_Xhh-0.0-0.95[16],-0.0192,0.9583
uncorr_bkguncrt17cat_4b_1_Xhh-0.0-0.95[17],0.1604,0.9749
uncorr_bkguncrt17cat_4b_1_Xhh-0.0-0.95[18],0.4409,0.9884
uncorr_bkguncrt17cat_4b_1_Xhh-0.0-0.95[19],-0.1336,0.9608
uncorr_bkguncrt17cat_4b_1_Xhh-0.0-0.95[20],0.1105,0.9781
uncorr_bkguncrt17cat_4b_1_Xhh-0.0-0.95[21],0.3213,0.9700
uncorr_bkguncrt17cat_4b_1_Xhh-0.0-0.95[22],-0.0241,0.9697
uncorr_bkguncrt17cat_4b_1_Xhh-0.0-0.95[23],0.0500,0.9827
uncorr_bkguncrt17cat_4b_1_Xhh-0.0-0.95[24],0.4125,0.9922
uncorr_bkguncrt17cat_4b_1_Xhh-0.0-0.95[25],-0.0238,0.9788
uncorr_bkguncrt17cat_4b_1_Xhh-0.0-0.95[26],-0.4899,0.9184
uncorr_bkguncrt17cat_4b_1_Xhh-0.0-0.95[27],-0.2608,0.9672
uncorr_bkguncrt17cat_4b_1_Xhh-0.0-0.95[28],-0.2227,0.9724
uncorr_bkguncrt17cat_4b_1_Xhh-0.0-0.95[29],-0.1790,0.9646
uncorr_bkguncrt17cat_4b_1_Xhh-0.0-0.95[30],-0.3608,0.9362
uncorr_bkguncrt17cat_4b_1_Xhh-0.0-0.95[31],0.1824,0.9574
uncorr_bkguncrt17cat_4b_1_Xhh-0.0-0.95[32],-0.1040,0.9728
uncorr_bkguncrt17cat_4b_1_Xhh-0.0-0.95[33],-0.0376,0.9837
uncorr_bkguncrt17cat_4b_1_Xhh-0.95-1.6[00],-0.0383,0.9327
uncorr_bkguncrt17cat_4b_1_Xhh-0.95-1.6[01],0.0221,0.9299
uncorr_bkguncrt17cat_4b_1_Xhh-0.95-1.6[02],0.0622,0.9468
uncorr_bkguncrt17cat_4b_1_Xhh-0.95-1.6[03],0.2519,0.9549
uncorr_bkguncrt17cat_4b_1_Xhh-0.95-1.6[04],0.3982,0.9613
uncorr_bkguncrt17cat_4b_1_Xhh-0.95-1.6[05],-0.4840,0.9436
uncorr_bkguncrt17cat_4b_1_Xhh-0.95-1.6[06],0.2231,0.9592
uncorr_bkguncrt17cat_4b_1_Xhh-0.95-1.6[07],1.0724,0.9750
uncorr_bkguncrt17cat_4b_1_Xhh-0.95-1.6[08],-0.1335,0.9397
uncorr_bkguncrt17cat_4b_1_Xhh-0.95-1.6[09],-0.1376,0.9559
uncorr_bkguncrt17cat_4b_1_Xhh-0.95-1.6[10],-0.1744,0.9371
uncorr_bkguncrt17cat_4b_1_Xhh-0.95-1.6[11],-0.1992,0.9489
uncorr_bkguncrt17cat_4b_1_Xhh-0.95-1.6[12],0.5394,0.9462
uncorr_bkguncrt17cat_4b_1_Xhh-0.95-1.6[13],-0.1946,0.9171
uncorr_bkguncrt17cat_4b_1_Xhh-0.95-1.6[14],0.2016,0.9536
uncorr_bkguncrt17cat_4b_1_Xhh-0.95-1.6[15],-0.1273,0.9199
uncorr_bkguncrt17cat_4b_1_Xhh-0.95-1.6[16],0.3256,0.9548
uncorr_bkguncrt17cat_4b_1_Xhh-0.95-1.6[17],0.1507,0.9693
uncorr_bkguncrt17cat_4b_1_Xhh-0.95-1.6[18],0.0468,0.9497
uncorr_bkguncrt17cat_4b_1_Xhh-0.95-1.6[19],-0.2419,0.9456
uncorr_bkguncrt17cat_4b_1_Xhh-0.95-1.6[20],-0.0857,0.9232
uncorr_bkguncrt17cat_4b_1_Xhh-0.95-1.6[21],-0.1232,0.9603
uncorr_bkguncrt17cat_4b_1_Xhh-0.95-1.6[22],-0.0874,0.9750
uncorr_bkguncrt17cat_4b_1_Xhh-0.95-1.6[23],-0.1965,0.9444
uncorr_bkguncrt17cat_4b_1_Xhh-0.95-1.6[24],0.1628,0.9215
uncorr_bkguncrt17cat_4b_1_Xhh-0.95-1.6[25],-0.2097,0.9700
uncorr_bkguncrt17cat_4b_1_Xhh-0.95-1.6[26],0.1461,0.9800
uncorr_bkguncrt17cat_4b_1_Xhh-0.95-1.6[27],0.1878,0.9825
uncorr_bkguncrt17cat_4b_1_Xhh-0.95-1.6[28],0.1654,0.9121
uncorr_bkguncrt17cat_4b_1_Xhh-0.95-1.6[29],0.3807,0.9968
uncorr_bkguncrt17cat_4b_1_Xhh-0.95-1.6[30],-0.2206,0.9701
uncorr_bkguncrt17cat_4b_1_Xhh-0.95-1.6[31],0.2492,0.9928
uncorr_bkguncrt17cat_4b_1_Xhh-0.95-1.6[32],0.1405,0.9751
uncorr_bkguncrt17cat_4b_1_Xhh-0.95-1.6[33],-0.0077,0.9851
uncorr_bkguncrt17cat_4b_2_Xhh-0.0-0.95[00],-0.1051,0.9795
uncorr_bkguncrt17cat_4b_2_Xhh-0.0-0.95[01],0.2218,0.9835
uncorr_bkguncrt17cat_4b_2_Xhh-0.0-0.95[02],-0.0351,0.9832
uncorr_bkguncrt17cat_4b_2_Xhh-0.0-0.95[03],-0.4191,0.9504
uncorr_bkguncrt17cat_4b_2_Xhh-0.0-0.95[04],-0.0163,0.9847
uncorr_bkguncrt17cat_4b_2_Xhh-0.0-0.95[05],-0.0798,0.9743
uncorr_bkguncrt17cat_4b_2_Xhh-0.0-0.95[06],-0.1748,0.9764
uncorr_bkguncrt17cat_4b_2_Xhh-0.0-0.95[07],0.4614,0.9923
uncorr_bkguncrt17cat_4b_2_Xhh-0.0-0.95[08],0.0393,0.9745
uncorr_bkguncrt17cat_4b_2_Xhh-0.0-0.95[09],-0.0774,0.9693
uncorr_bkguncrt17cat_4b_2_Xhh-0.0-0.95[10],-0.1922,0.9732
uncorr_bkguncrt17cat_4b_2_Xhh-0.0-0.95[11],0.3123,0.9769
uncorr_bkguncrt17cat_4b_2_Xhh-0.0-0.95[12],-0.1561,0.9694
uncorr_bkguncrt17cat_4b_2_Xhh-0.0-0.95[13],-0.1454,0.9573
uncorr_bkguncrt17cat_4b_2_Xhh-0.0-0.95[14],-0.0695,0.9455
uncorr_bkguncrt17cat_4b_2_Xhh-0.0-0.95[15],-0.1219,0.9188
uncorr_bkguncrt17cat_4b_2_Xhh-0.0-0.95[16],-0.1440,0.9504
uncorr_bkguncrt17cat_4b_2_Xhh-0.0-0.95[17],-0.5250,0.9136
uncorr_bkguncrt17cat_4b_2_Xhh-0.0-0.95[18],0.0482,0.9652
uncorr_bkguncrt17cat_4b_2_Xhh-0.0-0.95[19],0.5527,0.9920
uncorr_bkguncrt17cat_4b_2_Xhh-0.0-0.95[20],0.7232,1.0142
uncorr_bkguncrt17cat_4b_2_Xhh-0.0-0.95[21],0.3112,0.9958
uncorr_bkguncrt17cat_4b_2_Xhh-0.0-0.95[22],0.1293,0.9787
uncorr_bkguncrt17cat_4b_2_Xhh-0.0-0.95[23],-0.0617,0.9532
uncorr_bkguncrt17cat_4b_2_Xhh-0.0-0.95[24],0.0928,0.9305
uncorr_bkguncrt17cat_4b_2_Xhh-0.0-0.95[25],0.2190,0.9726
uncorr_bkguncrt17cat_4b_2_Xhh-0.0-0.95[26],-0.1632,0.9614
uncorr_bkguncrt17cat_4b_2_Xhh-0.0-0.95[27],0.1399,0.9745
uncorr_bkguncrt17cat_4b_2_Xhh-0.0-0.95[28],-0.3673,0.9329
uncorr_bkguncrt17cat_4b_2_Xhh-0.0-0.95[29],0.1202,0.9822
uncorr_bkguncrt17cat_4b_2_Xhh-0.0-0.95[30],0.2078,1.0038
uncorr_bkguncrt17cat_4b_2_Xhh-0.0-0.95[31],0.2068,1.0025
uncorr_bkguncrt17cat_4b_2_Xhh-0.0-0.95[32],-0.4738,0.8322
uncorr_bkguncrt17cat_4b_2_Xhh-0.0-0.95[33],-0.2668,0.9270
uncorr_bkguncrt17cat_4b_2_Xhh-0.95-1.6[00],0.0646,0.9784
uncorr_bkguncrt17cat_4b_2_Xhh-0.95-1.6[01],-0.1133,0.9712
uncorr_bkguncrt17cat_4b_2_Xhh-0.95-1.6[02],-0.2257,0.9707
uncorr_bkguncrt17cat_4b_2_Xhh-0.95-1.6[03],-0.1380,0.9757
uncorr_bkguncrt17cat_4b_2_Xhh-0.95-1.6[04],-0.4530,0.9629
uncorr_bkguncrt17cat_4b_2_Xhh-0.95-1.6[05],0.0403,0.9762
uncorr_bkguncrt17cat_4b_2_Xhh-0.95-1.6[06],0.3324,0.9804
uncorr_bkguncrt17cat_4b_2_Xhh-0.95-1.6[07],0.3504,0.9827
uncorr_bkguncrt17cat_4b_2_Xhh-0.95-1.6[08],0.4004,0.9718
uncorr_bkguncrt17cat_4b_2_Xhh-0.95-1.6[09],-0.0473,0.9723
uncorr_bkguncrt17cat_4b_2_Xhh-0.95-1.6[10],-0.3134,0.9591
uncorr_bkguncrt17cat_4b_2_Xhh-0.95-1.6[11],-0.1387,0.9620
uncorr_bkguncrt17cat_4b_2_Xhh-0.95-1.6[12],-0.0438,0.9723
uncorr_bkguncrt17cat_4b_2_Xhh-0.95-1.6[13],0.0704,0.9634
uncorr_bkguncrt17cat_4b_2_Xhh-0.95-1.6[14],-0.1509,0.9683
uncorr_bkguncrt17cat_4b_2_Xhh-0.95-1.6[15],-0.0761,0.9360
uncorr_bkguncrt17cat_4b_2_Xhh-0.95-1.6[16],-0.3702,0.9416
uncorr_bkguncrt17cat_4b_2_Xhh-0.95-1.6[17],0.2880,0.9425
uncorr_bkguncrt17cat_4b_2_Xhh-0.95-1.6[18],-0.2612,0.9065
uncorr_bkguncrt17cat_4b_2_Xhh-0.95-1.6[19],-0.1637,0.9538
uncorr_bkguncrt17cat_4b_2_Xhh-0.95-1.6[20],0.1123,0.9634
uncorr_bkguncrt17cat_4b_2_Xhh-0.95-1.6[21],-0.1605,0.9689
uncorr_bkguncrt17cat_4b_2_Xhh-0.95-1.6[22],-0.0650,0.9699
uncorr_bkguncrt17cat_4b_2_Xhh-0.95-1.6[23],-0.3660,0.9559
uncorr_bkguncrt17cat_4b_2_Xhh-0.95-1.6[24],0.2387,0.9855
uncorr_bkguncrt17cat_4b_2_Xhh-0.95-1.6[25],-0.3012,0.9348
uncorr_bkguncrt17cat_4b_2_Xhh-0.95-1.6[26],-0.0005,0.9526
uncorr_bkguncrt17cat_4b_2_Xhh-0.95-1.6[27],0.2407,0.9473
uncorr_bkguncrt17cat_4b_2_Xhh-0.95-1.6[28],0.1606,0.9682
uncorr_bkguncrt17cat_4b_2_Xhh-0.95-1.6[29],0.3885,0.9802
uncorr_bkguncrt17cat_4b_2_Xhh-0.95-1.6[30],0.1829,0.9946
uncorr_bkguncrt17cat_4b_2_Xhh-0.95-1.6[31],-0.1227,0.9660
uncorr_bkguncrt17cat_4b_2_Xhh-0.95-1.6[32],0.0441,0.9850
uncorr_bkguncrt17cat_4b_2_Xhh-0.95-1.6[33],-0.1740,0.9525
