label,pull,err
all_VRyr_cat_4b_0,-0.1652,0.6188
all_VRyr_cat_4b_1,0.1134,0.7310
all_VRyr_cat_4b_2,0.5302,0.6912
all_VRyr_cat_4b_3,0.6571,0.7035
all_VRyr_cat_4b_4,-0.1959,0.6532
all_VRyr_cat_4b_5,0.2956,0.8047
bkg_normyr_cat_4b_0,-0.0405,0.9897
bkg_normyr_cat_4b_1,-0.1935,0.9006
bkg_normyr_cat_4b_2,-0.0005,0.9359
bkg_normyr_cat_4b_3,0.1103,0.9896
bkg_normyr_cat_4b_4,-0.7271,0.6533
bkg_normyr_cat_4b_5,-0.0666,0.7266
uncorr_bkguncrt17cat_4b_0_Xhh-0.0-0.95[00],0.1197,0.9454
uncorr_bkguncrt17cat_4b_0_Xhh-0.0-0.95[01],-0.1832,0.9193
uncorr_bkguncrt17cat_4b_0_Xhh-0.0-0.95[02],0.2613,0.9618
uncorr_bkguncrt17cat_4b_0_Xhh-0.0-0.95[03],-0.3326,0.9664
uncorr_bkguncrt17cat_4b_0_Xhh-0.0-0.95[04],0.1056,0.9539
uncorr_bkguncrt17cat_4b_0_Xhh-0.0-0.95[05],0.1439,0.9532
uncorr_bkguncrt17cat_4b_0_Xhh-0.0-0.95[06],-0.1426,0.9663
uncorr_bkguncrt17cat_4b_0_Xhh-0.0-0.95[07],-0.0397,0.9599
uncorr_bkguncrt17cat_4b_0_Xhh-0.0-0.95[08],0.0218,0.9580
uncorr_bkguncrt17cat_4b_0_Xhh-0.0-0.95[09],-0.1817,0.9666
uncorr_bkguncrt17cat_4b_0_Xhh-0.0-0.95[10],0.0365,0.9643
uncorr_bkguncrt17cat_4b_0_Xhh-0.0-0.95[11],-0.0492,0.9711
uncorr_bkguncrt17cat_4b_0_Xhh-0.0-0.95[12],-0.3160,0.9526
uncorr_bkguncrt17cat_4b_0_Xhh-0.0-0.95[13],0.7311,0.9785
uncorr_bkguncrt17cat_4b_0_Xhh-0.0-0.95[14],-0.0146,0.9518
uncorr_bkguncrt17cat_4b_0_Xhh-0.0-0.95[15],-0.1968,0.9620
uncorr_bkguncrt17cat_4b_0_Xhh-0.0-0.95[16],0.1932,0.9812
uncorr_bkguncrt17cat_4b_0_Xhh-0.0-0.95[17],-0.0070,0.9610
uncorr_bkguncrt17cat_4b_0_Xhh-0.0-0.95[18],-0.1001,0.9678
uncorr_bkguncrt17cat_4b_0_Xhh-0.0-0.95[19],0.3934,1.0007
uncorr_bkguncrt17cat_4b_0_Xhh-0.0-0.95[20],-0.1403,0.9745
uncorr_bkguncrt17cat_4b_0_Xhh-0.0-0.95[21],0.1608,0.9812
uncorr_bkguncrt17cat_4b_0_Xhh-0.0-0.95[22],0.2945,0.9739
uncorr_bkguncrt17cat_4b_0_Xhh-0.0-0.95[23],-0.2105,0.9716
uncorr_bkguncrt17cat_4b_0_Xhh-0.0-0.95[24],-0.2175,0.9647
uncorr_bkguncrt17cat_4b_0_Xhh-0.0-0.95[25],-0.0508,0.9788
uncorr_bkguncrt17cat_4b_0_Xhh-0.0-0.95[26],-0.2837,0.9398
uncorr_bkguncrt17cat_4b_0_Xhh-0.0-0.95[27],-0.0453,0.9611
uncorr_bkguncrt17cat_4b_0_Xhh-0.0-0.95[28],0.0553,0.9837
uncorr_bkguncrt17cat_4b_0_Xhh-0.0-0.95[29],0.6056,1.0365
uncorr_bkguncrt17cat_4b_0_Xhh-0.0-0.95[30],-0.1260,0.9695
uncorr_bkguncrt17cat_4b_0_Xhh-0.0-0.95[31],-0.1019,0.9782
uncorr_bkguncrt17cat_4b_0_Xhh-0.0-0.95[32],-0.1201,0.9740
uncorr_bkguncrt17cat_4b_0_Xhh-0.0-0.95[33],-0.0998,0.9702
uncorr_bkguncrt17cat_4b_0_Xhh-0.95-1.6[00],0.4000,0.9250
uncorr_bkguncrt17cat_4b_0_Xhh-0.95-1.6[01],-0.1707,0.9299
uncorr_bkguncrt17cat_4b_0_Xhh-0.95-1.6[02],-0.4988,0.9270
uncorr_bkguncrt17cat_4b_0_Xhh-0.95-1.6[03],-0.5575,0.8833
uncorr_bkguncrt17cat_4b_0_Xhh-0.95-1.6[04],-0.2912,0.9511
uncorr_bkguncrt17cat_4b_0_Xhh-0.95-1.6[05],-0.2711,0.9220
uncorr_bkguncrt17cat_4b_0_Xhh-0.95-1.6[06],0.4260,0.9664
uncorr_bkguncrt17cat_4b_0_Xhh-0.95-1.6[07],-0.3189,0.9462
uncorr_bkguncrt17cat_4b_0_Xhh-0.95-1.6[08],-0.0624,0.9520
uncorr_bkguncrt17cat_4b_0_Xhh-0.95-1.6[09],0.4598,0.9766
uncorr_bkguncrt17cat_4b_0_Xhh-0.95-1.6[10],-0.2275,0.9535
uncorr_bkguncrt17cat_4b_0_Xhh-0.95-1.6[11],-0.1322,0.9600
uncorr_bkguncrt17cat_4b_0_Xhh-0.95-1.6[12],-0.2081,0.9411
uncorr_bkguncrt17cat_4b_0_Xhh-0.95-1.6[13],0.2133,0.9769
uncorr_bkguncrt17cat_4b_0_Xhh-0.95-1.6[14],-0.2394,0.9521
uncorr_bkguncrt17cat_4b_0_Xhh-0.95-1.6[15],0.1160,0.9502
uncorr_bkguncrt17cat_4b_0_Xhh-0.95-1.6[16],0.1202,0.9755
uncorr_bkguncrt17cat_4b_0_Xhh-0.95-1.6[17],-0.0030,0.9643
uncorr_bkguncrt17cat_4b_0_Xhh-0.95-1.6[18],-0.1316,0.9755
uncorr_bkguncrt17cat_4b_0_Xhh-0.95-1.6[19],0.3958,0.9864
uncorr_bkguncrt17cat_4b_0_Xhh-0.95-1.6[20],0.2229,0.9852
uncorr_bkguncrt17cat_4b_0_Xhh-0.95-1.6[21],0.1692,0.9803
uncorr_bkguncrt17cat_4b_0_Xhh-0.95-1.6[22],0.0899,0.9807
uncorr_bkguncrt17cat_4b_0_Xhh-0.95-1.6[23],-0.3096,0.9476
uncorr_bkguncrt17cat_4b_0_Xhh-0.95-1.6[24],0.0259,0.9759
uncorr_bkguncrt17cat_4b_0_Xhh-0.95-1.6[25],-0.0477,0.9643
uncorr_bkguncrt17cat_4b_0_Xhh-0.95-1.6[26],-0.1198,0.9702
uncorr_bkguncrt17cat_4b_0_Xhh-0.95-1.6[27],-0.0658,0.9813
uncorr_bkguncrt17cat_4b_0_Xhh-0.95-1.6[28],-0.0557,0.9725
uncorr_bkguncrt17cat_4b_0_Xhh-0.95-1.6[29],0.3852,1.0133
uncorr_bkguncrt17cat_4b_0_Xhh-0.95-1.6[30],-0.1568,0.9739
uncorr_bkguncrt17cat_4b_0_Xhh-0.95-1.6[31],0.0140,0.9820
uncorr_bkguncrt17cat_4b_0_Xhh-0.95-1.6[32],-0.0743,0.9454
uncorr_bkguncrt17cat_4b_0_Xhh-0.95-1.6[33],0.2725,1.0128
uncorr_bkguncrt17cat_4b_1_Xhh-0.0-0.95[00],-0.0586,0.9356
uncorr_bkguncrt17cat_4b_1_Xhh-0.0-0.95[01],-0.0135,0.9504
uncorr_bkguncrt17cat_4b_1_Xhh-0.0-0.95[02],-0.1765,0.9425
uncorr_bkguncrt17cat_4b_1_Xhh-0.0-0.95[03],-0.0065,0.9642
uncorr_bkguncrt17cat_4b_1_Xhh-0.0-0.95[04],-0.4468,0.9315
uncorr_bkguncrt17cat_4b_1_Xhh-0.0-0.95[05],-0.2522,0.9606
uncorr_bkguncrt17cat_4b_1_Xhh-0.0-0.95[06],0.0460,0.9399
uncorr_bkguncrt17cat_4b_1_Xhh-0.0-0.95[07],0.4154,0.9605
uncorr_bkguncrt17cat_4b_1_Xhh-0.0-0.95[08],-0.0798,0.9458
uncorr_bkguncrt17cat_4b_1_Xhh-0.0-0.95[09],0.1267,0.9555
uncorr_bkguncrt17cat_4b_1_Xhh-0.0-0.95[10],0.0719,0.9808
uncorr_bkguncrt17cat_4b_1_Xhh-0.0-0.95[11],0.1649,0.9810
uncorr_bkguncrt17cat_4b_1_Xhh-0.0-0.95[12],0.1537,0.9775
uncorr_bkguncrt17cat_4b_1_Xhh-0.0-0.95[13],0.0879,0.9630
uncorr_bkguncrt17cat_4b_1_Xhh-0.0-0.95[14],0.3286,0.9569
uncorr_bkguncrt17cat_4b_1_Xhh-0.0-0.95[15],0.0011,0.9665
uncorr_bkguncrt17cat_4b_1_Xhh-0.0-0.95[16],-0.0233,0.9784
uncorr_bkguncrt17cat_4b_1_Xhh-0.0-0.95[17],0.0717,0.9590
uncorr_bkguncrt17cat_4b_1_Xhh-0.0-0.95[18],-0.1827,0.9654
uncorr_bkguncrt17cat_4b_1_Xhh-0.0-0.95[19],-0.3437,0.8980
uncorr_bkguncrt17cat_4b_1_Xhh-0.0-0.95[20],-0.0515,0.9853
uncorr_bkguncrt17cat_4b_1_Xhh-0.0-0.95[21],0.2033,0.9830
uncorr_bkguncrt17cat_4b_1_Xhh-0.0-0.95[22],0.1327,0.9941
uncorr_bkguncrt17cat_4b_1_Xhh-0.0-0.95[23],-0.1188,0.9748
uncorr_bkguncrt17cat_4b_1_Xhh-0.0-0.95[24],0.0539,0.9871
uncorr_bkguncrt17cat_4b_1_Xhh-0.0-0.95[25],0.0990,0.9859
uncorr_bkguncrt17cat_4b_1_Xhh-0.0-0.95[26],-0.0228,0.9882
uncorr_bkguncrt17cat_4b_1_Xhh-0.0-0.95[27],0.1052,0.9935
uncorr_bkguncrt17cat_4b_1_Xhh-0.0-0.95[28],-0.2464,0.9398
uncorr_bkguncrt17cat_4b_1_Xhh-0.0-0.95[29],0.3881,1.0191
uncorr_bkguncrt17cat_4b_1_Xhh-0.0-0.95[30],-0.3323,0.8749
uncorr_bkguncrt17cat_4b_1_Xhh-0.0-0.95[31],0.0811,0.9983
uncorr_bkguncrt17cat_4b_1_Xhh-0.0-0.95[32],-0.1393,0.9635
uncorr_bkguncrt17cat_4b_1_Xhh-0.0-0.95[33],0.0811,0.9970
uncorr_bkguncrt17cat_4b_1_Xhh-0.95-1.6[00],-0.0932,0.9497
uncorr_bkguncrt17cat_4b_1_Xhh-0.95-1.6[01],-0.2545,0.9235
uncorr_bkguncrt17cat_4b_1_Xhh-0.95-1.6[02],-0.3228,0.9429
uncorr_bkguncrt17cat_4b_1_Xhh-0.95-1.6[03],-0.1210,0.9251
uncorr_bkguncrt17cat_4b_1_Xhh-0.95-1.6[04],-0.0470,0.9438
uncorr_bkguncrt17cat_4b_1_Xhh-0.95-1.6[05],0.6871,0.9591
uncorr_bkguncrt17cat_4b_1_Xhh-0.95-1.6[06],0.1830,0.9545
uncorr_bkguncrt17cat_4b_1_Xhh-0.95-1.6[07],-0.0837,0.9379
uncorr_bkguncrt17cat_4b_1_Xhh-0.95-1.6[08],0.1289,0.9612
uncorr_bkguncrt17cat_4b_1_Xhh-0.95-1.6[09],-0.7432,0.9249
uncorr_bkguncrt17cat_4b_1_Xhh-0.95-1.6[10],0.1291,0.9733
uncorr_bkguncrt17cat_4b_1_Xhh-0.95-1.6[11],0.1020,0.9745
uncorr_bkguncrt17cat_4b_1_Xhh-0.95-1.6[12],0.0940,0.9767
uncorr_bkguncrt17cat_4b_1_Xhh-0.95-1.6[13],-0.1089,0.9631
uncorr_bkguncrt17cat_4b_1_Xhh-0.95-1.6[14],-0.3298,0.9529
uncorr_bkguncrt17cat_4b_1_Xhh-0.95-1.6[15],-0.0405,0.9728
uncorr_bkguncrt17cat_4b_1_Xhh-0.95-1.6[16],-0.6503,0.9216
uncorr_bkguncrt17cat_4b_1_Xhh-0.95-1.6[17],-0.0579,0.9709
uncorr_bkguncrt17cat_4b_1_Xhh-0.95-1.6[18],0.1371,0.9469
uncorr_bkguncrt17cat_4b_1_Xhh-0.95-1.6[19],-0.0768,0.9755
uncorr_bkguncrt17cat_4b_1_Xhh-0.95-1.6[20],0.0602,0.8750
uncorr_bkguncrt17cat_4b_1_Xhh-0.95-1.6[21],-0.1851,0.9495
uncorr_bkguncrt17cat_4b_1_Xhh-0.95-1.6[22],0.1708,0.9793
uncorr_bkguncrt17cat_4b_1_Xhh-0.95-1.6[23],-0.2232,0.9565
uncorr_bkguncrt17cat_4b_1_Xhh-0.95-1.6[24],0.2556,0.9914
uncorr_bkguncrt17cat_4b_1_Xhh-0.95-1.6[25],0.1490,0.9938
uncorr_bkguncrt17cat_4b_1_Xhh-0.95-1.6[26],-0.0031,0.9861
uncorr_bkguncrt17cat_4b_1_Xhh-0.95-1.6[27],-0.1252,0.9722
uncorr_bkguncrt17cat_4b_1_Xhh-0.95-1.6[28],0.0358,0.9876
uncorr_bkguncrt17cat_4b_1_Xhh-0.95-1.6[29],-0.0811,0.9776
uncorr_bkguncrt17cat_4b_1_Xhh-0.95-1.6[30],0.0866,0.9860
uncorr_bkguncrt17cat_4b_1_Xhh-0.95-1.6[31],-0.0372,0.9806
uncorr_bkguncrt17cat_4b_1_Xhh-0.95-1.6[32],0.3277,1.0113
uncorr_bkguncrt17cat_4b_1_Xhh-0.95-1.6[33],-0.1628,0.9728
uncorr_bkguncrt17cat_4b_2_Xhh-0.0-0.95[00],0.0576,0.9522
uncorr_bkguncrt17cat_4b_2_Xhh-0.0-0.95[01],-0.4241,0.9471
uncorr_bkguncrt17cat_4b_2_Xhh-0.0-0.95[02],-0.1930,0.9599
uncorr_bkguncrt17cat_4b_2_Xhh-0.0-0.95[03],0.1077,0.9721
uncorr_bkguncrt17cat_4b_2_Xhh-0.0-0.95[04],-0.2575,0.9601
uncorr_bkguncrt17cat_4b_2_Xhh-0.0-0.95[05],-0.1981,0.9474
uncorr_bkguncrt17cat_4b_2_Xhh-0.0-0.95[06],0.1771,0.9595
uncorr_bkguncrt17cat_4b_2_Xhh-0.0-0.95[07],0.1255,0.9638
uncorr_bkguncrt17cat_4b_2_Xhh-0.0-0.95[08],0.2207,0.9660
uncorr_bkguncrt17cat_4b_2_Xhh-0.0-0.95[09],-0.1443,0.9609
uncorr_bkguncrt17cat_4b_2_Xhh-0.0-0.95[10],0.0495,0.9503
uncorr_bkguncrt17cat_4b_2_Xhh-0.0-0.95[11],0.2176,0.9667
uncorr_bkguncrt17cat_4b_2_Xhh-0.0-0.95[12],-0.2265,0.9666
uncorr_bkguncrt17cat_4b_2_Xhh-0.0-0.95[13],0.1501,0.9747
uncorr_bkguncrt17cat_4b_2_Xhh-0.0-0.95[14],-0.0247,0.9661
uncorr_bkguncrt17cat_4b_2_Xhh-0.0-0.95[15],0.1006,0.9629
uncorr_bkguncrt17cat_4b_2_Xhh-0.0-0.95[16],-0.2814,0.9309
uncorr_bkguncrt17cat_4b_2_Xhh-0.0-0.95[17],0.0452,0.9663
uncorr_bkguncrt17cat_4b_2_Xhh-0.0-0.95[18],0.5022,1.0059
uncorr_bkguncrt17cat_4b_2_Xhh-0.0-0.95[19],-0.0437,0.9778
uncorr_bkguncrt17cat_4b_2_Xhh-0.0-0.95[20],-0.1385,0.9572
uncorr_bkguncrt17cat_4b_2_Xhh-0.0-0.95[21],0.4759,1.0124
uncorr_bkguncrt17cat_4b_2_Xhh-0.0-0.95[22],-0.2397,0.9443
uncorr_bkguncrt17cat_4b_2_Xhh-0.0-0.95[23],-0.0571,0.9855
uncorr_bkguncrt17cat_4b_2_Xhh-0.0-0.95[24],0.1262,0.9938
uncorr_bkguncrt17cat_4b_2_Xhh-0.0-0.95[25],-0.0612,0.9816
uncorr_bkguncrt17cat_4b_2_Xhh-0.0-0.95[26],-0.2469,0.9551
uncorr_bkguncrt17cat_4b_2_Xhh-0.0-0.95[27],-0.1559,0.9762
uncorr_bkguncrt17cat_4b_2_Xhh-0.0-0.95[28],-0.1563,0.9733
uncorr_bkguncrt17cat_4b_2_Xhh-0.0-0.95[29],-0.2262,0.9523
uncorr_bkguncrt17cat_4b_2_Xhh-0.0-0.95[30],-0.3119,0.9198
uncorr_bkguncrt17cat_4b_2_Xhh-0.0-0.95[31],-0.1558,0.8917
uncorr_bkguncrt17cat_4b_2_Xhh-0.0-0.95[32],-0.1125,0.9787
uncorr_bkguncrt17cat_4b_2_Xhh-0.0-0.95[33],-0.1031,0.9820
uncorr_bkguncrt17cat_4b_2_Xhh-0.95-1.6[00],-0.1590,0.9278
uncorr_bkguncrt17cat_4b_2_Xhh-0.95-1.6[01],0.4918,0.9494
uncorr_bkguncrt17cat_4b_2_Xhh-0.95-1.6[02],-0.1449,0.9550
uncorr_bkguncrt17cat_4b_2_Xhh-0.95-1.6[03],0.1457,0.9537
uncorr_bkguncrt17cat_4b_2_Xhh-0.95-1.6[04],0.4019,0.9613
uncorr_bkguncrt17cat_4b_2_Xhh-0.95-1.6[05],-0.4589,0.9509
uncorr_bkguncrt17cat_4b_2_Xhh-0.95-1.6[06],0.4178,0.9699
uncorr_bkguncrt17cat_4b_2_Xhh-0.95-1.6[07],0.6031,0.9816
uncorr_bkguncrt17cat_4b_2_Xhh-0.95-1.6[08],-0.3082,0.9510
uncorr_bkguncrt17cat_4b_2_Xhh-0.95-1.6[09],-0.3263,0.9593
uncorr_bkguncrt17cat_4b_2_Xhh-0.95-1.6[10],0.1555,0.9582
uncorr_bkguncrt17cat_4b_2_Xhh-0.95-1.6[11],-0.3477,0.9405
uncorr_bkguncrt17cat_4b_2_Xhh-0.95-1.6[12],0.5756,0.9559
uncorr_bkguncrt17cat_4b_2_Xhh-0.95-1.6[13],-0.2083,0.9148
uncorr_bkguncrt17cat_4b_2_Xhh-0.95-1.6[14],-0.2580,0.9386
uncorr_bkguncrt17cat_4b_2_Xhh-0.95-1.6[15],0.0351,0.9747
uncorr_bkguncrt17cat_4b_2_Xhh-0.95-1.6[16],0.4485,0.9640
uncorr_bkguncrt17cat_4b_2_Xhh-0.95-1.6[17],0.0410,0.9743
uncorr_bkguncrt17cat_4b_2_Xhh-0.95-1.6[18],0.2721,0.9600
uncorr_bkguncrt17cat_4b_2_Xhh-0.95-1.6[19],-0.2643,0.9319
uncorr_bkguncrt17cat_4b_2_Xhh-0.95-1.6[20],-0.2035,0.8947
uncorr_bkguncrt17cat_4b_2_Xhh-0.95-1.6[21],-0.1344,0.9626
uncorr_bkguncrt17cat_4b_2_Xhh-0.95-1.6[22],0.1992,0.9919
uncorr_bkguncrt17cat_4b_2_Xhh-0.95-1.6[23],0.0712,0.9875
uncorr_bkguncrt17cat_4b_2_Xhh-0.95-1.6[24],-0.2543,0.8416
uncorr_bkguncrt17cat_4b_2_Xhh-0.95-1.6[25],-0.1791,0.9755
uncorr_bkguncrt17cat_4b_2_Xhh-0.95-1.6[26],0.3997,1.0039
uncorr_bkguncrt17cat_4b_2_Xhh-0.95-1.6[27],0.1330,0.9892
uncorr_bkguncrt17cat_4b_2_Xhh-0.95-1.6[28],0.0036,0.9071
uncorr_bkguncrt17cat_4b_2_Xhh-0.95-1.6[29],0.2151,0.9956
uncorr_bkguncrt17cat_4b_2_Xhh-0.95-1.6[30],-0.2138,0.9715
uncorr_bkguncrt17cat_4b_2_Xhh-0.95-1.6[31],0.0891,0.9849
uncorr_bkguncrt17cat_4b_2_Xhh-0.95-1.6[32],-0.1372,0.9413
uncorr_bkguncrt17cat_4b_2_Xhh-0.95-1.6[33],-0.0055,0.9878
uncorr_bkguncrt17cat_4b_3_Xhh-0.0-0.95[00],-0.2360,0.9540
uncorr_bkguncrt17cat_4b_3_Xhh-0.0-0.95[01],0.4245,0.9934
uncorr_bkguncrt17cat_4b_3_Xhh-0.0-0.95[02],0.0312,0.9656
uncorr_bkguncrt17cat_4b_3_Xhh-0.0-0.95[03],0.1505,0.9626
uncorr_bkguncrt17cat_4b_3_Xhh-0.0-0.95[04],0.0870,0.9662
uncorr_bkguncrt17cat_4b_3_Xhh-0.0-0.95[05],-0.0901,0.9594
uncorr_bkguncrt17cat_4b_3_Xhh-0.0-0.95[06],-0.3656,0.9047
uncorr_bkguncrt17cat_4b_3_Xhh-0.0-0.95[07],0.2093,0.9769
uncorr_bkguncrt17cat_4b_3_Xhh-0.0-0.95[08],0.3235,0.9809
uncorr_bkguncrt17cat_4b_3_Xhh-0.0-0.95[09],-0.1767,0.9379
uncorr_bkguncrt17cat_4b_3_Xhh-0.0-0.95[10],-0.0024,0.9595
uncorr_bkguncrt17cat_4b_3_Xhh-0.0-0.95[11],0.1805,0.9806
uncorr_bkguncrt17cat_4b_3_Xhh-0.0-0.95[12],0.5036,0.9947
uncorr_bkguncrt17cat_4b_3_Xhh-0.0-0.95[13],-0.2134,0.9577
uncorr_bkguncrt17cat_4b_3_Xhh-0.0-0.95[14],-0.4572,0.9513
uncorr_bkguncrt17cat_4b_3_Xhh-0.0-0.95[15],0.1965,0.9833
uncorr_bkguncrt17cat_4b_3_Xhh-0.0-0.95[16],0.1682,0.9903
uncorr_bkguncrt17cat_4b_3_Xhh-0.0-0.95[17],0.1454,0.9868
uncorr_bkguncrt17cat_4b_3_Xhh-0.0-0.95[18],-0.0265,0.9640
uncorr_bkguncrt17cat_4b_3_Xhh-0.0-0.95[19],-0.1418,0.9528
uncorr_bkguncrt17cat_4b_3_Xhh-0.0-0.95[20],0.2090,0.9954
uncorr_bkguncrt17cat_4b_3_Xhh-0.0-0.95[21],-0.1881,0.9234
uncorr_bkguncrt17cat_4b_3_Xhh-0.0-0.95[22],0.1426,0.9957
uncorr_bkguncrt17cat_4b_3_Xhh-0.0-0.95[23],0.1343,0.9874
uncorr_bkguncrt17cat_4b_3_Xhh-0.0-0.95[24],0.3804,0.9935
uncorr_bkguncrt17cat_4b_3_Xhh-0.0-0.95[25],0.0321,0.9815
uncorr_bkguncrt17cat_4b_3_Xhh-0.0-0.95[26],-0.3963,0.9020
uncorr_bkguncrt17cat_4b_3_Xhh-0.0-0.95[27],-0.1909,0.9652
uncorr_bkguncrt17cat_4b_3_Xhh-0.0-0.95[28],-0.1396,0.9775
uncorr_bkguncrt17cat_4b_3_Xhh-0.0-0.95[29],-0.0305,0.9782
uncorr_bkguncrt17cat_4b_3_Xhh-0.0-0.95[30],-0.1554,0.9709
uncorr_bkguncrt17cat_4b_3_Xhh-0.0-0.95[31],0.2603,1.0122
uncorr_bkguncrt17cat_4b_3_Xhh-0.0-0.95[32],-0.0172,0.9780
uncorr_bkguncrt17cat_4b_3_Xhh-0.0-0.95[33],0.0741,0.9928
uncorr_bkguncrt17cat_4b_3_Xhh-0.95-1.6[00],0.1119,0.9727
uncorr_bkguncrt17cat_4b_3_Xhh-0.95-1.6[01],-0.4286,0.9481
uncorr_bkguncrt17cat_4b_3_Xhh-0.95-1.6[02],0.2925,0.9597
uncorr_bkguncrt17cat_4b_3_Xhh-0.95-1.6[03],0.1859,0.9724
uncorr_bkguncrt17cat_4b_3_Xhh-0.95-1.6[04],0.1065,0.9781
uncorr_bkguncrt17cat_4b_3_Xhh-0.95-1.6[05],-0.1366,0.9532
uncorr_bkguncrt17cat_4b_3_Xhh-0.95-1.6[06],-0.1636,0.9577
uncorr_bkguncrt17cat_4b_3_Xhh-0.95-1.6[07],0.8505,0.9761
uncorr_bkguncrt17cat_4b_3_Xhh-0.95-1.6[08],0.2061,0.9486
uncorr_bkguncrt17cat_4b_3_Xhh-0.95-1.6[09],0.1859,0.9707
uncorr_bkguncrt17cat_4b_3_Xhh-0.95-1.6[10],-0.4404,0.9292
uncorr_bkguncrt17cat_4b_3_Xhh-0.95-1.6[11],0.0751,0.9755
uncorr_bkguncrt17cat_4b_3_Xhh-0.95-1.6[12],0.1418,0.9526
uncorr_bkguncrt17cat_4b_3_Xhh-0.95-1.6[13],-0.0731,0.9430
uncorr_bkguncrt17cat_4b_3_Xhh-0.95-1.6[14],0.4826,0.9812
uncorr_bkguncrt17cat_4b_3_Xhh-0.95-1.6[15],-0.2624,0.8850
uncorr_bkguncrt17cat_4b_3_Xhh-0.95-1.6[16],0.0117,0.9610
uncorr_bkguncrt17cat_4b_3_Xhh-0.95-1.6[17],0.1456,0.9733
uncorr_bkguncrt17cat_4b_3_Xhh-0.95-1.6[18],-0.1657,0.9550
uncorr_bkguncrt17cat_4b_3_Xhh-0.95-1.6[19],-0.0717,0.9767
uncorr_bkguncrt17cat_4b_3_Xhh-0.95-1.6[20],0.0351,0.9782
uncorr_bkguncrt17cat_4b_3_Xhh-0.95-1.6[21],-0.0408,0.9698
uncorr_bkguncrt17cat_4b_3_Xhh-0.95-1.6[22],-0.3009,0.9685
uncorr_bkguncrt17cat_4b_3_Xhh-0.95-1.6[23],-0.3910,0.9130
uncorr_bkguncrt17cat_4b_3_Xhh-0.95-1.6[24],0.3034,0.9871
uncorr_bkguncrt17cat_4b_3_Xhh-0.95-1.6[25],-0.0865,0.9747
uncorr_bkguncrt17cat_4b_3_Xhh-0.95-1.6[26],-0.2426,0.9575
uncorr_bkguncrt17cat_4b_3_Xhh-0.95-1.6[27],0.1022,0.9813
uncorr_bkguncrt17cat_4b_3_Xhh-0.95-1.6[28],0.2112,0.9283
uncorr_bkguncrt17cat_4b_3_Xhh-0.95-1.6[29],0.2666,0.9983
uncorr_bkguncrt17cat_4b_3_Xhh-0.95-1.6[30],-0.0645,0.9786
uncorr_bkguncrt17cat_4b_3_Xhh-0.95-1.6[31],0.2240,1.0003
uncorr_bkguncrt17cat_4b_3_Xhh-0.95-1.6[32],0.2521,1.0011
uncorr_bkguncrt17cat_4b_3_Xhh-0.95-1.6[33],-0.0041,0.9882
uncorr_bkguncrt17cat_4b_4_Xhh-0.0-0.95[00],-0.1298,0.9771
uncorr_bkguncrt17cat_4b_4_Xhh-0.0-0.95[01],0.4167,0.9919
uncorr_bkguncrt17cat_4b_4_Xhh-0.0-0.95[02],0.0105,0.9862
uncorr_bkguncrt17cat_4b_4_Xhh-0.0-0.95[03],-0.4104,0.9396
uncorr_bkguncrt17cat_4b_4_Xhh-0.0-0.95[04],-0.0420,0.9822
uncorr_bkguncrt17cat_4b_4_Xhh-0.0-0.95[05],-0.1662,0.9670
uncorr_bkguncrt17cat_4b_4_Xhh-0.0-0.95[06],-0.1741,0.9702
uncorr_bkguncrt17cat_4b_4_Xhh-0.0-0.95[07],0.3985,0.9934
uncorr_bkguncrt17cat_4b_4_Xhh-0.0-0.95[08],0.0054,0.9681
uncorr_bkguncrt17cat_4b_4_Xhh-0.0-0.95[09],-0.1938,0.9581
uncorr_bkguncrt17cat_4b_4_Xhh-0.0-0.95[10],-0.0235,0.9769
uncorr_bkguncrt17cat_4b_4_Xhh-0.0-0.95[11],0.3088,0.9846
uncorr_bkguncrt17cat_4b_4_Xhh-0.0-0.95[12],-0.2192,0.9632
uncorr_bkguncrt17cat_4b_4_Xhh-0.0-0.95[13],-0.2335,0.9468
uncorr_bkguncrt17cat_4b_4_Xhh-0.0-0.95[14],-0.0728,0.9264
uncorr_bkguncrt17cat_4b_4_Xhh-0.0-0.95[15],-0.2950,0.8829
uncorr_bkguncrt17cat_4b_4_Xhh-0.0-0.95[16],-0.3330,0.9274
uncorr_bkguncrt17cat_4b_4_Xhh-0.0-0.95[17],-0.3910,0.9153
uncorr_bkguncrt17cat_4b_4_Xhh-0.0-0.95[18],-0.3160,0.9512
uncorr_bkguncrt17cat_4b_4_Xhh-0.0-0.95[19],0.5474,0.9949
uncorr_bkguncrt17cat_4b_4_Xhh-0.0-0.95[20],0.6122,1.0153
uncorr_bkguncrt17cat_4b_4_Xhh-0.0-0.95[21],0.3963,1.0031
uncorr_bkguncrt17cat_4b_4_Xhh-0.0-0.95[22],0.0723,0.9771
uncorr_bkguncrt17cat_4b_4_Xhh-0.0-0.95[23],-0.1125,0.9400
uncorr_bkguncrt17cat_4b_4_Xhh-0.0-0.95[24],0.1277,0.9194
uncorr_bkguncrt17cat_4b_4_Xhh-0.0-0.95[25],0.0408,0.9712
uncorr_bkguncrt17cat_4b_4_Xhh-0.0-0.95[26],-0.0605,0.9698
uncorr_bkguncrt17cat_4b_4_Xhh-0.0-0.95[27],0.0354,0.9603
uncorr_bkguncrt17cat_4b_4_Xhh-0.0-0.95[28],-0.3091,0.9385
uncorr_bkguncrt17cat_4b_4_Xhh-0.0-0.95[29],0.2077,0.9922
uncorr_bkguncrt17cat_4b_4_Xhh-0.0-0.95[30],0.0767,0.9911
uncorr_bkguncrt17cat_4b_4_Xhh-0.0-0.95[31],0.2499,1.0075
uncorr_bkguncrt17cat_4b_4_Xhh-0.0-0.95[32],-0.1785,0.9515
uncorr_bkguncrt17cat_4b_4_Xhh-0.0-0.95[33],-0.1055,0.9766
uncorr_bkguncrt17cat_4b_4_Xhh-0.95-1.6[00],0.0087,0.9744
uncorr_bkguncrt17cat_4b_4_Xhh-0.95-1.6[01],-0.0720,0.9707
uncorr_bkguncrt17cat_4b_4_Xhh-0.95-1.6[02],-0.3093,0.9670
uncorr_bkguncrt17cat_4b_4_Xhh-0.95-1.6[03],-0.0943,0.9777
uncorr_bkguncrt17cat_4b_4_Xhh-0.95-1.6[04],-0.3600,0.9619
uncorr_bkguncrt17cat_4b_4_Xhh-0.95-1.6[05],0.0475,0.9752
uncorr_bkguncrt17cat_4b_4_Xhh-0.95-1.6[06],0.3935,0.9828
uncorr_bkguncrt17cat_4b_4_Xhh-0.95-1.6[07],0.2026,0.9807
uncorr_bkguncrt17cat_4b_4_Xhh-0.95-1.6[08],0.5233,0.9721
uncorr_bkguncrt17cat_4b_4_Xhh-0.95-1.6[09],-0.2662,0.9608
uncorr_bkguncrt17cat_4b_4_Xhh-0.95-1.6[10],-0.2127,0.9520
uncorr_bkguncrt17cat_4b_4_Xhh-0.95-1.6[11],0.0844,0.9667
uncorr_bkguncrt17cat_4b_4_Xhh-0.95-1.6[12],-0.0350,0.9723
uncorr_bkguncrt17cat_4b_4_Xhh-0.95-1.6[13],0.1769,0.9708
uncorr_bkguncrt17cat_4b_4_Xhh-0.95-1.6[14],-0.3532,0.9565
uncorr_bkguncrt17cat_4b_4_Xhh-0.95-1.6[15],-0.2506,0.9092
uncorr_bkguncrt17cat_4b_4_Xhh-0.95-1.6[16],-0.3471,0.9315
uncorr_bkguncrt17cat_4b_4_Xhh-0.95-1.6[17],0.1437,0.9202
uncorr_bkguncrt17cat_4b_4_Xhh-0.95-1.6[18],-0.4305,0.8698
uncorr_bkguncrt17cat_4b_4_Xhh-0.95-1.6[19],-0.1616,0.9448
uncorr_bkguncrt17cat_4b_4_Xhh-0.95-1.6[20],0.3418,0.9817
uncorr_bkguncrt17cat_4b_4_Xhh-0.95-1.6[21],-0.2333,0.9636
uncorr_bkguncrt17cat_4b_4_Xhh-0.95-1.6[22],-0.1319,0.9692
uncorr_bkguncrt17cat_4b_4_Xhh-0.95-1.6[23],-0.1631,0.9713
uncorr_bkguncrt17cat_4b_4_Xhh-0.95-1.6[24],0.1405,0.9838
uncorr_bkguncrt17cat_4b_4_Xhh-0.95-1.6[25],-0.1952,0.9430
uncorr_bkguncrt17cat_4b_4_Xhh-0.95-1.6[26],0.0136,0.9445
uncorr_bkguncrt17cat_4b_4_Xhh-0.95-1.6[27],0.3964,0.9935
uncorr_bkguncrt17cat_4b_4_Xhh-0.95-1.6[28],-0.0093,0.9533
uncorr_bkguncrt17cat_4b_4_Xhh-0.95-1.6[29],0.5384,0.9946
uncorr_bkguncrt17cat_4b_4_Xhh-0.95-1.6[30],0.0321,0.9884
uncorr_bkguncrt17cat_4b_4_Xhh-0.95-1.6[31],-0.2622,0.9505
uncorr_bkguncrt17cat_4b_4_Xhh-0.95-1.6[32],0.1090,0.9905
uncorr_bkguncrt17cat_4b_4_Xhh-0.95-1.6[33],-0.1178,0.9527
uncorr_bkguncrt17cat_4b_5_Xhh-0.0-0.95[00],0.0042,0.9902
uncorr_bkguncrt17cat_4b_5_Xhh-0.0-0.95[01],-0.2063,0.9765
uncorr_bkguncrt17cat_4b_5_Xhh-0.0-0.95[02],-0.0865,0.9803
uncorr_bkguncrt17cat_4b_5_Xhh-0.0-0.95[03],-0.1195,0.9823
uncorr_bkguncrt17cat_4b_5_Xhh-0.0-0.95[04],0.0199,0.9920
uncorr_bkguncrt17cat_4b_5_Xhh-0.0-0.95[05],0.0561,0.9903
uncorr_bkguncrt17cat_4b_5_Xhh-0.0-0.95[06],-0.0604,0.9899
uncorr_bkguncrt17cat_4b_5_Xhh-0.0-0.95[07],0.2058,0.9917
uncorr_bkguncrt17cat_4b_5_Xhh-0.0-0.95[08],0.0307,0.9877
uncorr_bkguncrt17cat_4b_5_Xhh-0.0-0.95[09],0.0572,0.9889
uncorr_bkguncrt17cat_4b_5_Xhh-0.0-0.95[10],-0.2354,0.9753
uncorr_bkguncrt17cat_4b_5_Xhh-0.0-0.95[11],0.0890,0.9704
uncorr_bkguncrt17cat_4b_5_Xhh-0.0-0.95[12],-0.0041,0.9828
uncorr_bkguncrt17cat_4b_5_Xhh-0.0-0.95[13],0.0184,0.9731
uncorr_bkguncrt17cat_4b_5_Xhh-0.0-0.95[14],-0.0229,0.9798
uncorr_bkguncrt17cat_4b_5_Xhh-0.0-0.95[15],0.0891,0.9670
uncorr_bkguncrt17cat_4b_5_Xhh-0.0-0.95[16],0.1124,0.9886
uncorr_bkguncrt17cat_4b_5_Xhh-0.0-0.95[17],-0.3392,0.9214
uncorr_bkguncrt17cat_4b_5_Xhh-0.0-0.95[18],0.4748,0.9973
uncorr_bkguncrt17cat_4b_5_Xhh-0.0-0.95[19],0.1629,0.9929
uncorr_bkguncrt17cat_4b_5_Xhh-0.0-0.95[20],0.3309,1.0082
uncorr_bkguncrt17cat_4b_5_Xhh-0.0-0.95[21],-0.0211,0.9859
uncorr_bkguncrt17cat_4b_5_Xhh-0.0-0.95[22],0.1047,0.9820
uncorr_bkguncrt17cat_4b_5_Xhh-0.0-0.95[23],0.0317,0.9877
uncorr_bkguncrt17cat_4b_5_Xhh-0.0-0.95[24],-0.0208,0.9674
uncorr_bkguncrt17cat_4b_5_Xhh-0.0-0.95[25],0.3526,0.9966
uncorr_bkguncrt17cat_4b_5_Xhh-0.0-0.95[26],-0.1800,0.9529
uncorr_bkguncrt17cat_4b_5_Xhh-0.0-0.95[27],0.1392,1.0035
uncorr_bkguncrt17cat_4b_5_Xhh-0.0-0.95[28],-0.1949,0.9160
uncorr_bkguncrt17cat_4b_5_Xhh-0.0-0.95[29],-0.1043,0.9623
uncorr_bkguncrt17cat_4b_5_Xhh-0.0-0.95[30],0.1821,1.0142
uncorr_bkguncrt17cat_4b_5_Xhh-0.0-0.95[31],-0.0432,0.9820
uncorr_bkguncrt17cat_4b_5_Xhh-0.0-0.95[32],-0.3827,0.7769
uncorr_bkguncrt17cat_4b_5_Xhh-0.0-0.95[33],-0.2216,0.8942
uncorr_bkguncrt17cat_4b_5_Xhh-0.95-1.6[00],0.0721,0.9949
uncorr_bkguncrt17cat_4b_5_Xhh-0.95-1.6[01],-0.0758,0.9860
uncorr_bkguncrt17cat_4b_5_Xhh-0.95-1.6[02],0.0564,0.9911
uncorr_bkguncrt17cat_4b_5_Xhh-0.95-1.6[03],-0.0862,0.9837
uncorr_bkguncrt17cat_4b_5_Xhh-0.95-1.6[04],-0.2077,0.9807
uncorr_bkguncrt17cat_4b_5_Xhh-0.95-1.6[05],-0.0075,0.9870
uncorr_bkguncrt17cat_4b_5_Xhh-0.95-1.6[06],0.0184,0.9854
uncorr_bkguncrt17cat_4b_5_Xhh-0.95-1.6[07],0.2295,0.9910
uncorr_bkguncrt17cat_4b_5_Xhh-0.95-1.6[08],0.0065,0.9864
uncorr_bkguncrt17cat_4b_5_Xhh-0.95-1.6[09],0.1502,0.9920
uncorr_bkguncrt17cat_4b_5_Xhh-0.95-1.6[10],-0.1702,0.9830
uncorr_bkguncrt17cat_4b_5_Xhh-0.95-1.6[11],-0.2481,0.9736
uncorr_bkguncrt17cat_4b_5_Xhh-0.95-1.6[12],-0.0293,0.9832
uncorr_bkguncrt17cat_4b_5_Xhh-0.95-1.6[13],-0.1095,0.9666
uncorr_bkguncrt17cat_4b_5_Xhh-0.95-1.6[14],0.1188,0.9901
uncorr_bkguncrt17cat_4b_5_Xhh-0.95-1.6[15],0.0880,0.9867
uncorr_bkguncrt17cat_4b_5_Xhh-0.95-1.6[16],-0.1409,0.9720
uncorr_bkguncrt17cat_4b_5_Xhh-0.95-1.6[17],0.1449,0.9890
uncorr_bkguncrt17cat_4b_5_Xhh-0.95-1.6[18],0.0509,0.9721
uncorr_bkguncrt17cat_4b_5_Xhh-0.95-1.6[19],-0.0464,0.9851
uncorr_bkguncrt17cat_4b_5_Xhh-0.95-1.6[20],-0.2235,0.9509
uncorr_bkguncrt17cat_4b_5_Xhh-0.95-1.6[21],0.0255,0.9856
uncorr_bkguncrt17cat_4b_5_Xhh-0.95-1.6[22],0.0684,0.9789
uncorr_bkguncrt17cat_4b_5_Xhh-0.95-1.6[23],-0.3614,0.9431
uncorr_bkguncrt17cat_4b_5_Xhh-0.95-1.6[24],0.1733,0.9912
uncorr_bkguncrt17cat_4b_5_Xhh-0.95-1.6[25],-0.2229,0.9353
uncorr_bkguncrt17cat_4b_5_Xhh-0.95-1.6[26],-0.0170,0.9852
uncorr_bkguncrt17cat_4b_5_Xhh-0.95-1.6[27],-0.2696,0.8478
uncorr_bkguncrt17cat_4b_5_Xhh-0.95-1.6[28],0.2770,1.0058
uncorr_bkguncrt17cat_4b_5_Xhh-0.95-1.6[29],-0.1166,0.9709
uncorr_bkguncrt17cat_4b_5_Xhh-0.95-1.6[30],0.2926,1.0154
uncorr_bkguncrt17cat_4b_5_Xhh-0.95-1.6[31],0.1978,1.0122
uncorr_bkguncrt17cat_4b_5_Xhh-0.95-1.6[32],-0.0975,0.9733
uncorr_bkguncrt17cat_4b_5_Xhh-0.95-1.6[33],-0.1202,0.9656
