label,pull,err
all_VRyr_cat_0,0.5676,0.6608
all_VRyr_cat_1,1.0843,0.7489
all_VRyr_cat_2,0.6577,0.7693
uncorr_bkguncrt16cat_4b_0_Xhh-0.0-0.95[00],0.0365,0.9230
uncorr_bkguncrt16cat_4b_0_Xhh-0.0-0.95[01],0.2525,0.9545
uncorr_bkguncrt16cat_4b_0_Xhh-0.0-0.95[02],-0.1979,0.9346
uncorr_bkguncrt16cat_4b_0_Xhh-0.0-0.95[03],-0.4497,0.9256
uncorr_bkguncrt16cat_4b_0_Xhh-0.0-0.95[04],0.4103,0.9510
uncorr_bkguncrt16cat_4b_0_Xhh-0.0-0.95[05],0.1008,0.9499
uncorr_bkguncrt16cat_4b_0_Xhh-0.0-0.95[06],0.0459,0.9287
uncorr_bkguncrt16cat_4b_0_Xhh-0.0-0.95[07],-0.4424,0.9500
uncorr_bkguncrt16cat_4b_0_Xhh-0.0-0.95[08],0.1477,0.9629
uncorr_bkguncrt16cat_4b_0_Xhh-0.0-0.95[09],-0.4463,0.9344
uncorr_bkguncrt16cat_4b_0_Xhh-0.0-0.95[10],0.0856,0.9655
uncorr_bkguncrt16cat_4b_0_Xhh-0.0-0.95[11],0.0887,0.9617
uncorr_bkguncrt16cat_4b_0_Xhh-0.0-0.95[12],0.3357,0.9722
uncorr_bkguncrt16cat_4b_0_Xhh-0.0-0.95[13],0.0152,0.9611
uncorr_bkguncrt16cat_4b_0_Xhh-0.0-0.95[14],0.3295,0.9814
uncorr_bkguncrt16cat_4b_0_Xhh-0.0-0.95[15],0.1434,0.9730
uncorr_bkguncrt16cat_4b_0_Xhh-0.0-0.95[16],0.0607,0.9756
uncorr_bkguncrt16cat_4b_0_Xhh-0.0-0.95[17],0.2077,0.9788
uncorr_bkguncrt16cat_4b_0_Xhh-0.0-0.95[18],0.1769,0.9770
uncorr_bkguncrt16cat_4b_0_Xhh-0.0-0.95[19],-0.0802,0.9692
uncorr_bkguncrt16cat_4b_0_Xhh-0.0-0.95[20],-0.1319,0.9666
uncorr_bkguncrt16cat_4b_0_Xhh-0.0-0.95[21],-0.3354,0.9621
uncorr_bkguncrt16cat_4b_0_Xhh-0.0-0.95[22],-0.0533,0.9768
uncorr_bkguncrt16cat_4b_0_Xhh-0.0-0.95[23],-0.2924,0.9638
uncorr_bkguncrt16cat_4b_0_Xhh-0.0-0.95[24],0.6985,1.0209
uncorr_bkguncrt16cat_4b_0_Xhh-0.0-0.95[25],0.1956,0.9871
uncorr_bkguncrt16cat_4b_0_Xhh-0.0-0.95[26],-0.0760,0.9745
uncorr_bkguncrt16cat_4b_0_Xhh-0.0-0.95[27],-0.2575,0.9506
uncorr_bkguncrt16cat_4b_0_Xhh-0.0-0.95[28],0.0564,0.9814
uncorr_bkguncrt16cat_4b_0_Xhh-0.0-0.95[29],0.0416,0.9839
uncorr_bkguncrt16cat_4b_0_Xhh-0.0-0.95[30],-0.1823,0.9654
uncorr_bkguncrt16cat_4b_0_Xhh-0.0-0.95[31],-0.1535,0.9718
uncorr_bkguncrt16cat_4b_0_Xhh-0.0-0.95[32],-0.1276,0.9724
uncorr_bkguncrt16cat_4b_0_Xhh-0.0-0.95[33],-0.1049,0.9793
uncorr_bkguncrt16cat_4b_0_Xhh-0.95-1.6[00],0.0395,0.9064
uncorr_bkguncrt16cat_4b_0_Xhh-0.95-1.6[01],0.2660,0.9198
uncorr_bkguncrt16cat_4b_0_Xhh-0.95-1.6[02],-0.2078,0.9006
uncorr_bkguncrt16cat_4b_0_Xhh-0.95-1.6[03],0.1556,0.9031
uncorr_bkguncrt16cat_4b_0_Xhh-0.95-1.6[04],-0.5416,0.9119
uncorr_bkguncrt16cat_4b_0_Xhh-0.95-1.6[05],0.0311,0.9270
uncorr_bkguncrt16cat_4b_0_Xhh-0.95-1.6[06],-0.6513,0.9049
uncorr_bkguncrt16cat_4b_0_Xhh-0.95-1.6[07],0.1568,0.9339
uncorr_bkguncrt16cat_4b_0_Xhh-0.95-1.6[08],-0.2379,0.9325
uncorr_bkguncrt16cat_4b_0_Xhh-0.95-1.6[09],-0.3340,0.9261
uncorr_bkguncrt16cat_4b_0_Xhh-0.95-1.6[10],0.1923,0.9451
uncorr_bkguncrt16cat_4b_0_Xhh-0.95-1.6[11],0.5497,0.9615
uncorr_bkguncrt16cat_4b_0_Xhh-0.95-1.6[12],0.0186,0.9371
uncorr_bkguncrt16cat_4b_0_Xhh-0.95-1.6[13],0.1879,0.9571
uncorr_bkguncrt16cat_4b_0_Xhh-0.95-1.6[14],-0.3185,0.9465
uncorr_bkguncrt16cat_4b_0_Xhh-0.95-1.6[15],-0.0861,0.9428
uncorr_bkguncrt16cat_4b_0_Xhh-0.95-1.6[16],0.3105,0.9739
uncorr_bkguncrt16cat_4b_0_Xhh-0.95-1.6[17],0.0917,0.9680
uncorr_bkguncrt16cat_4b_0_Xhh-0.95-1.6[18],-0.2297,0.9606
uncorr_bkguncrt16cat_4b_0_Xhh-0.95-1.6[19],0.1108,0.9729
uncorr_bkguncrt16cat_4b_0_Xhh-0.95-1.6[20],0.1137,0.9736
uncorr_bkguncrt16cat_4b_0_Xhh-0.95-1.6[21],0.2675,0.9850
uncorr_bkguncrt16cat_4b_0_Xhh-0.95-1.6[22],-0.2387,0.9408
uncorr_bkguncrt16cat_4b_0_Xhh-0.95-1.6[23],-0.1479,0.9554
uncorr_bkguncrt16cat_4b_0_Xhh-0.95-1.6[24],-0.1292,0.9376
uncorr_bkguncrt16cat_4b_0_Xhh-0.95-1.6[25],0.0383,0.9779
uncorr_bkguncrt16cat_4b_0_Xhh-0.95-1.6[26],0.1717,0.9848
uncorr_bkguncrt16cat_4b_0_Xhh-0.95-1.6[27],-0.2989,0.9602
uncorr_bkguncrt16cat_4b_0_Xhh-0.95-1.6[28],0.0628,0.9876
uncorr_bkguncrt16cat_4b_0_Xhh-0.95-1.6[29],0.1810,0.9909
uncorr_bkguncrt16cat_4b_0_Xhh-0.95-1.6[30],0.0693,0.8664
uncorr_bkguncrt16cat_4b_0_Xhh-0.95-1.6[31],-0.1707,0.9140
uncorr_bkguncrt16cat_4b_0_Xhh-0.95-1.6[32],-0.1959,0.9645
uncorr_bkguncrt16cat_4b_0_Xhh-0.95-1.6[33],-0.2586,0.9451
uncorr_bkguncrt16cat_4b_1_Xhh-0.0-0.95[00],0.3259,0.9686
uncorr_bkguncrt16cat_4b_1_Xhh-0.0-0.95[01],0.2427,0.9635
uncorr_bkguncrt16cat_4b_1_Xhh-0.0-0.95[02],-0.1520,0.9631
uncorr_bkguncrt16cat_4b_1_Xhh-0.0-0.95[03],0.6789,0.9683
uncorr_bkguncrt16cat_4b_1_Xhh-0.0-0.95[04],0.2917,0.9721
uncorr_bkguncrt16cat_4b_1_Xhh-0.0-0.95[05],-0.2850,0.9570
uncorr_bkguncrt16cat_4b_1_Xhh-0.0-0.95[06],-0.3780,0.9450
uncorr_bkguncrt16cat_4b_1_Xhh-0.0-0.95[07],0.0158,0.9588
uncorr_bkguncrt16cat_4b_1_Xhh-0.0-0.95[08],-0.0667,0.9655
uncorr_bkguncrt16cat_4b_1_Xhh-0.0-0.95[09],-0.2157,0.9476
uncorr_bkguncrt16cat_4b_1_Xhh-0.0-0.95[10],-0.2548,0.9529
uncorr_bkguncrt16cat_4b_1_Xhh-0.0-0.95[11],-0.0537,0.9572
uncorr_bkguncrt16cat_4b_1_Xhh-0.0-0.95[12],0.0066,0.9645
uncorr_bkguncrt16cat_4b_1_Xhh-0.0-0.95[13],0.2921,0.9839
uncorr_bkguncrt16cat_4b_1_Xhh-0.0-0.95[14],0.0059,0.9753
uncorr_bkguncrt16cat_4b_1_Xhh-0.0-0.95[15],-0.3385,0.9604
uncorr_bkguncrt16cat_4b_1_Xhh-0.0-0.95[16],-0.2658,0.9551
uncorr_bkguncrt16cat_4b_1_Xhh-0.0-0.95[17],-0.0868,0.9726
uncorr_bkguncrt16cat_4b_1_Xhh-0.0-0.95[18],0.3851,0.9934
uncorr_bkguncrt16cat_4b_1_Xhh-0.0-0.95[19],-0.0934,0.9713
uncorr_bkguncrt16cat_4b_1_Xhh-0.0-0.95[20],0.2888,0.9932
uncorr_bkguncrt16cat_4b_1_Xhh-0.0-0.95[21],0.0252,0.9795
uncorr_bkguncrt16cat_4b_1_Xhh-0.0-0.95[22],0.2045,0.9903
uncorr_bkguncrt16cat_4b_1_Xhh-0.0-0.95[23],-0.0243,0.9808
uncorr_bkguncrt16cat_4b_1_Xhh-0.0-0.95[24],-0.1057,0.9719
uncorr_bkguncrt16cat_4b_1_Xhh-0.0-0.95[25],-0.0035,0.9733
uncorr_bkguncrt16cat_4b_1_Xhh-0.0-0.95[26],-0.0465,0.9721
uncorr_bkguncrt16cat_4b_1_Xhh-0.0-0.95[27],0.1385,0.9948
uncorr_bkguncrt16cat_4b_1_Xhh-0.0-0.95[28],0.4167,1.0120
uncorr_bkguncrt16cat_4b_1_Xhh-0.0-0.95[29],0.0952,0.9853
uncorr_bkguncrt16cat_4b_1_Xhh-0.0-0.95[30],0.0994,0.9928
uncorr_bkguncrt16cat_4b_1_Xhh-0.0-0.95[31],-0.1826,0.9705
uncorr_bkguncrt16cat_4b_1_Xhh-0.0-0.95[32],-0.2005,0.9627
uncorr_bkguncrt16cat_4b_1_Xhh-0.0-0.95[33],0.1915,1.0040
uncorr_bkguncrt16cat_4b_1_Xhh-0.95-1.6[00],0.2346,0.9515
uncorr_bkguncrt16cat_4b_1_Xhh-0.95-1.6[01],-0.6665,0.9209
uncorr_bkguncrt16cat_4b_1_Xhh-0.95-1.6[02],0.8462,0.9621
uncorr_bkguncrt16cat_4b_1_Xhh-0.95-1.6[03],0.0567,0.9444
uncorr_bkguncrt16cat_4b_1_Xhh-0.95-1.6[04],0.1659,0.9531
uncorr_bkguncrt16cat_4b_1_Xhh-0.95-1.6[05],-0.0046,0.9522
uncorr_bkguncrt16cat_4b_1_Xhh-0.95-1.6[06],-0.1553,0.9434
uncorr_bkguncrt16cat_4b_1_Xhh-0.95-1.6[07],0.2036,0.9562
uncorr_bkguncrt16cat_4b_1_Xhh-0.95-1.6[08],-0.0820,0.9508
uncorr_bkguncrt16cat_4b_1_Xhh-0.95-1.6[09],-0.1626,0.9459
uncorr_bkguncrt16cat_4b_1_Xhh-0.95-1.6[10],0.3205,0.9547
uncorr_bkguncrt16cat_4b_1_Xhh-0.95-1.6[11],0.4908,0.9619
uncorr_bkguncrt16cat_4b_1_Xhh-0.95-1.6[12],0.3199,0.9593
uncorr_bkguncrt16cat_4b_1_Xhh-0.95-1.6[13],-0.1583,0.9563
uncorr_bkguncrt16cat_4b_1_Xhh-0.95-1.6[14],-0.1784,0.9591
uncorr_bkguncrt16cat_4b_1_Xhh-0.95-1.6[15],-0.0620,0.9685
uncorr_bkguncrt16cat_4b_1_Xhh-0.95-1.6[16],0.4293,0.9768
uncorr_bkguncrt16cat_4b_1_Xhh-0.95-1.6[17],0.0550,0.9689
uncorr_bkguncrt16cat_4b_1_Xhh-0.95-1.6[18],-0.2371,0.9622
uncorr_bkguncrt16cat_4b_1_Xhh-0.95-1.6[19],0.0268,0.9718
uncorr_bkguncrt16cat_4b_1_Xhh-0.95-1.6[20],-0.0922,0.9741
uncorr_bkguncrt16cat_4b_1_Xhh-0.95-1.6[21],0.0730,0.9522
uncorr_bkguncrt16cat_4b_1_Xhh-0.95-1.6[22],-0.5196,0.9352
uncorr_bkguncrt16cat_4b_1_Xhh-0.95-1.6[23],0.3516,0.9854
uncorr_bkguncrt16cat_4b_1_Xhh-0.95-1.6[24],-0.0433,0.9603
uncorr_bkguncrt16cat_4b_1_Xhh-0.95-1.6[25],-0.2114,0.9706
uncorr_bkguncrt16cat_4b_1_Xhh-0.95-1.6[26],-0.3991,0.9406
uncorr_bkguncrt16cat_4b_1_Xhh-0.95-1.6[27],0.2002,0.9915
uncorr_bkguncrt16cat_4b_1_Xhh-0.95-1.6[28],-0.3163,0.9533
uncorr_bkguncrt16cat_4b_1_Xhh-0.95-1.6[29],-0.2168,0.9668
uncorr_bkguncrt16cat_4b_1_Xhh-0.95-1.6[30],-0.1864,0.9677
uncorr_bkguncrt16cat_4b_1_Xhh-0.95-1.6[31],-0.0609,0.9650
uncorr_bkguncrt16cat_4b_1_Xhh-0.95-1.6[32],0.0002,0.9777
uncorr_bkguncrt16cat_4b_1_Xhh-0.95-1.6[33],-0.1563,0.9526
uncorr_bkguncrt16cat_4b_2_Xhh-0.0-0.95[00],0.0542,0.9868
uncorr_bkguncrt16cat_4b_2_Xhh-0.0-0.95[01],-0.0577,0.9828
uncorr_bkguncrt16cat_4b_2_Xhh-0.0-0.95[02],-0.1237,0.9786
uncorr_bkguncrt16cat_4b_2_Xhh-0.0-0.95[03],0.0115,0.9817
uncorr_bkguncrt16cat_4b_2_Xhh-0.0-0.95[04],-0.2490,0.9740
uncorr_bkguncrt16cat_4b_2_Xhh-0.0-0.95[05],0.3865,0.9888
uncorr_bkguncrt16cat_4b_2_Xhh-0.0-0.95[06],0.2178,0.9832
uncorr_bkguncrt16cat_4b_2_Xhh-0.0-0.95[07],-0.1616,0.9753
uncorr_bkguncrt16cat_4b_2_Xhh-0.0-0.95[08],0.1368,0.9832
uncorr_bkguncrt16cat_4b_2_Xhh-0.0-0.95[09],-0.0394,0.9680
uncorr_bkguncrt16cat_4b_2_Xhh-0.0-0.95[10],0.2518,0.9818
uncorr_bkguncrt16cat_4b_2_Xhh-0.0-0.95[11],-0.1741,0.9726
uncorr_bkguncrt16cat_4b_2_Xhh-0.0-0.95[12],-0.1564,0.9653
uncorr_bkguncrt16cat_4b_2_Xhh-0.0-0.95[13],-0.1389,0.9665
uncorr_bkguncrt16cat_4b_2_Xhh-0.0-0.95[14],0.1338,0.9829
uncorr_bkguncrt16cat_4b_2_Xhh-0.0-0.95[15],0.0658,0.9813
uncorr_bkguncrt16cat_4b_2_Xhh-0.0-0.95[16],-0.2792,0.9600
uncorr_bkguncrt16cat_4b_2_Xhh-0.0-0.95[17],-0.5218,0.9471
uncorr_bkguncrt16cat_4b_2_Xhh-0.0-0.95[18],-0.1566,0.9629
uncorr_bkguncrt16cat_4b_2_Xhh-0.0-0.95[19],0.1195,0.9849
uncorr_bkguncrt16cat_4b_2_Xhh-0.0-0.95[20],-0.0129,0.9808
uncorr_bkguncrt16cat_4b_2_Xhh-0.0-0.95[21],-0.0925,0.9741
uncorr_bkguncrt16cat_4b_2_Xhh-0.0-0.95[22],-0.0208,0.9648
uncorr_bkguncrt16cat_4b_2_Xhh-0.0-0.95[23],0.2756,0.9932
uncorr_bkguncrt16cat_4b_2_Xhh-0.0-0.95[24],-0.0697,0.9732
uncorr_bkguncrt16cat_4b_2_Xhh-0.0-0.95[25],-0.0829,0.9816
uncorr_bkguncrt16cat_4b_2_Xhh-0.0-0.95[26],0.1267,0.9947
uncorr_bkguncrt16cat_4b_2_Xhh-0.0-0.95[27],-0.2073,0.9718
uncorr_bkguncrt16cat_4b_2_Xhh-0.0-0.95[28],-0.0404,0.9844
uncorr_bkguncrt16cat_4b_2_Xhh-0.0-0.95[29],0.0122,0.9878
uncorr_bkguncrt16cat_4b_2_Xhh-0.0-0.95[30],-0.1835,0.9676
uncorr_bkguncrt16cat_4b_2_Xhh-0.0-0.95[31],-0.1818,0.9680
uncorr_bkguncrt16cat_4b_2_Xhh-0.0-0.95[32],-0.1903,0.9487
uncorr_bkguncrt16cat_4b_2_Xhh-0.0-0.95[33],-0.1065,0.9825
uncorr_bkguncrt16cat_4b_2_Xhh-0.95-1.6[00],-0.0818,0.9746
uncorr_bkguncrt16cat_4b_2_Xhh-0.95-1.6[01],0.3267,0.9890
uncorr_bkguncrt16cat_4b_2_Xhh-0.95-1.6[02],0.4005,0.9856
uncorr_bkguncrt16cat_4b_2_Xhh-0.95-1.6[03],0.0078,0.9729
uncorr_bkguncrt16cat_4b_2_Xhh-0.95-1.6[04],-0.5590,0.9567
uncorr_bkguncrt16cat_4b_2_Xhh-0.95-1.6[05],-0.1083,0.9730
uncorr_bkguncrt16cat_4b_2_Xhh-0.95-1.6[06],0.0267,0.9720
uncorr_bkguncrt16cat_4b_2_Xhh-0.95-1.6[07],-0.1793,0.9670
uncorr_bkguncrt16cat_4b_2_Xhh-0.95-1.6[08],-0.4483,0.9547
uncorr_bkguncrt16cat_4b_2_Xhh-0.95-1.6[09],-0.1550,0.9673
uncorr_bkguncrt16cat_4b_2_Xhh-0.95-1.6[10],0.2449,0.9763
uncorr_bkguncrt16cat_4b_2_Xhh-0.95-1.6[11],0.0865,0.9687
uncorr_bkguncrt16cat_4b_2_Xhh-0.95-1.6[12],0.1426,0.9775
uncorr_bkguncrt16cat_4b_2_Xhh-0.95-1.6[13],-0.5506,0.9400
uncorr_bkguncrt16cat_4b_2_Xhh-0.95-1.6[14],0.0033,0.9721
uncorr_bkguncrt16cat_4b_2_Xhh-0.95-1.6[15],-0.1484,0.9603
uncorr_bkguncrt16cat_4b_2_Xhh-0.95-1.6[16],-0.2407,0.9529
uncorr_bkguncrt16cat_4b_2_Xhh-0.95-1.6[17],0.3262,0.9816
uncorr_bkguncrt16cat_4b_2_Xhh-0.95-1.6[18],-0.1535,0.9682
uncorr_bkguncrt16cat_4b_2_Xhh-0.95-1.6[19],-0.1866,0.9515
uncorr_bkguncrt16cat_4b_2_Xhh-0.95-1.6[20],0.0484,0.9800
uncorr_bkguncrt16cat_4b_2_Xhh-0.95-1.6[21],-0.2995,0.9384
uncorr_bkguncrt16cat_4b_2_Xhh-0.95-1.6[22],0.0280,0.9801
uncorr_bkguncrt16cat_4b_2_Xhh-0.95-1.6[23],0.0749,0.9761
uncorr_bkguncrt16cat_4b_2_Xhh-0.95-1.6[24],-0.4175,0.9461
uncorr_bkguncrt16cat_4b_2_Xhh-0.95-1.6[25],0.1803,0.9534
uncorr_bkguncrt16cat_4b_2_Xhh-0.95-1.6[26],-0.1456,0.9742
uncorr_bkguncrt16cat_4b_2_Xhh-0.95-1.6[27],-0.0570,0.9647
uncorr_bkguncrt16cat_4b_2_Xhh-0.95-1.6[28],0.3838,1.0021
uncorr_bkguncrt16cat_4b_2_Xhh-0.95-1.6[29],0.0325,0.9877
uncorr_bkguncrt16cat_4b_2_Xhh-0.95-1.6[30],-0.0579,0.9690
uncorr_bkguncrt16cat_4b_2_Xhh-0.95-1.6[31],-0.1139,0.9693
uncorr_bkguncrt16cat_4b_2_Xhh-0.95-1.6[32],0.2450,1.0034
uncorr_bkguncrt16cat_4b_2_Xhh-0.95-1.6[33],0.1252,0.9977
