label,pull,err
all_VRyr_cat_0,0.4894,0.2241
all_VRyr_cat_1,0.9899,0.3798
uncorr_bkguncrt18cat_4b_0_Xhh-0.0-0.95[00],0.0403,0.8616
uncorr_bkguncrt18cat_4b_0_Xhh-0.0-0.95[01],0.8680,0.8937
uncorr_bkguncrt18cat_4b_0_Xhh-0.0-0.95[02],-0.5827,0.8608
uncorr_bkguncrt18cat_4b_0_Xhh-0.0-0.95[03],-0.2674,0.9131
uncorr_bkguncrt18cat_4b_0_Xhh-0.0-0.95[04],0.0016,0.9060
uncorr_bkguncrt18cat_4b_0_Xhh-0.0-0.95[05],-0.1889,0.9055
uncorr_bkguncrt18cat_4b_0_Xhh-0.0-0.95[06],0.5247,0.9190
uncorr_bkguncrt18cat_4b_0_Xhh-0.0-0.95[07],0.3236,0.9101
uncorr_bkguncrt18cat_4b_0_Xhh-0.0-0.95[08],0.3263,0.9247
uncorr_bkguncrt18cat_4b_0_Xhh-0.0-0.95[09],0.1383,0.9150
uncorr_bkguncrt18cat_4b_0_Xhh-0.0-0.95[10],-0.4747,0.9166
uncorr_bkguncrt18cat_4b_0_Xhh-0.0-0.95[11],-0.0233,0.9007
uncorr_bkguncrt18cat_4b_0_Xhh-0.0-0.95[12],0.3210,0.9343
uncorr_bkguncrt18cat_4b_0_Xhh-0.0-0.95[13],0.1969,0.9487
uncorr_bkguncrt18cat_4b_0_Xhh-0.0-0.95[14],-0.2907,0.9255
uncorr_bkguncrt18cat_4b_0_Xhh-0.0-0.95[15],0.0161,0.9360
uncorr_bkguncrt18cat_4b_0_Xhh-0.0-0.95[16],0.3171,0.9495
uncorr_bkguncrt18cat_4b_0_Xhh-0.0-0.95[17],0.4956,0.9685
uncorr_bkguncrt18cat_4b_0_Xhh-0.0-0.95[18],-0.0940,0.9573
uncorr_bkguncrt18cat_4b_0_Xhh-0.0-0.95[19],0.0380,0.9559
uncorr_bkguncrt18cat_4b_0_Xhh-0.0-0.95[20],-0.2197,0.9487
uncorr_bkguncrt18cat_4b_0_Xhh-0.0-0.95[21],-0.0125,0.9622
uncorr_bkguncrt18cat_4b_0_Xhh-0.0-0.95[22],-0.2236,0.9344
uncorr_bkguncrt18cat_4b_0_Xhh-0.0-0.95[23],0.0512,0.9572
uncorr_bkguncrt18cat_4b_0_Xhh-0.0-0.95[24],-0.2813,0.9508
uncorr_bkguncrt18cat_4b_0_Xhh-0.0-0.95[25],0.2112,0.9736
uncorr_bkguncrt18cat_4b_0_Xhh-0.0-0.95[26],0.1179,0.9764
uncorr_bkguncrt18cat_4b_0_Xhh-0.0-0.95[27],-0.2883,0.9592
uncorr_bkguncrt18cat_4b_0_Xhh-0.0-0.95[28],0.1615,0.9719
uncorr_bkguncrt18cat_4b_0_Xhh-0.0-0.95[29],-0.1909,0.9658
uncorr_bkguncrt18cat_4b_0_Xhh-0.0-0.95[30],0.5602,1.0082
uncorr_bkguncrt18cat_4b_0_Xhh-0.0-0.95[31],0.3698,0.9928
uncorr_bkguncrt18cat_4b_0_Xhh-0.0-0.95[32],0.0623,0.9818
uncorr_bkguncrt18cat_4b_0_Xhh-0.0-0.95[33],-0.0357,0.9743
uncorr_bkguncrt18cat_4b_0_Xhh-0.95-1.6[00],0.5180,0.8127
uncorr_bkguncrt18cat_4b_0_Xhh-0.95-1.6[01],-0.0717,0.8195
uncorr_bkguncrt18cat_4b_0_Xhh-0.95-1.6[02],0.1697,0.8365
uncorr_bkguncrt18cat_4b_0_Xhh-0.95-1.6[03],0.8310,0.8558
uncorr_bkguncrt18cat_4b_0_Xhh-0.95-1.6[04],-0.3618,0.8429
uncorr_bkguncrt18cat_4b_0_Xhh-0.95-1.6[05],-0.0834,0.8589
uncorr_bkguncrt18cat_4b_0_Xhh-0.95-1.6[06],-0.1728,0.8698
uncorr_bkguncrt18cat_4b_0_Xhh-0.95-1.6[07],-0.2375,0.8534
uncorr_bkguncrt18cat_4b_0_Xhh-0.95-1.6[08],-0.8494,0.8551
uncorr_bkguncrt18cat_4b_0_Xhh-0.95-1.6[09],-0.2337,0.8663
uncorr_bkguncrt18cat_4b_0_Xhh-0.95-1.6[10],-0.0474,0.8740
uncorr_bkguncrt18cat_4b_0_Xhh-0.95-1.6[11],0.8888,0.9080
uncorr_bkguncrt18cat_4b_0_Xhh-0.95-1.6[12],0.4811,0.9089
uncorr_bkguncrt18cat_4b_0_Xhh-0.95-1.6[13],-0.3875,0.8850
uncorr_bkguncrt18cat_4b_0_Xhh-0.95-1.6[14],0.0947,0.9126
uncorr_bkguncrt18cat_4b_0_Xhh-0.95-1.6[15],-0.4045,0.9082
uncorr_bkguncrt18cat_4b_0_Xhh-0.95-1.6[16],-0.0302,0.9126
uncorr_bkguncrt18cat_4b_0_Xhh-0.95-1.6[17],0.0947,0.9197
uncorr_bkguncrt18cat_4b_0_Xhh-0.95-1.6[18],-0.4368,0.9102
uncorr_bkguncrt18cat_4b_0_Xhh-0.95-1.6[19],0.4351,0.9243
uncorr_bkguncrt18cat_4b_0_Xhh-0.95-1.6[20],0.2391,0.8900
uncorr_bkguncrt18cat_4b_0_Xhh-0.95-1.6[21],-0.4052,0.9101
uncorr_bkguncrt18cat_4b_0_Xhh-0.95-1.6[22],-0.2909,0.9102
uncorr_bkguncrt18cat_4b_0_Xhh-0.95-1.6[23],-0.2386,0.9378
uncorr_bkguncrt18cat_4b_0_Xhh-0.95-1.6[24],-0.0207,0.9232
uncorr_bkguncrt18cat_4b_0_Xhh-0.95-1.6[25],0.2573,0.9642
uncorr_bkguncrt18cat_4b_0_Xhh-0.95-1.6[26],0.2355,0.9610
uncorr_bkguncrt18cat_4b_0_Xhh-0.95-1.6[27],0.0287,0.9232
uncorr_bkguncrt18cat_4b_0_Xhh-0.95-1.6[28],0.1053,0.9564
uncorr_bkguncrt18cat_4b_0_Xhh-0.95-1.6[29],0.0634,0.9660
uncorr_bkguncrt18cat_4b_0_Xhh-0.95-1.6[30],-0.2513,0.9463
uncorr_bkguncrt18cat_4b_0_Xhh-0.95-1.6[31],-0.3155,0.9193
uncorr_bkguncrt18cat_4b_0_Xhh-0.95-1.6[32],0.1215,0.9773
uncorr_bkguncrt18cat_4b_0_Xhh-0.95-1.6[33],0.1818,0.9786
uncorr_bkguncrt18cat_4b_1_Xhh-0.0-0.95[00],0.4865,0.9692
uncorr_bkguncrt18cat_4b_1_Xhh-0.0-0.95[01],-0.0465,0.9519
uncorr_bkguncrt18cat_4b_1_Xhh-0.0-0.95[02],-0.2931,0.9372
uncorr_bkguncrt18cat_4b_1_Xhh-0.0-0.95[03],0.1942,0.9490
uncorr_bkguncrt18cat_4b_1_Xhh-0.0-0.95[04],-0.2961,0.9449
uncorr_bkguncrt18cat_4b_1_Xhh-0.0-0.95[05],-0.5196,0.9491
uncorr_bkguncrt18cat_4b_1_Xhh-0.0-0.95[06],0.0923,0.9544
uncorr_bkguncrt18cat_4b_1_Xhh-0.0-0.95[07],-0.1265,0.9404
uncorr_bkguncrt18cat_4b_1_Xhh-0.0-0.95[08],-0.1346,0.9517
uncorr_bkguncrt18cat_4b_1_Xhh-0.0-0.95[09],0.0681,0.9555
uncorr_bkguncrt18cat_4b_1_Xhh-0.0-0.95[10],0.2568,0.9517
uncorr_bkguncrt18cat_4b_1_Xhh-0.0-0.95[11],0.0265,0.9544
uncorr_bkguncrt18cat_4b_1_Xhh-0.0-0.95[12],-0.5448,0.9250
uncorr_bkguncrt18cat_4b_1_Xhh-0.0-0.95[13],0.3044,0.9482
uncorr_bkguncrt18cat_4b_1_Xhh-0.0-0.95[14],-0.2516,0.9513
uncorr_bkguncrt18cat_4b_1_Xhh-0.0-0.95[15],0.3860,0.9619
uncorr_bkguncrt18cat_4b_1_Xhh-0.0-0.95[16],-0.0090,0.9559
uncorr_bkguncrt18cat_4b_1_Xhh-0.0-0.95[17],-0.1653,0.9426
uncorr_bkguncrt18cat_4b_1_Xhh-0.0-0.95[18],-0.3584,0.9263
uncorr_bkguncrt18cat_4b_1_Xhh-0.0-0.95[19],0.5023,0.9722
uncorr_bkguncrt18cat_4b_1_Xhh-0.0-0.95[20],0.7454,0.9808
uncorr_bkguncrt18cat_4b_1_Xhh-0.0-0.95[21],0.1872,0.9532
uncorr_bkguncrt18cat_4b_1_Xhh-0.0-0.95[22],0.0294,0.9655
uncorr_bkguncrt18cat_4b_1_Xhh-0.0-0.95[23],-0.1712,0.9583
uncorr_bkguncrt18cat_4b_1_Xhh-0.0-0.95[24],0.0230,0.9605
uncorr_bkguncrt18cat_4b_1_Xhh-0.0-0.95[25],-0.2754,0.9098
uncorr_bkguncrt18cat_4b_1_Xhh-0.0-0.95[26],0.2893,0.9482
uncorr_bkguncrt18cat_4b_1_Xhh-0.0-0.95[27],-0.2424,0.9619
uncorr_bkguncrt18cat_4b_1_Xhh-0.0-0.95[28],0.3385,0.9827
uncorr_bkguncrt18cat_4b_1_Xhh-0.0-0.95[29],0.0455,0.9802
uncorr_bkguncrt18cat_4b_1_Xhh-0.0-0.95[30],0.1892,0.9881
uncorr_bkguncrt18cat_4b_1_Xhh-0.0-0.95[31],0.3546,0.9960
uncorr_bkguncrt18cat_4b_1_Xhh-0.0-0.95[32],0.3151,0.9964
uncorr_bkguncrt18cat_4b_1_Xhh-0.0-0.95[33],-0.0948,0.9671
uncorr_bkguncrt18cat_4b_1_Xhh-0.95-1.6[00],-0.4921,0.9027
uncorr_bkguncrt18cat_4b_1_Xhh-0.95-1.6[01],0.3865,0.9424
uncorr_bkguncrt18cat_4b_1_Xhh-0.95-1.6[02],-0.2445,0.9191
uncorr_bkguncrt18cat_4b_1_Xhh-0.95-1.6[03],0.5312,0.9380
uncorr_bkguncrt18cat_4b_1_Xhh-0.95-1.6[04],-0.1218,0.9197
uncorr_bkguncrt18cat_4b_1_Xhh-0.95-1.6[05],-0.3333,0.9221
uncorr_bkguncrt18cat_4b_1_Xhh-0.95-1.6[06],-0.3676,0.9267
uncorr_bkguncrt18cat_4b_1_Xhh-0.95-1.6[07],0.1886,0.9308
uncorr_bkguncrt18cat_4b_1_Xhh-0.95-1.6[08],0.2096,0.9331
uncorr_bkguncrt18cat_4b_1_Xhh-0.95-1.6[09],-0.0255,0.9350
uncorr_bkguncrt18cat_4b_1_Xhh-0.95-1.6[10],0.0279,0.9349
uncorr_bkguncrt18cat_4b_1_Xhh-0.95-1.6[11],-0.6375,0.9029
uncorr_bkguncrt18cat_4b_1_Xhh-0.95-1.6[12],-0.3752,0.9263
uncorr_bkguncrt18cat_4b_1_Xhh-0.95-1.6[13],-0.2187,0.9256
uncorr_bkguncrt18cat_4b_1_Xhh-0.95-1.6[14],-0.4680,0.8997
uncorr_bkguncrt18cat_4b_1_Xhh-0.95-1.6[15],-0.1056,0.9331
uncorr_bkguncrt18cat_4b_1_Xhh-0.95-1.6[16],-0.0723,0.9221
uncorr_bkguncrt18cat_4b_1_Xhh-0.95-1.6[17],-0.1142,0.9359
uncorr_bkguncrt18cat_4b_1_Xhh-0.95-1.6[18],-0.3325,0.8948
uncorr_bkguncrt18cat_4b_1_Xhh-0.95-1.6[19],-0.2671,0.9251
uncorr_bkguncrt18cat_4b_1_Xhh-0.95-1.6[20],-0.1040,0.9198
uncorr_bkguncrt18cat_4b_1_Xhh-0.95-1.6[21],-0.1929,0.9324
uncorr_bkguncrt18cat_4b_1_Xhh-0.95-1.6[22],0.0019,0.9410
uncorr_bkguncrt18cat_4b_1_Xhh-0.95-1.6[23],0.0962,0.9525
uncorr_bkguncrt18cat_4b_1_Xhh-0.95-1.6[24],0.2256,0.9659
uncorr_bkguncrt18cat_4b_1_Xhh-0.95-1.6[25],0.0548,0.9351
uncorr_bkguncrt18cat_4b_1_Xhh-0.95-1.6[26],0.0718,0.9702
uncorr_bkguncrt18cat_4b_1_Xhh-0.95-1.6[27],0.2985,0.9662
uncorr_bkguncrt18cat_4b_1_Xhh-0.95-1.6[28],0.1625,0.9558
uncorr_bkguncrt18cat_4b_1_Xhh-0.95-1.6[29],0.0140,0.9543
uncorr_bkguncrt18cat_4b_1_Xhh-0.95-1.6[30],0.1060,0.9513
uncorr_bkguncrt18cat_4b_1_Xhh-0.95-1.6[31],0.0399,0.9686
uncorr_bkguncrt18cat_4b_1_Xhh-0.95-1.6[32],0.5708,0.9817
uncorr_bkguncrt18cat_4b_1_Xhh-0.95-1.6[33],0.1369,0.9739
