label,pull,err
all_VRyr_cat_0,0.4522,0.2512
all_VRyr_cat_1,0.0942,0.2941
all_VRyr_cat_2,1.6313,0.4735
uncorr_bkguncrt18cat_4b_0_Xhh-0.0-0.95[00],0.1261,0.8841
uncorr_bkguncrt18cat_4b_0_Xhh-0.0-0.95[01],0.4282,0.9026
uncorr_bkguncrt18cat_4b_0_Xhh-0.0-0.95[02],-0.1106,0.8890
uncorr_bkguncrt18cat_4b_0_Xhh-0.0-0.95[03],-0.2277,0.9291
uncorr_bkguncrt18cat_4b_0_Xhh-0.0-0.95[04],0.1636,0.9301
uncorr_bkguncrt18cat_4b_0_Xhh-0.0-0.95[05],-0.1367,0.9220
uncorr_bkguncrt18cat_4b_0_Xhh-0.0-0.95[06],0.1788,0.9286
uncorr_bkguncrt18cat_4b_0_Xhh-0.0-0.95[07],0.0727,0.9193
uncorr_bkguncrt18cat_4b_0_Xhh-0.0-0.95[08],0.3869,0.9493
uncorr_bkguncrt18cat_4b_0_Xhh-0.0-0.95[09],0.2534,0.9310
uncorr_bkguncrt18cat_4b_0_Xhh-0.0-0.95[10],-0.2474,0.9338
uncorr_bkguncrt18cat_4b_0_Xhh-0.0-0.95[11],-0.2198,0.9127
uncorr_bkguncrt18cat_4b_0_Xhh-0.0-0.95[12],0.5305,0.9484
uncorr_bkguncrt18cat_4b_0_Xhh-0.0-0.95[13],0.0743,0.9538
uncorr_bkguncrt18cat_4b_0_Xhh-0.0-0.95[14],-0.4307,0.9243
uncorr_bkguncrt18cat_4b_0_Xhh-0.0-0.95[15],0.1488,0.9623
uncorr_bkguncrt18cat_4b_0_Xhh-0.0-0.95[16],0.4486,0.9623
uncorr_bkguncrt18cat_4b_0_Xhh-0.0-0.95[17],0.1368,0.9693
uncorr_bkguncrt18cat_4b_0_Xhh-0.0-0.95[18],-0.2127,0.9600
uncorr_bkguncrt18cat_4b_0_Xhh-0.0-0.95[19],0.0753,0.9641
uncorr_bkguncrt18cat_4b_0_Xhh-0.0-0.95[20],-0.5449,0.9355
uncorr_bkguncrt18cat_4b_0_Xhh-0.0-0.95[21],-0.1543,0.9596
uncorr_bkguncrt18cat_4b_0_Xhh-0.0-0.95[22],0.0464,0.9482
uncorr_bkguncrt18cat_4b_0_Xhh-0.0-0.95[23],0.0292,0.9763
uncorr_bkguncrt18cat_4b_0_Xhh-0.0-0.95[24],-0.3647,0.9446
uncorr_bkguncrt18cat_4b_0_Xhh-0.0-0.95[25],0.4458,0.9942
uncorr_bkguncrt18cat_4b_0_Xhh-0.0-0.95[26],-0.0819,0.9698
uncorr_bkguncrt18cat_4b_0_Xhh-0.0-0.95[27],-0.2410,0.9641
uncorr_bkguncrt18cat_4b_0_Xhh-0.0-0.95[28],0.1539,0.9851
uncorr_bkguncrt18cat_4b_0_Xhh-0.0-0.95[29],-0.2990,0.9595
uncorr_bkguncrt18cat_4b_0_Xhh-0.0-0.95[30],0.5709,1.0207
uncorr_bkguncrt18cat_4b_0_Xhh-0.0-0.95[31],0.4803,1.0120
uncorr_bkguncrt18cat_4b_0_Xhh-0.0-0.95[32],0.2162,0.9965
uncorr_bkguncrt18cat_4b_0_Xhh-0.0-0.95[33],-0.0871,0.9704
uncorr_bkguncrt18cat_4b_0_Xhh-0.95-1.6[00],0.7459,0.8473
uncorr_bkguncrt18cat_4b_0_Xhh-0.95-1.6[01],-0.0153,0.8529
uncorr_bkguncrt18cat_4b_0_Xhh-0.95-1.6[02],0.4433,0.8643
uncorr_bkguncrt18cat_4b_0_Xhh-0.95-1.6[03],0.6172,0.8920
uncorr_bkguncrt18cat_4b_0_Xhh-0.95-1.6[04],-0.3751,0.8689
uncorr_bkguncrt18cat_4b_0_Xhh-0.95-1.6[05],-0.4609,0.8766
uncorr_bkguncrt18cat_4b_0_Xhh-0.95-1.6[06],-0.1366,0.8944
uncorr_bkguncrt18cat_4b_0_Xhh-0.95-1.6[07],-0.4042,0.8770
uncorr_bkguncrt18cat_4b_0_Xhh-0.95-1.6[08],-0.6407,0.8845
uncorr_bkguncrt18cat_4b_0_Xhh-0.95-1.6[09],-0.5848,0.8875
uncorr_bkguncrt18cat_4b_0_Xhh-0.95-1.6[10],0.1799,0.9023
uncorr_bkguncrt18cat_4b_0_Xhh-0.95-1.6[11],1.0571,0.9320
uncorr_bkguncrt18cat_4b_0_Xhh-0.95-1.6[12],0.5528,0.9387
uncorr_bkguncrt18cat_4b_0_Xhh-0.95-1.6[13],-0.4008,0.8941
uncorr_bkguncrt18cat_4b_0_Xhh-0.95-1.6[14],0.0140,0.9279
uncorr_bkguncrt18cat_4b_0_Xhh-0.95-1.6[15],-0.0695,0.9323
uncorr_bkguncrt18cat_4b_0_Xhh-0.95-1.6[16],-0.0489,0.9241
uncorr_bkguncrt18cat_4b_0_Xhh-0.95-1.6[17],0.1636,0.9329
uncorr_bkguncrt18cat_4b_0_Xhh-0.95-1.6[18],-0.3246,0.9255
uncorr_bkguncrt18cat_4b_0_Xhh-0.95-1.6[19],0.5620,0.9460
uncorr_bkguncrt18cat_4b_0_Xhh-0.95-1.6[20],0.2683,0.8832
uncorr_bkguncrt18cat_4b_0_Xhh-0.95-1.6[21],-0.3872,0.9153
uncorr_bkguncrt18cat_4b_0_Xhh-0.95-1.6[22],-0.1721,0.9411
uncorr_bkguncrt18cat_4b_0_Xhh-0.95-1.6[23],-0.1511,0.9485
uncorr_bkguncrt18cat_4b_0_Xhh-0.95-1.6[24],-0.0957,0.9524
uncorr_bkguncrt18cat_4b_0_Xhh-0.95-1.6[25],-0.0368,0.9579
uncorr_bkguncrt18cat_4b_0_Xhh-0.95-1.6[26],0.0462,0.9550
uncorr_bkguncrt18cat_4b_0_Xhh-0.95-1.6[27],0.0795,0.9205
uncorr_bkguncrt18cat_4b_0_Xhh-0.95-1.6[28],-0.0560,0.9595
uncorr_bkguncrt18cat_4b_0_Xhh-0.95-1.6[29],0.1443,0.9754
uncorr_bkguncrt18cat_4b_0_Xhh-0.95-1.6[30],-0.0044,0.9657
uncorr_bkguncrt18cat_4b_0_Xhh-0.95-1.6[31],0.0269,0.9680
uncorr_bkguncrt18cat_4b_0_Xhh-0.95-1.6[32],0.2798,0.9934
uncorr_bkguncrt18cat_4b_0_Xhh-0.95-1.6[33],0.1788,0.9844
uncorr_bkguncrt18cat_4b_1_Xhh-0.0-0.95[00],0.3265,0.9507
uncorr_bkguncrt18cat_4b_1_Xhh-0.0-0.95[01],0.4041,0.9555
uncorr_bkguncrt18cat_4b_1_Xhh-0.0-0.95[02],-0.7871,0.9163
uncorr_bkguncrt18cat_4b_1_Xhh-0.0-0.95[03],-0.1233,0.9459
uncorr_bkguncrt18cat_4b_1_Xhh-0.0-0.95[04],-0.2651,0.9365
uncorr_bkguncrt18cat_4b_1_Xhh-0.0-0.95[05],-0.0227,0.9538
uncorr_bkguncrt18cat_4b_1_Xhh-0.0-0.95[06],0.4948,0.9578
uncorr_bkguncrt18cat_4b_1_Xhh-0.0-0.95[07],0.2040,0.9478
uncorr_bkguncrt18cat_4b_1_Xhh-0.0-0.95[08],0.0860,0.9429
uncorr_bkguncrt18cat_4b_1_Xhh-0.0-0.95[09],0.0524,0.9456
uncorr_bkguncrt18cat_4b_1_Xhh-0.0-0.95[10],-0.5003,0.9254
uncorr_bkguncrt18cat_4b_1_Xhh-0.0-0.95[11],0.4267,0.9543
uncorr_bkguncrt18cat_4b_1_Xhh-0.0-0.95[12],-0.7367,0.9157
uncorr_bkguncrt18cat_4b_1_Xhh-0.0-0.95[13],0.3631,0.9720
uncorr_bkguncrt18cat_4b_1_Xhh-0.0-0.95[14],-0.1554,0.9579
uncorr_bkguncrt18cat_4b_1_Xhh-0.0-0.95[15],0.1709,0.9403
uncorr_bkguncrt18cat_4b_1_Xhh-0.0-0.95[16],-0.1731,0.9539
uncorr_bkguncrt18cat_4b_1_Xhh-0.0-0.95[17],0.4703,0.9719
uncorr_bkguncrt18cat_4b_1_Xhh-0.0-0.95[18],-0.0908,0.9664
uncorr_bkguncrt18cat_4b_1_Xhh-0.0-0.95[19],0.6831,0.9915
uncorr_bkguncrt18cat_4b_1_Xhh-0.0-0.95[20],0.8441,0.9920
uncorr_bkguncrt18cat_4b_1_Xhh-0.0-0.95[21],0.0824,0.9485
uncorr_bkguncrt18cat_4b_1_Xhh-0.0-0.95[22],-0.3985,0.9503
uncorr_bkguncrt18cat_4b_1_Xhh-0.0-0.95[23],-0.1882,0.9502
uncorr_bkguncrt18cat_4b_1_Xhh-0.0-0.95[24],-0.2032,0.9528
uncorr_bkguncrt18cat_4b_1_Xhh-0.0-0.95[25],-0.4931,0.8846
uncorr_bkguncrt18cat_4b_1_Xhh-0.0-0.95[26],0.2999,0.9919
uncorr_bkguncrt18cat_4b_1_Xhh-0.0-0.95[27],-0.2182,0.9699
uncorr_bkguncrt18cat_4b_1_Xhh-0.0-0.95[28],0.4647,0.9869
uncorr_bkguncrt18cat_4b_1_Xhh-0.0-0.95[29],-0.0388,0.9798
uncorr_bkguncrt18cat_4b_1_Xhh-0.0-0.95[30],0.4044,1.0015
uncorr_bkguncrt18cat_4b_1_Xhh-0.0-0.95[31],0.1489,0.9865
uncorr_bkguncrt18cat_4b_1_Xhh-0.0-0.95[32],-0.0662,0.9741
uncorr_bkguncrt18cat_4b_1_Xhh-0.0-0.95[33],-0.0062,0.9748
uncorr_bkguncrt18cat_4b_1_Xhh-0.95-1.6[00],-0.3963,0.8908
uncorr_bkguncrt18cat_4b_1_Xhh-0.95-1.6[01],0.3207,0.9193
uncorr_bkguncrt18cat_4b_1_Xhh-0.95-1.6[02],-0.1893,0.9175
uncorr_bkguncrt18cat_4b_1_Xhh-0.95-1.6[03],0.8191,0.9170
uncorr_bkguncrt18cat_4b_1_Xhh-0.95-1.6[04],0.0128,0.9206
uncorr_bkguncrt18cat_4b_1_Xhh-0.95-1.6[05],0.2300,0.9250
uncorr_bkguncrt18cat_4b_1_Xhh-0.95-1.6[06],-0.2804,0.9263
uncorr_bkguncrt18cat_4b_1_Xhh-0.95-1.6[07],0.0283,0.9176
uncorr_bkguncrt18cat_4b_1_Xhh-0.95-1.6[08],-0.1828,0.9182
uncorr_bkguncrt18cat_4b_1_Xhh-0.95-1.6[09],0.4320,0.9282
uncorr_bkguncrt18cat_4b_1_Xhh-0.95-1.6[10],-0.1481,0.9229
uncorr_bkguncrt18cat_4b_1_Xhh-0.95-1.6[11],-0.5763,0.9097
uncorr_bkguncrt18cat_4b_1_Xhh-0.95-1.6[12],-0.3016,0.9156
uncorr_bkguncrt18cat_4b_1_Xhh-0.95-1.6[13],-0.3779,0.9242
uncorr_bkguncrt18cat_4b_1_Xhh-0.95-1.6[14],-0.1936,0.9163
uncorr_bkguncrt18cat_4b_1_Xhh-0.95-1.6[15],-0.4299,0.9323
uncorr_bkguncrt18cat_4b_1_Xhh-0.95-1.6[16],-0.0457,0.9350
uncorr_bkguncrt18cat_4b_1_Xhh-0.95-1.6[17],0.1730,0.9506
uncorr_bkguncrt18cat_4b_1_Xhh-0.95-1.6[18],-0.3015,0.9332
uncorr_bkguncrt18cat_4b_1_Xhh-0.95-1.6[19],-0.0133,0.9375
uncorr_bkguncrt18cat_4b_1_Xhh-0.95-1.6[20],0.0112,0.9470
uncorr_bkguncrt18cat_4b_1_Xhh-0.95-1.6[21],-0.3166,0.9403
uncorr_bkguncrt18cat_4b_1_Xhh-0.95-1.6[22],-0.1983,0.9230
uncorr_bkguncrt18cat_4b_1_Xhh-0.95-1.6[23],-0.0690,0.9632
uncorr_bkguncrt18cat_4b_1_Xhh-0.95-1.6[24],0.2281,0.9434
uncorr_bkguncrt18cat_4b_1_Xhh-0.95-1.6[25],0.1750,0.9530
uncorr_bkguncrt18cat_4b_1_Xhh-0.95-1.6[26],0.2006,0.9800
uncorr_bkguncrt18cat_4b_1_Xhh-0.95-1.6[27],0.2008,0.9805
uncorr_bkguncrt18cat_4b_1_Xhh-0.95-1.6[28],0.4863,0.9769
uncorr_bkguncrt18cat_4b_1_Xhh-0.95-1.6[29],0.1387,0.9722
uncorr_bkguncrt18cat_4b_1_Xhh-0.95-1.6[30],-0.2628,0.9582
uncorr_bkguncrt18cat_4b_1_Xhh-0.95-1.6[31],-0.3571,0.9242
uncorr_bkguncrt18cat_4b_1_Xhh-0.95-1.6[32],0.0014,0.9753
uncorr_bkguncrt18cat_4b_1_Xhh-0.95-1.6[33],0.0533,0.9741
uncorr_bkguncrt18cat_4b_2_Xhh-0.0-0.95[00],0.1286,0.9725
uncorr_bkguncrt18cat_4b_2_Xhh-0.0-0.95[01],0.2994,0.9801
uncorr_bkguncrt18cat_4b_2_Xhh-0.0-0.95[02],-0.1153,0.9603
uncorr_bkguncrt18cat_4b_2_Xhh-0.0-0.95[03],0.3612,0.9717
uncorr_bkguncrt18cat_4b_2_Xhh-0.0-0.95[04],-0.2698,0.9562
uncorr_bkguncrt18cat_4b_2_Xhh-0.0-0.95[05],-0.5985,0.9601
uncorr_bkguncrt18cat_4b_2_Xhh-0.0-0.95[06],0.0224,0.9666
uncorr_bkguncrt18cat_4b_2_Xhh-0.0-0.95[07],-0.0465,0.9621
uncorr_bkguncrt18cat_4b_2_Xhh-0.0-0.95[08],-0.3202,0.9581
uncorr_bkguncrt18cat_4b_2_Xhh-0.0-0.95[09],-0.0994,0.9702
uncorr_bkguncrt18cat_4b_2_Xhh-0.0-0.95[10],0.4099,0.9822
uncorr_bkguncrt18cat_4b_2_Xhh-0.0-0.95[11],-0.2728,0.9549
uncorr_bkguncrt18cat_4b_2_Xhh-0.0-0.95[12],-0.0441,0.9671
uncorr_bkguncrt18cat_4b_2_Xhh-0.0-0.95[13],0.0510,0.9486
uncorr_bkguncrt18cat_4b_2_Xhh-0.0-0.95[14],-0.0789,0.9670
uncorr_bkguncrt18cat_4b_2_Xhh-0.0-0.95[15],0.0753,0.9745
uncorr_bkguncrt18cat_4b_2_Xhh-0.0-0.95[16],0.0606,0.9706
uncorr_bkguncrt18cat_4b_2_Xhh-0.0-0.95[17],-0.3523,0.9448
uncorr_bkguncrt18cat_4b_2_Xhh-0.0-0.95[18],-0.2411,0.9241
uncorr_bkguncrt18cat_4b_2_Xhh-0.0-0.95[19],-0.3343,0.9449
uncorr_bkguncrt18cat_4b_2_Xhh-0.0-0.95[20],0.1305,0.9760
uncorr_bkguncrt18cat_4b_2_Xhh-0.0-0.95[21],0.1524,0.9773
uncorr_bkguncrt18cat_4b_2_Xhh-0.0-0.95[22],0.1715,0.9792
uncorr_bkguncrt18cat_4b_2_Xhh-0.0-0.95[23],-0.0564,0.9630
uncorr_bkguncrt18cat_4b_2_Xhh-0.0-0.95[24],0.1838,0.9823
uncorr_bkguncrt18cat_4b_2_Xhh-0.0-0.95[25],-0.1283,0.9566
uncorr_bkguncrt18cat_4b_2_Xhh-0.0-0.95[26],0.1238,0.9318
uncorr_bkguncrt18cat_4b_2_Xhh-0.0-0.95[27],-0.1648,0.9635
uncorr_bkguncrt18cat_4b_2_Xhh-0.0-0.95[28],-0.0724,0.9725
uncorr_bkguncrt18cat_4b_2_Xhh-0.0-0.95[29],0.1193,0.9864
uncorr_bkguncrt18cat_4b_2_Xhh-0.0-0.95[30],-0.1927,0.9667
uncorr_bkguncrt18cat_4b_2_Xhh-0.0-0.95[31],0.1823,0.9880
uncorr_bkguncrt18cat_4b_2_Xhh-0.0-0.95[32],0.2778,1.0018
uncorr_bkguncrt18cat_4b_2_Xhh-0.0-0.95[33],-0.1064,0.9702
uncorr_bkguncrt18cat_4b_2_Xhh-0.95-1.6[00],-0.2948,0.9431
uncorr_bkguncrt18cat_4b_2_Xhh-0.95-1.6[01],0.1284,0.9581
uncorr_bkguncrt18cat_4b_2_Xhh-0.95-1.6[02],-0.3304,0.9452
uncorr_bkguncrt18cat_4b_2_Xhh-0.95-1.6[03],0.2549,0.9556
uncorr_bkguncrt18cat_4b_2_Xhh-0.95-1.6[04],-0.0445,0.9462
uncorr_bkguncrt18cat_4b_2_Xhh-0.95-1.6[05],-0.0308,0.9594
uncorr_bkguncrt18cat_4b_2_Xhh-0.95-1.6[06],-0.1081,0.9546
uncorr_bkguncrt18cat_4b_2_Xhh-0.95-1.6[07],0.3916,0.9597
uncorr_bkguncrt18cat_4b_2_Xhh-0.95-1.6[08],0.1121,0.9586
uncorr_bkguncrt18cat_4b_2_Xhh-0.95-1.6[09],-0.1605,0.9541
uncorr_bkguncrt18cat_4b_2_Xhh-0.95-1.6[10],-0.0473,0.9559
uncorr_bkguncrt18cat_4b_2_Xhh-0.95-1.6[11],-0.1288,0.9434
uncorr_bkguncrt18cat_4b_2_Xhh-0.95-1.6[12],-0.1741,0.9573
uncorr_bkguncrt18cat_4b_2_Xhh-0.95-1.6[13],0.0427,0.9577
uncorr_bkguncrt18cat_4b_2_Xhh-0.95-1.6[14],-0.2475,0.9383
uncorr_bkguncrt18cat_4b_2_Xhh-0.95-1.6[15],-0.0839,0.9532
uncorr_bkguncrt18cat_4b_2_Xhh-0.95-1.6[16],-0.0900,0.9445
uncorr_bkguncrt18cat_4b_2_Xhh-0.95-1.6[17],-0.4261,0.9460
uncorr_bkguncrt18cat_4b_2_Xhh-0.95-1.6[18],-0.2778,0.9027
uncorr_bkguncrt18cat_4b_2_Xhh-0.95-1.6[19],-0.4191,0.9309
uncorr_bkguncrt18cat_4b_2_Xhh-0.95-1.6[20],-0.1986,0.9300
uncorr_bkguncrt18cat_4b_2_Xhh-0.95-1.6[21],-0.0398,0.9486
uncorr_bkguncrt18cat_4b_2_Xhh-0.95-1.6[22],-0.0365,0.9522
uncorr_bkguncrt18cat_4b_2_Xhh-0.95-1.6[23],-0.0105,0.9537
uncorr_bkguncrt18cat_4b_2_Xhh-0.95-1.6[24],0.0481,0.9688
uncorr_bkguncrt18cat_4b_2_Xhh-0.95-1.6[25],0.1067,0.9549
uncorr_bkguncrt18cat_4b_2_Xhh-0.95-1.6[26],-0.0230,0.9751
uncorr_bkguncrt18cat_4b_2_Xhh-0.95-1.6[27],-0.0011,0.9542
uncorr_bkguncrt18cat_4b_2_Xhh-0.95-1.6[28],-0.2376,0.9441
uncorr_bkguncrt18cat_4b_2_Xhh-0.95-1.6[29],-0.2909,0.9443
uncorr_bkguncrt18cat_4b_2_Xhh-0.95-1.6[30],0.1176,0.9518
uncorr_bkguncrt18cat_4b_2_Xhh-0.95-1.6[31],-0.0009,0.9717
uncorr_bkguncrt18cat_4b_2_Xhh-0.95-1.6[32],0.5420,0.9854
uncorr_bkguncrt18cat_4b_2_Xhh-0.95-1.6[33],0.0842,0.9780
