label,pull,err
all_VRyr_cat_4b_0,1.0351,0.7008
all_VRyr_cat_4b_1,0.4961,0.8163
bkg_normyr_cat_4b_0,0.0183,0.9826
bkg_normyr_cat_4b_1,-0.3617,0.9390
uncorr_bkguncrt16cat_4b_0[00],0.3628,0.8685
uncorr_bkguncrt16cat_4b_0[01],0.2998,0.8764
uncorr_bkguncrt16cat_4b_0[02],-0.2947,0.8450
uncorr_bkguncrt16cat_4b_0[03],-0.1042,0.8420
uncorr_bkguncrt16cat_4b_0[04],0.0366,0.8751
uncorr_bkguncrt16cat_4b_0[05],0.1007,0.8842
uncorr_bkguncrt16cat_4b_0[06],-0.5146,0.8611
uncorr_bkguncrt16cat_4b_0[07],0.0958,0.8968
uncorr_bkguncrt16cat_4b_0[08],0.0317,0.9028
uncorr_bkguncrt16cat_4b_0[09],-0.8336,0.8745
uncorr_bkguncrt16cat_4b_0[10],0.0962,0.9042
uncorr_bkguncrt16cat_4b_0[11],0.4501,0.9180
uncorr_bkguncrt16cat_4b_0[12],0.5904,0.9232
uncorr_bkguncrt16cat_4b_0[13],0.1135,0.9263
uncorr_bkguncrt16cat_4b_0[14],-0.2167,0.9251
uncorr_bkguncrt16cat_4b_0[15],0.2562,0.9359
uncorr_bkguncrt16cat_4b_0[16],0.0584,0.9404
uncorr_bkguncrt16cat_4b_0[17],0.1474,0.9468
uncorr_bkguncrt16cat_4b_0[18],0.2589,0.9562
uncorr_bkguncrt16cat_4b_0[19],0.1051,0.9506
uncorr_bkguncrt16cat_4b_0[20],0.0730,0.9541
uncorr_bkguncrt16cat_4b_0[21],-0.1012,0.9356
uncorr_bkguncrt16cat_4b_0[22],-0.3658,0.9293
uncorr_bkguncrt16cat_4b_0[23],-0.1824,0.9391
uncorr_bkguncrt16cat_4b_0[24],0.3298,0.9546
uncorr_bkguncrt16cat_4b_0[25],-0.0730,0.9565
uncorr_bkguncrt16cat_4b_0[26],-0.0349,0.9512
uncorr_bkguncrt16cat_4b_0[27],-0.2827,0.9509
uncorr_bkguncrt16cat_4b_0[28],0.0954,0.9747
uncorr_bkguncrt16cat_4b_0[29],0.1958,0.9782
uncorr_bkguncrt16cat_4b_0[30],-0.4004,0.8706
uncorr_bkguncrt16cat_4b_0[31],-0.1167,0.9422
uncorr_bkguncrt16cat_4b_0[32],-0.2643,0.9523
uncorr_bkguncrt16cat_4b_0[33],-0.2571,0.9493
uncorr_bkguncrt16cat_4b_1[00],-0.1774,0.9410
uncorr_bkguncrt16cat_4b_1[01],-0.0832,0.9445
uncorr_bkguncrt16cat_4b_1[02],0.8035,0.9623
uncorr_bkguncrt16cat_4b_1[03],0.4464,0.9524
uncorr_bkguncrt16cat_4b_1[04],-0.5170,0.9297
uncorr_bkguncrt16cat_4b_1[05],-0.0099,0.9427
uncorr_bkguncrt16cat_4b_1[06],-0.1662,0.9338
uncorr_bkguncrt16cat_4b_1[07],-0.3924,0.9274
uncorr_bkguncrt16cat_4b_1[08],-0.5142,0.9236
uncorr_bkguncrt16cat_4b_1[09],-0.1799,0.9280
uncorr_bkguncrt16cat_4b_1[10],0.5770,0.9510
uncorr_bkguncrt16cat_4b_1[11],0.3496,0.9405
uncorr_bkguncrt16cat_4b_1[12],-0.0305,0.9353
uncorr_bkguncrt16cat_4b_1[13],-0.4057,0.9220
uncorr_bkguncrt16cat_4b_1[14],0.0949,0.9478
uncorr_bkguncrt16cat_4b_1[15],-0.5468,0.9326
uncorr_bkguncrt16cat_4b_1[16],-0.0134,0.9339
uncorr_bkguncrt16cat_4b_1[17],-0.0416,0.9417
uncorr_bkguncrt16cat_4b_1[18],-0.4571,0.9350
uncorr_bkguncrt16cat_4b_1[19],-0.1728,0.9397
uncorr_bkguncrt16cat_4b_1[20],0.0960,0.9641
uncorr_bkguncrt16cat_4b_1[21],-0.1290,0.9401
uncorr_bkguncrt16cat_4b_1[22],-0.1013,0.9469
uncorr_bkguncrt16cat_4b_1[23],0.3588,0.9719
uncorr_bkguncrt16cat_4b_1[24],-0.4621,0.9392
uncorr_bkguncrt16cat_4b_1[25],0.0295,0.9451
uncorr_bkguncrt16cat_4b_1[26],-0.2526,0.9550
uncorr_bkguncrt16cat_4b_1[27],-0.0007,0.9629
uncorr_bkguncrt16cat_4b_1[28],0.2264,0.9754
uncorr_bkguncrt16cat_4b_1[29],-0.1247,0.9675
uncorr_bkguncrt16cat_4b_1[30],-0.0764,0.9629
uncorr_bkguncrt16cat_4b_1[31],-0.4553,0.9382
uncorr_bkguncrt16cat_4b_1[32],0.0054,0.9718
uncorr_bkguncrt16cat_4b_1[33],0.0614,0.9762
