label,pull,err
all_VRyr_cat_0,1.2299,0.6150
uncorr_bkguncrt16cat_4b_0_Xhh-0.0-0.95[00],0.2281,0.9067
uncorr_bkguncrt16cat_4b_0_Xhh-0.0-0.95[01],0.3255,0.9317
uncorr_bkguncrt16cat_4b_0_Xhh-0.0-0.95[02],-0.3564,0.9121
uncorr_bkguncrt16cat_4b_0_Xhh-0.0-0.95[03],0.1057,0.9130
uncorr_bkguncrt16cat_4b_0_Xhh-0.0-0.95[04],0.4441,0.9320
uncorr_bkguncrt16cat_4b_0_Xhh-0.0-0.95[05],0.1943,0.9282
uncorr_bkguncrt16cat_4b_0_Xhh-0.0-0.95[06],-0.0024,0.9113
uncorr_bkguncrt16cat_4b_0_Xhh-0.0-0.95[07],-0.4626,0.9208
uncorr_bkguncrt16cat_4b_0_Xhh-0.0-0.95[08],0.2228,0.9401
uncorr_bkguncrt16cat_4b_0_Xhh-0.0-0.95[09],-0.4869,0.9077
uncorr_bkguncrt16cat_4b_0_Xhh-0.0-0.95[10],0.0958,0.9377
uncorr_bkguncrt16cat_4b_0_Xhh-0.0-0.95[11],-0.0929,0.9293
uncorr_bkguncrt16cat_4b_0_Xhh-0.0-0.95[12],0.1670,0.9389
uncorr_bkguncrt16cat_4b_0_Xhh-0.0-0.95[13],0.1983,0.9459
uncorr_bkguncrt16cat_4b_0_Xhh-0.0-0.95[14],0.3673,0.9590
uncorr_bkguncrt16cat_4b_0_Xhh-0.0-0.95[15],-0.1039,0.9469
uncorr_bkguncrt16cat_4b_0_Xhh-0.0-0.95[16],-0.3647,0.9327
uncorr_bkguncrt16cat_4b_0_Xhh-0.0-0.95[17],-0.3277,0.9361
uncorr_bkguncrt16cat_4b_0_Xhh-0.0-0.95[18],0.3895,0.9650
uncorr_bkguncrt16cat_4b_0_Xhh-0.0-0.95[19],-0.0016,0.9552
uncorr_bkguncrt16cat_4b_0_Xhh-0.0-0.95[20],0.1913,0.9685
uncorr_bkguncrt16cat_4b_0_Xhh-0.0-0.95[21],-0.2283,0.9525
uncorr_bkguncrt16cat_4b_0_Xhh-0.0-0.95[22],0.2445,0.9672
uncorr_bkguncrt16cat_4b_0_Xhh-0.0-0.95[23],-0.0023,0.9639
uncorr_bkguncrt16cat_4b_0_Xhh-0.0-0.95[24],0.2657,0.9752
uncorr_bkguncrt16cat_4b_0_Xhh-0.0-0.95[25],0.0763,0.9682
uncorr_bkguncrt16cat_4b_0_Xhh-0.0-0.95[26],0.0468,0.9704
uncorr_bkguncrt16cat_4b_0_Xhh-0.0-0.95[27],-0.1709,0.9639
uncorr_bkguncrt16cat_4b_0_Xhh-0.0-0.95[28],0.3346,0.9894
uncorr_bkguncrt16cat_4b_0_Xhh-0.0-0.95[29],0.1227,0.9799
uncorr_bkguncrt16cat_4b_0_Xhh-0.0-0.95[30],-0.1392,0.9683
uncorr_bkguncrt16cat_4b_0_Xhh-0.0-0.95[31],-0.3659,0.9548
uncorr_bkguncrt16cat_4b_0_Xhh-0.0-0.95[32],-0.3520,0.9463
uncorr_bkguncrt16cat_4b_0_Xhh-0.0-0.95[33],0.0096,0.9845
uncorr_bkguncrt16cat_4b_0_Xhh-0.95-1.6[00],-0.0121,0.8706
uncorr_bkguncrt16cat_4b_0_Xhh-0.95-1.6[01],-0.0556,0.8773
uncorr_bkguncrt16cat_4b_0_Xhh-0.95-1.6[02],0.6192,0.8803
uncorr_bkguncrt16cat_4b_0_Xhh-0.95-1.6[03],0.2211,0.8694
uncorr_bkguncrt16cat_4b_0_Xhh-0.95-1.6[04],-0.6993,0.8720
uncorr_bkguncrt16cat_4b_0_Xhh-0.95-1.6[05],0.0077,0.8933
uncorr_bkguncrt16cat_4b_0_Xhh-0.95-1.6[06],-0.5311,0.8726
uncorr_bkguncrt16cat_4b_0_Xhh-0.95-1.6[07],0.2725,0.8973
uncorr_bkguncrt16cat_4b_0_Xhh-0.95-1.6[08],-0.5560,0.8834
uncorr_bkguncrt16cat_4b_0_Xhh-0.95-1.6[09],-0.4638,0.8843
uncorr_bkguncrt16cat_4b_0_Xhh-0.95-1.6[10],0.6574,0.9120
uncorr_bkguncrt16cat_4b_0_Xhh-0.95-1.6[11],0.9114,0.9210
uncorr_bkguncrt16cat_4b_0_Xhh-0.95-1.6[12],0.4429,0.9123
uncorr_bkguncrt16cat_4b_0_Xhh-0.95-1.6[13],-0.4004,0.8968
uncorr_bkguncrt16cat_4b_0_Xhh-0.95-1.6[14],-0.3706,0.9124
uncorr_bkguncrt16cat_4b_0_Xhh-0.95-1.6[15],-0.2151,0.9135
uncorr_bkguncrt16cat_4b_0_Xhh-0.95-1.6[16],0.4233,0.9329
uncorr_bkguncrt16cat_4b_0_Xhh-0.95-1.6[17],0.4307,0.9418
uncorr_bkguncrt16cat_4b_0_Xhh-0.95-1.6[18],-0.4854,0.9231
uncorr_bkguncrt16cat_4b_0_Xhh-0.95-1.6[19],-0.0073,0.9316
uncorr_bkguncrt16cat_4b_0_Xhh-0.95-1.6[20],0.0558,0.9477
uncorr_bkguncrt16cat_4b_0_Xhh-0.95-1.6[21],0.1706,0.9333
uncorr_bkguncrt16cat_4b_0_Xhh-0.95-1.6[22],-0.4983,0.9174
uncorr_bkguncrt16cat_4b_0_Xhh-0.95-1.6[23],0.2962,0.9518
uncorr_bkguncrt16cat_4b_0_Xhh-0.95-1.6[24],-0.4172,0.9151
uncorr_bkguncrt16cat_4b_0_Xhh-0.95-1.6[25],-0.0424,0.9341
uncorr_bkguncrt16cat_4b_0_Xhh-0.95-1.6[26],-0.2895,0.9380
uncorr_bkguncrt16cat_4b_0_Xhh-0.95-1.6[27],-0.0522,0.9531
uncorr_bkguncrt16cat_4b_0_Xhh-0.95-1.6[28],0.1071,0.9650
uncorr_bkguncrt16cat_4b_0_Xhh-0.95-1.6[29],-0.0172,0.9648
uncorr_bkguncrt16cat_4b_0_Xhh-0.95-1.6[30],-0.1727,0.9041
uncorr_bkguncrt16cat_4b_0_Xhh-0.95-1.6[31],-0.1988,0.9346
uncorr_bkguncrt16cat_4b_0_Xhh-0.95-1.6[32],0.0896,0.9738
uncorr_bkguncrt16cat_4b_0_Xhh-0.95-1.6[33],-0.1276,0.9516
