label,pull,err
all_VRyr_cat_0,0.7353,0.7441
all_VRyr_cat_1,0.3965,0.8095
all_VRyr_cat_2,0.8622,0.8205
all_VRyr_cat_3,0.4370,0.8067
all_VRyr_cat_4,0.7255,0.7721
all_VRyr_cat_5,0.3380,0.8441
uncorr_bkguncrt16cat_4b_0[00],0.0094,0.9106
uncorr_bkguncrt16cat_4b_0[01],0.4000,0.9441
uncorr_bkguncrt16cat_4b_0[02],-0.2931,0.9202
uncorr_bkguncrt16cat_4b_0[03],0.3118,0.9255
uncorr_bkguncrt16cat_4b_0[04],-0.2755,0.9232
uncorr_bkguncrt16cat_4b_0[05],0.0648,0.9307
uncorr_bkguncrt16cat_4b_0[06],-0.7591,0.8916
uncorr_bkguncrt16cat_4b_0[07],-0.1673,0.9355
uncorr_bkguncrt16cat_4b_0[08],-0.0133,0.9464
uncorr_bkguncrt16cat_4b_0[09],-0.2709,0.9267
uncorr_bkguncrt16cat_4b_0[10],0.4849,0.9665
uncorr_bkguncrt16cat_4b_0[11],0.0304,0.9474
uncorr_bkguncrt16cat_4b_0[12],0.5756,0.9707
uncorr_bkguncrt16cat_4b_0[13],-0.3944,0.9359
uncorr_bkguncrt16cat_4b_0[14],-0.1283,0.9634
uncorr_bkguncrt16cat_4b_0[15],0.0734,0.9522
uncorr_bkguncrt16cat_4b_0[16],0.3182,0.9804
uncorr_bkguncrt16cat_4b_0[17],0.3663,0.9830
uncorr_bkguncrt16cat_4b_0[18],-0.1295,0.9620
uncorr_bkguncrt16cat_4b_0[19],-0.2721,0.9597
uncorr_bkguncrt16cat_4b_0[20],-0.1034,0.9660
uncorr_bkguncrt16cat_4b_0[21],0.3971,0.9930
uncorr_bkguncrt16cat_4b_0[22],-0.1453,0.9579
uncorr_bkguncrt16cat_4b_0[23],-0.2150,0.9599
uncorr_bkguncrt16cat_4b_0[24],-0.1053,0.9393
uncorr_bkguncrt16cat_4b_0[25],0.3654,0.9957
uncorr_bkguncrt16cat_4b_0[26],-0.2669,0.9586
uncorr_bkguncrt16cat_4b_0[27],-0.2215,0.9649
uncorr_bkguncrt16cat_4b_0[28],0.1882,0.9959
uncorr_bkguncrt16cat_4b_0[29],0.1595,0.9923
uncorr_bkguncrt16cat_4b_0[30],0.0527,0.9855
uncorr_bkguncrt16cat_4b_0[31],-0.3617,0.8612
uncorr_bkguncrt16cat_4b_0[32],-0.1363,0.9704
uncorr_bkguncrt16cat_4b_0[33],-0.2154,0.9448
uncorr_bkguncrt16cat_4b_1[00],0.0208,0.9332
uncorr_bkguncrt16cat_4b_1[01],0.0097,0.9297
uncorr_bkguncrt16cat_4b_1[02],-0.1436,0.9140
uncorr_bkguncrt16cat_4b_1[03],-0.6862,0.9007
uncorr_bkguncrt16cat_4b_1[04],0.0171,0.9401
uncorr_bkguncrt16cat_4b_1[05],0.0126,0.9473
uncorr_bkguncrt16cat_4b_1[06],-0.0022,0.9431
uncorr_bkguncrt16cat_4b_1[07],-0.1345,0.9466
uncorr_bkguncrt16cat_4b_1[08],-0.1451,0.9457
uncorr_bkguncrt16cat_4b_1[09],-0.4981,0.9368
uncorr_bkguncrt16cat_4b_1[10],-0.1914,0.9449
uncorr_bkguncrt16cat_4b_1[11],0.5498,0.9734
uncorr_bkguncrt16cat_4b_1[12],-0.2435,0.9362
uncorr_bkguncrt16cat_4b_1[13],0.4642,0.9772
uncorr_bkguncrt16cat_4b_1[14],0.0586,0.9617
uncorr_bkguncrt16cat_4b_1[15],-0.0317,0.9608
uncorr_bkguncrt16cat_4b_1[16],0.0652,0.9715
uncorr_bkguncrt16cat_4b_1[17],-0.0764,0.9660
uncorr_bkguncrt16cat_4b_1[18],-0.0117,0.9720
uncorr_bkguncrt16cat_4b_1[19],0.2645,0.9819
uncorr_bkguncrt16cat_4b_1[20],0.0786,0.9766
uncorr_bkguncrt16cat_4b_1[21],-0.3246,0.9631
uncorr_bkguncrt16cat_4b_1[22],-0.1715,0.9530
uncorr_bkguncrt16cat_4b_1[23],-0.2347,0.9561
uncorr_bkguncrt16cat_4b_1[24],0.4818,1.0004
uncorr_bkguncrt16cat_4b_1[25],-0.0896,0.9748
uncorr_bkguncrt16cat_4b_1[26],0.3121,0.9963
uncorr_bkguncrt16cat_4b_1[27],-0.3248,0.9517
uncorr_bkguncrt16cat_4b_1[28],-0.0606,0.9780
uncorr_bkguncrt16cat_4b_1[29],0.0735,0.9873
uncorr_bkguncrt16cat_4b_1[30],-0.3412,0.8054
uncorr_bkguncrt16cat_4b_1[31],-0.0560,0.9793
uncorr_bkguncrt16cat_4b_1[32],-0.1852,0.9666
uncorr_bkguncrt16cat_4b_1[33],-0.1548,0.9732
uncorr_bkguncrt16cat_4b_2[00],0.7485,0.9703
uncorr_bkguncrt16cat_4b_2[01],-0.0645,0.9390
uncorr_bkguncrt16cat_4b_2[02],0.0846,0.9473
uncorr_bkguncrt16cat_4b_2[03],0.1098,0.9365
uncorr_bkguncrt16cat_4b_2[04],0.2668,0.9606
uncorr_bkguncrt16cat_4b_2[05],-0.0358,0.9547
uncorr_bkguncrt16cat_4b_2[06],-0.0825,0.9470
uncorr_bkguncrt16cat_4b_2[07],0.3388,0.9640
uncorr_bkguncrt16cat_4b_2[08],0.1192,0.9612
uncorr_bkguncrt16cat_4b_2[09],-0.3768,0.9388
uncorr_bkguncrt16cat_4b_2[10],-0.2033,0.9383
uncorr_bkguncrt16cat_4b_2[11],-0.0884,0.9515
uncorr_bkguncrt16cat_4b_2[12],0.3795,0.9703
uncorr_bkguncrt16cat_4b_2[13],-0.0578,0.9627
uncorr_bkguncrt16cat_4b_2[14],-0.2111,0.9620
uncorr_bkguncrt16cat_4b_2[15],0.2343,0.9769
uncorr_bkguncrt16cat_4b_2[16],-0.2467,0.9592
uncorr_bkguncrt16cat_4b_2[17],-0.0593,0.9707
uncorr_bkguncrt16cat_4b_2[18],0.3762,0.9890
uncorr_bkguncrt16cat_4b_2[19],0.0748,0.9785
uncorr_bkguncrt16cat_4b_2[20],0.0655,0.9811
uncorr_bkguncrt16cat_4b_2[21],-0.1882,0.9296
uncorr_bkguncrt16cat_4b_2[22],-0.1909,0.9666
uncorr_bkguncrt16cat_4b_2[23],0.1541,0.9760
uncorr_bkguncrt16cat_4b_2[24],-0.0126,0.9528
uncorr_bkguncrt16cat_4b_2[25],-0.2472,0.9651
uncorr_bkguncrt16cat_4b_2[26],-0.1649,0.9528
uncorr_bkguncrt16cat_4b_2[27],0.1014,0.9890
uncorr_bkguncrt16cat_4b_2[28],0.0233,0.9827
uncorr_bkguncrt16cat_4b_2[29],0.0279,0.9834
uncorr_bkguncrt16cat_4b_2[30],-0.2480,0.9605
uncorr_bkguncrt16cat_4b_2[31],0.0773,0.9910
uncorr_bkguncrt16cat_4b_2[32],-0.0603,0.9717
uncorr_bkguncrt16cat_4b_2[33],-0.0141,0.9819
uncorr_bkguncrt16cat_4b_3[00],-0.1700,0.9543
uncorr_bkguncrt16cat_4b_3[01],-0.3657,0.9494
uncorr_bkguncrt16cat_4b_3[02],0.7189,0.9825
uncorr_bkguncrt16cat_4b_3[03],0.5492,0.9768
uncorr_bkguncrt16cat_4b_3[04],0.1890,0.9652
uncorr_bkguncrt16cat_4b_3[05],-0.2423,0.9551
uncorr_bkguncrt16cat_4b_3[06],-0.4571,0.9423
uncorr_bkguncrt16cat_4b_3[07],-0.1415,0.9510
uncorr_bkguncrt16cat_4b_3[08],-0.3064,0.9532
uncorr_bkguncrt16cat_4b_3[09],-0.0127,0.9578
uncorr_bkguncrt16cat_4b_3[10],0.2527,0.9697
uncorr_bkguncrt16cat_4b_3[11],0.5569,0.9707
uncorr_bkguncrt16cat_4b_3[12],-0.0760,0.9536
uncorr_bkguncrt16cat_4b_3[13],0.1514,0.9745
uncorr_bkguncrt16cat_4b_3[14],-0.0000,0.9709
uncorr_bkguncrt16cat_4b_3[15],-0.5463,0.9589
uncorr_bkguncrt16cat_4b_3[16],0.4786,0.9797
uncorr_bkguncrt16cat_4b_3[17],0.0320,0.9720
uncorr_bkguncrt16cat_4b_3[18],-0.2704,0.9637
uncorr_bkguncrt16cat_4b_3[19],-0.1242,0.9674
uncorr_bkguncrt16cat_4b_3[20],0.0828,0.9835
uncorr_bkguncrt16cat_4b_3[21],0.1771,0.9847
uncorr_bkguncrt16cat_4b_3[22],-0.1437,0.9566
uncorr_bkguncrt16cat_4b_3[23],0.1662,0.9876
uncorr_bkguncrt16cat_4b_3[24],-0.1079,0.9786
uncorr_bkguncrt16cat_4b_3[25],-0.0118,0.9761
uncorr_bkguncrt16cat_4b_3[26],-0.3034,0.9553
uncorr_bkguncrt16cat_4b_3[27],0.2207,0.9952
uncorr_bkguncrt16cat_4b_3[28],-0.0485,0.9684
uncorr_bkguncrt16cat_4b_3[29],-0.1982,0.9655
uncorr_bkguncrt16cat_4b_3[30],0.0992,0.9901
uncorr_bkguncrt16cat_4b_3[31],-0.3459,0.9410
uncorr_bkguncrt16cat_4b_3[32],-0.1171,0.9720
uncorr_bkguncrt16cat_4b_3[33],0.0581,0.9736
uncorr_bkguncrt16cat_4b_4[00],-0.1521,0.9675
uncorr_bkguncrt16cat_4b_4[01],0.3741,0.9870
uncorr_bkguncrt16cat_4b_4[02],0.3926,0.9820
uncorr_bkguncrt16cat_4b_4[03],-0.0278,0.9701
uncorr_bkguncrt16cat_4b_4[04],-0.5864,0.9520
uncorr_bkguncrt16cat_4b_4[05],-0.1744,0.9670
uncorr_bkguncrt16cat_4b_4[06],0.0750,0.9701
uncorr_bkguncrt16cat_4b_4[07],-0.1153,0.9658
uncorr_bkguncrt16cat_4b_4[08],-0.3622,0.9545
uncorr_bkguncrt16cat_4b_4[09],-0.1929,0.9601
uncorr_bkguncrt16cat_4b_4[10],0.1198,0.9695
uncorr_bkguncrt16cat_4b_4[11],0.1015,0.9702
uncorr_bkguncrt16cat_4b_4[12],0.0360,0.9686
uncorr_bkguncrt16cat_4b_4[13],-0.4314,0.9413
uncorr_bkguncrt16cat_4b_4[14],0.1556,0.9789
uncorr_bkguncrt16cat_4b_4[15],-0.2178,0.9605
uncorr_bkguncrt16cat_4b_4[16],-0.3440,0.9461
uncorr_bkguncrt16cat_4b_4[17],0.0896,0.9750
uncorr_bkguncrt16cat_4b_4[18],-0.2081,0.9633
uncorr_bkguncrt16cat_4b_4[19],-0.2410,0.9508
uncorr_bkguncrt16cat_4b_4[20],0.1770,0.9845
uncorr_bkguncrt16cat_4b_4[21],-0.4212,0.9394
uncorr_bkguncrt16cat_4b_4[22],-0.1122,0.9621
uncorr_bkguncrt16cat_4b_4[23],0.1581,0.9869
uncorr_bkguncrt16cat_4b_4[24],-0.3897,0.9477
uncorr_bkguncrt16cat_4b_4[25],-0.3643,0.9094
uncorr_bkguncrt16cat_4b_4[26],0.0646,0.9877
uncorr_bkguncrt16cat_4b_4[27],-0.1736,0.9625
uncorr_bkguncrt16cat_4b_4[28],0.2464,0.9970
uncorr_bkguncrt16cat_4b_4[29],0.0278,0.9871
uncorr_bkguncrt16cat_4b_4[30],-0.0631,0.9707
uncorr_bkguncrt16cat_4b_4[31],-0.1494,0.9682
uncorr_bkguncrt16cat_4b_4[32],0.2519,0.9993
uncorr_bkguncrt16cat_4b_4[33],0.0708,0.9925
uncorr_bkguncrt16cat_4b_5[00],0.1469,0.9958
uncorr_bkguncrt16cat_4b_5[01],-0.1383,0.9837
uncorr_bkguncrt16cat_4b_5[02],-0.1363,0.9822
uncorr_bkguncrt16cat_4b_5[03],0.0300,0.9852
uncorr_bkguncrt16cat_4b_5[04],-0.2306,0.9802
uncorr_bkguncrt16cat_4b_5[05],0.3726,0.9933
uncorr_bkguncrt16cat_4b_5[06],0.1325,0.9856
uncorr_bkguncrt16cat_4b_5[07],-0.2106,0.9790
uncorr_bkguncrt16cat_4b_5[08],0.0148,0.9825
uncorr_bkguncrt16cat_4b_5[09],-0.0209,0.9786
uncorr_bkguncrt16cat_4b_5[10],0.3320,0.9899
uncorr_bkguncrt16cat_4b_5[11],-0.1627,0.9740
uncorr_bkguncrt16cat_4b_5[12],0.0040,0.9819
uncorr_bkguncrt16cat_4b_5[13],-0.2667,0.9665
uncorr_bkguncrt16cat_4b_5[14],-0.0253,0.9778
uncorr_bkguncrt16cat_4b_5[15],0.1308,0.9812
uncorr_bkguncrt16cat_4b_5[16],-0.1563,0.9702
uncorr_bkguncrt16cat_4b_5[17],-0.1837,0.9642
uncorr_bkguncrt16cat_4b_5[18],-0.0879,0.9728
uncorr_bkguncrt16cat_4b_5[19],0.1547,0.9834
uncorr_bkguncrt16cat_4b_5[20],-0.1306,0.9793
uncorr_bkguncrt16cat_4b_5[21],0.0432,0.9709
uncorr_bkguncrt16cat_4b_5[22],0.1233,0.9886
uncorr_bkguncrt16cat_4b_5[23],0.1522,0.9787
uncorr_bkguncrt16cat_4b_5[24],-0.1150,0.9698
uncorr_bkguncrt16cat_4b_5[25],0.3338,1.0048
uncorr_bkguncrt16cat_4b_5[26],-0.1279,0.9743
uncorr_bkguncrt16cat_4b_5[27],-0.1057,0.9631
uncorr_bkguncrt16cat_4b_5[28],0.0954,0.9870
uncorr_bkguncrt16cat_4b_5[29],0.0202,0.9900
uncorr_bkguncrt16cat_4b_5[30],-0.1960,0.9610
uncorr_bkguncrt16cat_4b_5[31],-0.1522,0.9664
uncorr_bkguncrt16cat_4b_5[32],-0.0984,0.9811
uncorr_bkguncrt16cat_4b_5[33],-0.0680,0.9850
