label,pull,err
all_VRyr_cat_0,0.9926,0.6718
all_VRyr_cat_1,0.7164,0.7927
uncorr_bkguncrt16cat_4b_0[00],0.3463,0.8703
uncorr_bkguncrt16cat_4b_0[01],0.2879,0.8762
uncorr_bkguncrt16cat_4b_0[02],-0.3194,0.8443
uncorr_bkguncrt16cat_4b_0[03],-0.1263,0.8394
uncorr_bkguncrt16cat_4b_0[04],0.0254,0.8726
uncorr_bkguncrt16cat_4b_0[05],0.0910,0.8817
uncorr_bkguncrt16cat_4b_0[06],-0.5340,0.8573
uncorr_bkguncrt16cat_4b_0[07],0.0882,0.8945
uncorr_bkguncrt16cat_4b_0[08],0.0240,0.9006
uncorr_bkguncrt16cat_4b_0[09],-0.8375,0.8723
uncorr_bkguncrt16cat_4b_0[10],0.0877,0.9018
uncorr_bkguncrt16cat_4b_0[11],0.4492,0.9161
uncorr_bkguncrt16cat_4b_0[12],0.5933,0.9214
uncorr_bkguncrt16cat_4b_0[13],0.1204,0.9248
uncorr_bkguncrt16cat_4b_0[14],-0.2210,0.9238
uncorr_bkguncrt16cat_4b_0[15],0.2586,0.9344
uncorr_bkguncrt16cat_4b_0[16],0.0653,0.9391
uncorr_bkguncrt16cat_4b_0[17],0.1620,0.9455
uncorr_bkguncrt16cat_4b_0[18],0.2727,0.9549
uncorr_bkguncrt16cat_4b_0[19],0.1143,0.9494
uncorr_bkguncrt16cat_4b_0[20],0.0825,0.9530
uncorr_bkguncrt16cat_4b_0[21],-0.0970,0.9342
uncorr_bkguncrt16cat_4b_0[22],-0.3684,0.9281
uncorr_bkguncrt16cat_4b_0[23],-0.1807,0.9380
uncorr_bkguncrt16cat_4b_0[24],0.3383,0.9532
uncorr_bkguncrt16cat_4b_0[25],-0.0663,0.9556
uncorr_bkguncrt16cat_4b_0[26],-0.0341,0.9502
uncorr_bkguncrt16cat_4b_0[27],-0.2870,0.9500
uncorr_bkguncrt16cat_4b_0[28],0.1020,0.9740
uncorr_bkguncrt16cat_4b_0[29],0.2046,0.9774
uncorr_bkguncrt16cat_4b_0[30],-0.4065,0.8677
uncorr_bkguncrt16cat_4b_0[31],-0.1227,0.9408
uncorr_bkguncrt16cat_4b_0[32],-0.2662,0.9516
uncorr_bkguncrt16cat_4b_0[33],-0.2589,0.9485
uncorr_bkguncrt16cat_4b_1[00],-0.1783,0.9404
uncorr_bkguncrt16cat_4b_1[01],-0.0847,0.9432
uncorr_bkguncrt16cat_4b_1[02],0.8115,0.9611
uncorr_bkguncrt16cat_4b_1[03],0.4547,0.9513
uncorr_bkguncrt16cat_4b_1[04],-0.5132,0.9282
uncorr_bkguncrt16cat_4b_1[05],-0.0041,0.9415
uncorr_bkguncrt16cat_4b_1[06],-0.1571,0.9332
uncorr_bkguncrt16cat_4b_1[07],-0.3875,0.9264
uncorr_bkguncrt16cat_4b_1[08],-0.5062,0.9230
uncorr_bkguncrt16cat_4b_1[09],-0.1667,0.9281
uncorr_bkguncrt16cat_4b_1[10],0.5929,0.9512
uncorr_bkguncrt16cat_4b_1[11],0.3674,0.9410
uncorr_bkguncrt16cat_4b_1[12],-0.0199,0.9355
uncorr_bkguncrt16cat_4b_1[13],-0.3931,0.9223
uncorr_bkguncrt16cat_4b_1[14],0.1086,0.9483
uncorr_bkguncrt16cat_4b_1[15],-0.5369,0.9330
uncorr_bkguncrt16cat_4b_1[16],0.0037,0.9350
uncorr_bkguncrt16cat_4b_1[17],-0.0302,0.9423
uncorr_bkguncrt16cat_4b_1[18],-0.4430,0.9361
uncorr_bkguncrt16cat_4b_1[19],-0.1547,0.9412
uncorr_bkguncrt16cat_4b_1[20],0.1049,0.9646
uncorr_bkguncrt16cat_4b_1[21],-0.1065,0.9421
uncorr_bkguncrt16cat_4b_1[22],-0.0803,0.9487
uncorr_bkguncrt16cat_4b_1[23],0.3765,0.9735
uncorr_bkguncrt16cat_4b_1[24],-0.4500,0.9403
uncorr_bkguncrt16cat_4b_1[25],0.0458,0.9470
uncorr_bkguncrt16cat_4b_1[26],-0.2371,0.9565
uncorr_bkguncrt16cat_4b_1[27],0.0155,0.9646
uncorr_bkguncrt16cat_4b_1[28],0.2398,0.9767
uncorr_bkguncrt16cat_4b_1[29],-0.1172,0.9683
uncorr_bkguncrt16cat_4b_1[30],-0.0648,0.9642
uncorr_bkguncrt16cat_4b_1[31],-0.4457,0.9394
uncorr_bkguncrt16cat_4b_1[32],0.0165,0.9732
uncorr_bkguncrt16cat_4b_1[33],0.0732,0.9775
