label,pull,err
high_HT16_4b,0.0031,0.4678
high_HT17_4b,0.0000,0.3770
high_HT18_4b,0.0038,0.3904
low_HT16_4b,-0.0011,0.4895
low_HT17_4b,-0.0003,0.3623
low_HT18_4b,-0.0017,0.3566
uncorr_bkguncrt164b[00],0.0002,0.8630
uncorr_bkguncrt164b[01],0.0007,0.9029
uncorr_bkguncrt164b[02],0.0013,0.8462
uncorr_bkguncrt164b[03],0.0021,0.8587
uncorr_bkguncrt164b[04],0.0017,0.8585
uncorr_bkguncrt164b[05],0.0005,0.8599
uncorr_bkguncrt164b[06],-0.0005,0.8686
uncorr_bkguncrt164b[07],-0.0004,0.8840
uncorr_bkguncrt164b[08],-0.0000,0.9023
uncorr_bkguncrt164b[09],0.0002,0.9210
uncorr_bkguncrt164b[10],0.0004,0.9279
uncorr_bkguncrt164b[11],0.0005,0.9288
uncorr_bkguncrt164b[12],0.0005,0.9413
uncorr_bkguncrt164b[13],0.0005,0.9468
uncorr_bkguncrt164b[14],0.0004,0.9464
uncorr_bkguncrt164b[15],0.0004,0.9453
uncorr_bkguncrt164b[16],0.0005,0.9538
uncorr_bkguncrt164b[17],0.0004,0.9511
uncorr_bkguncrt164b[18],0.0004,0.9575
uncorr_bkguncrt164b[19],0.0003,0.9518
uncorr_bkguncrt164b[20],0.0003,0.9528
uncorr_bkguncrt164b[21],0.0003,0.9603
uncorr_bkguncrt164b[22],0.0002,0.9635
uncorr_bkguncrt164b[23],0.0002,0.9725
uncorr_bkguncrt164b[24],0.0003,0.9628
uncorr_bkguncrt164b[25],0.0002,0.9645
uncorr_bkguncrt164b[26],0.0002,0.9681
uncorr_bkguncrt164b[27],0.0002,0.9715
uncorr_bkguncrt164b[28],0.0002,0.9549
uncorr_bkguncrt164b[29],0.0001,0.9784
uncorr_bkguncrt164b[30],0.0001,0.9744
uncorr_bkguncrt164b[31],0.0001,0.9805
uncorr_bkguncrt164b[32],0.0001,0.9844
uncorr_bkguncrt164b[33],0.0001,0.9794
uncorr_bkguncrt164b[34],0.0001,0.9867
uncorr_bkguncrt164b[35],0.0000,0.9883
uncorr_bkguncrt164b[36],0.0001,0.9893
uncorr_bkguncrt164b[37],0.0000,0.9905
uncorr_bkguncrt164b[38],0.0001,0.9815
uncorr_bkguncrt174b[00],0.0001,0.9041
uncorr_bkguncrt174b[01],-0.0000,0.7555
uncorr_bkguncrt174b[02],0.0003,0.7580
uncorr_bkguncrt174b[03],0.0005,0.8418
uncorr_bkguncrt174b[04],0.0005,0.8424
uncorr_bkguncrt174b[05],0.0001,0.8138
uncorr_bkguncrt174b[06],-0.0002,0.8702
uncorr_bkguncrt174b[07],-0.0001,0.8774
uncorr_bkguncrt174b[08],-0.0000,0.8681
uncorr_bkguncrt174b[09],0.0001,0.8803
uncorr_bkguncrt174b[10],0.0001,0.8907
uncorr_bkguncrt174b[11],0.0002,0.8977
uncorr_bkguncrt174b[12],0.0002,0.8623
uncorr_bkguncrt174b[13],0.0002,0.9163
uncorr_bkguncrt174b[14],0.0002,0.9083
uncorr_bkguncrt174b[15],0.0001,0.9204
uncorr_bkguncrt174b[16],0.0001,0.9182
uncorr_bkguncrt174b[17],0.0001,0.9131
uncorr_bkguncrt174b[18],0.0001,0.9328
uncorr_bkguncrt174b[19],0.0001,0.9397
uncorr_bkguncrt174b[20],0.0001,0.9156
uncorr_bkguncrt174b[21],0.0001,0.9444
uncorr_bkguncrt174b[22],0.0001,0.9369
uncorr_bkguncrt174b[23],0.0001,0.9531
uncorr_bkguncrt174b[24],0.0001,0.9591
uncorr_bkguncrt174b[25],0.0000,0.9586
uncorr_bkguncrt174b[26],0.0000,0.9617
uncorr_bkguncrt174b[27],0.0000,0.9640
uncorr_bkguncrt174b[28],0.0000,0.9392
uncorr_bkguncrt174b[29],0.0000,0.9702
uncorr_bkguncrt174b[30],0.0000,0.9682
uncorr_bkguncrt174b[31],0.0000,0.9711
uncorr_bkguncrt174b[32],0.0000,0.9696
uncorr_bkguncrt174b[33],0.0000,0.9783
uncorr_bkguncrt174b[34],0.0000,0.9830
uncorr_bkguncrt174b[35],0.0000,0.9837
uncorr_bkguncrt174b[36],0.0000,0.9817
uncorr_bkguncrt174b[37],0.0000,0.9870
uncorr_bkguncrt174b[38],0.0000,0.9871
uncorr_bkguncrt184b[00],0.0006,0.7665
uncorr_bkguncrt184b[01],0.0013,0.7252
uncorr_bkguncrt184b[02],0.0009,0.7360
uncorr_bkguncrt184b[03],0.0019,0.7227
uncorr_bkguncrt184b[04],0.0014,0.7684
uncorr_bkguncrt184b[05],-0.0014,0.7096
uncorr_bkguncrt184b[06],-0.0031,0.7674
uncorr_bkguncrt184b[07],-0.0025,0.7745
uncorr_bkguncrt184b[08],-0.0014,0.7766
uncorr_bkguncrt184b[09],0.0001,0.7661
uncorr_bkguncrt184b[10],0.0009,0.7942
uncorr_bkguncrt184b[11],0.0015,0.8181
uncorr_bkguncrt184b[12],0.0015,0.8412
uncorr_bkguncrt184b[13],0.0015,0.8632
uncorr_bkguncrt184b[14],0.0012,0.8665
uncorr_bkguncrt184b[15],0.0010,0.8869
uncorr_bkguncrt184b[16],0.0008,0.8900
uncorr_bkguncrt184b[17],0.0008,0.8934
uncorr_bkguncrt184b[18],0.0006,0.8987
uncorr_bkguncrt184b[19],0.0004,0.9141
uncorr_bkguncrt184b[20],0.0004,0.9149
uncorr_bkguncrt184b[21],0.0006,0.9111
uncorr_bkguncrt184b[22],0.0008,0.8817
uncorr_bkguncrt184b[23],0.0001,0.9344
uncorr_bkguncrt184b[24],0.0002,0.9320
uncorr_bkguncrt184b[25],0.0001,0.9329
uncorr_bkguncrt184b[26],0.0002,0.9435
uncorr_bkguncrt184b[27],0.0002,0.9446
uncorr_bkguncrt184b[28],0.0001,0.9549
uncorr_bkguncrt184b[29],0.0001,0.9585
uncorr_bkguncrt184b[30],0.0001,0.9673
uncorr_bkguncrt184b[31],0.0001,0.9581
uncorr_bkguncrt184b[32],0.0001,0.9718
uncorr_bkguncrt184b[33],0.0001,0.9623
uncorr_bkguncrt184b[34],0.0001,0.9694
uncorr_bkguncrt184b[35],0.0000,0.9781
uncorr_bkguncrt184b[36],0.0001,0.9735
uncorr_bkguncrt184b[37],0.0001,0.9788
uncorr_bkguncrt184b[38],0.0003,0.9220
