label,pull,err
high_HT16_cat_4b_0,0.0006,0.5484
high_HT16_cat_4b_1,0.0011,0.6828
high_HT16_cat_4b_2,0.0001,0.5022
high_HT17_cat_4b_0,-0.0014,0.3783
high_HT17_cat_4b_1,-0.0004,0.4950
high_HT17_cat_4b_2,0.0010,0.7174
high_HT18_cat_4b_0,0.0022,0.4253
high_HT18_cat_4b_1,0.0026,0.5013
high_HT18_cat_4b_2,0.0011,0.5152
low_HT16_cat_4b_0,-0.0002,0.5273
low_HT16_cat_4b_1,-0.0012,0.6271
low_HT16_cat_4b_2,0.0006,0.8991
low_HT17_cat_4b_0,0.0003,0.4229
low_HT17_cat_4b_1,0.0000,0.4840
low_HT17_cat_4b_2,-0.0009,0.5723
low_HT18_cat_4b_0,-0.0013,0.3751
low_HT18_cat_4b_1,-0.0015,0.4508
low_HT18_cat_4b_2,-0.0008,0.4861
uncorr_bkguncrt16cat_4b_0[00],0.0001,0.9635
uncorr_bkguncrt16cat_4b_0[01],0.0002,0.9049
uncorr_bkguncrt16cat_4b_0[02],0.0003,0.9227
uncorr_bkguncrt16cat_4b_0[03],0.0004,0.9334
uncorr_bkguncrt16cat_4b_0[04],0.0003,0.9390
uncorr_bkguncrt16cat_4b_0[05],0.0000,0.9392
uncorr_bkguncrt16cat_4b_0[06],-0.0001,0.9485
uncorr_bkguncrt16cat_4b_0[07],-0.0001,0.9484
uncorr_bkguncrt16cat_4b_0[08],-0.0001,0.9528
uncorr_bkguncrt16cat_4b_0[09],-0.0001,0.9608
uncorr_bkguncrt16cat_4b_0[10],-0.0000,0.9584
uncorr_bkguncrt16cat_4b_0[11],-0.0000,0.9626
uncorr_bkguncrt16cat_4b_0[12],-0.0000,0.9681
uncorr_bkguncrt16cat_4b_0[13],-0.0000,0.9700
uncorr_bkguncrt16cat_4b_0[14],-0.0000,0.9684
uncorr_bkguncrt16cat_4b_0[15],-0.0000,0.9682
uncorr_bkguncrt16cat_4b_0[16],-0.0000,0.9748
uncorr_bkguncrt16cat_4b_0[17],-0.0000,0.9737
uncorr_bkguncrt16cat_4b_0[18],-0.0000,0.9753
uncorr_bkguncrt16cat_4b_0[19],-0.0000,0.9709
uncorr_bkguncrt16cat_4b_0[20],-0.0000,0.9736
uncorr_bkguncrt16cat_4b_0[21],-0.0000,0.9770
uncorr_bkguncrt16cat_4b_0[22],-0.0000,0.9791
uncorr_bkguncrt16cat_4b_0[23],-0.0000,0.9849
uncorr_bkguncrt16cat_4b_0[24],0.0000,0.9789
uncorr_bkguncrt16cat_4b_0[25],0.0000,0.9837
uncorr_bkguncrt16cat_4b_0[26],0.0000,0.9826
uncorr_bkguncrt16cat_4b_0[27],0.0000,0.9796
uncorr_bkguncrt16cat_4b_0[28],0.0000,0.9557
uncorr_bkguncrt16cat_4b_0[29],0.0000,0.9836
uncorr_bkguncrt16cat_4b_0[30],0.0000,0.9897
uncorr_bkguncrt16cat_4b_0[31],0.0000,0.9859
uncorr_bkguncrt16cat_4b_0[32],0.0000,0.9909
uncorr_bkguncrt16cat_4b_0[33],0.0000,0.9874
uncorr_bkguncrt16cat_4b_0[34],0.0000,0.9910
uncorr_bkguncrt16cat_4b_0[35],0.0000,0.9931
uncorr_bkguncrt16cat_4b_0[36],0.0000,0.9899
uncorr_bkguncrt16cat_4b_0[37],0.0000,0.9918
uncorr_bkguncrt16cat_4b_0[38],0.0000,0.9858
uncorr_bkguncrt16cat_4b_1[00],0.0003,0.8633
uncorr_bkguncrt16cat_4b_1[01],0.0002,0.9751
uncorr_bkguncrt16cat_4b_1[02],0.0007,0.8654
uncorr_bkguncrt16cat_4b_1[03],0.0008,0.9107
uncorr_bkguncrt16cat_4b_1[04],0.0006,0.9274
uncorr_bkguncrt16cat_4b_1[05],-0.0004,0.9385
uncorr_bkguncrt16cat_4b_1[06],-0.0018,0.9389
uncorr_bkguncrt16cat_4b_1[07],-0.0009,0.9594
uncorr_bkguncrt16cat_4b_1[08],-0.0003,0.9552
uncorr_bkguncrt16cat_4b_1[09],0.0000,0.9563
uncorr_bkguncrt16cat_4b_1[10],0.0002,0.9623
uncorr_bkguncrt16cat_4b_1[11],0.0006,0.9551
uncorr_bkguncrt16cat_4b_1[12],0.0003,0.9698
uncorr_bkguncrt16cat_4b_1[13],0.0005,0.9722
uncorr_bkguncrt16cat_4b_1[14],0.0004,0.9722
uncorr_bkguncrt16cat_4b_1[15],0.0003,0.9770
uncorr_bkguncrt16cat_4b_1[16],0.0005,0.9764
uncorr_bkguncrt16cat_4b_1[17],0.0004,0.9732
uncorr_bkguncrt16cat_4b_1[18],0.0004,0.9770
uncorr_bkguncrt16cat_4b_1[19],0.0004,0.9677
uncorr_bkguncrt16cat_4b_1[20],0.0004,0.9658
uncorr_bkguncrt16cat_4b_1[21],0.0003,0.9760
uncorr_bkguncrt16cat_4b_1[22],0.0002,0.9788
uncorr_bkguncrt16cat_4b_1[23],0.0002,0.9845
uncorr_bkguncrt16cat_4b_1[24],0.0003,0.9763
uncorr_bkguncrt16cat_4b_1[25],0.0003,0.9838
uncorr_bkguncrt16cat_4b_1[26],0.0002,0.9840
uncorr_bkguncrt16cat_4b_1[27],0.0001,0.9832
uncorr_bkguncrt16cat_4b_1[28],0.0002,0.9847
uncorr_bkguncrt16cat_4b_1[29],0.0001,0.9891
uncorr_bkguncrt16cat_4b_1[30],0.0001,0.9883
uncorr_bkguncrt16cat_4b_1[31],0.0002,0.9853
uncorr_bkguncrt16cat_4b_1[32],0.0001,0.9888
uncorr_bkguncrt16cat_4b_1[33],0.0001,0.9900
uncorr_bkguncrt16cat_4b_1[34],0.0001,0.9917
uncorr_bkguncrt16cat_4b_1[35],0.0001,0.9919
uncorr_bkguncrt16cat_4b_1[36],0.0001,0.9951
uncorr_bkguncrt16cat_4b_1[37],0.0001,0.9934
uncorr_bkguncrt16cat_4b_1[38],0.0000,0.9914
uncorr_bkguncrt16cat_4b_2[00],0.0001,0.9635
uncorr_bkguncrt16cat_4b_2[01],-0.0000,0.8785
uncorr_bkguncrt16cat_4b_2[02],-0.0004,0.9290
uncorr_bkguncrt16cat_4b_2[03],0.0001,0.9116
uncorr_bkguncrt16cat_4b_2[04],0.0004,0.9098
uncorr_bkguncrt16cat_4b_2[05],0.0005,0.9318
uncorr_bkguncrt16cat_4b_2[06],0.0004,0.9329
uncorr_bkguncrt16cat_4b_2[07],0.0004,0.9297
uncorr_bkguncrt16cat_4b_2[08],0.0006,0.9528
uncorr_bkguncrt16cat_4b_2[09],0.0009,0.9679
uncorr_bkguncrt16cat_4b_2[10],0.0010,0.9693
uncorr_bkguncrt16cat_4b_2[11],0.0010,0.9713
uncorr_bkguncrt16cat_4b_2[12],0.0011,0.9711
uncorr_bkguncrt16cat_4b_2[13],0.0010,0.9759
uncorr_bkguncrt16cat_4b_2[14],0.0009,0.9763
uncorr_bkguncrt16cat_4b_2[15],0.0011,0.9694
uncorr_bkguncrt16cat_4b_2[16],0.0009,0.9768
uncorr_bkguncrt16cat_4b_2[17],0.0008,0.9767
uncorr_bkguncrt16cat_4b_2[18],0.0007,0.9825
uncorr_bkguncrt16cat_4b_2[19],0.0006,0.9809
uncorr_bkguncrt16cat_4b_2[20],0.0006,0.9803
uncorr_bkguncrt16cat_4b_2[21],0.0005,0.9814
uncorr_bkguncrt16cat_4b_2[22],0.0005,0.9819
uncorr_bkguncrt16cat_4b_2[23],0.0003,0.9868
uncorr_bkguncrt16cat_4b_2[24],0.0005,0.9804
uncorr_bkguncrt16cat_4b_2[25],0.0006,0.9739
uncorr_bkguncrt16cat_4b_2[26],0.0004,0.9799
uncorr_bkguncrt16cat_4b_2[27],0.0003,0.9861
uncorr_bkguncrt16cat_4b_2[28],0.0006,0.9690
uncorr_bkguncrt16cat_4b_2[29],0.0003,0.9873
uncorr_bkguncrt16cat_4b_2[30],0.0005,0.9750
uncorr_bkguncrt16cat_4b_2[31],0.0002,0.9896
uncorr_bkguncrt16cat_4b_2[32],0.0002,0.9881
uncorr_bkguncrt16cat_4b_2[33],0.0003,0.9804
uncorr_bkguncrt16cat_4b_2[34],0.0002,0.9879
uncorr_bkguncrt16cat_4b_2[35],0.0001,0.9893
uncorr_bkguncrt16cat_4b_2[36],0.0002,0.9892
uncorr_bkguncrt16cat_4b_2[37],0.0001,0.9918
uncorr_bkguncrt16cat_4b_2[38],0.0003,0.9797
uncorr_bkguncrt17cat_4b_0[00],-0.0001,0.9003
uncorr_bkguncrt17cat_4b_0[01],0.0004,0.8869
uncorr_bkguncrt17cat_4b_0[02],-0.0010,0.7591
uncorr_bkguncrt17cat_4b_0[03],-0.0011,0.9251
uncorr_bkguncrt17cat_4b_0[04],-0.0004,0.9093
uncorr_bkguncrt17cat_4b_0[05],0.0015,0.8820
uncorr_bkguncrt17cat_4b_0[06],0.0020,0.9469
uncorr_bkguncrt17cat_4b_0[07],0.0012,0.9353
uncorr_bkguncrt17cat_4b_0[08],0.0006,0.9273
uncorr_bkguncrt17cat_4b_0[09],0.0001,0.9376
uncorr_bkguncrt17cat_4b_0[10],0.0001,0.9398
uncorr_bkguncrt17cat_4b_0[11],-0.0001,0.9465
uncorr_bkguncrt17cat_4b_0[12],-0.0001,0.9507
uncorr_bkguncrt17cat_4b_0[13],-0.0002,0.9542
uncorr_bkguncrt17cat_4b_0[14],-0.0003,0.9582
uncorr_bkguncrt17cat_4b_0[15],-0.0002,0.9605
uncorr_bkguncrt17cat_4b_0[16],-0.0001,0.9661
uncorr_bkguncrt17cat_4b_0[17],-0.0001,0.9457
uncorr_bkguncrt17cat_4b_0[18],-0.0001,0.9643
uncorr_bkguncrt17cat_4b_0[19],-0.0001,0.9729
uncorr_bkguncrt17cat_4b_0[20],-0.0001,0.9632
uncorr_bkguncrt17cat_4b_0[21],-0.0001,0.9779
uncorr_bkguncrt17cat_4b_0[22],-0.0001,0.9683
uncorr_bkguncrt17cat_4b_0[23],-0.0001,0.9780
uncorr_bkguncrt17cat_4b_0[24],-0.0000,0.9813
uncorr_bkguncrt17cat_4b_0[25],-0.0000,0.9805
uncorr_bkguncrt17cat_4b_0[26],0.0000,0.9830
uncorr_bkguncrt17cat_4b_0[27],-0.0000,0.9810
uncorr_bkguncrt17cat_4b_0[28],0.0001,0.9713
uncorr_bkguncrt17cat_4b_0[29],0.0000,0.9862
uncorr_bkguncrt17cat_4b_0[30],0.0000,0.9803
uncorr_bkguncrt17cat_4b_0[31],0.0000,0.9887
uncorr_bkguncrt17cat_4b_0[32],0.0000,0.9915
uncorr_bkguncrt17cat_4b_0[33],0.0000,0.9908
uncorr_bkguncrt17cat_4b_0[34],0.0000,0.9900
uncorr_bkguncrt17cat_4b_0[35],0.0000,0.9926
uncorr_bkguncrt17cat_4b_0[36],0.0000,0.9888
uncorr_bkguncrt17cat_4b_0[37],0.0000,0.9923
uncorr_bkguncrt17cat_4b_0[38],0.0000,0.9894
uncorr_bkguncrt17cat_4b_1[00],0.0001,0.8967
uncorr_bkguncrt17cat_4b_1[01],0.0002,0.6903
uncorr_bkguncrt17cat_4b_1[02],0.0000,0.9150
uncorr_bkguncrt17cat_4b_1[03],-0.0001,0.8960
uncorr_bkguncrt17cat_4b_1[04],-0.0001,0.9235
uncorr_bkguncrt17cat_4b_1[05],0.0005,0.9074
uncorr_bkguncrt17cat_4b_1[06],0.0007,0.9245
uncorr_bkguncrt17cat_4b_1[07],0.0005,0.9462
uncorr_bkguncrt17cat_4b_1[08],0.0003,0.9261
uncorr_bkguncrt17cat_4b_1[09],0.0001,0.9409
uncorr_bkguncrt17cat_4b_1[10],-0.0000,0.9459
uncorr_bkguncrt17cat_4b_1[11],-0.0001,0.9465
uncorr_bkguncrt17cat_4b_1[12],-0.0002,0.9475
uncorr_bkguncrt17cat_4b_1[13],-0.0001,0.9582
uncorr_bkguncrt17cat_4b_1[14],-0.0001,0.9515
uncorr_bkguncrt17cat_4b_1[15],-0.0001,0.9572
uncorr_bkguncrt17cat_4b_1[16],-0.0001,0.9431
uncorr_bkguncrt17cat_4b_1[17],-0.0001,0.9437
uncorr_bkguncrt17cat_4b_1[18],-0.0001,0.9679
uncorr_bkguncrt17cat_4b_1[19],-0.0000,0.9654
uncorr_bkguncrt17cat_4b_1[20],-0.0002,0.9270
uncorr_bkguncrt17cat_4b_1[21],-0.0000,0.9676
uncorr_bkguncrt17cat_4b_1[22],-0.0000,0.9723
uncorr_bkguncrt17cat_4b_1[23],-0.0000,0.9688
uncorr_bkguncrt17cat_4b_1[24],-0.0000,0.9779
uncorr_bkguncrt17cat_4b_1[25],0.0000,0.9799
uncorr_bkguncrt17cat_4b_1[26],0.0000,0.9762
uncorr_bkguncrt17cat_4b_1[27],0.0000,0.9773
uncorr_bkguncrt17cat_4b_1[28],0.0000,0.9370
uncorr_bkguncrt17cat_4b_1[29],-0.0000,0.9857
uncorr_bkguncrt17cat_4b_1[30],-0.0000,0.9788
uncorr_bkguncrt17cat_4b_1[31],0.0000,0.9784
uncorr_bkguncrt17cat_4b_1[32],0.0000,0.9821
uncorr_bkguncrt17cat_4b_1[33],0.0000,0.9843
uncorr_bkguncrt17cat_4b_1[34],0.0000,0.9905
uncorr_bkguncrt17cat_4b_1[35],0.0000,0.9911
uncorr_bkguncrt17cat_4b_1[36],0.0000,0.9905
uncorr_bkguncrt17cat_4b_1[37],0.0000,0.9855
uncorr_bkguncrt17cat_4b_1[38],0.0000,0.9846
uncorr_bkguncrt17cat_4b_2[00],0.0001,0.9635
uncorr_bkguncrt17cat_4b_2[01],-0.0003,0.7972
uncorr_bkguncrt17cat_4b_2[02],0.0007,0.8609
uncorr_bkguncrt17cat_4b_2[03],0.0005,0.8743
uncorr_bkguncrt17cat_4b_2[04],0.0007,0.9094
uncorr_bkguncrt17cat_4b_2[05],0.0005,0.9116
uncorr_bkguncrt17cat_4b_2[06],-0.0000,0.9171
uncorr_bkguncrt17cat_4b_2[07],-0.0005,0.9182
uncorr_bkguncrt17cat_4b_2[08],-0.0006,0.9321
uncorr_bkguncrt17cat_4b_2[09],-0.0000,0.9361
uncorr_bkguncrt17cat_4b_2[10],0.0001,0.9450
uncorr_bkguncrt17cat_4b_2[11],0.0006,0.9466
uncorr_bkguncrt17cat_4b_2[12],0.0005,0.8704
uncorr_bkguncrt17cat_4b_2[13],0.0004,0.9652
uncorr_bkguncrt17cat_4b_2[14],0.0004,0.9518
uncorr_bkguncrt17cat_4b_2[15],0.0003,0.9614
uncorr_bkguncrt17cat_4b_2[16],0.0003,0.9602
uncorr_bkguncrt17cat_4b_2[17],0.0002,0.9703
uncorr_bkguncrt17cat_4b_2[18],0.0001,0.9683
uncorr_bkguncrt17cat_4b_2[19],0.0001,0.9733
uncorr_bkguncrt17cat_4b_2[20],0.0001,0.9659
uncorr_bkguncrt17cat_4b_2[21],0.0000,0.9722
uncorr_bkguncrt17cat_4b_2[22],0.0001,0.9632
uncorr_bkguncrt17cat_4b_2[23],0.0000,0.9814
uncorr_bkguncrt17cat_4b_2[24],0.0001,0.9805
uncorr_bkguncrt17cat_4b_2[25],0.0001,0.9786
uncorr_bkguncrt17cat_4b_2[26],-0.0000,0.9835
uncorr_bkguncrt17cat_4b_2[27],-0.0000,0.9862
uncorr_bkguncrt17cat_4b_2[28],-0.0001,0.9818
uncorr_bkguncrt17cat_4b_2[29],-0.0000,0.9823
uncorr_bkguncrt17cat_4b_2[30],-0.0000,0.9844
uncorr_bkguncrt17cat_4b_2[31],0.0000,0.9833
uncorr_bkguncrt17cat_4b_2[32],-0.0001,0.9780
uncorr_bkguncrt17cat_4b_2[33],-0.0000,0.9878
uncorr_bkguncrt17cat_4b_2[34],-0.0000,0.9897
uncorr_bkguncrt17cat_4b_2[35],-0.0000,0.9869
uncorr_bkguncrt17cat_4b_2[36],-0.0001,0.9855
uncorr_bkguncrt17cat_4b_2[37],0.0000,0.9912
uncorr_bkguncrt17cat_4b_2[38],-0.0000,0.9908
uncorr_bkguncrt18cat_4b_0[00],0.0001,0.9782
uncorr_bkguncrt18cat_4b_0[01],0.0015,0.7338
uncorr_bkguncrt18cat_4b_0[02],0.0009,0.8437
uncorr_bkguncrt18cat_4b_0[03],0.0018,0.8711
uncorr_bkguncrt18cat_4b_0[04],0.0002,0.8544
uncorr_bkguncrt18cat_4b_0[05],-0.0030,0.8422
uncorr_bkguncrt18cat_4b_0[06],-0.0033,0.8961
uncorr_bkguncrt18cat_4b_0[07],-0.0015,0.8808
uncorr_bkguncrt18cat_4b_0[08],-0.0004,0.8891
uncorr_bkguncrt18cat_4b_0[09],0.0006,0.8659
uncorr_bkguncrt18cat_4b_0[10],0.0008,0.8909
uncorr_bkguncrt18cat_4b_0[11],0.0008,0.9160
uncorr_bkguncrt18cat_4b_0[12],0.0005,0.9345
uncorr_bkguncrt18cat_4b_0[13],0.0005,0.9307
uncorr_bkguncrt18cat_4b_0[14],0.0005,0.9353
uncorr_bkguncrt18cat_4b_0[15],0.0002,0.9486
uncorr_bkguncrt18cat_4b_0[16],0.0003,0.9470
uncorr_bkguncrt18cat_4b_0[17],0.0002,0.9517
uncorr_bkguncrt18cat_4b_0[18],0.0001,0.9556
uncorr_bkguncrt18cat_4b_0[19],0.0002,0.9551
uncorr_bkguncrt18cat_4b_0[20],0.0001,0.9683
uncorr_bkguncrt18cat_4b_0[21],0.0004,0.9296
uncorr_bkguncrt18cat_4b_0[22],0.0001,0.9667
uncorr_bkguncrt18cat_4b_0[23],-0.0000,0.9694
uncorr_bkguncrt18cat_4b_0[24],0.0000,0.9688
uncorr_bkguncrt18cat_4b_0[25],-0.0000,0.9632
uncorr_bkguncrt18cat_4b_0[26],0.0000,0.9747
uncorr_bkguncrt18cat_4b_0[27],-0.0000,0.9787
uncorr_bkguncrt18cat_4b_0[28],0.0000,0.9772
uncorr_bkguncrt18cat_4b_0[29],0.0001,0.9770
uncorr_bkguncrt18cat_4b_0[30],0.0000,0.9853
uncorr_bkguncrt18cat_4b_0[31],0.0001,0.9671
uncorr_bkguncrt18cat_4b_0[32],0.0000,0.9863
uncorr_bkguncrt18cat_4b_0[33],0.0001,0.9699
uncorr_bkguncrt18cat_4b_0[34],0.0000,0.9824
uncorr_bkguncrt18cat_4b_0[35],0.0000,0.9869
uncorr_bkguncrt18cat_4b_0[36],0.0000,0.9850
uncorr_bkguncrt18cat_4b_0[37],0.0002,0.9730
uncorr_bkguncrt18cat_4b_0[38],0.0000,0.9921
uncorr_bkguncrt18cat_4b_1[00],0.0010,0.7671
uncorr_bkguncrt18cat_4b_1[01],0.0010,0.8166
uncorr_bkguncrt18cat_4b_1[02],0.0009,0.8713
uncorr_bkguncrt18cat_4b_1[03],0.0015,0.7793
uncorr_bkguncrt18cat_4b_1[04],0.0015,0.8753
uncorr_bkguncrt18cat_4b_1[05],-0.0011,0.8360
uncorr_bkguncrt18cat_4b_1[06],-0.0034,0.8697
uncorr_bkguncrt18cat_4b_1[07],-0.0025,0.8798
uncorr_bkguncrt18cat_4b_1[08],-0.0007,0.8882
uncorr_bkguncrt18cat_4b_1[09],0.0003,0.8930
uncorr_bkguncrt18cat_4b_1[10],0.0008,0.9115
uncorr_bkguncrt18cat_4b_1[11],0.0013,0.9121
uncorr_bkguncrt18cat_4b_1[12],0.0012,0.9189
uncorr_bkguncrt18cat_4b_1[13],0.0010,0.9368
uncorr_bkguncrt18cat_4b_1[14],0.0007,0.9377
uncorr_bkguncrt18cat_4b_1[15],0.0006,0.9504
uncorr_bkguncrt18cat_4b_1[16],0.0004,0.9464
uncorr_bkguncrt18cat_4b_1[17],0.0004,0.9419
uncorr_bkguncrt18cat_4b_1[18],0.0004,0.9455
uncorr_bkguncrt18cat_4b_1[19],0.0001,0.9657
uncorr_bkguncrt18cat_4b_1[20],0.0001,0.9589
uncorr_bkguncrt18cat_4b_1[21],0.0001,0.9685
uncorr_bkguncrt18cat_4b_1[22],0.0003,0.9392
uncorr_bkguncrt18cat_4b_1[23],0.0000,0.9661
uncorr_bkguncrt18cat_4b_1[24],0.0001,0.9712
uncorr_bkguncrt18cat_4b_1[25],0.0001,0.9692
uncorr_bkguncrt18cat_4b_1[26],0.0001,0.9743
uncorr_bkguncrt18cat_4b_1[27],0.0001,0.9708
uncorr_bkguncrt18cat_4b_1[28],0.0000,0.9761
uncorr_bkguncrt18cat_4b_1[29],0.0000,0.9816
uncorr_bkguncrt18cat_4b_1[30],-0.0000,0.9854
uncorr_bkguncrt18cat_4b_1[31],0.0000,0.9778
uncorr_bkguncrt18cat_4b_1[32],-0.0000,0.9863
uncorr_bkguncrt18cat_4b_1[33],0.0001,0.9830
uncorr_bkguncrt18cat_4b_1[34],0.0001,0.9795
uncorr_bkguncrt18cat_4b_1[35],0.0000,0.9829
uncorr_bkguncrt18cat_4b_1[36],0.0000,0.9901
uncorr_bkguncrt18cat_4b_1[37],0.0000,0.9918
uncorr_bkguncrt18cat_4b_1[38],0.0000,0.9903
uncorr_bkguncrt18cat_4b_2[00],0.0001,0.9635
uncorr_bkguncrt18cat_4b_2[01],0.0002,0.8879
uncorr_bkguncrt18cat_4b_2[02],0.0000,0.8332
uncorr_bkguncrt18cat_4b_2[03],0.0008,0.8068
uncorr_bkguncrt18cat_4b_2[04],0.0013,0.8412
uncorr_bkguncrt18cat_4b_2[05],0.0010,0.8674
uncorr_bkguncrt18cat_4b_2[06],0.0000,0.8666
uncorr_bkguncrt18cat_4b_2[07],-0.0009,0.8834
uncorr_bkguncrt18cat_4b_2[08],-0.0012,0.8994
uncorr_bkguncrt18cat_4b_2[09],-0.0006,0.8920
uncorr_bkguncrt18cat_4b_2[10],-0.0002,0.8963
uncorr_bkguncrt18cat_4b_2[11],0.0002,0.9104
uncorr_bkguncrt18cat_4b_2[12],0.0004,0.9143
uncorr_bkguncrt18cat_4b_2[13],0.0004,0.9385
uncorr_bkguncrt18cat_4b_2[14],0.0003,0.9357
uncorr_bkguncrt18cat_4b_2[15],0.0003,0.9477
uncorr_bkguncrt18cat_4b_2[16],0.0002,0.9554
uncorr_bkguncrt18cat_4b_2[17],0.0002,0.9560
uncorr_bkguncrt18cat_4b_2[18],0.0002,0.9574
uncorr_bkguncrt18cat_4b_2[19],0.0001,0.9626
uncorr_bkguncrt18cat_4b_2[20],0.0001,0.9544
uncorr_bkguncrt18cat_4b_2[21],0.0001,0.9648
uncorr_bkguncrt18cat_4b_2[22],0.0005,0.8920
uncorr_bkguncrt18cat_4b_2[23],0.0000,0.9732
uncorr_bkguncrt18cat_4b_2[24],0.0001,0.9644
uncorr_bkguncrt18cat_4b_2[25],0.0000,0.9659
uncorr_bkguncrt18cat_4b_2[26],0.0001,0.9698
uncorr_bkguncrt18cat_4b_2[27],0.0001,0.9712
uncorr_bkguncrt18cat_4b_2[28],0.0000,0.9798
uncorr_bkguncrt18cat_4b_2[29],0.0000,0.9796
uncorr_bkguncrt18cat_4b_2[30],0.0000,0.9824
uncorr_bkguncrt18cat_4b_2[31],0.0000,0.9790
uncorr_bkguncrt18cat_4b_2[32],0.0000,0.9834
uncorr_bkguncrt18cat_4b_2[33],0.0000,0.9756
uncorr_bkguncrt18cat_4b_2[34],0.0000,0.9824
uncorr_bkguncrt18cat_4b_2[35],0.0000,0.9873
uncorr_bkguncrt18cat_4b_2[36],0.0000,0.9768
uncorr_bkguncrt18cat_4b_2[37],0.0000,0.9878
uncorr_bkguncrt18cat_4b_2[38],0.0003,0.9117
