label,pull,err
all_VRyr_cat_4b_0,0.4795,0.2176
all_VRyr_cat_4b_1,0.9768,0.3810
bkg_normyr_cat_4b_0,0.4065,0.9656
bkg_normyr_cat_4b_1,-0.1773,0.9601
uncorr_bkguncrt18cat_4b_0_Xhh-0.0-0.95[00],0.0085,0.8591
uncorr_bkguncrt18cat_4b_0_Xhh-0.0-0.95[01],0.8524,0.8908
uncorr_bkguncrt18cat_4b_0_Xhh-0.0-0.95[02],-0.6097,0.8585
uncorr_bkguncrt18cat_4b_0_Xhh-0.0-0.95[03],-0.2717,0.9109
uncorr_bkguncrt18cat_4b_0_Xhh-0.0-0.95[04],0.0013,0.9035
uncorr_bkguncrt18cat_4b_0_Xhh-0.0-0.95[05],-0.1939,0.9030
uncorr_bkguncrt18cat_4b_0_Xhh-0.0-0.95[06],0.5417,0.9166
uncorr_bkguncrt18cat_4b_0_Xhh-0.0-0.95[07],0.3326,0.9074
uncorr_bkguncrt18cat_4b_0_Xhh-0.0-0.95[08],0.3354,0.9224
uncorr_bkguncrt18cat_4b_0_Xhh-0.0-0.95[09],0.1621,0.9128
uncorr_bkguncrt18cat_4b_0_Xhh-0.0-0.95[10],-0.4753,0.9145
uncorr_bkguncrt18cat_4b_0_Xhh-0.0-0.95[11],-0.0211,0.8979
uncorr_bkguncrt18cat_4b_0_Xhh-0.0-0.95[12],0.3385,0.9323
uncorr_bkguncrt18cat_4b_0_Xhh-0.0-0.95[13],0.1973,0.9470
uncorr_bkguncrt18cat_4b_0_Xhh-0.0-0.95[14],-0.2856,0.9236
uncorr_bkguncrt18cat_4b_0_Xhh-0.0-0.95[15],0.0202,0.9341
uncorr_bkguncrt18cat_4b_0_Xhh-0.0-0.95[16],0.3225,0.9477
uncorr_bkguncrt18cat_4b_0_Xhh-0.0-0.95[17],0.5096,0.9671
uncorr_bkguncrt18cat_4b_0_Xhh-0.0-0.95[18],-0.0919,0.9561
uncorr_bkguncrt18cat_4b_0_Xhh-0.0-0.95[19],0.0401,0.9544
uncorr_bkguncrt18cat_4b_0_Xhh-0.0-0.95[20],-0.2182,0.9474
uncorr_bkguncrt18cat_4b_0_Xhh-0.0-0.95[21],-0.0054,0.9611
uncorr_bkguncrt18cat_4b_0_Xhh-0.0-0.95[22],-0.2266,0.9327
uncorr_bkguncrt18cat_4b_0_Xhh-0.0-0.95[23],0.0661,0.9559
uncorr_bkguncrt18cat_4b_0_Xhh-0.0-0.95[24],-0.2805,0.9497
uncorr_bkguncrt18cat_4b_0_Xhh-0.0-0.95[25],0.2164,0.9724
uncorr_bkguncrt18cat_4b_0_Xhh-0.0-0.95[26],0.1241,0.9755
uncorr_bkguncrt18cat_4b_0_Xhh-0.0-0.95[27],-0.2843,0.9584
uncorr_bkguncrt18cat_4b_0_Xhh-0.0-0.95[28],0.1878,0.9710
uncorr_bkguncrt18cat_4b_0_Xhh-0.0-0.95[29],-0.1869,0.9650
uncorr_bkguncrt18cat_4b_0_Xhh-0.0-0.95[30],0.5739,1.0076
uncorr_bkguncrt18cat_4b_0_Xhh-0.0-0.95[31],0.3866,0.9920
uncorr_bkguncrt18cat_4b_0_Xhh-0.0-0.95[32],0.0686,0.9810
uncorr_bkguncrt18cat_4b_0_Xhh-0.0-0.95[33],-0.0348,0.9735
uncorr_bkguncrt18cat_4b_0_Xhh-0.95-1.6[00],0.4812,0.8108
uncorr_bkguncrt18cat_4b_0_Xhh-0.95-1.6[01],-0.1029,0.8175
uncorr_bkguncrt18cat_4b_0_Xhh-0.95-1.6[02],0.1457,0.8342
uncorr_bkguncrt18cat_4b_0_Xhh-0.95-1.6[03],0.8109,0.8534
uncorr_bkguncrt18cat_4b_0_Xhh-0.95-1.6[04],-0.3747,0.8404
uncorr_bkguncrt18cat_4b_0_Xhh-0.95-1.6[05],-0.0964,0.8565
uncorr_bkguncrt18cat_4b_0_Xhh-0.95-1.6[06],-0.1841,0.8676
uncorr_bkguncrt18cat_4b_0_Xhh-0.95-1.6[07],-0.2458,0.8507
uncorr_bkguncrt18cat_4b_0_Xhh-0.95-1.6[08],-0.8580,0.8527
uncorr_bkguncrt18cat_4b_0_Xhh-0.95-1.6[09],-0.2493,0.8638
uncorr_bkguncrt18cat_4b_0_Xhh-0.95-1.6[10],-0.0714,0.8716
uncorr_bkguncrt18cat_4b_0_Xhh-0.95-1.6[11],0.8927,0.9056
uncorr_bkguncrt18cat_4b_0_Xhh-0.95-1.6[12],0.4836,0.9067
uncorr_bkguncrt18cat_4b_0_Xhh-0.95-1.6[13],-0.3811,0.8828
uncorr_bkguncrt18cat_4b_0_Xhh-0.95-1.6[14],0.0897,0.9106
uncorr_bkguncrt18cat_4b_0_Xhh-0.95-1.6[15],-0.4023,0.9064
uncorr_bkguncrt18cat_4b_0_Xhh-0.95-1.6[16],-0.0251,0.9107
uncorr_bkguncrt18cat_4b_0_Xhh-0.95-1.6[17],0.0978,0.9178
uncorr_bkguncrt18cat_4b_0_Xhh-0.95-1.6[18],-0.4416,0.9085
uncorr_bkguncrt18cat_4b_0_Xhh-0.95-1.6[19],0.4344,0.9222
uncorr_bkguncrt18cat_4b_0_Xhh-0.95-1.6[20],0.2373,0.8873
uncorr_bkguncrt18cat_4b_0_Xhh-0.95-1.6[21],-0.4080,0.9084
uncorr_bkguncrt18cat_4b_0_Xhh-0.95-1.6[22],-0.3005,0.9085
uncorr_bkguncrt18cat_4b_0_Xhh-0.95-1.6[23],-0.2344,0.9366
uncorr_bkguncrt18cat_4b_0_Xhh-0.95-1.6[24],-0.0222,0.9214
uncorr_bkguncrt18cat_4b_0_Xhh-0.95-1.6[25],0.2498,0.9631
uncorr_bkguncrt18cat_4b_0_Xhh-0.95-1.6[26],0.2377,0.9598
uncorr_bkguncrt18cat_4b_0_Xhh-0.95-1.6[27],0.0311,0.9214
uncorr_bkguncrt18cat_4b_0_Xhh-0.95-1.6[28],0.1059,0.9552
uncorr_bkguncrt18cat_4b_0_Xhh-0.95-1.6[29],0.0599,0.9651
uncorr_bkguncrt18cat_4b_0_Xhh-0.95-1.6[30],-0.2527,0.9454
uncorr_bkguncrt18cat_4b_0_Xhh-0.95-1.6[31],-0.3128,0.9180
uncorr_bkguncrt18cat_4b_0_Xhh-0.95-1.6[32],0.1243,0.9766
uncorr_bkguncrt18cat_4b_0_Xhh-0.95-1.6[33],0.1797,0.9778
uncorr_bkguncrt18cat_4b_1_Xhh-0.0-0.95[00],0.4887,0.9691
uncorr_bkguncrt18cat_4b_1_Xhh-0.0-0.95[01],-0.0461,0.9519
uncorr_bkguncrt18cat_4b_1_Xhh-0.0-0.95[02],-0.2943,0.9374
uncorr_bkguncrt18cat_4b_1_Xhh-0.0-0.95[03],0.1946,0.9491
uncorr_bkguncrt18cat_4b_1_Xhh-0.0-0.95[04],-0.3005,0.9448
uncorr_bkguncrt18cat_4b_1_Xhh-0.0-0.95[05],-0.5228,0.9489
uncorr_bkguncrt18cat_4b_1_Xhh-0.0-0.95[06],0.0849,0.9541
uncorr_bkguncrt18cat_4b_1_Xhh-0.0-0.95[07],-0.1369,0.9397
uncorr_bkguncrt18cat_4b_1_Xhh-0.0-0.95[08],-0.1441,0.9511
uncorr_bkguncrt18cat_4b_1_Xhh-0.0-0.95[09],0.0567,0.9548
uncorr_bkguncrt18cat_4b_1_Xhh-0.0-0.95[10],0.2523,0.9510
uncorr_bkguncrt18cat_4b_1_Xhh-0.0-0.95[11],0.0147,0.9537
uncorr_bkguncrt18cat_4b_1_Xhh-0.0-0.95[12],-0.5555,0.9242
uncorr_bkguncrt18cat_4b_1_Xhh-0.0-0.95[13],0.2941,0.9475
uncorr_bkguncrt18cat_4b_1_Xhh-0.0-0.95[14],-0.2588,0.9508
uncorr_bkguncrt18cat_4b_1_Xhh-0.0-0.95[15],0.3806,0.9613
uncorr_bkguncrt18cat_4b_1_Xhh-0.0-0.95[16],-0.0147,0.9554
uncorr_bkguncrt18cat_4b_1_Xhh-0.0-0.95[17],-0.1692,0.9420
uncorr_bkguncrt18cat_4b_1_Xhh-0.0-0.95[18],-0.3664,0.9257
uncorr_bkguncrt18cat_4b_1_Xhh-0.0-0.95[19],0.4966,0.9718
uncorr_bkguncrt18cat_4b_1_Xhh-0.0-0.95[20],0.7447,0.9804
uncorr_bkguncrt18cat_4b_1_Xhh-0.0-0.95[21],0.1810,0.9525
uncorr_bkguncrt18cat_4b_1_Xhh-0.0-0.95[22],0.0246,0.9651
uncorr_bkguncrt18cat_4b_1_Xhh-0.0-0.95[23],-0.1757,0.9580
uncorr_bkguncrt18cat_4b_1_Xhh-0.0-0.95[24],0.0176,0.9600
uncorr_bkguncrt18cat_4b_1_Xhh-0.0-0.95[25],-0.2800,0.9090
uncorr_bkguncrt18cat_4b_1_Xhh-0.0-0.95[26],0.2833,0.9475
uncorr_bkguncrt18cat_4b_1_Xhh-0.0-0.95[27],-0.2448,0.9616
uncorr_bkguncrt18cat_4b_1_Xhh-0.0-0.95[28],0.3352,0.9824
uncorr_bkguncrt18cat_4b_1_Xhh-0.0-0.95[29],0.0445,0.9799
uncorr_bkguncrt18cat_4b_1_Xhh-0.0-0.95[30],0.1868,0.9879
uncorr_bkguncrt18cat_4b_1_Xhh-0.0-0.95[31],0.3526,0.9958
uncorr_bkguncrt18cat_4b_1_Xhh-0.0-0.95[32],0.3106,0.9962
uncorr_bkguncrt18cat_4b_1_Xhh-0.0-0.95[33],-0.0973,0.9668
uncorr_bkguncrt18cat_4b_1_Xhh-0.95-1.6[00],-0.4883,0.9030
uncorr_bkguncrt18cat_4b_1_Xhh-0.95-1.6[01],0.3896,0.9427
uncorr_bkguncrt18cat_4b_1_Xhh-0.95-1.6[02],-0.2383,0.9196
uncorr_bkguncrt18cat_4b_1_Xhh-0.95-1.6[03],0.5326,0.9384
uncorr_bkguncrt18cat_4b_1_Xhh-0.95-1.6[04],-0.1222,0.9200
uncorr_bkguncrt18cat_4b_1_Xhh-0.95-1.6[05],-0.3315,0.9222
uncorr_bkguncrt18cat_4b_1_Xhh-0.95-1.6[06],-0.3713,0.9265
uncorr_bkguncrt18cat_4b_1_Xhh-0.95-1.6[07],0.1827,0.9304
uncorr_bkguncrt18cat_4b_1_Xhh-0.95-1.6[08],0.2026,0.9325
uncorr_bkguncrt18cat_4b_1_Xhh-0.95-1.6[09],-0.0294,0.9344
uncorr_bkguncrt18cat_4b_1_Xhh-0.95-1.6[10],0.0209,0.9342
uncorr_bkguncrt18cat_4b_1_Xhh-0.95-1.6[11],-0.6468,0.9020
uncorr_bkguncrt18cat_4b_1_Xhh-0.95-1.6[12],-0.3834,0.9257
uncorr_bkguncrt18cat_4b_1_Xhh-0.95-1.6[13],-0.2254,0.9250
uncorr_bkguncrt18cat_4b_1_Xhh-0.95-1.6[14],-0.4769,0.8990
uncorr_bkguncrt18cat_4b_1_Xhh-0.95-1.6[15],-0.1120,0.9326
uncorr_bkguncrt18cat_4b_1_Xhh-0.95-1.6[16],-0.0799,0.9215
uncorr_bkguncrt18cat_4b_1_Xhh-0.95-1.6[17],-0.1181,0.9355
uncorr_bkguncrt18cat_4b_1_Xhh-0.95-1.6[18],-0.3409,0.8940
uncorr_bkguncrt18cat_4b_1_Xhh-0.95-1.6[19],-0.2738,0.9247
uncorr_bkguncrt18cat_4b_1_Xhh-0.95-1.6[20],-0.1062,0.9193
uncorr_bkguncrt18cat_4b_1_Xhh-0.95-1.6[21],-0.1971,0.9320
uncorr_bkguncrt18cat_4b_1_Xhh-0.95-1.6[22],-0.0044,0.9406
uncorr_bkguncrt18cat_4b_1_Xhh-0.95-1.6[23],0.0924,0.9522
uncorr_bkguncrt18cat_4b_1_Xhh-0.95-1.6[24],0.2223,0.9657
uncorr_bkguncrt18cat_4b_1_Xhh-0.95-1.6[25],0.0492,0.9346
uncorr_bkguncrt18cat_4b_1_Xhh-0.95-1.6[26],0.0690,0.9701
uncorr_bkguncrt18cat_4b_1_Xhh-0.95-1.6[27],0.2981,0.9659
uncorr_bkguncrt18cat_4b_1_Xhh-0.95-1.6[28],0.1583,0.9553
uncorr_bkguncrt18cat_4b_1_Xhh-0.95-1.6[29],0.0102,0.9539
uncorr_bkguncrt18cat_4b_1_Xhh-0.95-1.6[30],0.1055,0.9510
uncorr_bkguncrt18cat_4b_1_Xhh-0.95-1.6[31],0.0402,0.9684
uncorr_bkguncrt18cat_4b_1_Xhh-0.95-1.6[32],0.5691,0.9814
uncorr_bkguncrt18cat_4b_1_Xhh-0.95-1.6[33],0.1343,0.9736
