label,pull,err
all_VRyr_cat_0,0.9187,0.6378
all_VRyr_cat_1,0.8093,0.7772
uncorr_bkguncrt16cat_4b_0_Xhh-0.0-0.95[00],0.4264,0.9220
uncorr_bkguncrt16cat_4b_0_Xhh-0.0-0.95[01],0.4474,0.9433
uncorr_bkguncrt16cat_4b_0_Xhh-0.0-0.95[02],-0.4461,0.9180
uncorr_bkguncrt16cat_4b_0_Xhh-0.0-0.95[03],-0.3268,0.9110
uncorr_bkguncrt16cat_4b_0_Xhh-0.0-0.95[04],0.5505,0.9437
uncorr_bkguncrt16cat_4b_0_Xhh-0.0-0.95[05],0.0557,0.9403
uncorr_bkguncrt16cat_4b_0_Xhh-0.0-0.95[06],-0.0917,0.9213
uncorr_bkguncrt16cat_4b_0_Xhh-0.0-0.95[07],-0.2632,0.9445
uncorr_bkguncrt16cat_4b_0_Xhh-0.0-0.95[08],0.0102,0.9520
uncorr_bkguncrt16cat_4b_0_Xhh-0.0-0.95[09],-0.5588,0.9190
uncorr_bkguncrt16cat_4b_0_Xhh-0.0-0.95[10],-0.0885,0.9494
uncorr_bkguncrt16cat_4b_0_Xhh-0.0-0.95[11],0.0638,0.9491
uncorr_bkguncrt16cat_4b_0_Xhh-0.0-0.95[12],0.4438,0.9684
uncorr_bkguncrt16cat_4b_0_Xhh-0.0-0.95[13],0.1744,0.9630
uncorr_bkguncrt16cat_4b_0_Xhh-0.0-0.95[14],0.2256,0.9712
uncorr_bkguncrt16cat_4b_0_Xhh-0.0-0.95[15],0.0428,0.9611
uncorr_bkguncrt16cat_4b_0_Xhh-0.0-0.95[16],-0.1398,0.9582
uncorr_bkguncrt16cat_4b_0_Xhh-0.0-0.95[17],0.0503,0.9659
uncorr_bkguncrt16cat_4b_0_Xhh-0.0-0.95[18],0.5317,0.9889
uncorr_bkguncrt16cat_4b_0_Xhh-0.0-0.95[19],-0.3081,0.9551
uncorr_bkguncrt16cat_4b_0_Xhh-0.0-0.95[20],0.0803,0.9754
uncorr_bkguncrt16cat_4b_0_Xhh-0.0-0.95[21],-0.3831,0.9576
uncorr_bkguncrt16cat_4b_0_Xhh-0.0-0.95[22],-0.0184,0.9741
uncorr_bkguncrt16cat_4b_0_Xhh-0.0-0.95[23],-0.2923,0.9637
uncorr_bkguncrt16cat_4b_0_Xhh-0.0-0.95[24],0.6124,1.0059
uncorr_bkguncrt16cat_4b_0_Xhh-0.0-0.95[25],0.0132,0.9737
uncorr_bkguncrt16cat_4b_0_Xhh-0.0-0.95[26],-0.0684,0.9734
uncorr_bkguncrt16cat_4b_0_Xhh-0.0-0.95[27],-0.3074,0.9559
uncorr_bkguncrt16cat_4b_0_Xhh-0.0-0.95[28],0.3062,0.9961
uncorr_bkguncrt16cat_4b_0_Xhh-0.0-0.95[29],0.1270,0.9898
uncorr_bkguncrt16cat_4b_0_Xhh-0.0-0.95[30],-0.2359,0.9633
uncorr_bkguncrt16cat_4b_0_Xhh-0.0-0.95[31],-0.2082,0.9683
uncorr_bkguncrt16cat_4b_0_Xhh-0.0-0.95[32],-0.1705,0.9723
uncorr_bkguncrt16cat_4b_0_Xhh-0.0-0.95[33],-0.1435,0.9773
uncorr_bkguncrt16cat_4b_0_Xhh-0.95-1.6[00],0.0877,0.8894
uncorr_bkguncrt16cat_4b_0_Xhh-0.95-1.6[01],-0.0318,0.8931
uncorr_bkguncrt16cat_4b_0_Xhh-0.95-1.6[02],0.0479,0.8848
uncorr_bkguncrt16cat_4b_0_Xhh-0.95-1.6[03],0.1358,0.8825
uncorr_bkguncrt16cat_4b_0_Xhh-0.95-1.6[04],-0.4270,0.8986
uncorr_bkguncrt16cat_4b_0_Xhh-0.95-1.6[05],0.0563,0.9112
uncorr_bkguncrt16cat_4b_0_Xhh-0.95-1.6[06],-0.5218,0.8907
uncorr_bkguncrt16cat_4b_0_Xhh-0.95-1.6[07],0.3280,0.9239
uncorr_bkguncrt16cat_4b_0_Xhh-0.95-1.6[08],0.0176,0.9245
uncorr_bkguncrt16cat_4b_0_Xhh-0.95-1.6[09],-0.4685,0.9110
uncorr_bkguncrt16cat_4b_0_Xhh-0.95-1.6[10],0.1744,0.9251
uncorr_bkguncrt16cat_4b_0_Xhh-0.95-1.6[11],0.4344,0.9434
uncorr_bkguncrt16cat_4b_0_Xhh-0.95-1.6[12],0.2686,0.9332
uncorr_bkguncrt16cat_4b_0_Xhh-0.95-1.6[13],-0.0134,0.9406
uncorr_bkguncrt16cat_4b_0_Xhh-0.95-1.6[14],-0.4226,0.9365
uncorr_bkguncrt16cat_4b_0_Xhh-0.95-1.6[15],0.2505,0.9528
uncorr_bkguncrt16cat_4b_0_Xhh-0.95-1.6[16],0.1871,0.9613
uncorr_bkguncrt16cat_4b_0_Xhh-0.95-1.6[17],0.1317,0.9628
uncorr_bkguncrt16cat_4b_0_Xhh-0.95-1.6[18],-0.1345,0.9573
uncorr_bkguncrt16cat_4b_0_Xhh-0.95-1.6[19],0.3617,0.9759
uncorr_bkguncrt16cat_4b_0_Xhh-0.95-1.6[20],0.0235,0.9645
uncorr_bkguncrt16cat_4b_0_Xhh-0.95-1.6[21],0.2621,0.9572
uncorr_bkguncrt16cat_4b_0_Xhh-0.95-1.6[22],-0.4035,0.9334
uncorr_bkguncrt16cat_4b_0_Xhh-0.95-1.6[23],0.0870,0.9579
uncorr_bkguncrt16cat_4b_0_Xhh-0.95-1.6[24],-0.1644,0.9295
uncorr_bkguncrt16cat_4b_0_Xhh-0.95-1.6[25],-0.0802,0.9671
uncorr_bkguncrt16cat_4b_0_Xhh-0.95-1.6[26],0.0272,0.9609
uncorr_bkguncrt16cat_4b_0_Xhh-0.95-1.6[27],-0.0640,0.9703
uncorr_bkguncrt16cat_4b_0_Xhh-0.95-1.6[28],-0.0956,0.9731
uncorr_bkguncrt16cat_4b_0_Xhh-0.95-1.6[29],0.1194,0.9804
uncorr_bkguncrt16cat_4b_0_Xhh-0.95-1.6[30],-0.1604,0.8629
uncorr_bkguncrt16cat_4b_0_Xhh-0.95-1.6[31],0.1038,0.9577
uncorr_bkguncrt16cat_4b_0_Xhh-0.95-1.6[32],-0.1499,0.9610
uncorr_bkguncrt16cat_4b_0_Xhh-0.95-1.6[33],-0.1502,0.9559
uncorr_bkguncrt16cat_4b_1_Xhh-0.0-0.95[00],-0.2025,0.9634
uncorr_bkguncrt16cat_4b_1_Xhh-0.0-0.95[01],-0.1192,0.9718
uncorr_bkguncrt16cat_4b_1_Xhh-0.0-0.95[02],0.0637,0.9750
uncorr_bkguncrt16cat_4b_1_Xhh-0.0-0.95[03],0.4563,0.9807
uncorr_bkguncrt16cat_4b_1_Xhh-0.0-0.95[04],-0.1307,0.9692
uncorr_bkguncrt16cat_4b_1_Xhh-0.0-0.95[05],0.1402,0.9697
uncorr_bkguncrt16cat_4b_1_Xhh-0.0-0.95[06],0.0268,0.9603
uncorr_bkguncrt16cat_4b_1_Xhh-0.0-0.95[07],-0.3106,0.9545
uncorr_bkguncrt16cat_4b_1_Xhh-0.0-0.95[08],0.2005,0.9733
uncorr_bkguncrt16cat_4b_1_Xhh-0.0-0.95[09],-0.0654,0.9604
uncorr_bkguncrt16cat_4b_1_Xhh-0.0-0.95[10],0.1627,0.9694
uncorr_bkguncrt16cat_4b_1_Xhh-0.0-0.95[11],-0.1938,0.9616
uncorr_bkguncrt16cat_4b_1_Xhh-0.0-0.95[12],-0.2811,0.9519
uncorr_bkguncrt16cat_4b_1_Xhh-0.0-0.95[13],0.0362,0.9687
uncorr_bkguncrt16cat_4b_1_Xhh-0.0-0.95[14],0.1697,0.9776
uncorr_bkguncrt16cat_4b_1_Xhh-0.0-0.95[15],-0.1594,0.9706
uncorr_bkguncrt16cat_4b_1_Xhh-0.0-0.95[16],-0.3014,0.9537
uncorr_bkguncrt16cat_4b_1_Xhh-0.0-0.95[17],-0.4075,0.9534
uncorr_bkguncrt16cat_4b_1_Xhh-0.0-0.95[18],-0.0776,0.9655
uncorr_bkguncrt16cat_4b_1_Xhh-0.0-0.95[19],0.2088,0.9821
uncorr_bkguncrt16cat_4b_1_Xhh-0.0-0.95[20],0.1163,0.9824
uncorr_bkguncrt16cat_4b_1_Xhh-0.0-0.95[21],0.0472,0.9772
uncorr_bkguncrt16cat_4b_1_Xhh-0.0-0.95[22],0.1749,0.9759
uncorr_bkguncrt16cat_4b_1_Xhh-0.0-0.95[23],0.2594,0.9880
uncorr_bkguncrt16cat_4b_1_Xhh-0.0-0.95[24],-0.2024,0.9660
uncorr_bkguncrt16cat_4b_1_Xhh-0.0-0.95[25],0.0502,0.9797
uncorr_bkguncrt16cat_4b_1_Xhh-0.0-0.95[26],0.0970,0.9839
uncorr_bkguncrt16cat_4b_1_Xhh-0.0-0.95[27],0.0498,0.9862
uncorr_bkguncrt16cat_4b_1_Xhh-0.0-0.95[28],0.1036,0.9883
uncorr_bkguncrt16cat_4b_1_Xhh-0.0-0.95[29],0.0148,0.9796
uncorr_bkguncrt16cat_4b_1_Xhh-0.0-0.95[30],0.0345,0.9855
uncorr_bkguncrt16cat_4b_1_Xhh-0.0-0.95[31],-0.2389,0.9649
uncorr_bkguncrt16cat_4b_1_Xhh-0.0-0.95[32],-0.2641,0.9474
uncorr_bkguncrt16cat_4b_1_Xhh-0.0-0.95[33],0.1255,0.9974
uncorr_bkguncrt16cat_4b_1_Xhh-0.95-1.6[00],-0.0170,0.9603
uncorr_bkguncrt16cat_4b_1_Xhh-0.95-1.6[01],0.0157,0.9583
uncorr_bkguncrt16cat_4b_1_Xhh-0.95-1.6[02],0.8428,0.9769
uncorr_bkguncrt16cat_4b_1_Xhh-0.95-1.6[03],0.0905,0.9594
uncorr_bkguncrt16cat_4b_1_Xhh-0.95-1.6[04],-0.4511,0.9419
uncorr_bkguncrt16cat_4b_1_Xhh-0.95-1.6[05],-0.1216,0.9577
uncorr_bkguncrt16cat_4b_1_Xhh-0.95-1.6[06],-0.1874,0.9525
uncorr_bkguncrt16cat_4b_1_Xhh-0.95-1.6[07],-0.1601,0.9508
uncorr_bkguncrt16cat_4b_1_Xhh-0.95-1.6[08],-0.7284,0.9339
uncorr_bkguncrt16cat_4b_1_Xhh-0.95-1.6[09],-0.1226,0.9489
uncorr_bkguncrt16cat_4b_1_Xhh-0.95-1.6[10],0.5094,0.9677
uncorr_bkguncrt16cat_4b_1_Xhh-0.95-1.6[11],0.5811,0.9623
uncorr_bkguncrt16cat_4b_1_Xhh-0.95-1.6[12],0.2020,0.9604
uncorr_bkguncrt16cat_4b_1_Xhh-0.95-1.6[13],-0.4658,0.9350
uncorr_bkguncrt16cat_4b_1_Xhh-0.95-1.6[14],-0.0249,0.9595
uncorr_bkguncrt16cat_4b_1_Xhh-0.95-1.6[15],-0.4479,0.9451
uncorr_bkguncrt16cat_4b_1_Xhh-0.95-1.6[16],0.2665,0.9589
uncorr_bkguncrt16cat_4b_1_Xhh-0.95-1.6[17],0.3086,0.9682
uncorr_bkguncrt16cat_4b_1_Xhh-0.95-1.6[18],-0.4042,0.9517
uncorr_bkguncrt16cat_4b_1_Xhh-0.95-1.6[19],-0.3635,0.9414
uncorr_bkguncrt16cat_4b_1_Xhh-0.95-1.6[20],0.0181,0.9728
uncorr_bkguncrt16cat_4b_1_Xhh-0.95-1.6[21],-0.1629,0.9460
uncorr_bkguncrt16cat_4b_1_Xhh-0.95-1.6[22],-0.2313,0.9534
uncorr_bkguncrt16cat_4b_1_Xhh-0.95-1.6[23],0.2073,0.9774
uncorr_bkguncrt16cat_4b_1_Xhh-0.95-1.6[24],-0.3221,0.9532
uncorr_bkguncrt16cat_4b_1_Xhh-0.95-1.6[25],0.0089,0.9458
uncorr_bkguncrt16cat_4b_1_Xhh-0.95-1.6[26],-0.3296,0.9599
uncorr_bkguncrt16cat_4b_1_Xhh-0.95-1.6[27],-0.0240,0.9673
uncorr_bkguncrt16cat_4b_1_Xhh-0.95-1.6[28],0.1862,0.9797
uncorr_bkguncrt16cat_4b_1_Xhh-0.95-1.6[29],-0.1333,0.9745
uncorr_bkguncrt16cat_4b_1_Xhh-0.95-1.6[30],-0.0990,0.9658
uncorr_bkguncrt16cat_4b_1_Xhh-0.95-1.6[31],-0.3001,0.9475
uncorr_bkguncrt16cat_4b_1_Xhh-0.95-1.6[32],0.1855,0.9935
uncorr_bkguncrt16cat_4b_1_Xhh-0.95-1.6[33],-0.0405,0.9698
