label,pull,err
all_VRyr_cat_4b_0,0.9416,0.6623
all_VRyr_cat_4b_1,0.5661,0.8030
bkg_normyr_cat_4b_0,0.0586,0.9675
bkg_normyr_cat_4b_1,-0.4138,0.9304
uncorr_bkguncrt16cat_4b_0_Xhh-0.0-0.95[00],0.4297,0.9230
uncorr_bkguncrt16cat_4b_0_Xhh-0.0-0.95[01],0.4465,0.9444
uncorr_bkguncrt16cat_4b_0_Xhh-0.0-0.95[02],-0.4402,0.9190
uncorr_bkguncrt16cat_4b_0_Xhh-0.0-0.95[03],-0.3237,0.9123
uncorr_bkguncrt16cat_4b_0_Xhh-0.0-0.95[04],0.5448,0.9449
uncorr_bkguncrt16cat_4b_0_Xhh-0.0-0.95[05],0.0573,0.9414
uncorr_bkguncrt16cat_4b_0_Xhh-0.0-0.95[06],-0.0929,0.9225
uncorr_bkguncrt16cat_4b_0_Xhh-0.0-0.95[07],-0.2668,0.9453
uncorr_bkguncrt16cat_4b_0_Xhh-0.0-0.95[08],0.0028,0.9528
uncorr_bkguncrt16cat_4b_0_Xhh-0.0-0.95[09],-0.5597,0.9200
uncorr_bkguncrt16cat_4b_0_Xhh-0.0-0.95[10],-0.0890,0.9502
uncorr_bkguncrt16cat_4b_0_Xhh-0.0-0.95[11],0.0583,0.9500
uncorr_bkguncrt16cat_4b_0_Xhh-0.0-0.95[12],0.4352,0.9691
uncorr_bkguncrt16cat_4b_0_Xhh-0.0-0.95[13],0.1665,0.9638
uncorr_bkguncrt16cat_4b_0_Xhh-0.0-0.95[14],0.2193,0.9719
uncorr_bkguncrt16cat_4b_0_Xhh-0.0-0.95[15],0.0390,0.9618
uncorr_bkguncrt16cat_4b_0_Xhh-0.0-0.95[16],-0.1438,0.9589
uncorr_bkguncrt16cat_4b_0_Xhh-0.0-0.95[17],0.0423,0.9666
uncorr_bkguncrt16cat_4b_0_Xhh-0.0-0.95[18],0.5157,0.9897
uncorr_bkguncrt16cat_4b_0_Xhh-0.0-0.95[19],-0.3100,0.9556
uncorr_bkguncrt16cat_4b_0_Xhh-0.0-0.95[20],0.0738,0.9759
uncorr_bkguncrt16cat_4b_0_Xhh-0.0-0.95[21],-0.3819,0.9580
uncorr_bkguncrt16cat_4b_0_Xhh-0.0-0.95[22],-0.0195,0.9745
uncorr_bkguncrt16cat_4b_0_Xhh-0.0-0.95[23],-0.2906,0.9640
uncorr_bkguncrt16cat_4b_0_Xhh-0.0-0.95[24],0.5936,1.0068
uncorr_bkguncrt16cat_4b_0_Xhh-0.0-0.95[25],0.0080,0.9742
uncorr_bkguncrt16cat_4b_0_Xhh-0.0-0.95[26],-0.0689,0.9738
uncorr_bkguncrt16cat_4b_0_Xhh-0.0-0.95[27],-0.3045,0.9563
uncorr_bkguncrt16cat_4b_0_Xhh-0.0-0.95[28],0.2877,0.9970
uncorr_bkguncrt16cat_4b_0_Xhh-0.0-0.95[29],0.1197,0.9902
uncorr_bkguncrt16cat_4b_0_Xhh-0.0-0.95[30],-0.2334,0.9637
uncorr_bkguncrt16cat_4b_0_Xhh-0.0-0.95[31],-0.2064,0.9686
uncorr_bkguncrt16cat_4b_0_Xhh-0.0-0.95[32],-0.1692,0.9725
uncorr_bkguncrt16cat_4b_0_Xhh-0.0-0.95[33],-0.1424,0.9774
uncorr_bkguncrt16cat_4b_0_Xhh-0.95-1.6[00],0.1103,0.8880
uncorr_bkguncrt16cat_4b_0_Xhh-0.95-1.6[01],-0.0116,0.8931
uncorr_bkguncrt16cat_4b_0_Xhh-0.95-1.6[02],0.0758,0.8854
uncorr_bkguncrt16cat_4b_0_Xhh-0.95-1.6[03],0.1621,0.8847
uncorr_bkguncrt16cat_4b_0_Xhh-0.95-1.6[04],-0.4076,0.9004
uncorr_bkguncrt16cat_4b_0_Xhh-0.95-1.6[05],0.0695,0.9132
uncorr_bkguncrt16cat_4b_0_Xhh-0.95-1.6[06],-0.4986,0.8938
uncorr_bkguncrt16cat_4b_0_Xhh-0.95-1.6[07],0.3442,0.9261
uncorr_bkguncrt16cat_4b_0_Xhh-0.95-1.6[08],0.0348,0.9266
uncorr_bkguncrt16cat_4b_0_Xhh-0.95-1.6[09],-0.4582,0.9128
uncorr_bkguncrt16cat_4b_0_Xhh-0.95-1.6[10],0.1864,0.9270
uncorr_bkguncrt16cat_4b_0_Xhh-0.95-1.6[11],0.4438,0.9447
uncorr_bkguncrt16cat_4b_0_Xhh-0.95-1.6[12],0.2758,0.9347
uncorr_bkguncrt16cat_4b_0_Xhh-0.95-1.6[13],-0.0105,0.9417
uncorr_bkguncrt16cat_4b_0_Xhh-0.95-1.6[14],-0.4130,0.9374
uncorr_bkguncrt16cat_4b_0_Xhh-0.95-1.6[15],0.2542,0.9538
uncorr_bkguncrt16cat_4b_0_Xhh-0.95-1.6[16],0.1876,0.9621
uncorr_bkguncrt16cat_4b_0_Xhh-0.95-1.6[17],0.1277,0.9637
uncorr_bkguncrt16cat_4b_0_Xhh-0.95-1.6[18],-0.1341,0.9580
uncorr_bkguncrt16cat_4b_0_Xhh-0.95-1.6[19],0.3613,0.9766
uncorr_bkguncrt16cat_4b_0_Xhh-0.95-1.6[20],0.0219,0.9652
uncorr_bkguncrt16cat_4b_0_Xhh-0.95-1.6[21],0.2641,0.9585
uncorr_bkguncrt16cat_4b_0_Xhh-0.95-1.6[22],-0.3990,0.9344
uncorr_bkguncrt16cat_4b_0_Xhh-0.95-1.6[23],0.0857,0.9588
uncorr_bkguncrt16cat_4b_0_Xhh-0.95-1.6[24],-0.1606,0.9310
uncorr_bkguncrt16cat_4b_0_Xhh-0.95-1.6[25],-0.0811,0.9677
uncorr_bkguncrt16cat_4b_0_Xhh-0.95-1.6[26],0.0281,0.9617
uncorr_bkguncrt16cat_4b_0_Xhh-0.95-1.6[27],-0.0619,0.9708
uncorr_bkguncrt16cat_4b_0_Xhh-0.95-1.6[28],-0.0933,0.9735
uncorr_bkguncrt16cat_4b_0_Xhh-0.95-1.6[29],0.1176,0.9810
uncorr_bkguncrt16cat_4b_0_Xhh-0.95-1.6[30],-0.1594,0.8656
uncorr_bkguncrt16cat_4b_0_Xhh-0.95-1.6[31],0.1097,0.9591
uncorr_bkguncrt16cat_4b_0_Xhh-0.95-1.6[32],-0.1475,0.9615
uncorr_bkguncrt16cat_4b_0_Xhh-0.95-1.6[33],-0.1491,0.9566
uncorr_bkguncrt16cat_4b_1_Xhh-0.0-0.95[00],-0.2027,0.9635
uncorr_bkguncrt16cat_4b_1_Xhh-0.0-0.95[01],-0.1192,0.9719
uncorr_bkguncrt16cat_4b_1_Xhh-0.0-0.95[02],0.0642,0.9753
uncorr_bkguncrt16cat_4b_1_Xhh-0.0-0.95[03],0.4539,0.9809
uncorr_bkguncrt16cat_4b_1_Xhh-0.0-0.95[04],-0.1320,0.9694
uncorr_bkguncrt16cat_4b_1_Xhh-0.0-0.95[05],0.1420,0.9700
uncorr_bkguncrt16cat_4b_1_Xhh-0.0-0.95[06],0.0276,0.9606
uncorr_bkguncrt16cat_4b_1_Xhh-0.0-0.95[07],-0.3088,0.9548
uncorr_bkguncrt16cat_4b_1_Xhh-0.0-0.95[08],0.1999,0.9734
uncorr_bkguncrt16cat_4b_1_Xhh-0.0-0.95[09],-0.0707,0.9603
uncorr_bkguncrt16cat_4b_1_Xhh-0.0-0.95[10],0.1603,0.9694
uncorr_bkguncrt16cat_4b_1_Xhh-0.0-0.95[11],-0.1969,0.9615
uncorr_bkguncrt16cat_4b_1_Xhh-0.0-0.95[12],-0.2841,0.9517
uncorr_bkguncrt16cat_4b_1_Xhh-0.0-0.95[13],0.0341,0.9687
uncorr_bkguncrt16cat_4b_1_Xhh-0.0-0.95[14],0.1659,0.9775
uncorr_bkguncrt16cat_4b_1_Xhh-0.0-0.95[15],-0.1627,0.9705
uncorr_bkguncrt16cat_4b_1_Xhh-0.0-0.95[16],-0.3077,0.9532
uncorr_bkguncrt16cat_4b_1_Xhh-0.0-0.95[17],-0.4108,0.9531
uncorr_bkguncrt16cat_4b_1_Xhh-0.0-0.95[18],-0.0873,0.9647
uncorr_bkguncrt16cat_4b_1_Xhh-0.0-0.95[19],0.2027,0.9816
uncorr_bkguncrt16cat_4b_1_Xhh-0.0-0.95[20],0.1138,0.9823
uncorr_bkguncrt16cat_4b_1_Xhh-0.0-0.95[21],0.0378,0.9765
uncorr_bkguncrt16cat_4b_1_Xhh-0.0-0.95[22],0.1640,0.9750
uncorr_bkguncrt16cat_4b_1_Xhh-0.0-0.95[23],0.2477,0.9868
uncorr_bkguncrt16cat_4b_1_Xhh-0.0-0.95[24],-0.2103,0.9652
uncorr_bkguncrt16cat_4b_1_Xhh-0.0-0.95[25],0.0443,0.9790
uncorr_bkguncrt16cat_4b_1_Xhh-0.0-0.95[26],0.0888,0.9830
uncorr_bkguncrt16cat_4b_1_Xhh-0.0-0.95[27],0.0470,0.9859
uncorr_bkguncrt16cat_4b_1_Xhh-0.0-0.95[28],0.0983,0.9876
uncorr_bkguncrt16cat_4b_1_Xhh-0.0-0.95[29],0.0115,0.9791
uncorr_bkguncrt16cat_4b_1_Xhh-0.0-0.95[30],0.0296,0.9849
uncorr_bkguncrt16cat_4b_1_Xhh-0.0-0.95[31],-0.2413,0.9646
uncorr_bkguncrt16cat_4b_1_Xhh-0.0-0.95[32],-0.2725,0.9457
uncorr_bkguncrt16cat_4b_1_Xhh-0.0-0.95[33],0.1225,0.9970
uncorr_bkguncrt16cat_4b_1_Xhh-0.95-1.6[00],-0.0157,0.9607
uncorr_bkguncrt16cat_4b_1_Xhh-0.95-1.6[01],0.0184,0.9594
uncorr_bkguncrt16cat_4b_1_Xhh-0.95-1.6[02],0.8370,0.9775
uncorr_bkguncrt16cat_4b_1_Xhh-0.95-1.6[03],0.0856,0.9599
uncorr_bkguncrt16cat_4b_1_Xhh-0.95-1.6[04],-0.4528,0.9429
uncorr_bkguncrt16cat_4b_1_Xhh-0.95-1.6[05],-0.1279,0.9582
uncorr_bkguncrt16cat_4b_1_Xhh-0.95-1.6[06],-0.1973,0.9525
uncorr_bkguncrt16cat_4b_1_Xhh-0.95-1.6[07],-0.1665,0.9511
uncorr_bkguncrt16cat_4b_1_Xhh-0.95-1.6[08],-0.7366,0.9340
uncorr_bkguncrt16cat_4b_1_Xhh-0.95-1.6[09],-0.1325,0.9488
uncorr_bkguncrt16cat_4b_1_Xhh-0.95-1.6[10],0.4956,0.9674
uncorr_bkguncrt16cat_4b_1_Xhh-0.95-1.6[11],0.5647,0.9616
uncorr_bkguncrt16cat_4b_1_Xhh-0.95-1.6[12],0.1928,0.9601
uncorr_bkguncrt16cat_4b_1_Xhh-0.95-1.6[13],-0.4777,0.9345
uncorr_bkguncrt16cat_4b_1_Xhh-0.95-1.6[14],-0.0362,0.9590
uncorr_bkguncrt16cat_4b_1_Xhh-0.95-1.6[15],-0.4558,0.9447
uncorr_bkguncrt16cat_4b_1_Xhh-0.95-1.6[16],0.2531,0.9580
uncorr_bkguncrt16cat_4b_1_Xhh-0.95-1.6[17],0.2983,0.9676
uncorr_bkguncrt16cat_4b_1_Xhh-0.95-1.6[18],-0.4122,0.9512
uncorr_bkguncrt16cat_4b_1_Xhh-0.95-1.6[19],-0.3791,0.9400
uncorr_bkguncrt16cat_4b_1_Xhh-0.95-1.6[20],0.0107,0.9723
uncorr_bkguncrt16cat_4b_1_Xhh-0.95-1.6[21],-0.1802,0.9442
uncorr_bkguncrt16cat_4b_1_Xhh-0.95-1.6[22],-0.2461,0.9520
uncorr_bkguncrt16cat_4b_1_Xhh-0.95-1.6[23],0.1978,0.9765
uncorr_bkguncrt16cat_4b_1_Xhh-0.95-1.6[24],-0.3290,0.9525
uncorr_bkguncrt16cat_4b_1_Xhh-0.95-1.6[25],-0.0053,0.9438
uncorr_bkguncrt16cat_4b_1_Xhh-0.95-1.6[26],-0.3402,0.9589
uncorr_bkguncrt16cat_4b_1_Xhh-0.95-1.6[27],-0.0404,0.9653
uncorr_bkguncrt16cat_4b_1_Xhh-0.95-1.6[28],0.1758,0.9786
uncorr_bkguncrt16cat_4b_1_Xhh-0.95-1.6[29],-0.1392,0.9739
uncorr_bkguncrt16cat_4b_1_Xhh-0.95-1.6[30],-0.1083,0.9646
uncorr_bkguncrt16cat_4b_1_Xhh-0.95-1.6[31],-0.3087,0.9462
uncorr_bkguncrt16cat_4b_1_Xhh-0.95-1.6[32],0.1792,0.9927
uncorr_bkguncrt16cat_4b_1_Xhh-0.95-1.6[33],-0.0511,0.9683
