label,pull,err
all_VRyr_cat_0,-0.3013,0.4923
uncorr_bkguncrt17cat_4b_0[00],0.1832,0.8465
uncorr_bkguncrt17cat_4b_0[01],-0.2789,0.8413
uncorr_bkguncrt17cat_4b_0[02],-0.5175,0.8726
uncorr_bkguncrt17cat_4b_0[03],-0.4871,0.8656
uncorr_bkguncrt17cat_4b_0[04],-0.3057,0.8977
uncorr_bkguncrt17cat_4b_0[05],-0.1241,0.8882
uncorr_bkguncrt17cat_4b_0[06],0.6755,0.9091
uncorr_bkguncrt17cat_4b_0[07],1.2719,0.9161
uncorr_bkguncrt17cat_4b_0[08],0.4235,0.8983
uncorr_bkguncrt17cat_4b_0[09],-0.3308,0.8958
uncorr_bkguncrt17cat_4b_0[10],-0.2994,0.9014
uncorr_bkguncrt17cat_4b_0[11],0.1790,0.9126
uncorr_bkguncrt17cat_4b_0[12],0.2109,0.9055
uncorr_bkguncrt17cat_4b_0[13],0.0765,0.8944
uncorr_bkguncrt17cat_4b_0[14],-0.4364,0.8919
uncorr_bkguncrt17cat_4b_0[15],-0.1948,0.8825
uncorr_bkguncrt17cat_4b_0[16],-0.3161,0.8914
uncorr_bkguncrt17cat_4b_0[17],0.0123,0.9042
uncorr_bkguncrt17cat_4b_0[18],-0.0851,0.8965
uncorr_bkguncrt17cat_4b_0[19],0.0030,0.9124
uncorr_bkguncrt17cat_4b_0[20],0.4557,0.9070
uncorr_bkguncrt17cat_4b_0[21],0.2290,0.9288
uncorr_bkguncrt17cat_4b_0[22],0.1617,0.9370
uncorr_bkguncrt17cat_4b_0[23],-0.8179,0.8998
uncorr_bkguncrt17cat_4b_0[24],0.5028,0.9222
uncorr_bkguncrt17cat_4b_0[25],-0.2212,0.9243
uncorr_bkguncrt17cat_4b_0[26],-0.4490,0.9158
uncorr_bkguncrt17cat_4b_0[27],0.0161,0.9274
uncorr_bkguncrt17cat_4b_0[28],-0.3151,0.8921
uncorr_bkguncrt17cat_4b_0[29],0.9454,0.9787
uncorr_bkguncrt17cat_4b_0[30],-0.3344,0.9346
uncorr_bkguncrt17cat_4b_0[31],0.2740,0.9547
uncorr_bkguncrt17cat_4b_0[32],-0.0844,0.9285
uncorr_bkguncrt17cat_4b_0[33],-0.1933,0.9446
