label,pull,err
all_VRyr_cat_4b_0,0.7339,0.3353
all_VRyr_cat_4b_1,0.2260,0.3043
all_VRyr_cat_4b_2,0.4613,0.3830
all_VRyr_cat_4b_3,-0.0634,0.4160
all_VRyr_cat_4b_4,0.8899,0.6246
all_VRyr_cat_4b_5,1.4362,0.5871
bkg_normyr_cat_4b_0,-0.2217,0.8645
bkg_normyr_cat_4b_1,0.5578,0.9296
bkg_normyr_cat_4b_2,-0.0802,0.9885
bkg_normyr_cat_4b_3,0.1593,0.9783
bkg_normyr_cat_4b_4,-0.2196,0.9840
bkg_normyr_cat_4b_5,-0.6747,0.6733
uncorr_bkguncrt18cat_4b_0[00],0.5177,0.8646
uncorr_bkguncrt18cat_4b_0[01],0.1241,0.8723
uncorr_bkguncrt18cat_4b_0[02],-0.2557,0.8673
uncorr_bkguncrt18cat_4b_0[03],0.2857,0.9147
uncorr_bkguncrt18cat_4b_0[04],-0.2817,0.8887
uncorr_bkguncrt18cat_4b_0[05],-0.1424,0.9072
uncorr_bkguncrt18cat_4b_0[06],-0.2935,0.9021
uncorr_bkguncrt18cat_4b_0[07],-0.3339,0.8915
uncorr_bkguncrt18cat_4b_0[08],0.1003,0.9206
uncorr_bkguncrt18cat_4b_0[09],-0.2727,0.9090
uncorr_bkguncrt18cat_4b_0[10],0.3182,0.9198
uncorr_bkguncrt18cat_4b_0[11],0.2967,0.9173
uncorr_bkguncrt18cat_4b_0[12],0.0736,0.9208
uncorr_bkguncrt18cat_4b_0[13],0.1284,0.9337
uncorr_bkguncrt18cat_4b_0[14],-0.2341,0.9259
uncorr_bkguncrt18cat_4b_0[15],-0.1289,0.9424
uncorr_bkguncrt18cat_4b_0[16],-0.4975,0.8983
uncorr_bkguncrt18cat_4b_0[17],0.2702,0.9582
uncorr_bkguncrt18cat_4b_0[18],-0.0526,0.9516
uncorr_bkguncrt18cat_4b_0[19],0.0585,0.9548
uncorr_bkguncrt18cat_4b_0[20],-0.2005,0.9465
uncorr_bkguncrt18cat_4b_0[21],-0.2066,0.9520
uncorr_bkguncrt18cat_4b_0[22],0.0461,0.9594
uncorr_bkguncrt18cat_4b_0[23],-0.0513,0.9602
uncorr_bkguncrt18cat_4b_0[24],-0.0707,0.9554
uncorr_bkguncrt18cat_4b_0[25],0.1032,0.9648
uncorr_bkguncrt18cat_4b_0[26],0.0585,0.9651
uncorr_bkguncrt18cat_4b_0[27],0.2585,0.9316
uncorr_bkguncrt18cat_4b_0[28],-0.0506,0.9592
uncorr_bkguncrt18cat_4b_0[29],0.0083,0.9692
uncorr_bkguncrt18cat_4b_0[30],0.0968,0.9805
uncorr_bkguncrt18cat_4b_0[31],0.6869,1.0189
uncorr_bkguncrt18cat_4b_0[32],0.0440,0.9813
uncorr_bkguncrt18cat_4b_0[33],-0.1211,0.9644
uncorr_bkguncrt18cat_4b_1[00],0.2831,0.8826
uncorr_bkguncrt18cat_4b_1[01],0.1820,0.9001
uncorr_bkguncrt18cat_4b_1[02],0.6763,0.9083
uncorr_bkguncrt18cat_4b_1[03],0.1074,0.9153
uncorr_bkguncrt18cat_4b_1[04],0.0702,0.9124
uncorr_bkguncrt18cat_4b_1[05],-0.4631,0.8892
uncorr_bkguncrt18cat_4b_1[06],0.3770,0.9202
uncorr_bkguncrt18cat_4b_1[07],0.0227,0.9017
uncorr_bkguncrt18cat_4b_1[08],-0.3421,0.9080
uncorr_bkguncrt18cat_4b_1[09],-0.0899,0.9051
uncorr_bkguncrt18cat_4b_1[10],-0.2532,0.9179
uncorr_bkguncrt18cat_4b_1[11],0.7217,0.9357
uncorr_bkguncrt18cat_4b_1[12],0.9670,0.9652
uncorr_bkguncrt18cat_4b_1[13],-0.4061,0.9086
uncorr_bkguncrt18cat_4b_1[14],-0.1057,0.9308
uncorr_bkguncrt18cat_4b_1[15],0.2220,0.9501
uncorr_bkguncrt18cat_4b_1[16],0.7223,0.9751
uncorr_bkguncrt18cat_4b_1[17],0.0906,0.9417
uncorr_bkguncrt18cat_4b_1[18],-0.4687,0.9287
uncorr_bkguncrt18cat_4b_1[19],0.6154,0.9519
uncorr_bkguncrt18cat_4b_1[20],-0.1408,0.8490
uncorr_bkguncrt18cat_4b_1[21],-0.3363,0.9175
uncorr_bkguncrt18cat_4b_1[22],-0.2021,0.9302
uncorr_bkguncrt18cat_4b_1[23],-0.0577,0.9609
uncorr_bkguncrt18cat_4b_1[24],-0.3337,0.9445
uncorr_bkguncrt18cat_4b_1[25],0.2267,0.9774
uncorr_bkguncrt18cat_4b_1[26],-0.0707,0.9553
uncorr_bkguncrt18cat_4b_1[27],-0.2963,0.9465
uncorr_bkguncrt18cat_4b_1[28],0.1202,0.9768
uncorr_bkguncrt18cat_4b_1[29],-0.1095,0.9684
uncorr_bkguncrt18cat_4b_1[30],0.4270,0.9967
uncorr_bkguncrt18cat_4b_1[31],-0.1519,0.9598
uncorr_bkguncrt18cat_4b_1[32],0.4364,1.0035
uncorr_bkguncrt18cat_4b_1[33],0.2052,0.9873
uncorr_bkguncrt18cat_4b_2[00],-0.3986,0.8980
uncorr_bkguncrt18cat_4b_2[01],0.4792,0.9252
uncorr_bkguncrt18cat_4b_2[02],-0.9484,0.9057
uncorr_bkguncrt18cat_4b_2[03],0.2557,0.9097
uncorr_bkguncrt18cat_4b_2[04],-0.2656,0.9144
uncorr_bkguncrt18cat_4b_2[05],0.3261,0.9368
uncorr_bkguncrt18cat_4b_2[06],0.2417,0.9358
uncorr_bkguncrt18cat_4b_2[07],0.3595,0.9272
uncorr_bkguncrt18cat_4b_2[08],-0.4486,0.9101
uncorr_bkguncrt18cat_4b_2[09],0.1947,0.9245
uncorr_bkguncrt18cat_4b_2[10],-0.5388,0.9187
uncorr_bkguncrt18cat_4b_2[11],0.0559,0.9314
uncorr_bkguncrt18cat_4b_2[12],-0.1982,0.9321
uncorr_bkguncrt18cat_4b_2[13],0.0185,0.9525
uncorr_bkguncrt18cat_4b_2[14],0.1024,0.9513
uncorr_bkguncrt18cat_4b_2[15],-0.5508,0.9266
uncorr_bkguncrt18cat_4b_2[16],-0.0786,0.9533
uncorr_bkguncrt18cat_4b_2[17],0.2658,0.9638
uncorr_bkguncrt18cat_4b_2[18],-0.1092,0.9530
uncorr_bkguncrt18cat_4b_2[19],-0.0991,0.9420
uncorr_bkguncrt18cat_4b_2[20],0.2044,0.9734
uncorr_bkguncrt18cat_4b_2[21],-0.0015,0.9625
uncorr_bkguncrt18cat_4b_2[22],-0.4562,0.9145
uncorr_bkguncrt18cat_4b_2[23],-0.1382,0.9529
uncorr_bkguncrt18cat_4b_2[24],0.0817,0.9388
uncorr_bkguncrt18cat_4b_2[25],0.1492,0.9802
uncorr_bkguncrt18cat_4b_2[26],0.3207,0.9923
uncorr_bkguncrt18cat_4b_2[27],-0.1152,0.9736
uncorr_bkguncrt18cat_4b_2[28],0.1869,0.9692
uncorr_bkguncrt18cat_4b_2[29],-0.0159,0.9799
uncorr_bkguncrt18cat_4b_2[30],-0.2013,0.9643
uncorr_bkguncrt18cat_4b_2[31],-0.4779,0.9068
uncorr_bkguncrt18cat_4b_2[32],-0.2140,0.9709
uncorr_bkguncrt18cat_4b_2[33],0.0603,0.9861
uncorr_bkguncrt18cat_4b_3[00],0.2792,0.9417
uncorr_bkguncrt18cat_4b_3[01],0.1537,0.9501
uncorr_bkguncrt18cat_4b_3[02],0.0218,0.9362
uncorr_bkguncrt18cat_4b_3[03],0.4141,0.9529
uncorr_bkguncrt18cat_4b_3[04],0.0158,0.9449
uncorr_bkguncrt18cat_4b_3[05],-0.1380,0.9387
uncorr_bkguncrt18cat_4b_3[06],-0.1007,0.9455
uncorr_bkguncrt18cat_4b_3[07],-0.1329,0.9350
uncorr_bkguncrt18cat_4b_3[08],0.3743,0.9528
uncorr_bkguncrt18cat_4b_3[09],0.3567,0.9533
uncorr_bkguncrt18cat_4b_3[10],-0.0055,0.9357
uncorr_bkguncrt18cat_4b_3[11],-0.2531,0.9318
uncorr_bkguncrt18cat_4b_3[12],-0.7389,0.9079
uncorr_bkguncrt18cat_4b_3[13],-0.0344,0.9407
uncorr_bkguncrt18cat_4b_3[14],-0.4386,0.9192
uncorr_bkguncrt18cat_4b_3[15],0.2395,0.9490
uncorr_bkguncrt18cat_4b_3[16],-0.0884,0.9379
uncorr_bkguncrt18cat_4b_3[17],0.3695,0.9600
uncorr_bkguncrt18cat_4b_3[18],-0.2504,0.9473
uncorr_bkguncrt18cat_4b_3[19],0.7507,0.9817
uncorr_bkguncrt18cat_4b_3[20],0.5752,0.9623
uncorr_bkguncrt18cat_4b_3[21],-0.2645,0.9311
uncorr_bkguncrt18cat_4b_3[22],-0.1665,0.9501
uncorr_bkguncrt18cat_4b_3[23],-0.0614,0.9705
uncorr_bkguncrt18cat_4b_3[24],0.0016,0.9598
uncorr_bkguncrt18cat_4b_3[25],-0.3579,0.8942
uncorr_bkguncrt18cat_4b_3[26],0.1697,0.9801
uncorr_bkguncrt18cat_4b_3[27],0.1413,0.9813
uncorr_bkguncrt18cat_4b_3[28],0.7731,0.9952
uncorr_bkguncrt18cat_4b_3[29],0.1336,0.9736
uncorr_bkguncrt18cat_4b_3[30],0.2872,0.9900
uncorr_bkguncrt18cat_4b_3[31],0.1755,0.9865
uncorr_bkguncrt18cat_4b_3[32],0.1688,0.9834
uncorr_bkguncrt18cat_4b_3[33],-0.0062,0.9680
uncorr_bkguncrt18cat_4b_4[00],-0.0956,0.9500
uncorr_bkguncrt18cat_4b_4[01],0.0883,0.9585
uncorr_bkguncrt18cat_4b_4[02],-0.4260,0.9450
uncorr_bkguncrt18cat_4b_4[03],0.7026,0.9690
uncorr_bkguncrt18cat_4b_4[04],-0.1419,0.9446
uncorr_bkguncrt18cat_4b_4[05],-0.4270,0.9521
uncorr_bkguncrt18cat_4b_4[06],-0.0864,0.9508
uncorr_bkguncrt18cat_4b_4[07],0.0414,0.9427
uncorr_bkguncrt18cat_4b_4[08],-0.1641,0.9467
uncorr_bkguncrt18cat_4b_4[09],-0.3598,0.9436
uncorr_bkguncrt18cat_4b_4[10],0.0088,0.9528
uncorr_bkguncrt18cat_4b_4[11],-0.3605,0.9258
uncorr_bkguncrt18cat_4b_4[12],-0.0765,0.9553
uncorr_bkguncrt18cat_4b_4[13],-0.1126,0.9358
uncorr_bkguncrt18cat_4b_4[14],-0.0735,0.9412
uncorr_bkguncrt18cat_4b_4[15],0.1580,0.9604
uncorr_bkguncrt18cat_4b_4[16],-0.0708,0.9441
uncorr_bkguncrt18cat_4b_4[17],-0.2558,0.9470
uncorr_bkguncrt18cat_4b_4[18],-0.7029,0.8633
uncorr_bkguncrt18cat_4b_4[19],-0.6310,0.9157
uncorr_bkguncrt18cat_4b_4[20],-0.0116,0.9381
uncorr_bkguncrt18cat_4b_4[21],-0.0747,0.9493
uncorr_bkguncrt18cat_4b_4[22],-0.0996,0.9503
uncorr_bkguncrt18cat_4b_4[23],0.0645,0.9640
uncorr_bkguncrt18cat_4b_4[24],0.0521,0.9703
uncorr_bkguncrt18cat_4b_4[25],0.0811,0.9657
uncorr_bkguncrt18cat_4b_4[26],0.2337,0.9526
uncorr_bkguncrt18cat_4b_4[27],-0.0699,0.9488
uncorr_bkguncrt18cat_4b_4[28],-0.3509,0.9395
uncorr_bkguncrt18cat_4b_4[29],-0.2426,0.9532
uncorr_bkguncrt18cat_4b_4[30],0.1370,0.9799
uncorr_bkguncrt18cat_4b_4[31],0.1477,0.9798
uncorr_bkguncrt18cat_4b_4[32],0.9050,1.0122
uncorr_bkguncrt18cat_4b_4[33],-0.0423,0.9758
uncorr_bkguncrt18cat_4b_5[00],0.0569,0.9709
uncorr_bkguncrt18cat_4b_5[01],0.6024,0.9950
uncorr_bkguncrt18cat_4b_5[02],0.2127,0.9737
uncorr_bkguncrt18cat_4b_5[03],-0.0586,0.9613
uncorr_bkguncrt18cat_4b_5[04],-0.0844,0.9657
uncorr_bkguncrt18cat_4b_5[05],-0.1434,0.9706
uncorr_bkguncrt18cat_4b_5[06],-0.0259,0.9749
uncorr_bkguncrt18cat_4b_5[07],0.2230,0.9808
uncorr_bkguncrt18cat_4b_5[08],-0.0926,0.9733
uncorr_bkguncrt18cat_4b_5[09],-0.0276,0.9786
uncorr_bkguncrt18cat_4b_5[10],0.2057,0.9814
uncorr_bkguncrt18cat_4b_5[11],-0.1544,0.9708
uncorr_bkguncrt18cat_4b_5[12],-0.2271,0.9701
uncorr_bkguncrt18cat_4b_5[13],0.0891,0.9738
uncorr_bkguncrt18cat_4b_5[14],-0.3351,0.9609
uncorr_bkguncrt18cat_4b_5[15],-0.2255,0.9659
uncorr_bkguncrt18cat_4b_5[16],-0.0088,0.9692
uncorr_bkguncrt18cat_4b_5[17],-0.5126,0.9515
uncorr_bkguncrt18cat_4b_5[18],0.0757,0.9705
uncorr_bkguncrt18cat_4b_5[19],-0.1320,0.9647
uncorr_bkguncrt18cat_4b_5[20],-0.0499,0.9672
uncorr_bkguncrt18cat_4b_5[21],0.1742,0.9753
uncorr_bkguncrt18cat_4b_5[22],0.2328,0.9807
uncorr_bkguncrt18cat_4b_5[23],-0.1587,0.9458
uncorr_bkguncrt18cat_4b_5[24],0.2081,0.9824
uncorr_bkguncrt18cat_4b_5[25],-0.1207,0.9376
uncorr_bkguncrt18cat_4b_5[26],-0.1920,0.9557
uncorr_bkguncrt18cat_4b_5[27],-0.0755,0.9747
uncorr_bkguncrt18cat_4b_5[28],0.0501,0.9763
uncorr_bkguncrt18cat_4b_5[29],0.0992,0.9733
uncorr_bkguncrt18cat_4b_5[30],-0.4104,0.8792
uncorr_bkguncrt18cat_4b_5[31],-0.0281,0.9699
uncorr_bkguncrt18cat_4b_5[32],-0.1310,0.9602
uncorr_bkguncrt18cat_4b_5[33],0.0569,0.9715
