label,post_dn,post_up,pre_dn,pre_up
uncorr_bkguncrt174b[00],0.0000,-0.0000,0.0000,-0.0000
uncorr_bkguncrt184b[00],0.0000,-0.0000,0.0000,0.0000
uncorr_bkguncrt164b[00],0.0000,-0.0000,0.0000,-0.0000
uncorr_bkguncrt164b[01],0.0011,-0.0007,0.0013,-0.0008
uncorr_bkguncrt174b[01],0.0021,-0.0013,0.0032,-0.0016
uncorr_bkguncrt184b[01],0.0028,-0.0020,0.0043,-0.0026
uncorr_bkguncrt164b[02],0.0056,-0.0048,0.0068,-0.0057
uncorr_bkguncrt174b[02],0.0067,-0.0056,0.0097,-0.0075
uncorr_bkguncrt164b[37],0.0078,-0.0058,0.0079,-0.0058
uncorr_bkguncrt184b[02],0.0103,-0.0090,0.0151,-0.0124
uncorr_bkguncrt174b[37],0.0116,-0.0085,0.0118,-0.0086
uncorr_bkguncrt164b[34],0.0181,-0.0138,0.0184,-0.0140
uncorr_bkguncrt164b[36],0.0190,-0.0136,0.0193,-0.0137
uncorr_bkguncrt184b[37],0.0199,-0.0150,0.0204,-0.0153
uncorr_bkguncrt164b[35],0.0202,-0.0151,0.0205,-0.0152
uncorr_bkguncrt174b[36],0.0216,-0.0156,0.0221,-0.0159
uncorr_bkguncrt164b[38],0.0218,-0.0138,0.0223,-0.0140
uncorr_bkguncrt164b[03],0.0254,-0.0234,0.0322,-0.0290
uncorr_bkguncrt184b[36],0.0255,-0.0190,0.0263,-0.0194
uncorr_bkguncrt174b[38],0.0301,-0.0210,0.0306,-0.0212
uncorr_bkguncrt164b[32],0.0305,-0.0240,0.0311,-0.0243
uncorr_bkguncrt174b[34],0.0312,-0.0243,0.0318,-0.0247
uncorr_bkguncrt164b[33],0.0320,-0.0238,0.0328,-0.0243
uncorr_bkguncrt174b[35],0.0324,-0.0245,0.0330,-0.0249
uncorr_bkguncrt164b[29],0.0352,-0.0286,0.0361,-0.0292
uncorr_bkguncrt164b[31],0.0364,-0.0285,0.0372,-0.0290
uncorr_bkguncrt174b[33],0.0366,-0.0288,0.0375,-0.0294
uncorr_bkguncrt164b[30],0.0367,-0.0288,0.0378,-0.0294
uncorr_bkguncrt174b[03],0.0393,-0.0360,0.0529,-0.0470
uncorr_bkguncrt184b[34],0.0414,-0.0327,0.0429,-0.0336
uncorr_bkguncrt174b[32],0.0443,-0.0347,0.0459,-0.0357
uncorr_bkguncrt184b[35],0.0451,-0.0351,0.0463,-0.0358
uncorr_bkguncrt174b[31],0.0468,-0.0374,0.0484,-0.0384
uncorr_bkguncrt184b[32],0.0469,-0.0385,0.0485,-0.0395
uncorr_bkguncrt184b[38],0.0473,-0.0285,0.0528,-0.0304
uncorr_bkguncrt164b[28],0.0485,-0.0374,0.0512,-0.0390
uncorr_bkguncrt164b[25],0.0499,-0.0415,0.0520,-0.0429
uncorr_bkguncrt184b[33],0.0502,-0.0394,0.0525,-0.0408
uncorr_bkguncrt164b[26],0.0524,-0.0432,0.0543,-0.0445
uncorr_bkguncrt164b[27],0.0568,-0.0466,0.0587,-0.0478
uncorr_bkguncrt184b[03],0.0579,-0.0535,0.1032,-0.0900
uncorr_bkguncrt174b[30],0.0615,-0.0495,0.0638,-0.0509
uncorr_bkguncrt184b[31],0.0641,-0.0520,0.0673,-0.0540
uncorr_bkguncrt184b[29],0.0652,-0.0543,0.0683,-0.0565
uncorr_bkguncrt164b[04],0.0653,-0.0614,0.0820,-0.0759
uncorr_bkguncrt174b[27],0.0684,-0.0574,0.0712,-0.0594
uncorr_bkguncrt174b[28],0.0691,-0.0547,0.0742,-0.0578
uncorr_bkguncrt174b[26],0.0693,-0.0585,0.0724,-0.0607
uncorr_bkguncrt174b[29],0.0694,-0.0572,0.0718,-0.0588
uncorr_bkguncrt164b[23],0.0702,-0.0608,0.0723,-0.0624
uncorr_bkguncrt184b[30],0.0723,-0.0603,0.0750,-0.0621
uncorr_bkguncrt164b[24],0.0730,-0.0618,0.0761,-0.0640
uncorr_bkguncrt184b[28],0.0790,-0.0664,0.0831,-0.0693
uncorr_bkguncrt174b[25],0.0847,-0.0719,0.0887,-0.0748
uncorr_bkguncrt164b[22],0.0878,-0.0759,0.0914,-0.0786
uncorr_bkguncrt164b[21],0.0883,-0.0767,0.0923,-0.0797
uncorr_bkguncrt184b[27],0.0885,-0.0747,0.0942,-0.0788
uncorr_bkguncrt174b[24],0.0982,-0.0845,0.1028,-0.0879
uncorr_bkguncrt164b[20],0.1034,-0.0904,0.1090,-0.0947
uncorr_bkguncrt174b[04],0.1046,-0.0981,0.1404,-0.1290
uncorr_bkguncrt174b[23],0.1046,-0.0902,0.1102,-0.0943
uncorr_bkguncrt164b[19],0.1077,-0.0950,0.1137,-0.0997
uncorr_bkguncrt184b[26],0.1098,-0.0935,0.1170,-0.0987
uncorr_bkguncrt164b[18],0.1104,-0.0991,0.1158,-0.1034
uncorr_bkguncrt164b[05],0.1168,-0.1107,0.1402,-0.1316
uncorr_bkguncrt174b[21],0.1226,-0.1076,0.1303,-0.1135
uncorr_bkguncrt174b[22],0.1270,-0.1093,0.1364,-0.1162
uncorr_bkguncrt184b[25],0.1296,-0.1106,0.1398,-0.1179
uncorr_bkguncrt184b[04],0.1322,-0.1248,0.2261,-0.2052
uncorr_bkguncrt164b[17],0.1382,-0.1243,0.1460,-0.1306
uncorr_bkguncrt164b[16],0.1401,-0.1274,0.1477,-0.1336
uncorr_bkguncrt174b[19],0.1433,-0.1280,0.1531,-0.1358
uncorr_bkguncrt184b[23],0.1457,-0.1276,0.1567,-0.1360
uncorr_bkguncrt184b[24],0.1561,-0.1346,0.1685,-0.1438
uncorr_bkguncrt164b[14],0.1623,-0.1497,0.1722,-0.1581
uncorr_bkguncrt164b[06],0.1626,-0.1544,0.1925,-0.1811
uncorr_bkguncrt164b[15],0.1634,-0.1492,0.1737,-0.1577
uncorr_bkguncrt164b[13],0.1669,-0.1552,0.1771,-0.1640
uncorr_bkguncrt174b[18],0.1734,-0.1555,0.1868,-0.1662
uncorr_bkguncrt174b[20],0.1808,-0.1565,0.1992,-0.1701
uncorr_bkguncrt174b[05],0.1812,-0.1714,0.2414,-0.2243
uncorr_bkguncrt164b[10],0.1851,-0.1747,0.2002,-0.1881
uncorr_bkguncrt164b[12],0.1860,-0.1739,0.1985,-0.1847
uncorr_bkguncrt184b[20],0.1968,-0.1757,0.2164,-0.1911
uncorr_bkguncrt164b[09],0.1987,-0.1886,0.2163,-0.2044
uncorr_bkguncrt174b[17],0.2003,-0.1799,0.2208,-0.1963
uncorr_bkguncrt164b[08],0.2006,-0.1906,0.2232,-0.2108
uncorr_bkguncrt164b[07],0.2007,-0.1906,0.2298,-0.2167
uncorr_bkguncrt164b[11],0.2012,-0.1887,0.2178,-0.2032
uncorr_bkguncrt184b[21],0.2014,-0.1775,0.2228,-0.1939
uncorr_bkguncrt184b[22],0.2066,-0.1770,0.2376,-0.1992
uncorr_bkguncrt174b[16],0.2107,-0.1914,0.2308,-0.2079
uncorr_bkguncrt174b[15],0.2182,-0.2001,0.2383,-0.2169
uncorr_bkguncrt184b[19],0.2284,-0.2058,0.2513,-0.2242
uncorr_bkguncrt174b[06],0.2444,-0.2322,0.3028,-0.2843
uncorr_bkguncrt184b[05],0.2493,-0.2369,0.4150,-0.3817
uncorr_bkguncrt174b[13],0.2525,-0.2347,0.2772,-0.2559
uncorr_bkguncrt174b[14],0.2558,-0.2353,0.2835,-0.2586
uncorr_bkguncrt184b[18],0.2650,-0.2394,0.2970,-0.2652
uncorr_bkguncrt174b[07],0.2740,-0.2607,0.3264,-0.3076
uncorr_bkguncrt184b[17],0.2856,-0.2600,0.3222,-0.2900
uncorr_bkguncrt174b[10],0.2966,-0.2796,0.3344,-0.3130
uncorr_bkguncrt174b[11],0.2985,-0.2801,0.3346,-0.3116
uncorr_bkguncrt184b[16],0.3021,-0.2771,0.3421,-0.3103
uncorr_bkguncrt174b[08],0.3137,-0.2972,0.3689,-0.3464
uncorr_bkguncrt174b[09],0.3219,-0.3046,0.3675,-0.3452
uncorr_bkguncrt174b[12],0.3267,-0.3014,0.3827,-0.3484
uncorr_bkguncrt184b[15],0.3281,-0.3030,0.3733,-0.3412
uncorr_bkguncrt184b[06],0.3527,-0.3359,0.5303,-0.4934
uncorr_bkguncrt184b[14],0.3790,-0.3509,0.4425,-0.4046
uncorr_bkguncrt184b[13],0.3933,-0.3666,0.4623,-0.4258
uncorr_bkguncrt184b[07],0.4161,-0.3964,0.5837,-0.5456
uncorr_bkguncrt184b[12],0.4300,-0.4023,0.5196,-0.4796
uncorr_bkguncrt184b[11],0.4523,-0.4247,0.5619,-0.5199
uncorr_bkguncrt184b[08],0.4561,-0.4336,0.6416,-0.5682
uncorr_bkguncrt184b[10],0.4885,-0.4607,0.6499,-0.5772
uncorr_bkguncrt184b[09],0.5087,-0.4816,0.6776,-0.6247
