label,pull,err
all_VRyr_cat_0,1.2545,0.6444
uncorr_bkguncrt16cat_4b_0[00],0.1466,0.8426
uncorr_bkguncrt16cat_4b_0[01],0.1992,0.8569
uncorr_bkguncrt16cat_4b_0[02],0.2716,0.8391
uncorr_bkguncrt16cat_4b_0[03],0.2814,0.8313
uncorr_bkguncrt16cat_4b_0[04],-0.2743,0.8447
uncorr_bkguncrt16cat_4b_0[05],0.1680,0.8592
uncorr_bkguncrt16cat_4b_0[06],-0.4621,0.8331
uncorr_bkguncrt16cat_4b_0[07],-0.0975,0.8549
uncorr_bkguncrt16cat_4b_0[08],-0.3214,0.8545
uncorr_bkguncrt16cat_4b_0[09],-0.7642,0.8384
uncorr_bkguncrt16cat_4b_0[10],0.6693,0.8793
uncorr_bkguncrt16cat_4b_0[11],0.7648,0.8808
uncorr_bkguncrt16cat_4b_0[12],0.5354,0.8797
uncorr_bkguncrt16cat_4b_0[13],-0.1964,0.8710
uncorr_bkguncrt16cat_4b_0[14],-0.0488,0.8902
uncorr_bkguncrt16cat_4b_0[15],-0.2725,0.8854
uncorr_bkguncrt16cat_4b_0[16],0.1110,0.8935
uncorr_bkguncrt16cat_4b_0[17],0.1602,0.9036
uncorr_bkguncrt16cat_4b_0[18],-0.1525,0.9050
uncorr_bkguncrt16cat_4b_0[19],-0.0022,0.9075
uncorr_bkguncrt16cat_4b_0[20],0.2108,0.9298
uncorr_bkguncrt16cat_4b_0[21],-0.0328,0.9087
uncorr_bkguncrt16cat_4b_0[22],-0.2409,0.9076
uncorr_bkguncrt16cat_4b_0[23],0.2712,0.9323
uncorr_bkguncrt16cat_4b_0[24],-0.1589,0.9127
uncorr_bkguncrt16cat_4b_0[25],0.0313,0.9242
uncorr_bkguncrt16cat_4b_0[26],-0.2221,0.9257
uncorr_bkguncrt16cat_4b_0[27],-0.1864,0.9347
uncorr_bkguncrt16cat_4b_0[28],0.3489,0.9622
uncorr_bkguncrt16cat_4b_0[29],0.0787,0.9561
uncorr_bkguncrt16cat_4b_0[30],-0.2757,0.9036
uncorr_bkguncrt16cat_4b_0[31],-0.4922,0.9137
uncorr_bkguncrt16cat_4b_0[32],-0.1629,0.9466
uncorr_bkguncrt16cat_4b_0[33],-0.0984,0.9498
