     fun: nan
     jac: array([ 7.16650140e+00,  5.55097781e+01,  6.92789004e+01,  9.46700019e+01,
        9.96343019e+01,  9.11436304e+01,  8.13165040e+01,  7.87653831e+01,
        6.43738173e+01,  5.25825581e+01,  4.80681524e+01,  3.55716820e+01,
        3.07495858e+01,  2.46166227e+01,  2.17152568e+01,  1.59413560e+01,
        1.37790515e+01,  1.26310586e+01,  1.02160806e+01,  9.28096256e+00,
        8.39119479e+00,  6.77746830e+00,  6.24071166e+00,  4.78460014e+00,
        4.94859151e+00,  2.89571888e+00,  3.77376973e+00,  2.98566661e+00,
        3.01572624e+00,  1.92488991e+00,  1.76976334e+00,  2.17681334e+00,
        1.78928793e+00,  1.22826213e+00,  1.12364959e+00,  7.99597161e+01,
        1.19933992e+02,  1.36906044e+02,  1.50698037e+02,  1.57289845e+02,
        1.43722993e+02,  1.29074692e+02,  1.01441600e+02,  8.63014114e+01,
        8.18346200e+01,  6.00969470e+01,  4.32784422e+01,  4.33863065e+01,
        3.55884525e+01,  2.80033556e+01,  2.31209308e+01,  1.87699358e+01,
        1.91704093e+01,  1.48854012e+01,  1.14349851e+01,  1.07806076e+01,
        8.33632465e+00,  9.82180833e+00,  8.20560629e+00,  7.55120837e+00,
        5.32506532e+00,  4.41333373e+00,  4.74703688e+00,  2.13260260e+00,
        3.31055882e+00,  3.91987596e+00,  1.55526359e+00,  2.33163134e+00,
        2.74783000e+00,  5.58078234e+00,  1.84726059e+01,  2.23320089e+01,
        1.48054546e+01,  3.04034276e+01,  3.05142472e+01,  3.58793000e+01,
        2.73145319e+01,  2.43392166e+01,  2.39606031e+01,  2.29454962e+01,
        2.27118037e+01,  1.41493498e+01,  2.24195441e+00,  1.05374162e+01,
        1.66668814e+01,  1.48179208e+01,  1.03239282e+01,  2.89406786e+00,
        5.34037347e+00,  3.20163541e+00,  6.68392805e+00,  3.43587973e+00,
        6.62726279e-01,  1.61805694e+00,  2.77968046e+00,  7.82117654e-01,
        9.52660084e-01,  1.42870002e-01,  1.60134193e+00, -1.36472427e+00,
        2.39017825e+00,  2.29191770e+00, -2.37270513e+00,  8.70319832e+00,
        4.13103293e+01,  1.92932348e+01,  4.90276499e+01,  4.34801049e+01,
        5.64730133e+01,  4.90668542e+01,  1.89186282e+01,  3.89771703e+01,
        3.29690884e+01,  3.02807441e+01,  1.85687355e+01,  2.16859598e+01,
        2.42262507e+01,  2.36609893e+01,  1.96435896e+01,  6.63692454e+00,
        1.04780349e+01,  1.54940045e+01,  7.42600349e+00,  1.04255087e+01,
        9.77256619e+00,  1.34067376e+01,  3.36180142e+00,  5.45184491e+00,
        5.86026713e+00,  8.06993901e+00, -3.53611892e+00,  6.18657766e+00,
        4.02683080e+00,  3.69469772e+00,  7.64411772e-01,  1.07160963e-01,
        3.41405382e+00, -1.01818549e+00,  5.55942732e+00,  1.36250380e+01,
        1.40628228e+01,  2.00045798e+01, -4.89817936e+00,  5.05908789e+00,
        1.49752197e+01,  2.63532933e+00,  8.81600290e+00, -3.21985675e+00,
        1.14469699e+01,  7.53872833e+00,  1.01419553e+01,  6.53145376e+00,
       -1.82433954e+00,  8.86951042e+00,  1.20421626e+01,  3.64612551e+00,
        2.07575826e+00,  3.92127433e-01,  2.12053849e+00,  7.73471938e-01,
       -3.91051802e+00,  1.45477959e+00,  1.50456011e+00, -2.02530537e+00,
        3.25985241e+00,  6.92486868e-01, -5.16755619e-02,  2.37275862e+00,
        2.20939768e+00,  1.70602928e+00,  1.44911442e+00,  2.49786421e+00,
        5.28579099e+00,  2.90590401e+00,  1.71098751e+01,  3.31495211e+01,
        2.62081853e+01,  1.42073561e+01,  1.78916939e+01,  2.73456886e+01,
        1.97905274e+01,  1.23739944e+01,  5.36081797e+00, -5.79540515e+00,
        2.30043942e+01, -3.14273127e-02,  8.93589818e+00,  7.24810379e+00,
       -9.34091049e+00,  4.66099707e+00,  5.28546709e+00, -1.01998751e+00,
        6.70839331e+00, -3.19840375e-01, -1.12647424e+00,  8.05312219e+00,
       -1.85940187e+00,  3.31366820e+00,  1.44381655e+00, -6.04351024e+00,
       -3.31186593e-01,  1.21591719e+00,  1.75237818e+00, -3.17615770e+00,
       -1.65448191e+00,  6.47221499e+01,  1.02223677e+02,  1.16867450e+02,
        1.29850424e+02,  1.31655301e+02,  1.08955182e+02,  1.01306398e+02,
        8.69498399e+01,  7.37036396e+01,  6.02353475e+01,  4.70600762e+01,
        3.93638386e+01,  3.62975210e+01,  3.10477345e+01,  2.83129541e+01,
        2.41566854e+01,  1.88777310e+01,  1.68394144e+01,  1.44768871e+01,
        1.24451507e+01,  9.53487186e+00,  9.16121510e+00,  7.04131035e+00,
        7.08363677e+00,  5.63210013e+00,  5.40816353e+00,  4.32494408e+00,
        4.25583096e+00,  3.57452521e+00,  7.35737639e-01,  3.17306108e+00,
        1.94057783e+00,  2.31822331e+00,  1.55668110e+00,  9.71609768e+01,
        1.54507831e+02,  1.96934929e+02,  2.15754463e+02,  2.13327585e+02,
        1.88624606e+02,  1.62629343e+02,  1.46155731e+02,  1.19862166e+02,
        1.07105883e+02,  8.19328666e+01,  7.29184175e+01,  5.81656967e+01,
        4.86208704e+01,  4.85467812e+01,  3.67980008e+01,  3.84375288e+01,
        2.91971755e+01,  2.36675851e+01,  2.05317780e+01,  1.83665819e+01,
        1.58193021e+01,  1.21721304e+01,  1.35180591e+01,  7.21166294e+00,
        8.84441354e+00,  6.61630908e+00,  4.90628226e+00,  3.73102405e+00,
        3.55867596e+00,  4.34780246e+00,  4.05495643e+00, -2.94982688e+00,
        2.36461847e+00,  1.95109002e+01,  1.74961247e+01,  3.45864988e+01,
        2.85934008e+01,  4.79922228e+01,  3.69062024e+01,  3.76322318e+01,
        3.52393688e+01,  2.99730344e+01,  3.49431129e+01,  2.21162686e+01,
        1.79057020e+01,  1.70763853e+01,  1.70828670e+01,  2.47410409e+01,
        1.33409849e+01,  6.12956982e+00,  5.68437868e+00,  6.69160821e+00,
        5.24007051e+00,  5.55102261e+00, -4.85849298e+00,  5.69781970e+00,
        3.51130269e+00,  3.13510374e+00,  8.04803852e-01,  6.94180557e+00,
        4.47914194e+00,  3.72456899e+00,  1.34398365e+00,  4.67432920e+00,
        1.67652932e+01,  1.62601242e+00,  4.71656812e-01,  2.57996415e+01,
        4.06240735e+01,  4.43251709e+01,  3.92889159e+01,  5.44180833e+01,
        7.35162394e+01,  5.16399755e+01,  1.90108830e+01,  4.52646827e+01,
        4.87493903e+01,  5.15204072e+01,  4.16232025e+01,  2.43159111e+01,
        2.68519396e+01,  1.68498962e+01,  2.91242562e+01,  3.70677694e+00,
        1.01326269e+01,  1.47683562e+01,  7.60146669e+00,  1.65627393e+01,
        1.29924878e+01,  7.07976068e+00,  9.76850330e+00,  3.81712862e+00,
        8.51949918e+00,  3.06418335e+00,  5.30764346e+00,  3.12461410e+00,
       -4.23466176e-02,  4.38667395e+00, -4.02939635e+00,  3.49014595e+00,
        1.91622593e-01,  6.38329348e+00,  5.06661668e+00,  1.01139030e+01,
        2.09565097e+01,  8.38150655e+00,  1.58707807e+01,  1.50602382e+01,
       -3.01773748e+00,  9.31871035e+00,  1.82541358e+01,  1.09644056e+01,
       -7.86228540e+00,  1.35058869e+01,  4.43593643e+00,  2.12463454e+00,
        2.89290739e+00,  7.77925634e+00,  1.02061310e+01, -5.03630226e-01,
       -2.46681347e+00, -1.51290048e+01, -6.04834304e+00,  2.55210695e+00,
        1.05263545e+00, -7.39853729e-01, -2.32246441e+00,  2.28289828e+00,
       -1.43913046e+00,  4.46032379e+00, -1.12163581e+00, -2.23415020e+00,
       -2.14832998e+00,  3.30254892e+00,  2.18981790e+00, -1.14160273e+00,
        1.79747128e+01,  2.27093351e+01,  2.36466553e+01,  3.60554208e+01,
        2.06646019e+01,  1.27369583e+01,  1.46162161e+01,  1.12568105e+01,
        1.76951680e+01,  2.19041181e+01,  1.68838008e+01,  3.31428607e+00,
        4.09580205e+00,  1.09709353e+01,  3.20090535e+00,  1.50150745e+01,
        5.95101807e+00,  1.08900162e+01,  4.79667339e+00, -1.83496807e+00,
        4.41277208e+00,  6.04929886e+00,  8.39392505e+00, -4.29015096e+00,
        7.50150812e+00,  2.63168235e-01,  2.74452190e+00, -2.00214050e+00,
       -4.00917163e+00, -3.10051726e+00,  1.65013758e+00, -5.12684358e-01,
        2.15557248e+00,  1.13910122e+02,  1.56678945e+02,  1.93609208e+02,
        2.10073765e+02,  2.00982495e+02,  1.94847448e+02,  1.76828524e+02,
        1.53191346e+02,  1.23488011e+02,  1.12027652e+02,  9.11909773e+01,
        8.21215213e+01,  6.31608257e+01,  5.15413234e+01,  4.96195039e+01,
        3.63803309e+01,  2.99906026e+01,  2.70611567e+01,  2.32080048e+01,
        1.95657814e+01,  1.89441483e+01,  1.53345373e+01,  1.35790967e+01,
        1.10737178e+01,  1.11998218e+01,  7.09809602e+00,  7.25992438e+00,
        6.42650192e+00,  5.48509884e+00,  4.86763160e+00,  2.70402759e+00,
        3.04652668e+00,  2.55420731e+00,  2.68239509e+00,  1.57883648e+02,
        2.50260939e+02,  2.99476618e+02,  3.07388198e+02,  3.51963853e+02,
        3.25978967e+02,  2.88023504e+02,  2.63170368e+02,  2.31745129e+02,
        1.92648976e+02,  1.37771189e+02,  1.16129173e+02,  1.01401014e+02,
        9.97361531e+01,  7.41175604e+01,  6.59015781e+01,  5.82417292e+01,
        4.72596528e+01,  4.13666142e+01,  3.13535169e+01,  2.93192774e+01,
        2.83699219e+01,  2.10784653e+01,  2.06098380e+01,  1.62959460e+01,
        1.13944127e+01,  1.34725278e+01,  1.29530998e+01,  8.35186834e+00,
        5.64672810e+00,  6.87601832e+00,  7.15194887e+00,  4.41128646e+00,
        3.24540198e+00,  1.96527333e+01,  3.23748518e+01,  6.55733048e+01,
        6.90243912e+01,  6.91351159e+01,  6.31233391e+01,  5.57999809e+01,
        5.13905154e+01,  6.09251252e+01,  5.34385229e+01,  5.85587038e+01,
        5.62277924e+00,  5.14951718e+01,  1.29420281e+01,  2.83678092e+01,
        2.86246392e+01,  2.55930222e+01,  1.60341367e+01,  1.43077599e+01,
        5.03280776e+00,  5.08350725e+00,  4.00616534e+00,  1.45308923e+01,
        9.17150677e+00, -4.82286508e-01,  9.27934293e+00, -4.63549868e+00,
        7.05213676e+00,  4.73184770e+00,  4.92442594e+00, -7.33533420e+00,
        3.38283366e+00,  3.64817833e+00,  3.27753220e+00,  5.23780438e+01,
        4.75507912e+01,  9.54491782e+01,  6.94512638e+01,  1.03034889e+02,
        1.06776285e+02,  1.11018051e+02,  1.02326286e+02,  9.80716715e+01,
        7.26876485e+01,  6.79445600e+01,  7.97878401e+01,  6.12412830e+01,
        7.06748267e+01,  5.18209498e+01,  4.80784781e+01,  3.49845202e+01,
        2.17342772e+01,  1.96104536e+01,  1.76671917e+01,  2.59829399e+01,
        2.46838030e+01,  8.29391886e+00,  1.09148056e+01, -1.78485658e+00,
       -3.62347083e+00, -1.88035203e+01,  4.46666765e+00,  7.02045981e+00,
        2.93953313e+00,  9.20741619e+00,  9.98457973e+00,  7.89890315e-02,
       -8.72977049e-01,  6.34131195e+00,  6.92078059e+00,  1.88865865e+01,
       -1.94022902e+00,  2.99507515e+01,  4.43976096e+01,  1.92445153e+01,
        2.20758559e+01,  2.48533956e+01,  2.34909680e+01,  1.64773846e+01,
        2.07469194e+01,  1.15207399e+01,  1.07164017e+01,  1.45072421e+01,
        2.94055766e+00,  8.68983920e+00,  1.70708343e+01,  6.21539027e+00,
        1.06864418e+01, -5.32923563e+00, -4.28574049e+00, -4.41645357e+00,
        7.44450960e-01, -4.84027953e+00,  2.04637347e+00, -1.55602806e+00,
        4.00666839e+00,  1.01917380e+00, -2.53473130e+00,  2.76535327e+00,
       -2.95487781e+00, -4.47555201e+00,  1.35282248e+00,  1.18564247e+01,
        1.49295537e+01,  3.56365773e+01,  2.32376219e+01,  3.31843232e+01,
        4.97020843e+01,  3.06484111e+01,  3.32579465e+01,  1.56639369e+01,
        4.72902577e+01,  3.30678209e+01,  3.77306166e+01,  3.44626388e+01,
        2.20633391e+01,  1.70343868e+01,  1.80962128e+01,  9.04764148e+00,
        2.79532038e+01,  1.16017610e+01,  1.27432552e+01,  1.02908423e+01,
        6.45376078e+00, -7.82460806e-02, -8.34402726e-01, -2.62460551e+00,
       -2.66060243e+00, -1.04058562e+00,  4.13806690e+00,  4.43198455e+00,
        5.01203961e+00,  3.16043084e+00, -1.72703769e-01, -6.76847166e+00,
       -1.28295432e+00])
 message: 'Iteration limit reached'
    nfev: 1099990
     nit: 100000
    njev: 100000
  status: 9
 success: False
       x: array([6.72044664e+03, 9.99998690e-01, 9.99999154e-01, 9.99998935e-01,
       9.99998803e-01, 9.99998990e-01, 9.99999084e-01, 9.99998617e-01,
       9.99999232e-01, 9.99999248e-01, 9.99998976e-01, 9.99999346e-01,
       9.99999266e-01, 9.99999317e-01, 9.99999277e-01, 9.99999498e-01,
       9.99999439e-01, 9.99999535e-01, 9.99999479e-01, 9.99999461e-01,
       9.99999526e-01, 9.99999521e-01, 9.99999601e-01, 9.99999654e-01,
       9.99999623e-01, 9.99999620e-01, 9.99999602e-01, 9.99999665e-01,
       9.99999472e-01, 9.99999697e-01, 9.99999722e-01, 9.99999649e-01,
       9.99999735e-01, 9.99999782e-01, 9.99999836e-01, 9.99998558e-01,
       9.99998646e-01, 9.99998561e-01, 9.99998469e-01, 9.99998629e-01,
       9.99998705e-01, 9.99998559e-01, 9.99998839e-01, 9.99998955e-01,
       9.99998760e-01, 9.99999027e-01, 9.99999214e-01, 9.99998913e-01,
       9.99999136e-01, 9.99999260e-01, 9.99999090e-01, 9.99999387e-01,
       9.99999369e-01, 9.99999446e-01, 9.99999485e-01, 9.99999470e-01,
       9.99999592e-01, 9.99999131e-01, 9.99999346e-01, 9.99998978e-01,
       9.99999598e-01, 9.99999621e-01, 9.99999582e-01, 9.99999796e-01,
       9.99999694e-01, 9.99996538e-01, 9.99999488e-01, 9.99999647e-01,
       9.99999424e-01, 9.99999814e-01, 9.99999518e-01, 9.99999634e-01,
       9.99999690e-01, 9.99999542e-01, 9.99999582e-01, 9.99999368e-01,
       9.99999533e-01, 9.99999608e-01, 9.99999459e-01, 9.99999526e-01,
       9.99999418e-01, 9.99999646e-01, 9.99999962e-01, 9.99999753e-01,
       9.99999514e-01, 9.99999437e-01, 9.99999651e-01, 9.99999903e-01,
       9.99999782e-01, 9.99999875e-01, 9.99999699e-01, 9.99999838e-01,
       9.99999974e-01, 9.99999888e-01, 9.99999766e-01, 9.99999935e-01,
       9.99999946e-01, 1.00000001e+00, 9.99999785e-01, 1.00000017e+00,
       9.99999709e-01, 9.99999634e-01, 1.00000035e+00, 9.99999774e-01,
       9.99999174e-01, 9.99999680e-01, 9.99999329e-01, 9.99999493e-01,
       9.99999399e-01, 9.99999422e-01, 9.99999798e-01, 9.99999549e-01,
       9.99999561e-01, 9.99999507e-01, 9.99999700e-01, 9.99999595e-01,
       9.99999579e-01, 9.99999597e-01, 9.99999664e-01, 9.99999847e-01,
       9.99999749e-01, 9.99999584e-01, 9.99999793e-01, 9.99999711e-01,
       9.99999360e-01, 9.99999251e-01, 9.99999836e-01, 9.99999615e-01,
       9.99999730e-01, 9.99999324e-01, 1.00000023e+00, 9.99999525e-01,
       9.99999714e-01, 9.99999699e-01, 9.99999927e-01, 1.00000001e+00,
       9.99999420e-01, 1.00000005e+00, 9.99999876e-01, 9.99999755e-01,
       9.99999792e-01, 9.99999727e-01, 1.00000007e+00, 9.99999929e-01,
       9.99999802e-01, 9.99999967e-01, 9.99999809e-01, 1.00000007e+00,
       9.99999798e-01, 9.99999801e-01, 9.99999729e-01, 9.99999843e-01,
       1.00000006e+00, 9.99999649e-01, 9.99999463e-01, 9.99999810e-01,
       9.99999915e-01, 9.99999993e-01, 9.99999892e-01, 9.99999948e-01,
       1.00000036e+00, 9.99999883e-01, 9.99999893e-01, 1.00000015e+00,
       9.99999710e-01, 9.99999947e-01, 1.00000004e+00, 9.99999656e-01,
       9.99999687e-01, 9.99999465e-01, 9.99999832e-01, 9.99999925e-01,
       9.99999906e-01, 9.99999960e-01, 9.99999776e-01, 9.99999594e-01,
       9.99999745e-01, 9.99999853e-01, 9.99999808e-01, 9.99999652e-01,
       9.99999773e-01, 9.99999842e-01, 9.99999923e-01, 1.00000008e+00,
       9.99999506e-01, 1.00000001e+00, 9.99999792e-01, 9.99999806e-01,
       1.00000024e+00, 9.99999881e-01, 9.99999786e-01, 1.00000004e+00,
       9.99999596e-01, 1.00000002e+00, 1.00000007e+00, 9.99999472e-01,
       1.00000026e+00, 9.99999825e-01, 9.99999877e-01, 1.00000047e+00,
       1.00000004e+00, 9.99999881e-01, 9.99999799e-01, 1.00000036e+00,
       1.00000019e+00, 9.99998775e-01, 9.99998474e-01, 9.99998909e-01,
       9.99999242e-01, 9.99998759e-01, 9.99999044e-01, 9.99998926e-01,
       9.99998958e-01, 9.99998950e-01, 9.99999126e-01, 9.99999358e-01,
       9.99999429e-01, 9.99999270e-01, 9.99998949e-01, 9.99998835e-01,
       9.99999291e-01, 9.99999507e-01, 9.99999083e-01, 9.99999411e-01,
       9.99998890e-01, 9.99999676e-01, 9.99999406e-01, 9.99999379e-01,
       9.99999602e-01, 9.99999625e-01, 9.99999606e-01, 9.99999586e-01,
       9.99999543e-01, 9.99999469e-01, 9.99999945e-01, 9.99998943e-01,
       9.99999796e-01, 9.99999658e-01, 9.99999783e-01, 9.99998538e-01,
       9.99998443e-01, 9.99998601e-01, 9.99997900e-01, 9.99998805e-01,
       9.99998554e-01, 9.99998996e-01, 9.99998809e-01, 9.99999039e-01,
       9.99998943e-01, 9.99999245e-01, 9.99999246e-01, 9.99999148e-01,
       9.99999327e-01, 9.99999079e-01, 9.99999163e-01, 9.99999034e-01,
       9.99999312e-01, 9.99999019e-01, 9.99999397e-01, 9.99998292e-01,
       9.99999309e-01, 9.99999459e-01, 9.99999252e-01, 9.99999590e-01,
       9.99999520e-01, 9.99999637e-01, 9.99999693e-01, 9.99999726e-01,
       9.99999730e-01, 9.99999616e-01, 9.99999621e-01, 1.00000049e+00,
       9.99999785e-01, 9.99999291e-01, 9.99999631e-01, 9.99999386e-01,
       9.99999562e-01, 9.99999373e-01, 9.99999421e-01, 9.99999211e-01,
       9.99999501e-01, 9.99999498e-01, 9.99999300e-01, 9.99999526e-01,
       9.99999637e-01, 9.99999729e-01, 9.99999615e-01, 9.99999406e-01,
       9.99999585e-01, 9.99999771e-01, 9.99999798e-01, 9.99999738e-01,
       9.99999764e-01, 9.99999737e-01, 1.00000040e+00, 9.99999606e-01,
       9.99999807e-01, 9.99999720e-01, 9.99999961e-01, 9.99999021e-01,
       9.99999650e-01, 9.99999721e-01, 9.99999884e-01, 9.99999283e-01,
       9.99996928e-01, 9.99999834e-01, 9.99999969e-01, 9.99999277e-01,
       9.99999162e-01, 9.99999414e-01, 9.99999607e-01, 9.99999496e-01,
       9.99999360e-01, 9.99999563e-01, 9.99999832e-01, 9.99999457e-01,
       9.99999546e-01, 9.99999319e-01, 9.99999507e-01, 9.99999511e-01,
       9.99999356e-01, 9.99999673e-01, 9.99999012e-01, 9.99999902e-01,
       9.99999773e-01, 9.99999490e-01, 9.99999730e-01, 9.99998943e-01,
       9.99999498e-01, 9.99999810e-01, 9.99999413e-01, 9.99999546e-01,
       9.99999666e-01, 9.99999851e-01, 9.99999663e-01, 9.99999458e-01,
       1.00000002e+00, 9.99999742e-01, 1.00000032e+00, 9.99999608e-01,
       1.00000000e+00, 9.99999754e-01, 9.99999842e-01, 9.99999829e-01,
       9.99999481e-01, 9.99999910e-01, 9.99999742e-01, 9.99999802e-01,
       1.00000005e+00, 9.99999828e-01, 9.99999638e-01, 9.99999817e-01,
       1.00000023e+00, 9.99999682e-01, 9.99999850e-01, 9.99999895e-01,
       9.99999794e-01, 9.99999595e-01, 9.99999218e-01, 1.00000004e+00,
       1.00000021e+00, 1.00000069e+00, 1.00000032e+00, 9.99999815e-01,
       9.99999891e-01, 1.00000022e+00, 1.00000043e+00, 9.99999727e-01,
       1.00000029e+00, 9.99999262e-01, 1.00000030e+00, 1.00000042e+00,
       1.00000043e+00, 9.99997902e-01, 9.99999263e-01, 1.00000005e+00,
       9.99999623e-01, 9.99999671e-01, 9.99999758e-01, 9.99999597e-01,
       9.99999799e-01, 9.99999883e-01, 9.99999869e-01, 9.99999840e-01,
       9.99999794e-01, 9.99999686e-01, 9.99999746e-01, 9.99999961e-01,
       9.99999924e-01, 9.99999822e-01, 9.99999895e-01, 9.99999559e-01,
       9.99999700e-01, 9.99999257e-01, 9.99999828e-01, 1.00000010e+00,
       9.99999845e-01, 9.99999747e-01, 9.99999608e-01, 1.00000026e+00,
       9.99999329e-01, 9.99999991e-01, 9.99999551e-01, 1.00000025e+00,
       1.00000079e+00, 1.00000022e+00, 9.99999799e-01, 1.00000008e+00,
       9.99999674e-01, 9.99997998e-01, 9.99998039e-01, 9.99997948e-01,
       9.99998656e-01, 9.99998553e-01, 9.99998485e-01, 9.99998442e-01,
       9.99998282e-01, 9.99998831e-01, 9.99998358e-01, 9.99998721e-01,
       9.99998215e-01, 9.99998555e-01, 9.99999039e-01, 9.99998639e-01,
       9.99999151e-01, 9.99998946e-01, 9.99999285e-01, 9.99999316e-01,
       9.99999237e-01, 9.99999110e-01, 9.99999281e-01, 9.99998908e-01,
       9.99999475e-01, 9.99999217e-01, 9.99999413e-01, 9.99999480e-01,
       9.99999532e-01, 9.99999484e-01, 9.99999557e-01, 9.99999728e-01,
       9.99999589e-01, 9.99999684e-01, 9.99999625e-01, 9.99997649e-01,
       9.99997444e-01, 9.99997443e-01, 9.99997956e-01, 9.99997604e-01,
       9.99997817e-01, 9.99998080e-01, 9.99997755e-01, 9.99997913e-01,
       9.99998017e-01, 9.99998211e-01, 9.99998306e-01, 9.99998594e-01,
       9.99997908e-01, 9.99998611e-01, 9.99998637e-01, 9.99998420e-01,
       9.99998518e-01, 9.99998682e-01, 9.99998619e-01, 9.99997282e-01,
       9.99998592e-01, 9.99999071e-01, 9.99999047e-01, 9.99999144e-01,
       9.99999406e-01, 9.99999061e-01, 9.99998255e-01, 9.99999393e-01,
       9.99999585e-01, 9.99999384e-01, 9.99999321e-01, 9.99999602e-01,
       9.99999656e-01, 9.99999503e-01, 9.99999420e-01, 9.99999003e-01,
       9.99999196e-01, 9.99999191e-01, 9.99999440e-01, 9.99999462e-01,
       9.99999426e-01, 9.99999279e-01, 9.99999335e-01, 9.99999122e-01,
       9.99999921e-01, 9.99999056e-01, 9.99999835e-01, 9.99999584e-01,
       9.99999197e-01, 9.99999481e-01, 9.99999591e-01, 9.99999716e-01,
       9.99999880e-01, 9.99999801e-01, 9.99999814e-01, 9.99999483e-01,
       9.99999503e-01, 1.00000003e+00, 9.99998780e-01, 1.00000023e+00,
       9.99999669e-01, 9.99999497e-01, 9.99999729e-01, 1.00000047e+00,
       9.99999721e-01, 9.99999686e-01, 9.99999601e-01, 9.99998721e-01,
       9.99999238e-01, 9.99998893e-01, 9.99999119e-01, 9.99999057e-01,
       9.99999106e-01, 9.99999191e-01, 9.99999100e-01, 9.99999152e-01,
       9.99999317e-01, 9.99999358e-01, 9.99999118e-01, 9.99999253e-01,
       9.99999144e-01, 9.99999180e-01, 9.99999341e-01, 9.99999395e-01,
       9.99999642e-01, 9.99999615e-01, 9.99999563e-01, 9.99999325e-01,
       9.99999365e-01, 9.99999681e-01, 9.99999737e-01, 1.00000010e+00,
       1.00000018e+00, 1.00000053e+00, 9.99999852e-01, 9.99999545e-01,
       9.99999866e-01, 9.99999509e-01, 9.99999026e-01, 1.00000001e+00,
       1.00000007e+00, 9.99999766e-01, 9.99999854e-01, 9.99999666e-01,
       1.00000003e+00, 9.99999606e-01, 9.99999574e-01, 9.99999788e-01,
       9.99999737e-01, 9.99999693e-01, 9.99999740e-01, 9.99999805e-01,
       9.99999634e-01, 9.99999832e-01, 9.99999719e-01, 9.99999757e-01,
       9.99999950e-01, 9.99999812e-01, 9.99999485e-01, 9.99999683e-01,
       9.99999588e-01, 1.00000016e+00, 1.00000017e+00, 1.00000019e+00,
       9.99999971e-01, 1.00000023e+00, 9.99999867e-01, 1.00000022e+00,
       9.99999684e-01, 9.99999946e-01, 1.00000019e+00, 9.99999776e-01,
       1.00000029e+00, 1.00000040e+00, 9.99999849e-01, 9.99999623e-01,
       9.99999710e-01, 9.99999479e-01, 9.99999724e-01, 9.99999631e-01,
       9.99999613e-01, 9.99999753e-01, 9.99999692e-01, 9.99999872e-01,
       9.99999558e-01, 9.99999682e-01, 9.99999514e-01, 9.99999653e-01,
       9.99999730e-01, 9.99999740e-01, 9.99999739e-01, 9.99999837e-01,
       9.99999549e-01, 9.99999621e-01, 9.99999664e-01, 9.99999660e-01,
       9.99999813e-01, 1.00000001e+00, 1.00000004e+00, 1.00000009e+00,
       1.00000015e+00, 1.00000004e+00, 9.99999759e-01, 9.99999738e-01,
       9.99999700e-01, 9.99999704e-01, 1.00000002e+00, 1.00000083e+00,
       1.00000012e+00])
Traceback (most recent call last):
  File "combineYears.py", line 48, in test_mu
    result = pyhf.infer.hypotest(mu_test, self.data, self.model, qtilde=False, return_expected_set=True)
  File "/u/ki/nhartman/gpfs/miniconda3/envs/my_env/lib/python3.8/site-packages/pyhf/infer/__init__.py", line 134, in hypotest
    calc = utils.create_calculator(
  File "/u/ki/nhartman/gpfs/miniconda3/envs/my_env/lib/python3.8/site-packages/pyhf/infer/utils.py", line 45, in create_calculator
    return {'asymptotics': AsymptoticCalculator, 'toybased': ToyCalculator}[calctype](
TypeError: __init__() got an unexpected keyword argument 'qtilde'

During handling of the above exception, another exception occurred:

Traceback (most recent call last):
  File "/u/ki/nhartman/gpfs/miniconda3/envs/my_env/lib/python3.8/site-packages/pyhf/optimize/mixins.py", line 49, in _internal_minimize
    assert result.success
AssertionError
     fun: nan
     jac: array([ 8.17456187e+00,  6.49924645e+01,  8.05914270e+01,  1.06020570e+02,
        1.08427232e+02,  1.02698668e+02,  9.07849162e+01,  8.60937971e+01,
        6.77234156e+01,  5.66369707e+01,  5.02572414e+01,  3.86311227e+01,
        3.32273698e+01,  2.69207175e+01,  2.29030691e+01,  1.75508948e+01,
        1.49253401e+01,  1.33418692e+01,  1.08735483e+01,  9.80890445e+00,
        8.60742404e+00,  6.95458019e+00,  6.24071261e+00,  5.03519613e+00,
        4.94859237e+00,  3.19434939e+00,  4.01356249e+00,  3.09645828e+00,
        3.01572660e+00,  1.97283453e+00,  1.84586784e+00,  2.17681324e+00,
        1.78928846e+00,  1.22826198e+00,  1.12364938e+00,  1.03754598e+02,
        1.46602190e+02,  1.65915131e+02,  1.82470952e+02,  1.77022105e+02,
        1.62854804e+02,  1.45274150e+02,  1.17052494e+02,  9.83002309e+01,
        8.86935268e+01,  6.94866534e+01,  5.22769146e+01,  4.89538627e+01,
        3.91532032e+01,  3.07447448e+01,  2.58510400e+01,  2.10055999e+01,
        2.04601614e+01,  1.56089898e+01,  1.28012778e+01,  1.16969884e+01,
        9.73803701e+00,  1.02726449e+01,  8.62067865e+00,  8.04917705e+00,
        5.64459127e+00,  5.04177528e+00,  4.74703744e+00,  2.58572713e+00,
        3.63749953e+00,  4.17151460e+00,  1.43857102e+00,  2.33163130e+00,
        2.74783047e+00,  1.17493627e+01,  2.49483527e+01,  2.86942840e+01,
        2.74184152e+01,  3.81342255e+01,  3.80553107e+01,  4.24302143e+01,
        3.58263309e+01,  3.09300997e+01,  3.01211417e+01,  2.84346554e+01,
        2.73952124e+01,  1.92633345e+01,  8.26923834e+00,  1.42782189e+01,
        1.80536064e+01,  1.65691930e+01,  1.19726372e+01,  6.40250741e+00,
        6.94577214e+00,  5.54814805e+00,  7.98543329e+00,  5.14215357e+00,
        6.62726938e-01,  1.61805788e+00,  3.80866013e+00,  7.82118382e-01,
        1.92148403e+00,  1.31602784e+00,  2.13379482e+00, -1.36472380e+00,
        2.39017842e+00,  2.29191807e+00, -2.37270523e+00,  1.81191091e+01,
        4.91163660e+01,  3.88193625e+01,  6.38837212e+01,  6.03665887e+01,
        7.14033568e+01,  6.44574482e+01,  3.47016952e+01,  5.33705456e+01,
        4.51814998e+01,  4.44879450e+01,  3.33238089e+01,  3.32214192e+01,
        3.14315391e+01,  3.01757056e+01,  2.52977972e+01,  1.45275949e+01,
        1.56206872e+01,  1.81402868e+01,  1.11775174e+01,  1.26888015e+01,
        1.26153048e+01,  1.40690641e+01,  6.66797235e+00,  7.16737506e+00,
        6.53688945e+00,  8.38929165e+00, -3.53611822e+00,  6.52794993e+00,
        4.02683152e+00,  4.03678221e+00,  7.64411993e-01,  1.07161265e-01,
        3.65810096e+00, -1.01818490e+00,  7.45001894e+00,  1.61819078e+01,
        1.82894261e+01,  2.33633029e+01,  1.66284907e+00,  1.17487664e+01,
        1.93048276e+01,  7.88514278e+00,  1.31462102e+01,  8.40565625e-01,
        1.45220792e+01,  9.69711001e+00,  1.31429877e+01,  1.02467687e+01,
       -1.82433941e+00,  1.01103975e+01,  1.20421639e+01,  3.64612643e+00,
        4.11618062e+00,  3.92128107e-01,  2.12053947e+00,  7.73472943e-01,
       -3.91051756e+00,  1.45478029e+00,  1.50456074e+00, -2.02530480e+00,
        3.25985280e+00,  6.92487599e-01, -5.16757805e-02,  2.37275867e+00,
        2.20939795e+00,  1.70602962e+00,  1.44911486e+00,  2.49786511e+00,
        1.10542662e+01,  1.13156902e+01,  2.46137114e+01,  3.76643616e+01,
        3.44399548e+01,  2.30348444e+01,  2.42118055e+01,  3.25264199e+01,
        2.69927725e+01,  2.22793881e+01,  1.14320603e+01, -5.79540400e+00,
        2.60262290e+01, -3.14269500e-02,  1.18876527e+01,  7.24810405e+00,
       -9.34090983e+00,  4.66099808e+00,  5.28546814e+00, -1.01998683e+00,
        6.70839442e+00, -3.19839219e-01, -1.12647347e+00,  8.05312276e+00,
       -1.85940165e+00,  3.31366877e+00,  1.44381728e+00, -6.04350993e+00,
       -3.31185783e-01,  1.21591751e+00,  1.75237866e+00, -3.17615721e+00,
       -1.65448194e+00,  7.67149322e+01,  1.14159287e+02,  1.30018197e+02,
        1.40734043e+02,  1.41577122e+02,  1.18786664e+02,  1.08002779e+02,
        9.39601980e+01,  7.94264414e+01,  6.47948454e+01,  5.02819687e+01,
        4.15515152e+01,  3.81682380e+01,  3.33596055e+01,  2.98448574e+01,
        2.56844852e+01,  2.03746300e+01,  1.77206719e+01,  1.51354761e+01,
        1.29681657e+01,  9.81414875e+00,  9.72916759e+00,  7.98245957e+00,
        7.17057393e+00,  5.87606956e+00,  5.68566729e+00,  4.65357495e+00,
        4.69508893e+00,  3.71589851e+00,  1.80065625e+00,  3.17306113e+00,
        2.00146620e+00,  2.31822293e+00,  1.69866327e+00,  1.23520880e+02,
        1.84082364e+02,  2.26369127e+02,  2.46466577e+02,  2.38130134e+02,
        2.18768283e+02,  1.89157691e+02,  1.67317338e+02,  1.38098102e+02,
        1.17824546e+02,  9.21362943e+01,  7.98305582e+01,  6.45419379e+01,
        5.55269242e+01,  5.19343356e+01,  4.23278084e+01,  4.08292294e+01,
        3.18420231e+01,  2.57742552e+01,  2.21584693e+01,  2.14868011e+01,
        1.79350230e+01,  1.39091221e+01,  1.40884731e+01,  9.10289031e+00,
        9.54314465e+00,  7.18574616e+00,  5.57096197e+00,  4.63640298e+00,
        4.22684598e+00,  4.65320910e+00,  4.31061201e+00, -2.54044465e+00,
        2.70644579e+00,  2.35886333e+01,  2.36602413e+01,  4.05530184e+01,
        3.92226681e+01,  5.43623745e+01,  4.61063495e+01,  4.82797498e+01,
        4.47779492e+01,  3.91987736e+01,  4.15739395e+01,  3.13513118e+01,
        2.63098318e+01,  2.41348631e+01,  2.24652816e+01,  2.75163088e+01,
        1.82289756e+01,  9.34989678e+00,  9.45888532e+00,  1.04361454e+01,
        6.44292679e+00,  7.85856098e+00, -4.85849282e+00,  6.88549664e+00,
        4.83154796e+00,  5.14888060e+00,  8.04804663e-01,  6.94180583e+00,
        4.47914272e+00,  3.72456959e+00, -7.44084040e+00,  4.67432889e+00,
        7.41650025e+00,  1.62601246e+00,  4.71657195e-01,  3.42802647e+01,
        5.30293698e+01,  5.95965327e+01,  6.01857581e+01,  7.45083619e+01,
        8.89086810e+01,  7.36154702e+01,  4.76560346e+01,  6.20763148e+01,
        6.39324512e+01,  6.65766833e+01,  5.46333205e+01,  4.03715754e+01,
        3.69187828e+01,  2.76779915e+01,  3.67528967e+01,  1.12196634e+01,
        1.65539451e+01,  2.06011210e+01,  7.60146757e+00,  2.04761869e+01,
        1.55586934e+01,  9.32523190e+00,  1.18194066e+01,  6.69811672e+00,
        9.48832437e+00,  5.46460643e+00,  6.83854625e+00,  5.44560230e+00,
        2.35432898e+00,  4.38667473e+00, -4.02939601e+00,  4.60798454e+00,
        1.91623111e-01,  7.30012296e+00,  8.80765680e+00,  1.31897305e+01,
        2.40289128e+01,  1.24467229e+01,  2.06747426e+01,  1.88348169e+01,
        4.68382082e+00,  1.44560229e+01,  2.29000645e+01,  1.31871124e+01,
       -7.86228533e+00,  1.65918453e+01,  4.43593741e+00,  2.12463534e+00,
        2.89290804e+00,  1.00169656e+01,  1.04605386e+01, -5.03629733e-01,
        8.42399634e-01, -1.51290046e+01, -6.04834286e+00,  4.26252939e+00,
        1.05263564e+00, -7.39853944e-01, -2.32246400e+00,  2.28289851e+00,
       -1.43913056e+00,  4.46032451e+00, -1.12163591e+00, -2.23415036e+00,
       -2.14833007e+00,  3.30254938e+00,  2.18981810e+00, -1.14160217e+00,
        2.13178905e+01,  2.71051259e+01,  3.01638795e+01,  4.15453896e+01,
        3.01680627e+01,  2.58014782e+01,  2.76177591e+01,  2.36204161e+01,
        2.52993750e+01,  2.69143024e+01,  2.30477652e+01,  3.31428644e+00,
        8.09033619e+00,  1.40982660e+01,  3.20090602e+00,  1.74959329e+01,
        1.18359031e+01,  1.38435640e+01,  4.79667425e+00, -1.83496763e+00,
        4.41277319e+00,  8.05474209e+00,  8.39392591e+00, -4.29015052e+00,
        8.51878565e+00,  2.63168362e-01,  4.79734415e+00, -2.00214025e+00,
       -4.00917167e+00, -3.10051663e+00,  1.65013760e+00, -5.12684235e-01,
        2.15557226e+00,  1.36478262e+02,  1.83019947e+02,  2.21766510e+02,
        2.32525931e+02,  2.23879853e+02,  2.14758184e+02,  1.93725471e+02,
        1.67497854e+02,  1.36281944e+02,  1.21004646e+02,  9.77897676e+01,
        8.81146069e+01,  6.89356450e+01,  5.65308673e+01,  5.20357979e+01,
        3.97162521e+01,  3.36889770e+01,  2.93433409e+01,  2.43728674e+01,
        2.14817618e+01,  1.93282509e+01,  1.59490645e+01,  1.48739270e+01,
        1.15806874e+01,  1.13946808e+01,  8.09383846e+00,  7.58864292e+00,
        6.48424570e+00,  5.75382103e+00,  4.86763197e+00,  3.34059969e+00,
        3.60074246e+00,  2.96960774e+00,  2.93668975e+00,  2.10562830e+02,
        3.05494767e+02,  3.65054519e+02,  3.73069491e+02,  4.05171867e+02,
        3.73213819e+02,  3.30109385e+02,  2.98286183e+02,  2.57526488e+02,
        2.16224813e+02,  1.63633105e+02,  1.37151689e+02,  1.16285017e+02,
        1.07903021e+02,  8.37738015e+01,  7.18546144e+01,  6.36700259e+01,
        5.24889056e+01,  4.45960233e+01,  3.72520762e+01,  3.39755506e+01,
        3.05413670e+01,  2.38954201e+01,  2.17979303e+01,  1.76706273e+01,
        1.38386978e+01,  1.48252351e+01,  1.43933724e+01,  9.74079859e+00,
        7.39524615e+00,  7.65239717e+00,  7.63805659e+00,  5.11987277e+00,
        4.26065267e+00,  3.04537442e+01,  4.63939824e+01,  7.64959518e+01,
        8.23935650e+01,  8.46856332e+01,  8.13710030e+01,  7.89302650e+01,
        7.17071758e+01,  7.92818224e+01,  6.98050347e+01,  7.04037113e+01,
        1.99531247e+01,  5.99907061e+01,  2.58785432e+01,  3.69256655e+01,
        3.75810998e+01,  3.18801221e+01,  2.40220792e+01,  1.94092539e+01,
        1.28009012e+01,  1.18816423e+01,  7.63474235e+00,  1.62465140e+01,
        1.12293120e+01, -1.30189520e+01,  1.02836704e+01, -3.27573771e+00,
        7.67882142e+00,  6.58306797e+00,  5.69653898e+00, -7.33533366e+00,
        4.34302462e+00,  4.21160256e+00,  3.66002315e+00,  6.61898020e+01,
        7.29347170e+01,  1.21020404e+02,  1.09811515e+02,  1.37997213e+02,
        1.45709241e+02,  1.44436388e+02,  1.38717151e+02,  1.31162218e+02,
        1.09625544e+02,  9.60637480e+01,  1.02032874e+02,  8.29545096e+01,
        8.88399875e+01,  6.96640379e+01,  6.07509965e+01,  4.87091997e+01,
        3.49453602e+01,  2.57553099e+01,  2.65065586e+01,  3.31941315e+01,
        3.01358017e+01,  1.07430853e+01,  1.54658246e+01,  6.26834463e-01,
       -3.62347042e+00, -6.76187987e+01,  8.23708039e+00,  1.07734768e+01,
        5.90932472e+00,  1.00991358e+01,  1.07519516e+01,  7.89895681e-02,
       -8.72976080e-01,  9.85005074e+00,  1.33036417e+01,  2.58413799e+01,
        8.58127189e+00,  3.85221404e+01,  4.98770109e+01,  2.95162533e+01,
        3.11682548e+01,  2.81499218e+01,  3.08011951e+01,  2.81378786e+01,
        2.41105081e+01,  1.56912591e+01,  1.62589099e+01,  2.00168753e+01,
        5.88654358e+00,  1.38958639e+01,  2.04369412e+01,  6.21539145e+00,
        1.24228194e+01, -5.32923568e+00, -4.28574006e+00, -4.41645338e+00,
        7.44451926e-01, -4.84027930e+00,  2.04637383e+00, -1.55602793e+00,
        4.67387157e+00,  1.01917429e+00, -2.53473103e+00,  2.76535370e+00,
       -2.95487750e+00, -4.47555188e+00,  1.35282276e+00,  1.59671644e+01,
        2.47290202e+01,  4.54214561e+01,  4.14233568e+01,  5.04553695e+01,
        6.85193900e+01,  4.55239527e+01,  5.57347598e+01,  2.57253740e+01,
        6.25916551e+01,  4.66882030e+01,  5.05906991e+01,  4.57555588e+01,
        3.30405731e+01,  1.70343885e+01,  2.59157099e+01,  1.16584081e+01,
        3.43390118e+01,  1.16017627e+01,  1.27432561e+01,  1.41145871e+01,
        1.05410298e+01, -7.82460292e-02, -8.34401752e-01, -2.62460485e+00,
       -2.66060224e+00, -1.04058541e+00,  6.77574947e+00,  4.43198531e+00,
        5.01204068e+00,  5.53328289e+00, -1.72703004e-01, -6.76847155e+00,
       -1.28295366e+00])
 message: 'Iteration limit reached'
    nfev: 1099990
     nit: 100000
    njev: 100000
  status: 9
 success: False
       x: array([1.34408933e+04, 9.99998454e-01, 9.99999015e-01, 9.99998803e-01,
       9.99998693e-01, 9.99998861e-01, 9.99998978e-01, 9.99998482e-01,
       9.99999195e-01, 9.99999193e-01, 9.99998931e-01, 9.99999291e-01,
       9.99999209e-01, 9.99999255e-01, 9.99999241e-01, 9.99999450e-01,
       9.99999396e-01, 9.99999513e-01, 9.99999449e-01, 9.99999433e-01,
       9.99999516e-01, 9.99999510e-01, 9.99999607e-01, 9.99999640e-01,
       9.99999630e-01, 9.99999582e-01, 9.99999579e-01, 9.99999655e-01,
       9.99999478e-01, 9.99999693e-01, 9.99999709e-01, 9.99999647e-01,
       9.99999744e-01, 9.99999779e-01, 9.99999832e-01, 9.99998084e-01,
       9.99998323e-01, 9.99998228e-01, 9.99998122e-01, 9.99998447e-01,
       9.99998529e-01, 9.99998365e-01, 9.99998656e-01, 9.99998806e-01,
       9.99998654e-01, 9.99998870e-01, 9.99999049e-01, 9.99998770e-01,
       9.99999052e-01, 9.99999188e-01, 9.99998980e-01, 9.99999318e-01,
       9.99999330e-01, 9.99999422e-01, 9.99999424e-01, 9.99999429e-01,
       9.99999523e-01, 9.99999096e-01, 9.99999316e-01, 9.99998907e-01,
       9.99999580e-01, 9.99999572e-01, 9.99999587e-01, 9.99999754e-01,
       9.99999666e-01, 9.99996310e-01, 9.99999551e-01, 9.99999647e-01,
       9.99999434e-01, 9.99999593e-01, 9.99999344e-01, 9.99999527e-01,
       9.99999416e-01, 9.99999425e-01, 9.99999476e-01, 9.99999249e-01,
       9.99999384e-01, 9.99999499e-01, 9.99999314e-01, 9.99999409e-01,
       9.99999297e-01, 9.99999515e-01, 9.99999841e-01, 9.99999664e-01,
       9.99999476e-01, 9.99999370e-01, 9.99999594e-01, 9.99999778e-01,
       9.99999716e-01, 9.99999781e-01, 9.99999642e-01, 9.99999754e-01,
       9.99999978e-01, 9.99999895e-01, 9.99999674e-01, 9.99999943e-01,
       9.99999879e-01, 9.99999842e-01, 9.99999700e-01, 1.00000017e+00,
       9.99999711e-01, 9.99999640e-01, 1.00000035e+00, 9.99999517e-01,
       9.99999008e-01, 9.99999338e-01, 9.99999117e-01, 9.99999288e-01,
       9.99999235e-01, 9.99999230e-01, 9.99999620e-01, 9.99999374e-01,
       9.99999389e-01, 9.99999265e-01, 9.99999450e-01, 9.99999367e-01,
       9.99999449e-01, 9.99999483e-01, 9.99999565e-01, 9.99999655e-01,
       9.99999620e-01, 9.99999513e-01, 9.99999684e-01, 9.99999648e-01,
       9.99999163e-01, 9.99999215e-01, 9.99999665e-01, 9.99999491e-01,
       9.99999701e-01, 9.99999300e-01, 1.00000024e+00, 9.99999499e-01,
       9.99999719e-01, 9.99999673e-01, 9.99999929e-01, 1.00000001e+00,
       9.99999377e-01, 1.00000005e+00, 9.99999833e-01, 9.99999709e-01,
       9.99999727e-01, 9.99999682e-01, 9.99999981e-01, 9.99999828e-01,
       9.99999745e-01, 9.99999893e-01, 9.99999714e-01, 9.99999990e-01,
       9.99999743e-01, 9.99999744e-01, 9.99999647e-01, 9.99999750e-01,
       1.00000006e+00, 9.99999601e-01, 9.99999469e-01, 9.99999815e-01,
       9.99999826e-01, 9.99999996e-01, 9.99999897e-01, 9.99999956e-01,
       1.00000036e+00, 9.99999889e-01, 9.99999898e-01, 1.00000015e+00,
       9.99999713e-01, 9.99999954e-01, 1.00000004e+00, 9.99999657e-01,
       9.99999691e-01, 9.99999477e-01, 9.99999837e-01, 9.99999927e-01,
       9.99999798e-01, 9.99999832e-01, 9.99999676e-01, 9.99999538e-01,
       9.99999664e-01, 9.99999757e-01, 9.99999738e-01, 9.99999584e-01,
       9.99999687e-01, 9.99999711e-01, 9.99999831e-01, 1.00000008e+00,
       9.99999440e-01, 1.00000001e+00, 9.99999721e-01, 9.99999807e-01,
       1.00000024e+00, 9.99999883e-01, 9.99999790e-01, 1.00000004e+00,
       9.99999602e-01, 1.00000002e+00, 1.00000008e+00, 9.99999476e-01,
       1.00000026e+00, 9.99999828e-01, 9.99999883e-01, 1.00000047e+00,
       1.00000005e+00, 9.99999885e-01, 9.99999805e-01, 1.00000037e+00,
       1.00000019e+00, 9.99998536e-01, 9.99998292e-01, 9.99998784e-01,
       9.99999180e-01, 9.99998666e-01, 9.99998958e-01, 9.99998855e-01,
       9.99998876e-01, 9.99998868e-01, 9.99999062e-01, 9.99999317e-01,
       9.99999399e-01, 9.99999234e-01, 9.99998873e-01, 9.99998773e-01,
       9.99999252e-01, 9.99999470e-01, 9.99999037e-01, 9.99999388e-01,
       9.99998845e-01, 9.99999670e-01, 9.99999372e-01, 9.99999292e-01,
       9.99999601e-01, 9.99999614e-01, 9.99999590e-01, 9.99999557e-01,
       9.99999499e-01, 9.99999445e-01, 9.99999846e-01, 9.99998944e-01,
       9.99999794e-01, 9.99999652e-01, 9.99999762e-01, 9.99998104e-01,
       9.99998119e-01, 9.99998373e-01, 9.99997577e-01, 9.99998664e-01,
       9.99998310e-01, 9.99998830e-01, 9.99998630e-01, 9.99998892e-01,
       9.99998836e-01, 9.99999152e-01, 9.99999175e-01, 9.99999053e-01,
       9.99999232e-01, 9.99999016e-01, 9.99999036e-01, 9.99998978e-01,
       9.99999252e-01, 9.99998932e-01, 9.99999353e-01, 9.99997986e-01,
       9.99999217e-01, 9.99999382e-01, 9.99999223e-01, 9.99999481e-01,
       9.99999485e-01, 9.99999610e-01, 9.99999651e-01, 9.99999662e-01,
       9.99999681e-01, 9.99999591e-01, 9.99999599e-01, 1.00000043e+00,
       9.99999751e-01, 9.99999138e-01, 9.99999497e-01, 9.99999281e-01,
       9.99999394e-01, 9.99999290e-01, 9.99999272e-01, 9.99998977e-01,
       9.99999363e-01, 9.99999341e-01, 9.99999164e-01, 9.99999317e-01,
       9.99999460e-01, 9.99999613e-01, 9.99999489e-01, 9.99999339e-01,
       9.99999428e-01, 9.99999646e-01, 9.99999656e-01, 9.99999589e-01,
       9.99999709e-01, 9.99999626e-01, 1.00000040e+00, 9.99999523e-01,
       9.99999731e-01, 9.99999533e-01, 9.99999966e-01, 9.99999025e-01,
       9.99999656e-01, 9.99999726e-01, 1.00000046e+00, 9.99999278e-01,
       9.99997602e-01, 9.99999834e-01, 9.99999973e-01, 9.99999022e-01,
       9.99998891e-01, 9.99999201e-01, 9.99999388e-01, 9.99999304e-01,
       9.99999221e-01, 9.99999369e-01, 9.99999567e-01, 9.99999242e-01,
       9.99999400e-01, 9.99999110e-01, 9.99999345e-01, 9.99999165e-01,
       9.99999092e-01, 9.99999451e-01, 9.99998732e-01, 9.99999684e-01,
       9.99999622e-01, 9.99999277e-01, 9.99999733e-01, 9.99998674e-01,
       9.99999398e-01, 9.99999746e-01, 9.99999284e-01, 9.99999156e-01,
       9.99999628e-01, 9.99999728e-01, 9.99999564e-01, 9.99998985e-01,
       9.99999851e-01, 9.99999747e-01, 1.00000033e+00, 9.99999476e-01,
       1.00000000e+00, 9.99999720e-01, 9.99999719e-01, 9.99999777e-01,
       9.99999403e-01, 9.99999865e-01, 9.99999662e-01, 9.99999752e-01,
       9.99999939e-01, 9.99999730e-01, 9.99999545e-01, 9.99999779e-01,
       1.00000023e+00, 9.99999611e-01, 9.99999853e-01, 9.99999899e-01,
       9.99999799e-01, 9.99999472e-01, 9.99999198e-01, 1.00000004e+00,
       9.99999953e-01, 1.00000069e+00, 1.00000032e+00, 9.99999684e-01,
       9.99999893e-01, 1.00000022e+00, 1.00000043e+00, 9.99999730e-01,
       1.00000028e+00, 9.99999274e-01, 1.00000030e+00, 1.00000041e+00,
       1.00000043e+00, 9.99997931e-01, 9.99999270e-01, 1.00000005e+00,
       9.99999554e-01, 9.99999606e-01, 9.99999690e-01, 9.99999536e-01,
       9.99999703e-01, 9.99999759e-01, 9.99999748e-01, 9.99999654e-01,
       9.99999702e-01, 9.99999612e-01, 9.99999651e-01, 9.99999961e-01,
       9.99999846e-01, 9.99999771e-01, 9.99999897e-01, 9.99999481e-01,
       9.99999376e-01, 9.99999035e-01, 9.99999831e-01, 1.00000010e+00,
       9.99999849e-01, 9.99999660e-01, 9.99999612e-01, 1.00000026e+00,
       9.99999232e-01, 9.99999992e-01, 9.99999159e-01, 1.00000025e+00,
       1.00000079e+00, 1.00000022e+00, 9.99999799e-01, 1.00000008e+00,
       9.99999670e-01, 9.99997565e-01, 9.99997688e-01, 9.99997632e-01,
       9.99998508e-01, 9.99998386e-01, 9.99998329e-01, 9.99998291e-01,
       9.99998116e-01, 9.99998708e-01, 9.99998226e-01, 9.99998627e-01,
       9.99998082e-01, 9.99998425e-01, 9.99998947e-01, 9.99998571e-01,
       9.99999076e-01, 9.99998817e-01, 9.99999227e-01, 9.99999284e-01,
       9.99999163e-01, 9.99999096e-01, 9.99999255e-01, 9.99998802e-01,
       9.99999453e-01, 9.99999207e-01, 9.99999328e-01, 9.99999459e-01,
       9.99999531e-01, 9.99999458e-01, 9.99999560e-01, 9.99999664e-01,
       9.99999512e-01, 9.99999628e-01, 9.99999581e-01, 9.99996724e-01,
       9.99996799e-01, 9.99996811e-01, 9.99997481e-01, 9.99997210e-01,
       9.99997477e-01, 9.99997782e-01, 9.99997433e-01, 9.99997669e-01,
       9.99997757e-01, 9.99997849e-01, 9.99997985e-01, 9.99998379e-01,
       9.99997732e-01, 9.99998422e-01, 9.99998505e-01, 9.99998269e-01,
       9.99998350e-01, 9.99998576e-01, 9.99998349e-01, 9.99996811e-01,
       9.99998483e-01, 9.99998945e-01, 9.99998993e-01, 9.99999074e-01,
       9.99999276e-01, 9.99998970e-01, 9.99998058e-01, 9.99999292e-01,
       9.99999453e-01, 9.99999317e-01, 9.99999278e-01, 9.99999539e-01,
       9.99999549e-01, 9.99999215e-01, 9.99999156e-01, 9.99998825e-01,
       9.99999038e-01, 9.99999002e-01, 9.99999273e-01, 9.99999230e-01,
       9.99999188e-01, 9.99999053e-01, 9.99999123e-01, 9.99998934e-01,
       9.99999707e-01, 9.99998890e-01, 9.99999662e-01, 9.99999454e-01,
       9.99998934e-01, 9.99999350e-01, 9.99999381e-01, 9.99999614e-01,
       9.99999685e-01, 9.99999519e-01, 9.99999634e-01, 9.99999421e-01,
       9.99999389e-01, 1.00000050e+00, 9.99998629e-01, 1.00000017e+00,
       9.99999641e-01, 9.99999294e-01, 9.99999690e-01, 1.00000047e+00,
       9.99999638e-01, 9.99999635e-01, 9.99999553e-01, 9.99998345e-01,
       9.99998791e-01, 9.99998572e-01, 9.99998555e-01, 9.99998711e-01,
       9.99998755e-01, 9.99998931e-01, 9.99998754e-01, 9.99998844e-01,
       9.99998942e-01, 9.99999070e-01, 9.99998851e-01, 9.99998965e-01,
       9.99998909e-01, 9.99998873e-01, 9.99999157e-01, 9.99999142e-01,
       9.99999412e-01, 9.99999486e-01, 9.99999329e-01, 9.99999129e-01,
       9.99999218e-01, 9.99999583e-01, 9.99999622e-01, 9.99999982e-01,
       1.00000018e+00, 1.00000113e+00, 9.99999720e-01, 9.99999294e-01,
       9.99999721e-01, 9.99999461e-01, 9.99998950e-01, 1.00000001e+00,
       1.00000008e+00, 9.99999631e-01, 9.99999715e-01, 9.99999540e-01,
       9.99999878e-01, 9.99999491e-01, 9.99999521e-01, 9.99999670e-01,
       9.99999623e-01, 9.99999651e-01, 9.99999658e-01, 9.99999663e-01,
       9.99999573e-01, 9.99999772e-01, 9.99999565e-01, 9.99999663e-01,
       9.99999897e-01, 9.99999695e-01, 9.99999379e-01, 9.99999689e-01,
       9.99999519e-01, 1.00000016e+00, 1.00000017e+00, 1.00000019e+00,
       9.99999976e-01, 1.00000023e+00, 9.99999869e-01, 1.00000022e+00,
       9.99999631e-01, 9.99999949e-01, 1.00000020e+00, 9.99999780e-01,
       1.00000029e+00, 1.00000040e+00, 9.99999852e-01, 9.99999487e-01,
       9.99999511e-01, 9.99999332e-01, 9.99999498e-01, 9.99999429e-01,
       9.99999461e-01, 9.99999627e-01, 9.99999474e-01, 9.99999785e-01,
       9.99999407e-01, 9.99999544e-01, 9.99999338e-01, 9.99999533e-01,
       9.99999590e-01, 9.99999743e-01, 9.99999622e-01, 9.99999788e-01,
       9.99999441e-01, 9.99999626e-01, 9.99999667e-01, 9.99999528e-01,
       9.99999689e-01, 1.00000001e+00, 1.00000004e+00, 1.00000009e+00,
       1.00000015e+00, 1.00000004e+00, 9.99999594e-01, 9.99999743e-01,
       9.99999707e-01, 9.99999463e-01, 1.00000002e+00, 1.00000083e+00,
       1.00000013e+00])
Traceback (most recent call last):
  File "combineYears.py", line 48, in test_mu
    result = pyhf.infer.hypotest(mu_test, self.data, self.model, qtilde=False, return_expected_set=True)
  File "/u/ki/nhartman/gpfs/miniconda3/envs/my_env/lib/python3.8/site-packages/pyhf/infer/__init__.py", line 134, in hypotest
    calc = utils.create_calculator(
  File "/u/ki/nhartman/gpfs/miniconda3/envs/my_env/lib/python3.8/site-packages/pyhf/infer/utils.py", line 45, in create_calculator
    return {'asymptotics': AsymptoticCalculator, 'toybased': ToyCalculator}[calctype](
TypeError: __init__() got an unexpected keyword argument 'qtilde'

During handling of the above exception, another exception occurred:

Traceback (most recent call last):
  File "/u/ki/nhartman/gpfs/miniconda3/envs/my_env/lib/python3.8/site-packages/pyhf/optimize/mixins.py", line 49, in _internal_minimize
    assert result.success
AssertionError

During handling of the above exception, another exception occurred:

Traceback (most recent call last):
  File "combineYears.py", line 103, in run_scan
    out_obs_exp = [self.min_for_lim(args) for args in args_med]
  File "combineYears.py", line 103, in <listcomp>
    out_obs_exp = [self.min_for_lim(args) for args in args_med]
  File "combineYears.py", line 61, in min_for_lim
    return root_scalar(self.test_mu, bracket=(guess*(1-window),guess*(1+window)),
  File "/u/ki/nhartman/gpfs/miniconda3/envs/my_env/lib/python3.8/site-packages/scipy/optimize/_root_scalar.py", line 249, in root_scalar
    r, sol = methodc(f, a, b, args=args, **kwargs)
  File "/u/ki/nhartman/gpfs/miniconda3/envs/my_env/lib/python3.8/site-packages/scipy/optimize/zeros.py", line 776, in brentq
    r = _zeros._brentq(f, a, b, xtol, rtol, maxiter, args, full_output, disp)
  File "combineYears.py", line 50, in test_mu
    result = pyhf.infer.hypotest(mu_test, self.data, self.model, test_stat='q', return_expected_set=True)
  File "/u/ki/nhartman/gpfs/miniconda3/envs/my_env/lib/python3.8/site-packages/pyhf/infer/__init__.py", line 144, in hypotest
    teststat = calc.teststatistic(poi_test)
  File "/u/ki/nhartman/gpfs/miniconda3/envs/my_env/lib/python3.8/site-packages/pyhf/infer/calculators.py", line 316, in teststatistic
    qmu_v = teststat_func(
  File "/u/ki/nhartman/gpfs/miniconda3/envs/my_env/lib/python3.8/site-packages/pyhf/infer/test_statistics.py", line 114, in qmu
    return _qmu_like(mu, data, pdf, init_pars, par_bounds, fixed_params)
  File "/u/ki/nhartman/gpfs/miniconda3/envs/my_env/lib/python3.8/site-packages/pyhf/infer/test_statistics.py", line 19, in _qmu_like
    tmu_like_stat, (_, muhatbhat) = _tmu_like(
  File "/u/ki/nhartman/gpfs/miniconda3/envs/my_env/lib/python3.8/site-packages/pyhf/infer/test_statistics.py", line 38, in _tmu_like
    mubhathat, fixed_poi_fit_lhood_val = fixed_poi_fit(
  File "/u/ki/nhartman/gpfs/miniconda3/envs/my_env/lib/python3.8/site-packages/pyhf/infer/mle.py", line 196, in fixed_poi_fit
    return fit(data, pdf, init_pars, par_bounds, fixed_params, **kwargs)
  File "/u/ki/nhartman/gpfs/miniconda3/envs/my_env/lib/python3.8/site-packages/pyhf/infer/mle.py", line 125, in fit
    return opt.minimize(
  File "/u/ki/nhartman/gpfs/miniconda3/envs/my_env/lib/python3.8/site-packages/pyhf/optimize/mixins.py", line 160, in minimize
    result = self._internal_minimize(**minimizer_kwargs, options=kwargs)
  File "/u/ki/nhartman/gpfs/miniconda3/envs/my_env/lib/python3.8/site-packages/pyhf/optimize/mixins.py", line 52, in _internal_minimize
    raise exceptions.FailedMinimization(result)
pyhf.exceptions.FailedMinimization: Iteration limit reached

During handling of the above exception, another exception occurred:

Traceback (most recent call last):
  File "combineYears.py", line 48, in test_mu
    result = pyhf.infer.hypotest(mu_test, self.data, self.model, qtilde=False, return_expected_set=True)
  File "/u/ki/nhartman/gpfs/miniconda3/envs/my_env/lib/python3.8/site-packages/pyhf/infer/__init__.py", line 134, in hypotest
    calc = utils.create_calculator(
  File "/u/ki/nhartman/gpfs/miniconda3/envs/my_env/lib/python3.8/site-packages/pyhf/infer/utils.py", line 45, in create_calculator
    return {'asymptotics': AsymptoticCalculator, 'toybased': ToyCalculator}[calctype](
TypeError: __init__() got an unexpected keyword argument 'qtilde'

During handling of the above exception, another exception occurred:

Traceback (most recent call last):
  File "/u/ki/nhartman/gpfs/miniconda3/envs/my_env/lib/python3.8/site-packages/pyhf/optimize/mixins.py", line 49, in _internal_minimize
    assert result.success
AssertionError
Using uproot4
ws_in ['dEta_cats/ws-stat-only-dEta_hh-cat-XX-SM-HH-unblind-3_dEta_hh_2SR_rev_dEta.json']
Filling in XX with the years: 16,17,18
Running with pytorch with 64b precision
Initial guess for bands (mu guess = 1.00):
[1933.35620695 2595.53435282 3602.81447811 5013.1232325  6720.44663882]
Beginning optimization, mu valid to 0.01
Finding med_mu for alpha = 0.05
obs tensor(0.)
Param: 2, mu: 1933.356, CLs: 0.000
Looks like initial guess was bad? Expanding for one more try
obs tensor(0.)
Param: 2, mu: 966.678, CLs: 0.000
Traceback (most recent call last):
  File "combineYears.py", line 48, in test_mu
    result = pyhf.infer.hypotest(mu_test, self.data, self.model, qtilde=False, return_expected_set=True)
  File "/u/ki/nhartman/gpfs/miniconda3/envs/my_env/lib/python3.8/site-packages/pyhf/infer/__init__.py", line 134, in hypotest
    calc = utils.create_calculator(
  File "/u/ki/nhartman/gpfs/miniconda3/envs/my_env/lib/python3.8/site-packages/pyhf/infer/utils.py", line 45, in create_calculator
    return {'asymptotics': AsymptoticCalculator, 'toybased': ToyCalculator}[calctype](
TypeError: __init__() got an unexpected keyword argument 'qtilde'

During handling of the above exception, another exception occurred:

Traceback (most recent call last):
  File "/u/ki/nhartman/gpfs/miniconda3/envs/my_env/lib/python3.8/site-packages/pyhf/optimize/mixins.py", line 49, in _internal_minimize
    assert result.success
AssertionError

During handling of the above exception, another exception occurred:

Traceback (most recent call last):
  File "combineYears.py", line 103, in run_scan
    out_obs_exp = [self.min_for_lim(args) for args in args_med]
  File "combineYears.py", line 103, in <listcomp>
    out_obs_exp = [self.min_for_lim(args) for args in args_med]
  File "combineYears.py", line 61, in min_for_lim
    return root_scalar(self.test_mu, bracket=(guess*(1-window),guess*(1+window)), 
  File "/u/ki/nhartman/gpfs/miniconda3/envs/my_env/lib/python3.8/site-packages/scipy/optimize/_root_scalar.py", line 249, in root_scalar
    r, sol = methodc(f, a, b, args=args, **kwargs)
  File "/u/ki/nhartman/gpfs/miniconda3/envs/my_env/lib/python3.8/site-packages/scipy/optimize/zeros.py", line 776, in brentq
    r = _zeros._brentq(f, a, b, xtol, rtol, maxiter, args, full_output, disp)
  File "combineYears.py", line 50, in test_mu
    result = pyhf.infer.hypotest(mu_test, self.data, self.model, test_stat='q', return_expected_set=True)
  File "/u/ki/nhartman/gpfs/miniconda3/envs/my_env/lib/python3.8/site-packages/pyhf/infer/__init__.py", line 144, in hypotest
    teststat = calc.teststatistic(poi_test)
  File "/u/ki/nhartman/gpfs/miniconda3/envs/my_env/lib/python3.8/site-packages/pyhf/infer/calculators.py", line 316, in teststatistic
    qmu_v = teststat_func(
  File "/u/ki/nhartman/gpfs/miniconda3/envs/my_env/lib/python3.8/site-packages/pyhf/infer/test_statistics.py", line 114, in qmu
    return _qmu_like(mu, data, pdf, init_pars, par_bounds, fixed_params)
  File "/u/ki/nhartman/gpfs/miniconda3/envs/my_env/lib/python3.8/site-packages/pyhf/infer/test_statistics.py", line 19, in _qmu_like
    tmu_like_stat, (_, muhatbhat) = _tmu_like(
  File "/u/ki/nhartman/gpfs/miniconda3/envs/my_env/lib/python3.8/site-packages/pyhf/infer/test_statistics.py", line 38, in _tmu_like
    mubhathat, fixed_poi_fit_lhood_val = fixed_poi_fit(
  File "/u/ki/nhartman/gpfs/miniconda3/envs/my_env/lib/python3.8/site-packages/pyhf/infer/mle.py", line 196, in fixed_poi_fit
    return fit(data, pdf, init_pars, par_bounds, fixed_params, **kwargs)
  File "/u/ki/nhartman/gpfs/miniconda3/envs/my_env/lib/python3.8/site-packages/pyhf/infer/mle.py", line 125, in fit
    return opt.minimize(
  File "/u/ki/nhartman/gpfs/miniconda3/envs/my_env/lib/python3.8/site-packages/pyhf/optimize/mixins.py", line 160, in minimize
    result = self._internal_minimize(**minimizer_kwargs, options=kwargs)
  File "/u/ki/nhartman/gpfs/miniconda3/envs/my_env/lib/python3.8/site-packages/pyhf/optimize/mixins.py", line 52, in _internal_minimize
    raise exceptions.FailedMinimization(result)
pyhf.exceptions.FailedMinimization: Iteration limit reached

During handling of the above exception, another exception occurred:

Traceback (most recent call last):
  File "combineYears.py", line 48, in test_mu
    result = pyhf.infer.hypotest(mu_test, self.data, self.model, qtilde=False, return_expected_set=True)
  File "/u/ki/nhartman/gpfs/miniconda3/envs/my_env/lib/python3.8/site-packages/pyhf/infer/__init__.py", line 134, in hypotest
    calc = utils.create_calculator(
  File "/u/ki/nhartman/gpfs/miniconda3/envs/my_env/lib/python3.8/site-packages/pyhf/infer/utils.py", line 45, in create_calculator
    return {'asymptotics': AsymptoticCalculator, 'toybased': ToyCalculator}[calctype](
TypeError: __init__() got an unexpected keyword argument 'qtilde'

During handling of the above exception, another exception occurred:

Traceback (most recent call last):
  File "/u/ki/nhartman/gpfs/miniconda3/envs/my_env/lib/python3.8/site-packages/pyhf/optimize/mixins.py", line 49, in _internal_minimize
    assert result.success
AssertionError

During handling of the above exception, another exception occurred:

Traceback (most recent call last):
  File "combineYears.py", line 225, in <module>
    lims = find.run_scan()
  File "combineYears.py", line 113, in run_scan
    out_obs_exp = [self.min_for_lim(args) for args in args_med]
  File "combineYears.py", line 113, in <listcomp>
    out_obs_exp = [self.min_for_lim(args) for args in args_med]
  File "combineYears.py", line 61, in min_for_lim
    return root_scalar(self.test_mu, bracket=(guess*(1-window),guess*(1+window)), 
  File "/u/ki/nhartman/gpfs/miniconda3/envs/my_env/lib/python3.8/site-packages/scipy/optimize/_root_scalar.py", line 249, in root_scalar
    r, sol = methodc(f, a, b, args=args, **kwargs)
  File "/u/ki/nhartman/gpfs/miniconda3/envs/my_env/lib/python3.8/site-packages/scipy/optimize/zeros.py", line 776, in brentq
    r = _zeros._brentq(f, a, b, xtol, rtol, maxiter, args, full_output, disp)
  File "combineYears.py", line 50, in test_mu
    result = pyhf.infer.hypotest(mu_test, self.data, self.model, test_stat='q', return_expected_set=True)
  File "/u/ki/nhartman/gpfs/miniconda3/envs/my_env/lib/python3.8/site-packages/pyhf/infer/__init__.py", line 144, in hypotest
    teststat = calc.teststatistic(poi_test)
  File "/u/ki/nhartman/gpfs/miniconda3/envs/my_env/lib/python3.8/site-packages/pyhf/infer/calculators.py", line 316, in teststatistic
    qmu_v = teststat_func(
  File "/u/ki/nhartman/gpfs/miniconda3/envs/my_env/lib/python3.8/site-packages/pyhf/infer/test_statistics.py", line 114, in qmu
    return _qmu_like(mu, data, pdf, init_pars, par_bounds, fixed_params)
  File "/u/ki/nhartman/gpfs/miniconda3/envs/my_env/lib/python3.8/site-packages/pyhf/infer/test_statistics.py", line 19, in _qmu_like
    tmu_like_stat, (_, muhatbhat) = _tmu_like(
  File "/u/ki/nhartman/gpfs/miniconda3/envs/my_env/lib/python3.8/site-packages/pyhf/infer/test_statistics.py", line 38, in _tmu_like
    mubhathat, fixed_poi_fit_lhood_val = fixed_poi_fit(
  File "/u/ki/nhartman/gpfs/miniconda3/envs/my_env/lib/python3.8/site-packages/pyhf/infer/mle.py", line 196, in fixed_poi_fit
    return fit(data, pdf, init_pars, par_bounds, fixed_params, **kwargs)
  File "/u/ki/nhartman/gpfs/miniconda3/envs/my_env/lib/python3.8/site-packages/pyhf/infer/mle.py", line 125, in fit
    return opt.minimize(
  File "/u/ki/nhartman/gpfs/miniconda3/envs/my_env/lib/python3.8/site-packages/pyhf/optimize/mixins.py", line 160, in minimize
    result = self._internal_minimize(**minimizer_kwargs, options=kwargs)
  File "/u/ki/nhartman/gpfs/miniconda3/envs/my_env/lib/python3.8/site-packages/pyhf/optimize/mixins.py", line 52, in _internal_minimize
    raise exceptions.FailedMinimization(result)
pyhf.exceptions.FailedMinimization: Iteration limit reached

------------------------------------------------------------
Sender: LSF System <lsf@deft0026>
Subject: Job 810154: <dEta_hh_3_2SR_stat-only-dEta_hh-cat_combYrs> in cluster <slac> Exited

Job <dEta_hh_3_2SR_stat-only-dEta_hh-cat_combYrs> was submitted from host <cent7a> by user <nhartman> in cluster <slac> at Tue Apr 20 15:14:28 2021
Job was executed on host(s) <deft0026>, in queue <long>, as user <nhartman> in cluster <slac> at Tue Apr 20 15:14:30 2021
</u/ki/nhartman> was used as the home directory.
</u/ki/nhartman/gpfs/diHiggs4b/stats-results> was used as the working directory.
Started at Tue Apr 20 15:14:30 2021
Terminated at Thu Apr 22 01:30:39 2021
Results reported at Thu Apr 22 01:30:39 2021

Your job looked like:

------------------------------------------------------------
# LSBATCH: User input
python combineYears.py --ws_in dEta_cats/ws-stat-only-dEta_hh-cat-XX-SM-HH-unblind-3_dEta_hh_2SR_rev_dEta.json
------------------------------------------------------------

Exited with exit code 1.

Resource usage summary:

    CPU time :                                   122942.09 sec.
    Max Memory :                                 216 MB
    Average Memory :                             212.95 MB
    Total Requested Memory :                     -
    Delta Memory :                               -
    Max Swap :                                   -
    Max Processes :                              5
    Max Threads :                                10
    Run time :                                   123369 sec.
    Turnaround time :                            123371 sec.

The output (if any) is above this job summary.

