  0%|          | 0/141 [00:00<?, ?it/s]  1%|▏         | 2/141 [00:00<00:10, 13.04it/s]  3%|▎         | 4/141 [00:00<00:10, 12.98it/s]  4%|▍         | 6/141 [00:00<00:10, 12.93it/s]  6%|▌         | 8/141 [00:00<00:10, 12.89it/s]  7%|▋         | 10/141 [00:00<00:10, 12.88it/s]  9%|▊         | 12/141 [00:00<00:10, 12.87it/s] 10%|▉         | 14/141 [00:01<00:09, 12.86it/s] 11%|█▏        | 16/141 [00:01<00:09, 12.73it/s] 13%|█▎        | 18/141 [00:01<00:09, 12.67it/s] 14%|█▍        | 20/141 [00:01<00:09, 12.57it/s] 16%|█▌        | 22/141 [00:01<00:09, 12.49it/s] 17%|█▋        | 24/141 [00:01<00:09, 12.28it/s] 18%|█▊        | 26/141 [00:02<00:09, 12.33it/s] 20%|█▉        | 28/141 [00:02<00:09, 12.25it/s] 21%|██▏       | 30/141 [00:02<00:09, 12.05it/s] 23%|██▎       | 32/141 [00:02<00:09, 11.82it/s] 24%|██▍       | 34/141 [00:02<00:09, 11.75it/s] 26%|██▌       | 36/141 [00:02<00:08, 11.71it/s] 27%|██▋       | 38/141 [00:03<00:08, 11.62it/s] 28%|██▊       | 40/141 [00:03<00:08, 11.58it/s] 30%|██▉       | 42/141 [00:03<00:08, 11.48it/s] 31%|███       | 44/141 [00:03<00:08, 11.27it/s] 33%|███▎      | 46/141 [00:03<00:08, 11.17it/s] 34%|███▍      | 48/141 [00:03<00:08, 11.13it/s] 35%|███▌      | 50/141 [00:04<00:08, 11.15it/s] 37%|███▋      | 52/141 [00:04<00:08, 11.08it/s] 38%|███▊      | 54/141 [00:04<00:07, 10.90it/s] 40%|███▉      | 56/141 [00:04<00:07, 10.88it/s] 41%|████      | 58/141 [00:04<00:07, 10.78it/s] 43%|████▎     | 60/141 [00:05<00:07, 10.88it/s] 44%|████▍     | 62/141 [00:05<00:07, 10.77it/s] 45%|████▌     | 64/141 [00:05<00:07, 10.77it/s] 47%|████▋     | 66/141 [00:05<00:06, 10.83it/s] 48%|████▊     | 68/141 [00:05<00:06, 10.82it/s] 50%|████▉     | 70/141 [00:06<00:06, 10.62it/s] 51%|█████     | 72/141 [00:06<00:06, 10.62it/s] 52%|█████▏    | 74/141 [00:06<00:06, 10.30it/s] 54%|█████▍    | 76/141 [00:06<00:06, 10.24it/s] 55%|█████▌    | 78/141 [00:06<00:06, 10.26it/s] 57%|█████▋    | 80/141 [00:07<00:05, 10.21it/s] 58%|█████▊    | 82/141 [00:07<00:05, 10.12it/s] 60%|█████▉    | 84/141 [00:07<00:05, 10.27it/s] 61%|██████    | 86/141 [00:07<00:05, 10.34it/s] 62%|██████▏   | 88/141 [00:07<00:05, 10.48it/s] 64%|██████▍   | 90/141 [00:07<00:04, 10.38it/s] 65%|██████▌   | 92/141 [00:08<00:04, 10.26it/s] 67%|██████▋   | 94/141 [00:08<00:04, 10.34it/s] 68%|██████▊   | 96/141 [00:08<00:04, 10.29it/s] 70%|██████▉   | 98/141 [00:08<00:04, 10.12it/s] 71%|███████   | 100/141 [00:08<00:04,  9.93it/s] 72%|███████▏  | 102/141 [00:09<00:03, 10.02it/s] 74%|███████▍  | 104/141 [00:09<00:03, 10.10it/s] 75%|███████▌  | 106/141 [00:09<00:03, 10.16it/s] 77%|███████▋  | 108/141 [00:09<00:03, 10.15it/s] 78%|███████▊  | 110/141 [00:09<00:03,  9.92it/s] 79%|███████▉  | 112/141 [00:10<00:02,  9.99it/s] 81%|████████  | 114/141 [00:10<00:02,  9.83it/s] 82%|████████▏ | 115/141 [00:10<00:02,  9.85it/s] 82%|████████▏ | 116/141 [00:10<00:02,  9.87it/s] 83%|████████▎ | 117/141 [00:10<00:02,  9.82it/s] 84%|████████▎ | 118/141 [00:10<00:02,  9.82it/s] 84%|████████▍ | 119/141 [00:10<00:02,  9.84it/s] 85%|████████▌ | 120/141 [00:11<00:02,  9.39it/s] 86%|████████▌ | 121/141 [00:11<00:02,  9.52it/s] 87%|████████▋ | 122/141 [00:11<00:01,  9.64it/s] 87%|████████▋ | 123/141 [00:11<00:01,  9.73it/s] 88%|████████▊ | 124/141 [00:11<00:01,  9.68it/s] 89%|████████▊ | 125/141 [00:11<00:01,  9.68it/s] 89%|████████▉ | 126/141 [00:11<00:01,  9.70it/s] 91%|█████████ | 128/141 [00:11<00:01,  9.76it/s] 91%|█████████▏| 129/141 [00:11<00:01,  9.64it/s] 92%|█████████▏| 130/141 [00:12<00:01,  9.66it/s] 93%|█████████▎| 131/141 [00:12<00:01,  9.60it/s] 94%|█████████▎| 132/141 [00:12<00:00,  9.59it/s] 94%|█████████▍| 133/141 [00:12<00:00,  9.54it/s] 95%|█████████▌| 134/141 [00:12<00:00,  9.40it/s] 96%|█████████▌| 135/141 [00:12<00:00,  9.33it/s] 96%|█████████▋| 136/141 [00:12<00:00,  9.19it/s] 97%|█████████▋| 137/141 [00:12<00:00,  8.66it/s] 98%|█████████▊| 138/141 [00:12<00:00,  8.76it/s] 99%|█████████▊| 139/141 [00:13<00:00,  8.77it/s] 99%|█████████▉| 140/141 [00:13<00:00,  8.79it/s]100%|██████████| 141/141 [00:13<00:00,  8.38it/s]100%|██████████| 141/141 [00:13<00:00, 10.60it/s]
  0%|          | 0/1 [00:00<?, ?it/s]100%|██████████| 1/1 [00:00<00:00,  9.97it/s]100%|██████████| 1/1 [00:00<00:00,  9.95it/s]
  0%|          | 0/1 [00:00<?, ?it/s]100%|██████████| 1/1 [00:00<00:00, 12.63it/s]
  0%|          | 0/165 [00:00<?, ?it/s]  1%|          | 2/165 [00:00<00:13, 12.28it/s]  2%|▏         | 4/165 [00:00<00:13, 12.20it/s]  4%|▎         | 6/165 [00:00<00:13, 12.21it/s]  5%|▍         | 8/165 [00:00<00:12, 12.17it/s]  6%|▌         | 10/165 [00:00<00:12, 12.15it/s]  7%|▋         | 12/165 [00:00<00:12, 12.08it/s]  8%|▊         | 14/165 [00:01<00:12, 12.02it/s] 10%|▉         | 16/165 [00:01<00:12, 11.97it/s] 11%|█         | 18/165 [00:01<00:12, 12.01it/s] 12%|█▏        | 20/165 [00:01<00:12, 11.90it/s] 13%|█▎        | 22/165 [00:01<00:12, 11.89it/s] 15%|█▍        | 24/165 [00:02<00:11, 11.86it/s] 16%|█▌        | 26/165 [00:02<00:11, 11.85it/s] 17%|█▋        | 28/165 [00:02<00:11, 11.88it/s] 18%|█▊        | 30/165 [00:02<00:11, 11.86it/s] 19%|█▉        | 32/165 [00:02<00:11, 11.70it/s] 21%|██        | 34/165 [00:02<00:11, 11.64it/s] 22%|██▏       | 36/165 [00:03<00:11, 11.71it/s] 23%|██▎       | 38/165 [00:03<00:10, 11.61it/s] 24%|██▍       | 40/165 [00:03<00:10, 11.61it/s] 25%|██▌       | 42/165 [00:03<00:10, 11.56it/s] 27%|██▋       | 44/165 [00:03<00:10, 11.51it/s] 28%|██▊       | 46/165 [00:03<00:10, 11.47it/s] 29%|██▉       | 48/165 [00:04<00:10, 11.46it/s] 30%|███       | 50/165 [00:04<00:10, 11.45it/s] 32%|███▏      | 52/165 [00:04<00:09, 11.45it/s] 33%|███▎      | 54/165 [00:04<00:09, 11.49it/s] 34%|███▍      | 56/165 [00:04<00:09, 11.46it/s] 35%|███▌      | 58/165 [00:04<00:09, 11.45it/s] 36%|███▋      | 60/165 [00:05<00:09, 11.44it/s] 38%|███▊      | 62/165 [00:05<00:09, 11.40it/s] 39%|███▉      | 64/165 [00:05<00:08, 11.29it/s] 40%|████      | 66/165 [00:05<00:08, 11.30it/s] 41%|████      | 68/165 [00:05<00:08, 11.31it/s] 42%|████▏     | 70/165 [00:06<00:08, 11.31it/s] 44%|████▎     | 72/165 [00:06<00:08, 11.25it/s] 45%|████▍     | 74/165 [00:06<00:08, 11.16it/s] 46%|████▌     | 76/165 [00:06<00:07, 11.19it/s] 47%|████▋     | 78/165 [00:06<00:07, 11.22it/s] 48%|████▊     | 80/165 [00:06<00:07, 11.17it/s] 50%|████▉     | 82/165 [00:07<00:07, 11.11it/s] 51%|█████     | 84/165 [00:07<00:07, 11.10it/s] 52%|█████▏    | 86/165 [00:07<00:07, 11.06it/s] 53%|█████▎    | 88/165 [00:07<00:06, 11.02it/s] 55%|█████▍    | 90/165 [00:07<00:06, 11.04it/s] 56%|█████▌    | 92/165 [00:08<00:06, 11.00it/s] 57%|█████▋    | 94/165 [00:08<00:06, 10.96it/s] 58%|█████▊    | 96/165 [00:08<00:06, 10.95it/s] 59%|█████▉    | 98/165 [00:08<00:06, 10.93it/s] 61%|██████    | 100/165 [00:08<00:05, 10.92it/s] 62%|██████▏   | 102/165 [00:08<00:05, 10.88it/s] 63%|██████▎   | 104/165 [00:09<00:05, 10.83it/s] 64%|██████▍   | 106/165 [00:09<00:05, 10.81it/s] 65%|██████▌   | 108/165 [00:09<00:05, 10.74it/s] 67%|██████▋   | 110/165 [00:09<00:05, 10.70it/s] 68%|██████▊   | 112/165 [00:09<00:04, 10.72it/s] 69%|██████▉   | 114/165 [00:10<00:04, 10.73it/s] 70%|███████   | 116/165 [00:10<00:04, 10.73it/s] 72%|███████▏  | 118/165 [00:10<00:04, 10.61it/s] 73%|███████▎  | 120/165 [00:10<00:04, 10.55it/s] 74%|███████▍  | 122/165 [00:10<00:04, 10.55it/s] 75%|███████▌  | 124/165 [00:10<00:03, 10.50it/s] 76%|███████▋  | 126/165 [00:11<00:03, 10.41it/s] 78%|███████▊  | 128/165 [00:11<00:03, 10.15it/s] 79%|███████▉  | 130/165 [00:11<00:03, 10.20it/s] 80%|████████  | 132/165 [00:11<00:03, 10.18it/s] 81%|████████  | 134/165 [00:12<00:03,  9.99it/s] 82%|████████▏ | 136/165 [00:12<00:02, 10.06it/s] 84%|████████▎ | 138/165 [00:12<00:02,  9.79it/s] 84%|████████▍ | 139/165 [00:12<00:02,  9.55it/s] 85%|████████▍ | 140/165 [00:12<00:02,  9.32it/s] 85%|████████▌ | 141/165 [00:12<00:02,  9.15it/s] 86%|████████▌ | 142/165 [00:12<00:02,  8.98it/s] 87%|████████▋ | 143/165 [00:12<00:02,  8.89it/s] 87%|████████▋ | 144/165 [00:13<00:02,  8.83it/s] 88%|████████▊ | 145/165 [00:13<00:02,  8.72it/s] 88%|████████▊ | 146/165 [00:13<00:02,  8.61it/s] 89%|████████▉ | 147/165 [00:13<00:02,  8.52it/s] 90%|████████▉ | 148/165 [00:13<00:02,  8.46it/s] 90%|█████████ | 149/165 [00:13<00:01,  8.44it/s] 91%|█████████ | 150/165 [00:13<00:01,  8.43it/s] 92%|█████████▏| 151/165 [00:13<00:01,  8.46it/s] 92%|█████████▏| 152/165 [00:14<00:01,  8.48it/s] 93%|█████████▎| 153/165 [00:14<00:01,  8.40it/s] 93%|█████████▎| 154/165 [00:14<00:01,  8.32it/s] 94%|█████████▍| 155/165 [00:14<00:01,  8.29it/s] 95%|█████████▍| 156/165 [00:14<00:01,  8.25it/s] 95%|█████████▌| 157/165 [00:14<00:00,  8.26it/s] 96%|█████████▌| 158/165 [00:14<00:00,  8.28it/s] 96%|█████████▋| 159/165 [00:14<00:00,  8.25it/s] 97%|█████████▋| 160/165 [00:15<00:00,  8.24it/s] 98%|█████████▊| 161/165 [00:15<00:00,  8.28it/s] 98%|█████████▊| 162/165 [00:15<00:00,  8.25it/s] 99%|█████████▉| 163/165 [00:15<00:00,  8.22it/s] 99%|█████████▉| 164/165 [00:15<00:00,  8.19it/s]100%|██████████| 165/165 [00:15<00:00,  8.16it/s]100%|██████████| 165/165 [00:15<00:00, 10.54it/s]
  0%|          | 0/1 [00:00<?, ?it/s]100%|██████████| 1/1 [00:00<00:00,  9.81it/s]100%|██████████| 1/1 [00:00<00:00,  9.78it/s]
  0%|          | 0/1 [00:00<?, ?it/s]100%|██████████| 1/1 [00:00<00:00, 12.28it/s]
  0%|          | 0/164 [00:00<?, ?it/s]  1%|          | 2/164 [00:00<00:13, 11.79it/s]  2%|▏         | 4/164 [00:00<00:13, 11.59it/s]  4%|▎         | 6/164 [00:00<00:13, 11.63it/s]  5%|▍         | 8/164 [00:00<00:13, 11.70it/s]  6%|▌         | 10/164 [00:00<00:13, 11.73it/s]  7%|▋         | 12/164 [00:01<00:12, 11.72it/s]  9%|▊         | 14/164 [00:01<00:12, 11.86it/s] 10%|▉         | 16/164 [00:01<00:12, 11.90it/s] 11%|█         | 18/164 [00:01<00:12, 11.93it/s] 12%|█▏        | 20/164 [00:01<00:12, 11.68it/s] 13%|█▎        | 22/164 [00:01<00:12, 11.43it/s] 15%|█▍        | 24/164 [00:02<00:12, 11.26it/s] 16%|█▌        | 26/164 [00:02<00:12, 11.31it/s] 17%|█▋        | 28/164 [00:02<00:12, 11.23it/s] 18%|█▊        | 30/164 [00:02<00:11, 11.22it/s] 20%|█▉        | 32/164 [00:02<00:11, 11.21it/s] 21%|██        | 34/164 [00:02<00:11, 11.28it/s] 22%|██▏       | 36/164 [00:03<00:11, 11.03it/s] 23%|██▎       | 38/164 [00:03<00:11, 10.77it/s] 24%|██▍       | 40/164 [00:03<00:11, 10.60it/s] 26%|██▌       | 42/164 [00:03<00:11, 10.47it/s] 27%|██▋       | 44/164 [00:03<00:11, 10.39it/s] 28%|██▊       | 46/164 [00:04<00:11, 10.47it/s] 29%|██▉       | 48/164 [00:04<00:11, 10.34it/s] 30%|███       | 50/164 [00:04<00:11, 10.19it/s] 32%|███▏      | 52/164 [00:04<00:11,  9.94it/s] 33%|███▎      | 54/164 [00:04<00:10, 10.03it/s] 34%|███▍      | 56/164 [00:05<00:10,  9.95it/s] 35%|███▍      | 57/164 [00:05<00:10,  9.96it/s] 35%|███▌      | 58/164 [00:05<00:10,  9.90it/s] 36%|███▌      | 59/164 [00:05<00:10,  9.81it/s] 37%|███▋      | 60/164 [00:05<00:10,  9.56it/s] 37%|███▋      | 61/164 [00:05<00:10,  9.65it/s] 38%|███▊      | 62/164 [00:05<00:10,  9.36it/s] 38%|███▊      | 63/164 [00:05<00:11,  9.12it/s] 39%|███▉      | 64/164 [00:06<00:11,  8.94it/s] 40%|███▉      | 65/164 [00:06<00:11,  8.75it/s] 40%|████      | 66/164 [00:06<00:11,  8.61it/s] 41%|████      | 67/164 [00:06<00:11,  8.76it/s] 41%|████▏     | 68/164 [00:06<00:11,  8.54it/s] 42%|████▏     | 69/164 [00:06<00:11,  8.37it/s] 43%|████▎     | 70/164 [00:06<00:11,  8.20it/s] 43%|████▎     | 71/164 [00:06<00:11,  8.15it/s] 44%|████▍     | 72/164 [00:06<00:11,  8.00it/s] 45%|████▍     | 73/164 [00:07<00:11,  7.88it/s] 45%|████▌     | 74/164 [00:07<00:11,  7.74it/s] 46%|████▌     | 75/164 [00:07<00:11,  7.71it/s] 46%|████▋     | 76/164 [00:07<00:11,  7.76it/s] 47%|████▋     | 77/164 [00:07<00:11,  7.71it/s] 48%|████▊     | 78/164 [00:07<00:11,  7.64it/s] 48%|████▊     | 79/164 [00:07<00:11,  7.56it/s] 49%|████▉     | 80/164 [00:08<00:11,  7.41it/s] 49%|████▉     | 81/164 [00:08<00:10,  7.66it/s] 50%|█████     | 82/164 [00:08<00:10,  7.89it/s] 51%|█████     | 83/164 [00:08<00:10,  8.07it/s] 51%|█████     | 84/164 [00:08<00:09,  8.18it/s] 52%|█████▏    | 85/164 [00:08<00:09,  8.27it/s] 52%|█████▏    | 86/164 [00:08<00:09,  8.45it/s] 53%|█████▎    | 87/164 [00:08<00:09,  8.49it/s] 54%|█████▎    | 88/164 [00:08<00:08,  8.47it/s] 54%|█████▍    | 89/164 [00:09<00:08,  8.53it/s] 55%|█████▍    | 90/164 [00:09<00:08,  8.52it/s] 55%|█████▌    | 91/164 [00:09<00:08,  8.55it/s] 56%|█████▌    | 92/164 [00:09<00:08,  8.49it/s] 57%|█████▋    | 93/164 [00:09<00:08,  8.40it/s] 57%|█████▋    | 94/164 [00:09<00:08,  8.35it/s] 58%|█████▊    | 95/164 [00:09<00:08,  8.33it/s] 59%|█████▊    | 96/164 [00:09<00:08,  8.14it/s] 59%|█████▉    | 97/164 [00:10<00:08,  8.11it/s] 60%|█████▉    | 98/164 [00:10<00:08,  8.14it/s] 60%|██████    | 99/164 [00:10<00:07,  8.17it/s] 61%|██████    | 100/164 [00:10<00:07,  8.24it/s] 62%|██████▏   | 101/164 [00:10<00:07,  8.27it/s] 62%|██████▏   | 102/164 [00:10<00:07,  8.28it/s] 63%|██████▎   | 103/164 [00:10<00:07,  8.31it/s] 63%|██████▎   | 104/164 [00:10<00:07,  8.16it/s] 64%|██████▍   | 105/164 [00:11<00:07,  8.18it/s] 65%|██████▍   | 106/164 [00:11<00:07,  8.17it/s] 65%|██████▌   | 107/164 [00:11<00:06,  8.26it/s] 66%|██████▌   | 108/164 [00:11<00:06,  8.22it/s] 66%|██████▋   | 109/164 [00:11<00:06,  8.26it/s] 67%|██████▋   | 110/164 [00:11<00:06,  8.18it/s] 68%|██████▊   | 111/164 [00:11<00:06,  8.10it/s] 68%|██████▊   | 112/164 [00:11<00:06,  8.00it/s] 69%|██████▉   | 113/164 [00:12<00:06,  7.94it/s] 70%|██████▉   | 114/164 [00:12<00:06,  7.89it/s] 70%|███████   | 115/164 [00:12<00:06,  7.85it/s] 71%|███████   | 116/164 [00:12<00:06,  7.86it/s] 71%|███████▏  | 117/164 [00:12<00:05,  7.87it/s] 72%|███████▏  | 118/164 [00:12<00:05,  7.83it/s] 73%|███████▎  | 119/164 [00:12<00:05,  7.83it/s] 73%|███████▎  | 120/164 [00:12<00:05,  7.83it/s] 74%|███████▍  | 121/164 [00:13<00:05,  7.87it/s] 74%|███████▍  | 122/164 [00:13<00:05,  7.85it/s] 75%|███████▌  | 123/164 [00:13<00:05,  7.78it/s] 76%|███████▌  | 124/164 [00:13<00:05,  7.78it/s] 76%|███████▌  | 125/164 [00:13<00:05,  7.74it/s] 77%|███████▋  | 126/164 [00:13<00:04,  7.71it/s] 77%|███████▋  | 127/164 [00:13<00:04,  7.68it/s] 78%|███████▊  | 128/164 [00:13<00:04,  7.59it/s] 79%|███████▊  | 129/164 [00:14<00:04,  7.51it/s] 79%|███████▉  | 130/164 [00:14<00:04,  7.51it/s] 80%|███████▉  | 131/164 [00:14<00:04,  7.51it/s] 80%|████████  | 132/164 [00:14<00:04,  7.45it/s] 81%|████████  | 133/164 [00:14<00:04,  7.50it/s] 82%|████████▏ | 134/164 [00:14<00:03,  7.60it/s] 82%|████████▏ | 135/164 [00:14<00:03,  7.55it/s] 83%|████████▎ | 136/164 [00:15<00:03,  7.51it/s] 84%|████████▎ | 137/164 [00:15<00:03,  7.44it/s] 84%|████████▍ | 138/164 [00:15<00:03,  7.36it/s] 85%|████████▍ | 139/164 [00:15<00:03,  7.30it/s] 85%|████████▌ | 140/164 [00:15<00:03,  7.29it/s] 86%|████████▌ | 141/164 [00:15<00:03,  7.19it/s] 87%|████████▋ | 142/164 [00:15<00:03,  7.12it/s] 87%|████████▋ | 143/164 [00:16<00:02,  7.20it/s] 88%|████████▊ | 144/164 [00:16<00:02,  7.22it/s] 88%|████████▊ | 145/164 [00:16<00:02,  7.20it/s] 89%|████████▉ | 146/164 [00:16<00:02,  7.13it/s] 90%|████████▉ | 147/164 [00:16<00:02,  7.10it/s] 90%|█████████ | 148/164 [00:16<00:02,  7.10it/s] 91%|█████████ | 149/164 [00:16<00:02,  7.16it/s] 91%|█████████▏| 150/164 [00:17<00:01,  7.19it/s] 92%|█████████▏| 151/164 [00:17<00:01,  7.18it/s] 93%|█████████▎| 152/164 [00:17<00:01,  7.13it/s] 93%|█████████▎| 153/164 [00:17<00:01,  7.19it/s] 94%|█████████▍| 154/164 [00:17<00:01,  7.10it/s] 95%|█████████▍| 155/164 [00:17<00:01,  7.04it/s] 95%|█████████▌| 156/164 [00:17<00:01,  7.02it/s] 96%|█████████▌| 157/164 [00:18<00:01,  6.93it/s] 96%|█████████▋| 158/164 [00:18<00:00,  6.84it/s] 97%|█████████▋| 159/164 [00:18<00:00,  6.84it/s] 98%|█████████▊| 160/164 [00:18<00:00,  6.85it/s] 98%|█████████▊| 161/164 [00:18<00:00,  6.87it/s] 99%|█████████▉| 162/164 [00:18<00:00,  6.91it/s] 99%|█████████▉| 163/164 [00:18<00:00,  6.87it/s]100%|██████████| 164/164 [00:19<00:00,  6.82it/s]100%|██████████| 164/164 [00:19<00:00,  8.62it/s]
  0%|          | 0/1 [00:00<?, ?it/s]100%|██████████| 1/1 [00:00<00:00,  6.88it/s]100%|██████████| 1/1 [00:00<00:00,  6.87it/s]
  0%|          | 0/1 [00:00<?, ?it/s]100%|██████████| 1/1 [00:00<00:00,  8.94it/s]100%|██████████| 1/1 [00:00<00:00,  8.92it/s]No direct category match for 16 assuming 4b
No direct category match for 17 assuming 4b
No direct category match for 18 assuming 4b
{'16': {'3b': [], '3b1l': [], '3b1nl': [], '4b': ['../data/RR/nom_trigs_unblind/data16_min_dR_VEC_sr_124_117_NN_100_bootstraps.root']}, '17': {'3b': [], '3b1l': [], '3b1nl': [], '4b': ['../data/RR/nom_trigs_unblind/data17_min_dR_VEC_sr_124_117_NN_100_bootstraps.root']}, '18': {'3b': [], '3b1l': [], '3b1nl': [], '4b': ['../data/RR/nom_trigs_unblind/data18_min_dR_VEC_sr_124_117_NN_100_bootstraps.root']}}
../data/RR/NNT_DEC20_MDR_VEC/MC/600043_mc16a/NanoNTuple.root
../data/RR/NNT_DEC20_MDR_VEC/MC/600043_mc16d/NanoNTuple.root
../data/RR/NNT_DEC20_MDR_VEC/MC/600043_mc16e/NanoNTuple.root
['../data/RR/NNT_DEC20_MDR_VEC/MC/600043_mc16a/NanoNTuple.root']
../data/RR/NNT_DEC20_MDR_VEC/MC/600043_mc16a/NanoNTuple.root
../data/RR/NNT_DEC20_MDR_VEC/MC/600043_mc16d/NanoNTuple.root
../data/RR/NNT_DEC20_MDR_VEC/MC/600043_mc16e/NanoNTuple.root
['../data/RR/NNT_DEC20_MDR_VEC/MC/600043_mc16d/NanoNTuple.root']
../data/RR/NNT_DEC20_MDR_VEC/MC/600043_mc16a/NanoNTuple.root
../data/RR/NNT_DEC20_MDR_VEC/MC/600043_mc16d/NanoNTuple.root
../data/RR/NNT_DEC20_MDR_VEC/MC/600043_mc16e/NanoNTuple.root
['../data/RR/NNT_DEC20_MDR_VEC/MC/600043_mc16e/NanoNTuple.root']
Running with 39 bins from 225 to 1200 for variable m_hh
data16_min_dR_VEC_sr_124_117_NN_100_bootstraps.root
(124.0,117.0) center already applied: skipping validation tree
3023.984801438291
NanoNTuple.root
SR is different! If what you want for this sample, ignore this warning
Not able to flatten, maybe double check signal counts
4b
0.25986248
data17_min_dR_VEC_sr_124_117_NN_100_bootstraps.root
(124.0,117.0) center already applied: skipping validation tree
3995.97100194663
NanoNTuple.root
SR is different! If what you want for this sample, ignore this warning
Not able to flatten, maybe double check signal counts
4b
0.21880122
data18_min_dR_VEC_sr_124_117_NN_100_bootstraps.root
(124.0,117.0) center already applied: skipping validation tree
7120.438637929156
NanoNTuple.root
SR is different! If what you want for this sample, ignore this warning
Not able to flatten, maybe double check signal counts
4b
0.25686094
Running with syst, HT cut 300.0
Running with bootstrap
Categorizing in dEta_hh with boundaries [0.0, 0.16666666666666666, 0.3333333333333333, 0.5, 0.6666666666666666, 0.8333333333333333, 1.0, 1.1666666666666665, 1.3333333333333333, 1.5] in btag regs ['4b']
cat_4b_0
Running stat error
Running syst error
cat_4b_1
Running stat error
Running syst error
cat_4b_2
Running stat error
Running syst error
cat_4b_3
Running stat error
Running syst error
cat_4b_4
Running stat error
Running syst error
cat_4b_5
Running stat error
Running syst error
cat_4b_6
Running stat error
Running syst error
cat_4b_7
Running stat error
Running syst error
cat_4b_8
Running stat error
Running syst error
cat_4b_0
Running stat error
Running syst error
cat_4b_1
Running stat error
Running syst error
cat_4b_2
Running stat error
Running syst error
cat_4b_3
Running stat error
Running syst error
cat_4b_4
Running stat error
Running syst error
cat_4b_5
Running stat error
Running syst error
cat_4b_6
Running stat error
Running syst error
cat_4b_7
Running stat error
Running syst error
cat_4b_8
Running stat error
Running syst error
cat_4b_0
Running stat error
Running syst error
cat_4b_1
Running stat error
Running syst error
cat_4b_2
Running stat error
Running syst error
cat_4b_3
Running stat error
Running syst error
cat_4b_4
Running stat error
Running syst error
cat_4b_5
Running stat error
Running syst error
cat_4b_6
Running stat error
Running syst error
cat_4b_7
Running stat error
Running syst error
cat_4b_8
Running stat error
Running syst error
Initial guess for bands (mu guess = 1.00):
[ 3.1254282   4.19589325  5.82424384  8.10412312 10.86415084]
Beginning optimization, mu valid to 0.01
Finding med_mu for alpha = 0.05

/u/ki/nhartman/.local/lib/python3.7/site-packages/pyhf/tensor/numpy_backend.py:312: RuntimeWarning: invalid value encountered in log
  return n * np.log(lam) - lam - gammaln(n + 1.0)
User defined signal 2

------------------------------------------------------------
Sender: LSF System <lsf@deft0001>
Subject: Job 606583: <dEta_9_bins_16-17-18_corrNP> in cluster <slac> Exited

Job <dEta_9_bins_16-17-18_corrNP> was submitted from host <cent7c> by user <nhartman> in cluster <slac> at Wed Mar 31 17:05:38 2021
Job was executed on host(s) <deft0001>, in queue <medium>, as user <nhartman> in cluster <slac> at Wed Mar 31 17:05:39 2021
</u/ki/nhartman> was used as the home directory.
</gpfs/slac/atlas/fs1/d/nhartman/diHiggs4b/non-resonant-studies> was used as the working directory.
Started at Wed Mar 31 17:05:39 2021
Terminated at Wed Mar 31 19:05:54 2021
Results reported at Wed Mar 31 19:05:54 2021

Your job looked like:

------------------------------------------------------------
# LSBATCH: User input
python run_limits.py -d ../data/RR/nom_trigs_unblind/data16_min_dR_VEC_sr_124_117_NN_100_bootstraps.root ../data/RR/nom_trigs_unblind/data17_min_dR_VEC_sr_124_117_NN_100_bootstraps.root ../data/RR/nom_trigs_unblind/data18_min_dR_VEC_sr_124_117_NN_100_bootstraps.root -s ../data/RR/NNT_DEC20_MDR_VEC/MC/600043_mc16a/NanoNTuple.root ../data/RR/NNT_DEC20_MDR_VEC/MC/600043_mc16d/NanoNTuple.root ../data/RR/NNT_DEC20_MDR_VEC/MC/600043_mc16e/NanoNTuple.root -y 16 17 18 --format resolved-recon --SR-center 124 117 --categorize dEta_hh --cat-edges 0.0 0.16666666666666666 0.3333333333333333 0.5 0.6666666666666666 0.8333333333333333 1.0 1.1666666666666665 1.3333333333333333 1.5 --no-norm --outDir ../stats-results/dEta_cats --label 9_bins --corr_cat
------------------------------------------------------------

TERM_RUNLIMIT: job killed after reaching LSF run time limit.
Exited with exit code 140.

Resource usage summary:

    CPU time :                                   7212.00 sec.
    Max Memory :                                 984 MB
    Average Memory :                             819.17 MB
    Total Requested Memory :                     -
    Delta Memory :                               -
    Max Swap :                                   9 MB
    Max Processes :                              5
    Max Threads :                                34
    Run time :                                   7214 sec.
    Turnaround time :                            7216 sec.

The output (if any) is above this job summary.

