     fun: nan
     jac: array([ 7.14144759e+00,  5.52699292e+01,  6.89867288e+01,  9.43760475e+01,
        9.94023452e+01,  9.08366565e+01,  8.10664552e+01,  7.85685678e+01,
        6.42823992e+01,  5.24712557e+01,  4.80079782e+01,  3.54885260e+01,
        3.06818735e+01,  2.45532549e+01,  2.16821698e+01,  1.58969698e+01,
        1.37475127e+01,  1.26111796e+01,  1.01976073e+01,  9.26607535e+00,
        8.38503985e+00,  6.77247548e+00,  6.24071164e+00,  4.77769622e+00,
        4.94859173e+00,  2.88715846e+00,  3.76697596e+00,  2.98258579e+00,
        3.01572623e+00,  1.92350631e+00,  1.76760201e+00,  2.17681311e+00,
        1.78928768e+00,  1.22826172e+00,  1.12364929e+00, -1.44244158e+02,
        7.94110445e+01,  1.19279300e+02,  1.36213582e+02,  1.49922271e+02,
        1.56789751e+02,  1.43227543e+02,  1.28669703e+02,  1.01041710e+02,
        8.59987487e+01,  8.16521472e+01,  5.98554470e+01,  4.30472267e+01,
        4.32416439e+01,  3.54921827e+01,  2.79334691e+01,  2.30502159e+01,
        1.87093106e+01,  1.91346919e+01,  1.48657211e+01,  1.13985003e+01,
        1.07554533e+01,  8.29901530e+00,  9.80959319e+00,  8.19426846e+00,
        7.53786480e+00,  5.31615659e+00,  4.39638730e+00,  4.74703671e+00,
        2.12103145e+00,  3.30145710e+00,  3.91294526e+00,  1.55687519e+00,
        2.33163138e+00,  2.74782989e+00,  5.45111136e+00,  1.83189110e+01,
        2.21924612e+01,  1.45262905e+01,  3.02118112e+01,  3.03559092e+01,
        3.57326289e+01,  2.71238793e+01,  2.41923900e+01,  2.38304104e+01,
        2.28321501e+01,  2.26003993e+01,  1.40401406e+01,  2.12358512e+00,
        1.04571236e+01,  1.66332491e+01,  1.47762161e+01,  1.02838210e+01,
        2.81403946e+00,  5.30992365e+00,  3.14586431e+00,  6.65175713e+00,
        3.39484977e+00,  6.62726114e-01,  1.61805712e+00,  2.75816584e+00,
        7.82117856e-01,  9.30740261e-01,  1.14985783e-01,  1.58826382e+00,
       -1.36472423e+00,  2.39017831e+00,  2.29191745e+00, -2.37270539e+00,
        4.81954429e+01,  8.51735459e+00,  4.11421849e+01,  1.88676798e+01,
        4.86869316e+01,  4.31054981e+01,  5.61275293e+01,  4.87408528e+01,
        1.86282789e+01,  3.86822388e+01,  3.27326114e+01,  2.99731163e+01,
        1.82623246e+01,  2.14373419e+01,  2.40761871e+01,  2.35244461e+01,
        1.95186919e+01,  6.47232900e+00,  1.03724170e+01,  1.54352478e+01,
        7.35027656e+00,  1.03743435e+01,  9.70734183e+00,  1.33920467e+01,
        3.28835915e+00,  5.41611042e+00,  5.84680457e+00,  8.06266024e+00,
       -3.53611878e+00,  6.17967127e+00,  4.02683080e+00,  3.68773658e+00,
        7.64411606e-01,  1.07161004e-01,  3.40792140e+00, -1.01818578e+00,
        5.52397670e+00,  1.35667905e+01,  1.39676519e+01,  1.99311689e+01,
       -5.01588736e+00,  4.92786755e+00,  1.48906753e+01,  2.54036397e+00,
        8.73561374e+00, -3.28834752e+00,  1.13900465e+01,  7.50184814e+00,
        1.00832818e+01,  6.45083136e+00, -1.82434001e+00,  8.84643842e+00,
        1.20421632e+01,  3.64612566e+00,  2.03481160e+00,  3.92126956e-01,
        2.12053827e+00,  7.73472082e-01, -3.91051800e+00,  1.45477949e+00,
        1.50455994e+00, -2.02530537e+00,  3.25985226e+00,  6.92486923e-01,
       -5.16759910e-02,  2.37275843e+00,  2.20939747e+00,  1.70602969e+00,
        1.44911471e+00, -3.20657303e+01,  2.49786452e+00,  5.16149308e+00,
        2.73985204e+00,  1.69583690e+01,  3.30636377e+01,  2.60360590e+01,
        1.40447465e+01,  1.77811396e+01,  2.72541291e+01,  1.96559459e+01,
        1.21733108e+01,  5.25678231e+00, -5.79540498e+00,  2.29521592e+01,
       -3.14275052e-02,  8.88604342e+00,  7.24810363e+00, -9.34091024e+00,
        4.66099727e+00,  5.28546715e+00, -1.01998762e+00,  6.70839344e+00,
       -3.19840195e-01, -1.12647402e+00,  8.05312187e+00, -1.85940214e+00,
        3.31366836e+00,  1.44381642e+00, -6.04351037e+00, -3.31186184e-01,
        1.21591706e+00,  1.75237808e+00, -3.17615746e+00, -1.65448209e+00,
        6.44241202e+01,  1.01912567e+02,  1.16518707e+02,  1.29559639e+02,
        1.31386070e+02,  1.08691332e+02,  1.01122326e+02,  8.67572691e+01,
        7.35478164e+01,  6.01111507e+01,  4.69709689e+01,  3.93025768e+01,
        3.62454779e+01,  3.09828716e+01,  2.82698123e+01,  2.41149693e+01,
        1.88364759e+01,  1.68147134e+01,  1.44588186e+01,  1.24302865e+01,
        9.52702115e+00,  9.14513454e+00,  7.01553584e+00,  7.08118366e+00,
        5.62536415e+00,  5.40035950e+00,  4.31760627e+00,  4.24389791e+00,
        3.57067113e+00,  7.06921044e-01,  3.17306123e+00,  1.93883355e+00,
        2.31822296e+00,  1.55281244e+00,  9.65399305e+01,  1.53796666e+02,
        1.96211135e+02,  2.14982552e+02,  2.12682490e+02,  1.87851512e+02,
        1.61943486e+02,  1.45623599e+02,  1.19395902e+02,  1.06821959e+02,
        8.16672869e+01,  7.27330077e+01,  5.79975497e+01,  4.84418829e+01,
        4.84568210e+01,  3.66561227e+01,  3.83731405e+01,  2.91262679e+01,
        2.36109742e+01,  2.04866989e+01,  1.82856288e+01,  1.57645724e+01,
        1.21258456e+01,  1.35030469e+01,  7.16379806e+00,  8.82505362e+00,
        6.60131917e+00,  4.89158861e+00,  3.70976379e+00,  3.54078503e+00,
        4.33954132e+00,  4.04792449e+00, -2.95614668e+00,  2.35549105e+00,
        1.94169705e+01,  1.73661358e+01,  3.44407604e+01,  2.83524829e+01,
        4.78296903e+01,  3.67007408e+01,  3.73911816e+01,  3.50067304e+01,
        2.97477220e+01,  3.47873140e+01,  2.19206983e+01,  1.77156765e+01,
        1.69159843e+01,  1.69654495e+01,  2.46737463e+01,  1.32268513e+01,
        6.07123121e+00,  5.60593291e+00,  6.60198480e+00,  5.22020134e+00,
        5.49963136e+00, -4.85849260e+00,  5.66973213e+00,  3.48193120e+00,
        3.08688276e+00,  8.04803919e-01,  6.94180577e+00,  4.47914212e+00,
        3.72456888e+00,  1.37964899e+00,  4.67432926e+00,  1.73457715e+01,
        1.62601209e+00,  4.71656686e-01,  2.56168162e+01,  4.03456010e+01,
        4.39872323e+01,  3.88488825e+01,  5.39516694e+01,  7.31715732e+01,
        5.11550748e+01,  1.83994907e+01,  4.49172309e+01,  4.84194438e+01,
        5.11898699e+01,  4.13485989e+01,  2.39746757e+01,  2.66633492e+01,
        1.66343840e+01,  2.89552950e+01,  3.57135605e+00,  1.00050503e+01,
        1.46468456e+01,  7.60146679e+00,  1.64748223e+01,  1.29341646e+01,
        7.03719568e+00,  9.72498738e+00,  3.76259137e+00,  8.49757931e+00,
        3.01481587e+00,  5.26959862e+00,  3.07948638e+00, -9.29268612e-02,
        4.38667402e+00, -4.02939651e+00,  3.46310321e+00,  1.91622828e-01,
        6.36188956e+00,  4.98632818e+00,  1.00486087e+01,  2.08943492e+01,
        8.30809489e+00,  1.57711660e+01,  1.49895308e+01, -3.16375999e+00,
        9.22127049e+00,  1.81512863e+01,  1.09270208e+01, -7.86228545e+00,
        1.34412135e+01,  4.43593661e+00,  2.12463452e+00,  2.89290721e+00,
        7.73693290e+00,  1.02022445e+01, -5.03630292e-01, -2.53103999e+00,
       -1.51290045e+01, -6.04834306e+00,  2.51590069e+00,  1.05263524e+00,
       -7.39854012e-01, -2.32246416e+00,  2.28289832e+00, -1.43913068e+00,
        4.46032413e+00, -1.12163630e+00, -2.23415010e+00, -2.14832986e+00,
        3.30254908e+00,  2.18981763e+00, -1.14160304e+00,  1.78964598e+01,
        2.26141001e+01,  2.35123295e+01,  3.59411767e+01,  2.04745428e+01,
        1.24802662e+01,  1.43514983e+01,  1.10145541e+01,  1.75521242e+01,
        2.18164446e+01,  1.67739049e+01,  3.31428585e+00,  4.03077277e+00,
        1.09189418e+01,  3.20090545e+00,  1.49732293e+01,  5.83795439e+00,
        1.08363207e+01,  4.79667331e+00, -1.83496812e+00,  4.41277253e+00,
        6.00999239e+00,  8.39392477e+00, -4.29015083e+00,  7.48119491e+00,
        2.63168158e-01,  2.70108928e+00, -2.00214051e+00, -4.00917178e+00,
       -3.10051717e+00,  1.65013716e+00, -5.12684689e-01,  2.15557263e+00,
        1.13346783e+02,  1.55999034e+02,  1.92884960e+02,  2.09478121e+02,
        2.00372259e+02,  1.94316682e+02,  1.76371328e+02,  1.52805118e+02,
        1.23141852e+02,  1.11781102e+02,  9.10117383e+01,  8.19586824e+01,
        6.30020395e+01,  5.14071387e+01,  4.95530127e+01,  3.62896205e+01,
        2.98906615e+01,  2.69986483e+01,  2.31759979e+01,  1.95142075e+01,
        1.89335842e+01,  1.53173600e+01,  1.35442969e+01,  1.10593922e+01,
        1.11943580e+01,  7.07064772e+00,  7.25077665e+00,  6.42484470e+00,
        5.47742809e+00,  4.86763172e+00,  2.68627442e+00,  3.03111623e+00,
        2.54286133e+00,  2.67606967e+00,  1.56648402e+02,  2.48917347e+02,
        2.97855510e+02,  3.05750153e+02,  3.50613446e+02,  3.24779404e+02,
        2.86947358e+02,  2.62271349e+02,  2.31077120e+02,  1.92047005e+02,
        1.37129085e+02,  1.15582002e+02,  1.01010261e+02,  9.95179649e+01,
        7.38674255e+01,  6.57419828e+01,  5.80966531e+01,  4.71203736e+01,
        4.12809241e+01,  3.12008164e+01,  2.91998664e+01,  2.83130986e+01,
        2.10085277e+01,  2.05772479e+01,  1.62592651e+01,  1.13373422e+01,
        1.34363613e+01,  1.29149016e+01,  8.31820012e+00,  5.60506372e+00,
        6.85564839e+00,  7.13852335e+00,  4.39197488e+00,  3.22013749e+00,
        1.94181367e+01,  3.20548640e+01,  6.53309173e+01,  6.86984418e+01,
        6.87752568e+01,  6.27080797e+01,  5.52702535e+01,  5.09423499e+01,
        6.05044401e+01,  5.30666566e+01,  5.82944799e+01,  5.36525103e+00,
        5.13125765e+01,  1.26818853e+01,  2.81870683e+01,  2.84166256e+01,
        2.54534712e+01,  1.58481307e+01,  1.42053678e+01,  4.85732969e+00,
        4.92566274e+00,  3.94155425e+00,  1.44951946e+01,  9.12845510e+00,
       -3.77474005e-01,  9.25962408e+00, -4.65744738e+00,  7.03769249e+00,
        4.68477984e+00,  4.90528204e+00, -7.33533383e+00,  3.35861493e+00,
        3.63458491e+00,  3.26747460e+00,  5.20772744e+01,  4.70205097e+01,
        9.48666816e+01,  6.85809101e+01,  1.02263455e+02,  1.05909869e+02,
        1.10292288e+02,  1.01534070e+02,  9.73659920e+01,  7.19052667e+01,
        6.73838779e+01,  7.93345432e+01,  6.08073412e+01,  7.02785398e+01,
        5.14500842e+01,  4.78194841e+01,  3.47005434e+01,  2.14709031e+01,
        1.95057961e+01,  1.74971840e+01,  2.58167897e+01,  2.45672410e+01,
        8.25485274e+00,  1.08277457e+01, -1.82326343e+00, -3.62347074e+00,
       -1.84964040e+01,  4.38748758e+00,  6.93070965e+00,  2.88204055e+00,
        9.18633739e+00,  9.96552212e+00,  7.89890231e-02, -8.72976660e-01,
        6.26128096e+00,  6.77524097e+00,  1.87323340e+01, -2.13294693e+00,
        2.97710224e+01,  4.42820751e+01,  1.90531966e+01,  2.19129634e+01,
        2.48011587e+01,  2.33585992e+01,  1.62333670e+01,  2.06919426e+01,
        1.14524343e+01,  1.06205835e+01,  1.44054833e+01,  2.89289043e+00,
        8.59018048e+00,  1.70043159e+01,  6.21539008e+00,  1.06565379e+01,
       -5.32923533e+00, -4.28574063e+00, -4.41645370e+00,  7.44451054e-01,
       -4.84027952e+00,  2.04637342e+00, -1.55602817e+00,  3.99361749e+00,
        1.01917393e+00, -2.53473157e+00,  2.76535351e+00, -2.95487777e+00,
       -4.47555194e+00,  1.35282229e+00,  1.17723487e+01,  1.47170456e+01,
        3.54167779e+01,  2.28610827e+01,  3.28401626e+01,  4.93039412e+01,
        3.03846691e+01,  3.28155904e+01,  1.55014622e+01,  4.69972207e+01,
        3.28239235e+01,  3.74977959e+01,  3.42568073e+01,  2.18673233e+01,
        1.70343870e+01,  1.79609886e+01,  9.00755919e+00,  2.78325160e+01,
        1.16017610e+01,  1.27432549e+01,  1.02263814e+01,  6.38388301e+00,
       -7.82463024e-02, -8.34402251e-01, -2.62460519e+00, -2.66060243e+00,
       -1.04058614e+00,  4.08703918e+00,  4.43198440e+00,  5.01203998e+00,
        3.11307482e+00, -1.72703216e-01, -6.76847146e+00, -1.28295399e+00])
 message: 'Iteration limit reached'
    nfev: 1099990
     nit: 100000
    njev: 100000
  status: 9
 success: False
       x: array([ 6.62241728e+03,  9.99998206e-01,  9.99998925e-01,  9.99998848e-01,
        9.99998757e-01,  9.99999000e-01,  9.99999113e-01,  9.99998768e-01,
        9.99999214e-01,  9.99999267e-01,  9.99999022e-01,  9.99999381e-01,
        9.99999285e-01,  9.99999386e-01,  9.99999324e-01,  9.99999500e-01,
        9.99999466e-01,  9.99999527e-01,  9.99999532e-01,  9.99999525e-01,
        9.99999556e-01,  9.99999632e-01,  9.99999615e-01,  9.99999673e-01,
        9.99999629e-01,  9.99999759e-01,  9.99999680e-01,  9.99999632e-01,
        9.99999730e-01,  9.99999687e-01,  9.99999762e-01,  9.99999885e-01,
        9.99999784e-01,  9.99999735e-01,  9.99999838e-01,  4.99992500e-05,
        9.99997761e-01,  9.99998298e-01,  9.99998365e-01,  9.99998439e-01,
        9.99998613e-01,  9.99998726e-01,  9.99998669e-01,  9.99998890e-01,
        9.99999012e-01,  9.99998837e-01,  9.99999082e-01,  9.99999212e-01,
        9.99999004e-01,  9.99999208e-01,  9.99999245e-01,  9.99999136e-01,
        9.99999388e-01,  9.99999418e-01,  9.99999440e-01,  9.99999509e-01,
        9.99999486e-01,  9.99999698e-01,  9.99999413e-01,  9.99999398e-01,
        9.99999516e-01,  9.99999588e-01,  9.99999646e-01,  9.99999611e-01,
        9.99999782e-01,  9.99999752e-01,  9.99999972e-01,  1.00000053e+00,
        9.99999726e-01,  9.99999698e-01,  9.99999970e-01,  9.99999661e-01,
        9.99999767e-01,  9.99999764e-01,  9.99999571e-01,  9.99999616e-01,
        9.99999358e-01,  9.99999541e-01,  9.99999581e-01,  9.99999416e-01,
        9.99999467e-01,  9.99999370e-01,  9.99999620e-01,  9.99999983e-01,
        9.99999734e-01,  9.99999472e-01,  9.99999370e-01,  9.99999653e-01,
        9.99999904e-01,  9.99999758e-01,  9.99999901e-01,  9.99999678e-01,
        9.99999853e-01,  9.99999932e-01,  9.99999939e-01,  9.99999735e-01,
        9.99999888e-01,  9.99999943e-01,  9.99999954e-01,  9.99999796e-01,
        1.00000016e+00,  9.99999698e-01,  9.99999618e-01,  1.00000036e+00,
       -4.43169092e-05,  1.00000006e+00,  9.99999493e-01,  9.99999885e-01,
        9.99999438e-01,  9.99999569e-01,  9.99999419e-01,  9.99999386e-01,
        9.99999755e-01,  9.99999512e-01,  9.99999492e-01,  9.99999420e-01,
        9.99999654e-01,  9.99999561e-01,  9.99999563e-01,  9.99999579e-01,
        9.99999676e-01,  9.99999833e-01,  9.99999756e-01,  9.99999573e-01,
        9.99999817e-01,  9.99999706e-01,  9.99999209e-01,  9.99999135e-01,
        9.99999801e-01,  9.99999536e-01,  9.99999762e-01,  9.99999239e-01,
        1.00000019e+00,  9.99999525e-01,  9.99999635e-01,  9.99999734e-01,
        9.99999944e-01,  9.99999961e-01,  9.99999321e-01,  1.00000009e+00,
        9.99999904e-01,  9.99999770e-01,  9.99999805e-01,  9.99999725e-01,
        1.00000007e+00,  9.99999919e-01,  9.99999785e-01,  9.99999945e-01,
        9.99999806e-01,  1.00000005e+00,  9.99999794e-01,  9.99999794e-01,
        9.99999729e-01,  9.99999830e-01,  1.00000006e+00,  9.99999651e-01,
        9.99999498e-01,  9.99999910e-01,  9.99999943e-01,  1.00000001e+00,
        9.99999952e-01,  1.00000009e+00,  1.00000049e+00,  1.00000001e+00,
        9.99999939e-01,  1.00000021e+00,  9.99999739e-01,  9.99999986e-01,
        1.00000009e+00,  9.99999780e-01,  9.99999710e-01,  9.99999758e-01,
        9.99999884e-01,  2.65119250e-05,  9.99999973e-01,  9.99999923e-01,
        9.99999990e-01,  9.99999799e-01,  9.99999607e-01,  9.99999750e-01,
        9.99999861e-01,  9.99999813e-01,  9.99999659e-01,  9.99999773e-01,
        9.99999848e-01,  9.99999925e-01,  1.00000008e+00,  9.99999522e-01,
        1.00000001e+00,  9.99999810e-01,  9.99999838e-01,  1.00000027e+00,
        9.99999905e-01,  9.99999932e-01,  1.00000007e+00,  9.99999795e-01,
        1.00000007e+00,  1.00000015e+00,  9.99999540e-01,  1.00000054e+00,
        9.99999918e-01,  1.00000009e+00,  1.00000057e+00,  1.00000011e+00,
        1.00000007e+00,  9.99999930e-01,  1.00000045e+00,  1.00000025e+00,
        9.99998355e-01,  9.99998094e-01,  9.99998634e-01,  9.99999069e-01,
        9.99998639e-01,  9.99998983e-01,  9.99998983e-01,  9.99998932e-01,
        9.99999012e-01,  9.99999191e-01,  9.99999452e-01,  9.99999486e-01,
        9.99999422e-01,  9.99999252e-01,  9.99999083e-01,  9.99999475e-01,
        9.99999574e-01,  9.99999366e-01,  9.99999509e-01,  9.99998898e-01,
        9.99999686e-01,  9.99999510e-01,  9.99999539e-01,  9.99999633e-01,
        9.99999612e-01,  9.99999676e-01,  9.99999713e-01,  9.99999510e-01,
        9.99999639e-01,  9.99999952e-01,  9.99999275e-01,  9.99999784e-01,
        9.99999685e-01,  9.99999745e-01,  9.99997966e-01,  9.99998032e-01,
        9.99998304e-01,  9.99997768e-01,  9.99998682e-01,  9.99998547e-01,
        9.99998967e-01,  9.99998926e-01,  9.99999131e-01,  9.99999025e-01,
        9.99999356e-01,  9.99999370e-01,  9.99999256e-01,  9.99999496e-01,
        9.99999208e-01,  9.99999420e-01,  9.99999252e-01,  9.99999491e-01,
        9.99999313e-01,  9.99999504e-01,  9.99998713e-01,  9.99999404e-01,
        9.99999500e-01,  9.99999333e-01,  9.99999670e-01,  9.99999536e-01,
        9.99999653e-01,  9.99999741e-01,  9.99999757e-01,  9.99999717e-01,
        9.99999656e-01,  9.99999670e-01,  1.00000052e+00,  9.99999791e-01,
        9.99999181e-01,  9.99999591e-01,  9.99999453e-01,  9.99999624e-01,
        9.99999497e-01,  9.99999589e-01,  9.99999365e-01,  9.99999668e-01,
        9.99999579e-01,  9.99999382e-01,  9.99999676e-01,  9.99999684e-01,
        9.99999778e-01,  9.99999669e-01,  9.99999423e-01,  9.99999538e-01,
        9.99999727e-01,  9.99999754e-01,  9.99999670e-01,  9.99999593e-01,
        9.99999630e-01,  1.00000014e+00,  9.99999531e-01,  9.99999741e-01,
        9.99999516e-01,  9.99999824e-01,  9.99998523e-01,  9.99999579e-01,
        9.99999734e-01,  9.99999746e-01,  9.99998986e-01,  9.99996244e-01,
        9.99999691e-01,  1.00000002e+00,  9.99999195e-01,  9.99999144e-01,
        9.99999465e-01,  9.99999723e-01,  9.99999598e-01,  9.99999499e-01,
        9.99999730e-01,  9.99999942e-01,  9.99999571e-01,  9.99999665e-01,
        9.99999443e-01,  9.99999601e-01,  9.99999453e-01,  9.99999095e-01,
        9.99999620e-01,  9.99998758e-01,  9.99999767e-01,  9.99999649e-01,
        9.99999254e-01,  9.99999397e-01,  9.99998384e-01,  9.99999307e-01,
        9.99999752e-01,  9.99999302e-01,  9.99999023e-01,  9.99999619e-01,
        9.99999767e-01,  9.99999585e-01,  9.99999017e-01,  9.99999900e-01,
        9.99999672e-01,  1.00000026e+00,  9.99999531e-01,  9.99999978e-01,
        9.99999870e-01,  9.99999937e-01,  9.99999881e-01,  9.99999584e-01,
        9.99999925e-01,  9.99999744e-01,  9.99999813e-01,  1.00000006e+00,
        9.99999826e-01,  9.99999651e-01,  9.99999831e-01,  1.00000025e+00,
        9.99999715e-01,  9.99999952e-01,  9.99999921e-01,  1.00000012e+00,
        9.99999721e-01,  9.99999512e-01,  1.00000021e+00,  1.00000031e+00,
        1.00000079e+00,  1.00000042e+00,  9.99999941e-01,  1.00000019e+00,
        1.00000106e+00,  1.00000091e+00,  9.99999919e-01,  1.00000059e+00,
        9.99999568e-01,  1.00000066e+00,  1.00000052e+00,  1.00000062e+00,
        9.99999350e-01,  9.99999685e-01,  1.00000028e+00,  9.99999749e-01,
        9.99999775e-01,  9.99999806e-01,  9.99999634e-01,  9.99999836e-01,
        9.99999914e-01,  9.99999886e-01,  9.99999866e-01,  9.99999791e-01,
        9.99999689e-01,  9.99999779e-01,  9.99999982e-01,  9.99999996e-01,
        9.99999861e-01,  1.00000004e+00,  9.99999739e-01,  9.99999977e-01,
        9.99999618e-01,  9.99999964e-01,  1.00000028e+00,  9.99999960e-01,
        9.99999900e-01,  9.99999744e-01,  1.00000039e+00,  9.99999612e-01,
        1.00000032e+00,  1.00000001e+00,  1.00000065e+00,  1.00000133e+00,
        1.00000032e+00,  1.00000005e+00,  1.00000023e+00,  1.00000004e+00,
        9.99997215e-01,  9.99997424e-01,  9.99997536e-01,  9.99998408e-01,
        9.99998468e-01,  9.99998571e-01,  9.99998624e-01,  9.99998741e-01,
        9.99999187e-01,  9.99998992e-01,  9.99999363e-01,  9.99999286e-01,
        9.99999411e-01,  9.99999604e-01,  9.99999559e-01,  9.99999689e-01,
        9.99999664e-01,  9.99999806e-01,  9.99999807e-01,  9.99999836e-01,
        9.99999794e-01,  9.99999830e-01,  9.99999858e-01,  9.99999836e-01,
        9.99999882e-01,  9.99999919e-01,  9.99999845e-01,  9.99999798e-01,
        9.99999866e-01,  9.99999796e-01,  9.99999973e-01,  9.99999957e-01,
        9.99999973e-01,  9.99999968e-01,  9.99996611e-01,  9.99996394e-01,
        9.99996606e-01,  9.99997455e-01,  9.99997371e-01,  9.99997820e-01,
        9.99998316e-01,  9.99998264e-01,  9.99998527e-01,  9.99998771e-01,
        9.99999110e-01,  9.99999162e-01,  9.99999350e-01,  9.99999209e-01,
        9.99999449e-01,  9.99999518e-01,  9.99999617e-01,  9.99999611e-01,
        9.99999655e-01,  9.99999827e-01,  1.00000012e+00,  9.99999677e-01,
        9.99999811e-01,  9.99999804e-01,  9.99999785e-01,  9.99999942e-01,
        9.99999935e-01,  9.99999927e-01,  9.99999955e-01,  1.00000003e+00,
        9.99999856e-01,  9.99999885e-01,  9.99999853e-01,  9.99999918e-01,
        9.99999973e-01,  9.99999935e-01,  9.99999642e-01,  9.99999615e-01,
        9.99999484e-01,  9.99999599e-01,  9.99999531e-01,  9.99999432e-01,
        9.99999209e-01,  9.99999258e-01,  9.99998945e-01,  9.99999769e-01,
        9.99998793e-01,  9.99999775e-01,  9.99999495e-01,  9.99998916e-01,
        9.99999323e-01,  9.99999425e-01,  9.99999602e-01,  9.99999784e-01,
        9.99999578e-01,  9.99999438e-01,  9.99999285e-01,  9.99999241e-01,
        9.99999629e-01,  9.99997848e-01,  1.00000007e+00,  9.99999515e-01,
        9.99999161e-01,  9.99999609e-01,  1.00000026e+00,  9.99999465e-01,
        9.99999516e-01,  9.99999285e-01,  9.99999683e-01,  1.00000004e+00,
        9.99999632e-01,  9.99999857e-01,  9.99999556e-01,  9.99999459e-01,
        9.99999388e-01,  9.99999161e-01,  9.99999164e-01,  9.99999183e-01,
        9.99999252e-01,  9.99998929e-01,  9.99999013e-01,  9.99998917e-01,
        9.99998931e-01,  9.99999128e-01,  9.99999153e-01,  9.99999429e-01,
        9.99999311e-01,  9.99999242e-01,  9.99999090e-01,  9.99999119e-01,
        9.99999131e-01,  9.99999530e-01,  9.99999528e-01,  9.99999599e-01,
        1.00000015e+00,  9.99999710e-01,  9.99999108e-01,  9.99999578e-01,
        9.99999235e-01,  9.99998435e-01,  9.99999756e-01,  9.99999759e-01,
        9.99999667e-01,  9.99999750e-01,  9.99999532e-01,  9.99999951e-01,
        9.99999562e-01,  9.99999589e-01,  9.99999822e-01,  9.99999828e-01,
        9.99999824e-01,  9.99999847e-01,  9.99999880e-01,  9.99999803e-01,
        9.99999927e-01,  9.99999874e-01,  9.99999808e-01,  1.00000000e+00,
        9.99999837e-01,  9.99999495e-01,  9.99999765e-01,  9.99999587e-01,
        1.00000009e+00,  1.00000013e+00,  1.00000016e+00,  9.99999937e-01,
        1.00000017e+00,  9.99999841e-01,  1.00000025e+00,  9.99999676e-01,
        9.99999916e-01,  1.00000014e+00,  9.99999733e-01,  1.00000026e+00,
        1.00000038e+00,  9.99999839e-01,  9.99999401e-01,  9.99999546e-01,
        9.99999314e-01,  9.99999615e-01,  9.99999562e-01,  9.99999611e-01,
        9.99999776e-01,  9.99999778e-01,  9.99999980e-01,  9.99999684e-01,
        9.99999801e-01,  9.99999708e-01,  9.99999753e-01,  9.99999841e-01,
        9.99999915e-01,  9.99999808e-01,  9.99999918e-01,  9.99999549e-01,
        9.99999821e-01,  9.99999670e-01,  9.99999648e-01,  9.99999799e-01,
        9.99999958e-01,  9.99999977e-01,  1.00000003e+00,  1.00000012e+00,
        9.99999961e-01,  9.99999688e-01,  9.99999718e-01,  9.99999640e-01,
        9.99999706e-01,  1.00000001e+00,  1.00000093e+00,  1.00000013e+00])
Traceback (most recent call last):
  File "combineYears.py", line 103, in run_scan
    out_obs_exp = [self.min_for_lim(args) for args in args_med]
  File "combineYears.py", line 103, in <listcomp>
    out_obs_exp = [self.min_for_lim(args) for args in args_med]
  File "combineYears.py", line 61, in min_for_lim
    return root_scalar(self.test_mu, bracket=(guess*(1-window),guess*(1+window)),
  File "/u/ki/nhartman/gpfs/miniconda3/envs/my_env/lib/python3.8/site-packages/scipy/optimize/_root_scalar.py", line 249, in root_scalar
    r, sol = methodc(f, a, b, args=args, **kwargs)
  File "/u/ki/nhartman/gpfs/miniconda3/envs/my_env/lib/python3.8/site-packages/scipy/optimize/zeros.py", line 776, in brentq
    r = _zeros._brentq(f, a, b, xtol, rtol, maxiter, args, full_output, disp)
ValueError: f(a) and f(b) must have different signs

During handling of the above exception, another exception occurred:

Traceback (most recent call last):
  File "combineYears.py", line 48, in test_mu
    result = pyhf.infer.hypotest(mu_test, self.data, self.model, qtilde=False, return_expected_set=True)
  File "/u/ki/nhartman/gpfs/miniconda3/envs/my_env/lib/python3.8/site-packages/pyhf/infer/__init__.py", line 134, in hypotest
    calc = utils.create_calculator(
  File "/u/ki/nhartman/gpfs/miniconda3/envs/my_env/lib/python3.8/site-packages/pyhf/infer/utils.py", line 45, in create_calculator
    return {'asymptotics': AsymptoticCalculator, 'toybased': ToyCalculator}[calctype](
TypeError: __init__() got an unexpected keyword argument 'qtilde'

During handling of the above exception, another exception occurred:

Traceback (most recent call last):
  File "/u/ki/nhartman/gpfs/miniconda3/envs/my_env/lib/python3.8/site-packages/pyhf/optimize/mixins.py", line 49, in _internal_minimize
    assert result.success
AssertionError
Using uproot4
ws_in ['dEta_cats/ws-systs-1NP-dEta_hh-cat-corr-XX-SM-HH-unblind-3_dEta_hh_2SR_rev_dEta.json']
Filling in XX with the years: 16,17,18
Running with pytorch with 64b precision
Initial guess for bands (mu guess = 1.00):
[ 952.57742811 1278.83699315 1775.13059269 2469.99907128 3311.20863913]
Beginning optimization, mu valid to 0.01
Finding med_mu for alpha = 0.05
obs tensor(0.)
Param: 2, mu: 952.577, CLs: 0.000
obs tensor(0.)
Param: 2, mu: 3311.209, CLs: 0.000
Looks like initial guess was bad? Expanding for one more try
obs tensor(2.0971e-109)
Param: 2, mu: 476.289, CLs: 0.000
Traceback (most recent call last):
  File "combineYears.py", line 103, in run_scan
    out_obs_exp = [self.min_for_lim(args) for args in args_med]
  File "combineYears.py", line 103, in <listcomp>
    out_obs_exp = [self.min_for_lim(args) for args in args_med]
  File "combineYears.py", line 61, in min_for_lim
    return root_scalar(self.test_mu, bracket=(guess*(1-window),guess*(1+window)), 
  File "/u/ki/nhartman/gpfs/miniconda3/envs/my_env/lib/python3.8/site-packages/scipy/optimize/_root_scalar.py", line 249, in root_scalar
    r, sol = methodc(f, a, b, args=args, **kwargs)
  File "/u/ki/nhartman/gpfs/miniconda3/envs/my_env/lib/python3.8/site-packages/scipy/optimize/zeros.py", line 776, in brentq
    r = _zeros._brentq(f, a, b, xtol, rtol, maxiter, args, full_output, disp)
ValueError: f(a) and f(b) must have different signs

During handling of the above exception, another exception occurred:

Traceback (most recent call last):
  File "combineYears.py", line 48, in test_mu
    result = pyhf.infer.hypotest(mu_test, self.data, self.model, qtilde=False, return_expected_set=True)
  File "/u/ki/nhartman/gpfs/miniconda3/envs/my_env/lib/python3.8/site-packages/pyhf/infer/__init__.py", line 134, in hypotest
    calc = utils.create_calculator(
  File "/u/ki/nhartman/gpfs/miniconda3/envs/my_env/lib/python3.8/site-packages/pyhf/infer/utils.py", line 45, in create_calculator
    return {'asymptotics': AsymptoticCalculator, 'toybased': ToyCalculator}[calctype](
TypeError: __init__() got an unexpected keyword argument 'qtilde'

During handling of the above exception, another exception occurred:

Traceback (most recent call last):
  File "/u/ki/nhartman/gpfs/miniconda3/envs/my_env/lib/python3.8/site-packages/pyhf/optimize/mixins.py", line 49, in _internal_minimize
    assert result.success
AssertionError

During handling of the above exception, another exception occurred:

Traceback (most recent call last):
  File "combineYears.py", line 225, in <module>
    lims = find.run_scan()
  File "combineYears.py", line 113, in run_scan
    out_obs_exp = [self.min_for_lim(args) for args in args_med]
  File "combineYears.py", line 113, in <listcomp>
    out_obs_exp = [self.min_for_lim(args) for args in args_med]
  File "combineYears.py", line 61, in min_for_lim
    return root_scalar(self.test_mu, bracket=(guess*(1-window),guess*(1+window)), 
  File "/u/ki/nhartman/gpfs/miniconda3/envs/my_env/lib/python3.8/site-packages/scipy/optimize/_root_scalar.py", line 249, in root_scalar
    r, sol = methodc(f, a, b, args=args, **kwargs)
  File "/u/ki/nhartman/gpfs/miniconda3/envs/my_env/lib/python3.8/site-packages/scipy/optimize/zeros.py", line 776, in brentq
    r = _zeros._brentq(f, a, b, xtol, rtol, maxiter, args, full_output, disp)
  File "combineYears.py", line 50, in test_mu
    result = pyhf.infer.hypotest(mu_test, self.data, self.model, test_stat='q', return_expected_set=True)
  File "/u/ki/nhartman/gpfs/miniconda3/envs/my_env/lib/python3.8/site-packages/pyhf/infer/__init__.py", line 144, in hypotest
    teststat = calc.teststatistic(poi_test)
  File "/u/ki/nhartman/gpfs/miniconda3/envs/my_env/lib/python3.8/site-packages/pyhf/infer/calculators.py", line 316, in teststatistic
    qmu_v = teststat_func(
  File "/u/ki/nhartman/gpfs/miniconda3/envs/my_env/lib/python3.8/site-packages/pyhf/infer/test_statistics.py", line 114, in qmu
    return _qmu_like(mu, data, pdf, init_pars, par_bounds, fixed_params)
  File "/u/ki/nhartman/gpfs/miniconda3/envs/my_env/lib/python3.8/site-packages/pyhf/infer/test_statistics.py", line 19, in _qmu_like
    tmu_like_stat, (_, muhatbhat) = _tmu_like(
  File "/u/ki/nhartman/gpfs/miniconda3/envs/my_env/lib/python3.8/site-packages/pyhf/infer/test_statistics.py", line 38, in _tmu_like
    mubhathat, fixed_poi_fit_lhood_val = fixed_poi_fit(
  File "/u/ki/nhartman/gpfs/miniconda3/envs/my_env/lib/python3.8/site-packages/pyhf/infer/mle.py", line 196, in fixed_poi_fit
    return fit(data, pdf, init_pars, par_bounds, fixed_params, **kwargs)
  File "/u/ki/nhartman/gpfs/miniconda3/envs/my_env/lib/python3.8/site-packages/pyhf/infer/mle.py", line 125, in fit
    return opt.minimize(
  File "/u/ki/nhartman/gpfs/miniconda3/envs/my_env/lib/python3.8/site-packages/pyhf/optimize/mixins.py", line 160, in minimize
    result = self._internal_minimize(**minimizer_kwargs, options=kwargs)
  File "/u/ki/nhartman/gpfs/miniconda3/envs/my_env/lib/python3.8/site-packages/pyhf/optimize/mixins.py", line 52, in _internal_minimize
    raise exceptions.FailedMinimization(result)
pyhf.exceptions.FailedMinimization: Iteration limit reached

------------------------------------------------------------
Sender: LSF System <lsf@deft0025>
Subject: Job 810152: <dEta_hh_3_2SR_systs-1NP-dEta_hh-cat-corr_combYrs> in cluster <slac> Exited

Job <dEta_hh_3_2SR_systs-1NP-dEta_hh-cat-corr_combYrs> was submitted from host <cent7a> by user <nhartman> in cluster <slac> at Tue Apr 20 15:14:28 2021
Job was executed on host(s) <deft0025>, in queue <long>, as user <nhartman> in cluster <slac> at Tue Apr 20 15:14:30 2021
</u/ki/nhartman> was used as the home directory.
</u/ki/nhartman/gpfs/diHiggs4b/stats-results> was used as the working directory.
Started at Tue Apr 20 15:14:30 2021
Terminated at Wed Apr 21 10:16:26 2021
Results reported at Wed Apr 21 10:16:26 2021

Your job looked like:

------------------------------------------------------------
# LSBATCH: User input
python combineYears.py --ws_in dEta_cats/ws-systs-1NP-dEta_hh-cat-corr-XX-SM-HH-unblind-3_dEta_hh_2SR_rev_dEta.json
------------------------------------------------------------

Exited with exit code 1.

Resource usage summary:

    CPU time :                                   68423.94 sec.
    Max Memory :                                 223 MB
    Average Memory :                             219.90 MB
    Total Requested Memory :                     -
    Delta Memory :                               -
    Max Swap :                                   -
    Max Processes :                              5
    Max Threads :                                10
    Run time :                                   68515 sec.
    Turnaround time :                            68518 sec.

The output (if any) is above this job summary.

