  0%|          | 0/141 [00:00<?, ?it/s]  1%|▏         | 2/141 [00:00<00:10, 12.90it/s]  3%|▎         | 4/141 [00:00<00:10, 12.85it/s]  4%|▍         | 6/141 [00:00<00:10, 12.79it/s]  6%|▌         | 8/141 [00:00<00:10, 12.74it/s]  7%|▋         | 10/141 [00:00<00:10, 12.71it/s]  9%|▊         | 12/141 [00:00<00:10, 12.71it/s] 10%|▉         | 14/141 [00:01<00:09, 12.74it/s] 11%|█▏        | 16/141 [00:01<00:09, 12.62it/s] 13%|█▎        | 18/141 [00:01<00:09, 12.55it/s] 14%|█▍        | 20/141 [00:01<00:09, 12.46it/s] 16%|█▌        | 22/141 [00:01<00:09, 12.36it/s] 17%|█▋        | 24/141 [00:01<00:09, 12.18it/s] 18%|█▊        | 26/141 [00:02<00:09, 12.18it/s] 20%|█▉        | 28/141 [00:02<00:09, 12.12it/s] 21%|██▏       | 30/141 [00:02<00:09, 11.95it/s] 23%|██▎       | 32/141 [00:02<00:09, 11.78it/s] 24%|██▍       | 34/141 [00:02<00:09, 11.78it/s] 26%|██▌       | 36/141 [00:02<00:09, 11.65it/s] 27%|██▋       | 38/141 [00:03<00:08, 11.55it/s] 28%|██▊       | 40/141 [00:03<00:08, 11.46it/s] 30%|██▉       | 42/141 [00:03<00:08, 11.33it/s] 31%|███       | 44/141 [00:03<00:08, 11.20it/s] 33%|███▎      | 46/141 [00:03<00:08, 11.10it/s] 34%|███▍      | 48/141 [00:04<00:08, 10.93it/s] 35%|███▌      | 50/141 [00:04<00:08, 10.97it/s] 37%|███▋      | 52/141 [00:04<00:08, 10.95it/s] 38%|███▊      | 54/141 [00:04<00:07, 10.90it/s] 40%|███▉      | 56/141 [00:04<00:07, 10.86it/s] 41%|████      | 58/141 [00:04<00:07, 10.74it/s] 43%|████▎     | 60/141 [00:05<00:07, 10.80it/s] 44%|████▍     | 62/141 [00:05<00:07, 10.88it/s] 45%|████▌     | 64/141 [00:05<00:07, 10.83it/s] 47%|████▋     | 66/141 [00:05<00:06, 10.82it/s] 48%|████▊     | 68/141 [00:05<00:06, 10.81it/s] 50%|████▉     | 70/141 [00:06<00:06, 10.59it/s] 51%|█████     | 72/141 [00:06<00:06, 10.62it/s] 52%|█████▏    | 74/141 [00:06<00:06, 10.41it/s] 54%|█████▍    | 76/141 [00:06<00:06, 10.45it/s] 55%|█████▌    | 78/141 [00:06<00:06, 10.43it/s] 57%|█████▋    | 80/141 [00:07<00:05, 10.27it/s] 58%|█████▊    | 82/141 [00:07<00:05, 10.13it/s] 60%|█████▉    | 84/141 [00:07<00:05, 10.25it/s] 61%|██████    | 86/141 [00:07<00:05, 10.29it/s] 62%|██████▏   | 88/141 [00:07<00:05, 10.42it/s] 64%|██████▍   | 90/141 [00:08<00:04, 10.31it/s] 65%|██████▌   | 92/141 [00:08<00:04, 10.18it/s] 67%|██████▋   | 94/141 [00:08<00:04, 10.26it/s] 68%|██████▊   | 96/141 [00:08<00:04, 10.23it/s] 70%|██████▉   | 98/141 [00:08<00:04, 10.28it/s] 71%|███████   | 100/141 [00:09<00:04, 10.22it/s] 72%|███████▏  | 102/141 [00:09<00:03,  9.94it/s] 73%|███████▎  | 103/141 [00:09<00:03,  9.75it/s] 74%|███████▍  | 104/141 [00:09<00:03,  9.79it/s] 74%|███████▍  | 105/141 [00:09<00:03,  9.83it/s] 75%|███████▌  | 106/141 [00:09<00:03,  9.54it/s] 76%|███████▌  | 107/141 [00:09<00:03,  9.63it/s] 77%|███████▋  | 108/141 [00:09<00:03,  9.72it/s] 78%|███████▊  | 110/141 [00:10<00:03,  9.85it/s] 79%|███████▊  | 111/141 [00:10<00:03,  9.55it/s] 79%|███████▉  | 112/141 [00:10<00:03,  9.61it/s] 81%|████████  | 114/141 [00:10<00:02,  9.83it/s] 82%|████████▏ | 115/141 [00:10<00:02,  9.83it/s] 82%|████████▏ | 116/141 [00:10<00:02,  9.76it/s] 83%|████████▎ | 117/141 [00:10<00:02,  9.31it/s] 84%|████████▎ | 118/141 [00:10<00:02,  9.40it/s] 84%|████████▍ | 119/141 [00:10<00:02,  9.54it/s] 85%|████████▌ | 120/141 [00:11<00:02,  9.58it/s] 86%|████████▌ | 121/141 [00:11<00:02,  9.64it/s] 87%|████████▋ | 122/141 [00:11<00:01,  9.63it/s] 87%|████████▋ | 123/141 [00:11<00:01,  9.69it/s] 88%|████████▊ | 124/141 [00:11<00:01,  9.60it/s] 89%|████████▊ | 125/141 [00:11<00:01,  9.61it/s] 89%|████████▉ | 126/141 [00:11<00:01,  9.60it/s] 90%|█████████ | 127/141 [00:11<00:01,  9.71it/s] 91%|█████████ | 128/141 [00:11<00:01,  9.60it/s] 91%|█████████▏| 129/141 [00:12<00:01,  9.40it/s] 92%|█████████▏| 130/141 [00:12<00:01,  8.93it/s] 93%|█████████▎| 131/141 [00:12<00:01,  9.05it/s] 94%|█████████▎| 132/141 [00:12<00:00,  9.18it/s] 94%|█████████▍| 133/141 [00:12<00:00,  9.26it/s] 95%|█████████▌| 134/141 [00:12<00:00,  9.16it/s] 96%|█████████▌| 135/141 [00:12<00:00,  9.06it/s] 96%|█████████▋| 136/141 [00:12<00:00,  9.02it/s] 97%|█████████▋| 137/141 [00:12<00:00,  9.02it/s] 98%|█████████▊| 138/141 [00:13<00:00,  9.01it/s] 99%|█████████▊| 139/141 [00:13<00:00,  8.93it/s] 99%|█████████▉| 140/141 [00:13<00:00,  8.99it/s]100%|██████████| 141/141 [00:13<00:00,  9.07it/s]100%|██████████| 141/141 [00:13<00:00, 10.54it/s]
  0%|          | 0/1 [00:00<?, ?it/s]100%|██████████| 1/1 [00:00<00:00,  9.77it/s]100%|██████████| 1/1 [00:00<00:00,  9.74it/s]
  0%|          | 0/1 [00:00<?, ?it/s]100%|██████████| 1/1 [00:00<00:00, 12.53it/s]
  0%|          | 0/165 [00:00<?, ?it/s]  1%|          | 2/165 [00:00<00:13, 12.23it/s]  2%|▏         | 4/165 [00:00<00:13, 12.13it/s]  4%|▎         | 6/165 [00:00<00:13, 12.12it/s]  5%|▍         | 8/165 [00:00<00:13, 12.05it/s]  6%|▌         | 10/165 [00:00<00:12, 12.01it/s]  7%|▋         | 12/165 [00:00<00:12, 11.95it/s]  8%|▊         | 14/165 [00:01<00:12, 11.89it/s] 10%|▉         | 16/165 [00:01<00:12, 11.87it/s] 11%|█         | 18/165 [00:01<00:12, 11.90it/s] 12%|█▏        | 20/165 [00:01<00:12, 11.79it/s] 13%|█▎        | 22/165 [00:01<00:12, 11.78it/s] 15%|█▍        | 24/165 [00:02<00:11, 11.76it/s] 16%|█▌        | 26/165 [00:02<00:11, 11.76it/s] 17%|█▋        | 28/165 [00:02<00:11, 11.76it/s] 18%|█▊        | 30/165 [00:02<00:11, 11.74it/s] 19%|█▉        | 32/165 [00:02<00:11, 11.65it/s] 21%|██        | 34/165 [00:02<00:11, 11.60it/s] 22%|██▏       | 36/165 [00:03<00:11, 11.66it/s] 23%|██▎       | 38/165 [00:03<00:11, 11.53it/s] 24%|██▍       | 40/165 [00:03<00:10, 11.54it/s] 25%|██▌       | 42/165 [00:03<00:10, 11.50it/s] 27%|██▋       | 44/165 [00:03<00:10, 11.45it/s] 28%|██▊       | 46/165 [00:03<00:10, 11.39it/s] 29%|██▉       | 48/165 [00:04<00:10, 11.36it/s] 30%|███       | 50/165 [00:04<00:10, 11.36it/s] 32%|███▏      | 52/165 [00:04<00:09, 11.33it/s] 33%|███▎      | 54/165 [00:04<00:09, 11.36it/s] 34%|███▍      | 56/165 [00:04<00:09, 11.33it/s] 35%|███▌      | 58/165 [00:04<00:09, 11.31it/s] 36%|███▋      | 60/165 [00:05<00:09, 11.30it/s] 38%|███▊      | 62/165 [00:05<00:09, 11.25it/s] 39%|███▉      | 64/165 [00:05<00:09, 11.15it/s] 40%|████      | 66/165 [00:05<00:08, 11.17it/s] 41%|████      | 68/165 [00:05<00:08, 11.17it/s] 42%|████▏     | 70/165 [00:06<00:08, 11.16it/s] 44%|████▎     | 72/165 [00:06<00:08, 11.11it/s] 45%|████▍     | 74/165 [00:06<00:08, 11.06it/s] 46%|████▌     | 76/165 [00:06<00:08, 11.10it/s] 47%|████▋     | 78/165 [00:06<00:07, 11.12it/s] 48%|████▊     | 80/165 [00:06<00:07, 11.07it/s] 50%|████▉     | 82/165 [00:07<00:07, 11.00it/s] 51%|█████     | 84/165 [00:07<00:07, 10.96it/s] 52%|█████▏    | 86/165 [00:07<00:07, 10.95it/s] 53%|█████▎    | 88/165 [00:07<00:07, 10.93it/s] 55%|█████▍    | 90/165 [00:07<00:06, 10.93it/s] 56%|█████▌    | 92/165 [00:08<00:06, 10.91it/s] 57%|█████▋    | 94/165 [00:08<00:06, 10.89it/s] 58%|█████▊    | 96/165 [00:08<00:06, 10.87it/s] 59%|█████▉    | 98/165 [00:08<00:06, 10.85it/s] 61%|██████    | 100/165 [00:08<00:06, 10.83it/s] 62%|██████▏   | 102/165 [00:08<00:05, 10.80it/s] 63%|██████▎   | 104/165 [00:09<00:05, 10.79it/s] 64%|██████▍   | 106/165 [00:09<00:05, 10.78it/s] 65%|██████▌   | 108/165 [00:09<00:05, 10.72it/s] 67%|██████▋   | 110/165 [00:09<00:05, 10.68it/s] 68%|██████▊   | 112/165 [00:09<00:04, 10.68it/s] 69%|██████▉   | 114/165 [00:10<00:04, 10.71it/s] 70%|███████   | 116/165 [00:10<00:04, 10.71it/s] 72%|███████▏  | 118/165 [00:10<00:04, 10.64it/s] 73%|███████▎  | 120/165 [00:10<00:04, 10.54it/s] 74%|███████▍  | 122/165 [00:10<00:04, 10.53it/s] 75%|███████▌  | 124/165 [00:11<00:03, 10.51it/s] 76%|███████▋  | 126/165 [00:11<00:03, 10.46it/s] 78%|███████▊  | 128/165 [00:11<00:03, 10.47it/s] 79%|███████▉  | 130/165 [00:11<00:03, 10.38it/s] 80%|████████  | 132/165 [00:11<00:03, 10.06it/s] 81%|████████  | 134/165 [00:12<00:03, 10.15it/s] 82%|████████▏ | 136/165 [00:12<00:02, 10.10it/s] 84%|████████▎ | 138/165 [00:12<00:02,  9.60it/s] 84%|████████▍ | 139/165 [00:12<00:02,  9.41it/s] 85%|████████▍ | 140/165 [00:12<00:02,  9.31it/s] 85%|████████▌ | 141/165 [00:12<00:02,  9.44it/s] 86%|████████▌ | 142/165 [00:12<00:02,  9.18it/s] 87%|████████▋ | 143/165 [00:13<00:02,  9.09it/s] 87%|████████▋ | 144/165 [00:13<00:02,  9.28it/s] 88%|████████▊ | 145/165 [00:13<00:02,  9.03it/s] 88%|████████▊ | 146/165 [00:13<00:02,  8.90it/s] 89%|████████▉ | 147/165 [00:13<00:01,  9.08it/s] 90%|████████▉ | 148/165 [00:13<00:01,  8.85it/s] 90%|█████████ | 149/165 [00:13<00:01,  8.71it/s] 91%|█████████ | 150/165 [00:13<00:01,  8.59it/s] 92%|█████████▏| 151/165 [00:13<00:01,  8.54it/s] 92%|█████████▏| 152/165 [00:14<00:01,  8.50it/s] 93%|█████████▎| 153/165 [00:14<00:01,  8.45it/s] 93%|█████████▎| 154/165 [00:14<00:01,  8.38it/s] 94%|█████████▍| 155/165 [00:14<00:01,  8.37it/s] 95%|█████████▍| 156/165 [00:14<00:01,  8.33it/s] 95%|█████████▌| 157/165 [00:14<00:00,  8.33it/s] 96%|█████████▌| 158/165 [00:14<00:00,  8.34it/s] 96%|█████████▋| 159/165 [00:14<00:00,  8.33it/s] 97%|█████████▋| 160/165 [00:15<00:00,  8.32it/s] 98%|█████████▊| 161/165 [00:15<00:00,  8.34it/s] 98%|█████████▊| 162/165 [00:15<00:00,  8.26it/s] 99%|█████████▉| 163/165 [00:15<00:00,  8.21it/s] 99%|█████████▉| 164/165 [00:15<00:00,  8.16it/s]100%|██████████| 165/165 [00:15<00:00,  8.14it/s]100%|██████████| 165/165 [00:15<00:00, 10.53it/s]
  0%|          | 0/1 [00:00<?, ?it/s]100%|██████████| 1/1 [00:00<00:00,  8.81it/s]100%|██████████| 1/1 [00:00<00:00,  8.79it/s]
  0%|          | 0/1 [00:00<?, ?it/s]100%|██████████| 1/1 [00:00<00:00, 10.63it/s]
  0%|          | 0/164 [00:00<?, ?it/s]  1%|          | 2/164 [00:00<00:13, 11.69it/s]  2%|▏         | 4/164 [00:00<00:13, 11.51it/s]  4%|▎         | 6/164 [00:00<00:13, 11.57it/s]  5%|▍         | 8/164 [00:00<00:13, 11.63it/s]  6%|▌         | 10/164 [00:00<00:13, 11.66it/s]  7%|▋         | 12/164 [00:01<00:13, 11.63it/s]  9%|▊         | 14/164 [00:01<00:12, 11.75it/s] 10%|▉         | 16/164 [00:01<00:12, 11.77it/s] 11%|█         | 18/164 [00:01<00:12, 11.80it/s] 12%|█▏        | 20/164 [00:01<00:12, 11.54it/s] 13%|█▎        | 22/164 [00:01<00:12, 11.31it/s] 15%|█▍        | 24/164 [00:02<00:12, 11.15it/s] 16%|█▌        | 26/164 [00:02<00:12, 11.20it/s] 17%|█▋        | 28/164 [00:02<00:12, 11.10it/s] 18%|█▊        | 30/164 [00:02<00:12, 11.10it/s] 20%|█▉        | 32/164 [00:02<00:11, 11.09it/s] 21%|██        | 34/164 [00:02<00:11, 11.15it/s] 22%|██▏       | 36/164 [00:03<00:11, 10.94it/s] 23%|██▎       | 38/164 [00:03<00:11, 10.69it/s] 24%|██▍       | 40/164 [00:03<00:11, 10.50it/s] 26%|██▌       | 42/164 [00:03<00:11, 10.37it/s] 27%|██▋       | 44/164 [00:03<00:11, 10.30it/s] 28%|██▊       | 46/164 [00:04<00:11, 10.37it/s] 29%|██▉       | 48/164 [00:04<00:11, 10.23it/s] 30%|███       | 50/164 [00:04<00:11, 10.10it/s] 32%|███▏      | 52/164 [00:04<00:11, 10.09it/s] 33%|███▎      | 54/164 [00:04<00:11,  9.96it/s] 34%|███▍      | 56/164 [00:05<00:10, 10.13it/s] 35%|███▌      | 58/164 [00:05<00:10, 10.01it/s] 37%|███▋      | 60/164 [00:05<00:10,  9.71it/s] 37%|███▋      | 61/164 [00:05<00:10,  9.49it/s] 38%|███▊      | 62/164 [00:05<00:10,  9.28it/s] 38%|███▊      | 63/164 [00:05<00:11,  9.10it/s] 39%|███▉      | 64/164 [00:06<00:11,  8.92it/s] 40%|███▉      | 65/164 [00:06<00:11,  8.76it/s] 40%|████      | 66/164 [00:06<00:11,  8.59it/s] 41%|████      | 67/164 [00:06<00:11,  8.45it/s] 41%|████▏     | 68/164 [00:06<00:11,  8.32it/s] 42%|████▏     | 69/164 [00:06<00:11,  8.21it/s] 43%|████▎     | 70/164 [00:06<00:11,  8.12it/s] 43%|████▎     | 71/164 [00:06<00:11,  8.13it/s] 44%|████▍     | 72/164 [00:07<00:11,  8.07it/s] 45%|████▍     | 73/164 [00:07<00:11,  8.03it/s] 45%|████▌     | 74/164 [00:07<00:11,  7.94it/s] 46%|████▌     | 75/164 [00:07<00:11,  7.96it/s] 46%|████▋     | 76/164 [00:07<00:11,  7.94it/s] 47%|████▋     | 77/164 [00:07<00:11,  7.85it/s] 48%|████▊     | 78/164 [00:07<00:11,  7.77it/s] 48%|████▊     | 79/164 [00:07<00:11,  7.67it/s] 49%|████▉     | 80/164 [00:08<00:11,  7.51it/s] 49%|████▉     | 81/164 [00:08<00:10,  7.70it/s] 50%|█████     | 82/164 [00:08<00:10,  7.50it/s] 51%|█████     | 83/164 [00:08<00:10,  7.77it/s] 51%|█████     | 84/164 [00:08<00:10,  7.96it/s] 52%|█████▏    | 85/164 [00:08<00:09,  8.10it/s] 52%|█████▏    | 86/164 [00:08<00:09,  8.28it/s] 53%|█████▎    | 87/164 [00:08<00:09,  8.41it/s] 54%|█████▎    | 88/164 [00:09<00:09,  8.41it/s] 54%|█████▍    | 89/164 [00:09<00:08,  8.47it/s] 55%|█████▍    | 90/164 [00:09<00:08,  8.51it/s] 55%|█████▌    | 91/164 [00:09<00:08,  8.55it/s] 56%|█████▌    | 92/164 [00:09<00:08,  8.45it/s] 57%|█████▋    | 93/164 [00:09<00:08,  8.35it/s] 57%|█████▋    | 94/164 [00:09<00:08,  8.31it/s] 58%|█████▊    | 95/164 [00:09<00:08,  8.24it/s] 59%|█████▊    | 96/164 [00:10<00:08,  8.20it/s] 59%|█████▉    | 97/164 [00:10<00:08,  8.18it/s] 60%|█████▉    | 98/164 [00:10<00:08,  8.18it/s] 60%|██████    | 99/164 [00:10<00:07,  8.22it/s] 61%|██████    | 100/164 [00:10<00:07,  8.28it/s] 62%|██████▏   | 101/164 [00:10<00:07,  8.28it/s] 62%|██████▏   | 102/164 [00:10<00:07,  8.29it/s] 63%|██████▎   | 103/164 [00:10<00:07,  8.32it/s] 63%|██████▎   | 104/164 [00:10<00:07,  8.23it/s] 64%|██████▍   | 105/164 [00:11<00:07,  8.29it/s] 65%|██████▍   | 106/164 [00:11<00:06,  8.30it/s] 65%|██████▌   | 107/164 [00:11<00:06,  8.32it/s] 66%|██████▌   | 108/164 [00:11<00:06,  8.30it/s] 66%|██████▋   | 109/164 [00:11<00:06,  8.32it/s] 67%|██████▋   | 110/164 [00:11<00:06,  8.20it/s] 68%|██████▊   | 111/164 [00:11<00:06,  8.05it/s] 68%|██████▊   | 112/164 [00:11<00:06,  7.97it/s] 69%|██████▉   | 113/164 [00:12<00:06,  7.94it/s] 70%|██████▉   | 114/164 [00:12<00:06,  7.91it/s] 70%|███████   | 115/164 [00:12<00:06,  7.81it/s] 71%|███████   | 116/164 [00:12<00:06,  7.86it/s] 71%|███████▏  | 117/164 [00:12<00:05,  7.90it/s] 72%|███████▏  | 118/164 [00:12<00:05,  7.90it/s] 73%|███████▎  | 119/164 [00:12<00:05,  7.94it/s] 73%|███████▎  | 120/164 [00:12<00:05,  7.91it/s] 74%|███████▍  | 121/164 [00:13<00:05,  7.92it/s] 74%|███████▍  | 122/164 [00:13<00:05,  7.90it/s] 75%|███████▌  | 123/164 [00:13<00:05,  7.87it/s] 76%|███████▌  | 124/164 [00:13<00:05,  7.90it/s] 76%|███████▌  | 125/164 [00:13<00:04,  7.89it/s] 77%|███████▋  | 126/164 [00:13<00:04,  7.87it/s] 77%|███████▋  | 127/164 [00:13<00:04,  7.79it/s] 78%|███████▊  | 128/164 [00:14<00:04,  7.70it/s] 79%|███████▊  | 129/164 [00:14<00:04,  7.60it/s] 79%|███████▉  | 130/164 [00:14<00:04,  7.55it/s] 80%|███████▉  | 131/164 [00:14<00:04,  7.53it/s] 80%|████████  | 132/164 [00:14<00:04,  7.46it/s] 81%|████████  | 133/164 [00:14<00:04,  7.53it/s] 82%|████████▏ | 134/164 [00:14<00:03,  7.58it/s] 82%|████████▏ | 135/164 [00:14<00:03,  7.54it/s] 83%|████████▎ | 136/164 [00:15<00:03,  7.49it/s] 84%|████████▎ | 137/164 [00:15<00:03,  7.40it/s] 84%|████████▍ | 138/164 [00:15<00:03,  7.32it/s] 85%|████████▍ | 139/164 [00:15<00:03,  7.30it/s] 85%|████████▌ | 140/164 [00:15<00:03,  7.30it/s] 86%|████████▌ | 141/164 [00:15<00:03,  7.23it/s] 87%|████████▋ | 142/164 [00:15<00:03,  7.18it/s] 87%|████████▋ | 143/164 [00:16<00:02,  7.26it/s] 88%|████████▊ | 144/164 [00:16<00:02,  7.29it/s] 88%|████████▊ | 145/164 [00:16<00:02,  7.32it/s] 89%|████████▉ | 146/164 [00:16<00:02,  7.31it/s] 90%|████████▉ | 147/164 [00:16<00:02,  7.32it/s] 90%|█████████ | 148/164 [00:16<00:02,  7.33it/s] 91%|█████████ | 149/164 [00:16<00:02,  7.34it/s] 91%|█████████▏| 150/164 [00:17<00:01,  7.35it/s] 92%|█████████▏| 151/164 [00:17<00:01,  7.32it/s] 93%|█████████▎| 152/164 [00:17<00:01,  7.27it/s] 93%|█████████▎| 153/164 [00:17<00:01,  7.30it/s] 94%|█████████▍| 154/164 [00:17<00:01,  7.20it/s] 95%|█████████▍| 155/164 [00:17<00:01,  7.09it/s] 95%|█████████▌| 156/164 [00:17<00:01,  7.07it/s] 96%|█████████▌| 157/164 [00:17<00:00,  7.05it/s] 96%|█████████▋| 158/164 [00:18<00:00,  7.03it/s] 97%|█████████▋| 159/164 [00:18<00:00,  6.95it/s] 98%|█████████▊| 160/164 [00:18<00:00,  6.99it/s] 98%|█████████▊| 161/164 [00:18<00:00,  7.02it/s] 99%|█████████▉| 162/164 [00:18<00:00,  7.07it/s] 99%|█████████▉| 163/164 [00:18<00:00,  7.03it/s]100%|██████████| 164/164 [00:18<00:00,  6.97it/s]100%|██████████| 164/164 [00:18<00:00,  8.63it/s]
  0%|          | 0/1 [00:00<?, ?it/s]100%|██████████| 1/1 [00:00<00:00,  6.63it/s]100%|██████████| 1/1 [00:00<00:00,  6.62it/s]
  0%|          | 0/1 [00:00<?, ?it/s]100%|██████████| 1/1 [00:00<00:00,  8.70it/s]100%|██████████| 1/1 [00:00<00:00,  8.69it/s]User defined signal 2

------------------------------------------------------------
Sender: LSF System <lsf@deft0026>
Subject: Job 606596: <dEta_18_bins_16-17-18_sepNP> in cluster <slac> Exited

Job <dEta_18_bins_16-17-18_sepNP> was submitted from host <cent7c> by user <nhartman> in cluster <slac> at Wed Mar 31 17:05:39 2021
Job was executed on host(s) <deft0026>, in queue <medium>, as user <nhartman> in cluster <slac> at Wed Mar 31 17:05:40 2021
</u/ki/nhartman> was used as the home directory.
</gpfs/slac/atlas/fs1/d/nhartman/diHiggs4b/non-resonant-studies> was used as the working directory.
Started at Wed Mar 31 17:05:40 2021
Terminated at Wed Mar 31 19:05:52 2021
Results reported at Wed Mar 31 19:05:52 2021

Your job looked like:

------------------------------------------------------------
# LSBATCH: User input
python run_limits.py -d ../data/RR/nom_trigs_unblind/data16_min_dR_VEC_sr_124_117_NN_100_bootstraps.root ../data/RR/nom_trigs_unblind/data17_min_dR_VEC_sr_124_117_NN_100_bootstraps.root ../data/RR/nom_trigs_unblind/data18_min_dR_VEC_sr_124_117_NN_100_bootstraps.root -s ../data/RR/NNT_DEC20_MDR_VEC/MC/600043_mc16a/NanoNTuple.root ../data/RR/NNT_DEC20_MDR_VEC/MC/600043_mc16d/NanoNTuple.root ../data/RR/NNT_DEC20_MDR_VEC/MC/600043_mc16e/NanoNTuple.root -y 16 17 18 --format resolved-recon --SR-center 124 117 --categorize dEta_hh --cat-edges 0.0 0.08333333333333333 0.16666666666666666 0.25 0.3333333333333333 0.41666666666666663 0.5 0.5833333333333333 0.6666666666666666 0.75 0.8333333333333333 0.9166666666666666 1.0 1.0833333333333333 1.1666666666666665 1.25 1.3333333333333333 1.4166666666666665 1.5 --no-norm --outDir ../stats-results/dEta_cats --label 18_bins
------------------------------------------------------------

TERM_RUNLIMIT: job killed after reaching LSF run time limit.
Exited with exit code 140.

Resource usage summary:

    CPU time :                                   7209.27 sec.
    Max Memory :                                 3798 MB
    Average Memory :                             3417.54 MB
    Total Requested Memory :                     -
    Delta Memory :                               -
    Max Swap :                                   2 MB
    Max Processes :                              3
    Max Threads :                                29
    Run time :                                   7212 sec.
    Turnaround time :                            7213 sec.

The output (if any) is above this job summary.

