     fun: nan
     jac: array([ 6.34525203e+00,  4.87800095e+01,  6.09637873e+01,  8.62884309e+01,
        9.29338238e+01,  8.22310171e+01,  7.40877493e+01,  7.30053690e+01,
        6.16658483e+01,  4.92709198e+01,  4.62759129e+01,  3.31162191e+01,
        2.87419157e+01,  2.27285700e+01,  2.07195493e+01,  1.46160644e+01,
        1.28390495e+01,  1.20309357e+01,  9.65633399e+00,  8.82858481e+00,
        8.20273609e+00,  6.62579789e+00,  6.24070928e+00,  4.57861157e+00,
        4.94859002e+00,  2.63205706e+00,  3.56651284e+00,  2.89308503e+00,
        3.01572690e+00,  1.88204182e+00,  1.70371617e+00,  2.17681372e+00,
        1.78928760e+00,  1.22826217e+00,  1.12364979e+00, -1.41401771e+02,
        6.54222436e+01,  1.01918110e+02,  1.18179859e+02,  1.29423683e+02,
        1.43239177e+02,  1.29596419e+02,  1.17798771e+02,  9.01248631e+01,
        7.78245884e+01,  7.65312931e+01,  5.32437703e+01,  3.67213866e+01,
        3.92520371e+01,  3.27593883e+01,  2.60320436e+01,  2.11044121e+01,
        1.69828414e+01,  1.81004555e+01,  1.43039849e+01,  1.03717176e+01,
        1.00322178e+01,  7.25161353e+00,  9.46196343e+00,  7.86956411e+00,
        7.16133843e+00,  5.05677665e+00,  3.91588179e+00,  4.74703558e+00,
        1.80584527e+00,  3.03680099e+00,  3.71315487e+00,  1.58996333e+00,
        2.33163120e+00,  2.74783020e+00,  2.31110003e+00,  1.43306332e+01,
        1.87354305e+01,  7.57555285e+00,  2.50980026e+01,  2.65239939e+01,
        3.20568824e+01,  2.23448058e+01,  2.05232696e+01,  2.06689513e+01,
        2.01124114e+01,  1.97054812e+01,  1.13736173e+01, -6.48022463e-01,
        8.49130208e+00,  1.57484248e+01,  1.36917321e+01,  9.22661921e+00,
        7.86698098e-01,  4.60824039e+00,  1.69735905e+00,  5.79474018e+00,
        2.32133854e+00,  6.62726642e-01,  1.61805729e+00,  2.23862989e+00,
        7.82118174e-01,  3.78085864e-01, -6.09244508e-01,  1.24134783e+00,
       -1.36472277e+00,  2.39017823e+00,  2.29191834e+00, -2.37270259e+00,
        2.63405760e+01,  4.15554755e+00,  3.70176549e+01,  8.36228165e+00,
        4.00279028e+01,  3.37663791e+01,  4.73005987e+01,  4.08151552e+01,
        1.20264484e+01,  3.16327239e+01,  2.72317445e+01,  2.24057845e+01,
        1.08888372e+01,  1.53369949e+01,  2.04596723e+01,  2.02230338e+01,
        1.64123880e+01,  2.50244002e+00,  7.84504037e+00,  1.39696810e+01,
        5.55362937e+00,  9.08496030e+00,  8.04931735e+00,  1.30258294e+01,
        1.45602651e+00,  4.55483832e+00,  5.52960877e+00,  7.87835355e+00,
       -3.53611664e+00,  6.01563463e+00,  4.02682972e+00,  3.52193113e+00,
        7.64412491e-01,  1.07161631e-01,  3.24275238e+00, -1.01818445e+00,
        4.71119664e+00,  1.20923447e+01,  1.15748078e+01,  1.81160411e+01,
       -7.66411914e+00,  1.85709258e+00,  1.29163295e+01,  3.96441086e-01,
        6.90053642e+00, -4.79200463e+00,  1.00922706e+01,  6.68815327e+00,
        8.71232464e+00,  4.46527852e+00, -1.82433896e+00,  8.31941543e+00,
        1.20421584e+01,  3.64612506e+00,  1.06609564e+00,  3.92128129e-01,
        2.12053788e+00,  7.73473206e-01, -3.91051545e+00,  1.45478010e+00,
        1.50456035e+00, -2.02530389e+00,  3.25985197e+00,  6.92487540e-01,
       -5.16739875e-02,  2.37275873e+00,  2.20939793e+00,  1.70602863e+00,
        1.44911502e+00, -2.91540690e+01,  2.49786368e+00,  2.11193697e+00,
       -1.15817632e+00,  1.33633766e+01,  3.10819373e+01,  2.18793754e+01,
        1.03452699e+01,  1.53193088e+01,  2.52068220e+01,  1.65750980e+01,
        7.40340223e+00,  2.95887018e+00, -5.79539964e+00,  2.17944375e+01,
       -3.14243512e-02,  7.79097862e+00,  7.24810096e+00, -9.34090428e+00,
        4.66099641e+00,  5.28546564e+00, -1.01998566e+00,  6.70839113e+00,
       -3.19838640e-01, -1.12647295e+00,  8.05311965e+00, -1.85940001e+00,
        3.31366780e+00,  1.44381649e+00, -6.04350776e+00, -3.31185385e-01,
        1.21591758e+00,  1.75237917e+00, -3.17615533e+00, -1.65448033e+00,
        5.64564457e+01,  9.33126948e+01,  1.06755095e+02,  1.21372817e+02,
        1.23715070e+02,  1.01237439e+02,  9.58240421e+01,  8.12173753e+01,
        6.90962462e+01,  5.65619669e+01,  4.43935591e+01,  3.75125390e+01,
        3.47329582e+01,  2.90846490e+01,  2.70033251e+01,  2.29205601e+01,
        1.76465007e+01,  1.60924111e+01,  1.39395338e+01,  1.19905822e+01,
        9.29688813e+00,  8.67095473e+00,  6.27585764e+00,  7.00905665e+00,
        5.43079544e+00,  5.17153981e+00,  4.13398533e+00,  3.90359943e+00,
        3.46047743e+00, -1.12341680e-01,  3.17305937e+00,  1.88688463e+00,
        2.31822340e+00,  1.44222525e+00,  8.04974344e+01,  1.35189308e+02,
        1.76996721e+02,  1.94186571e+02,  1.94878704e+02,  1.66728756e+02,
        1.43096289e+02,  1.31282660e+02,  1.06683860e+02,  9.88799558e+01,
        7.43336767e+01,  6.74972025e+01,  5.33097234e+01,  4.35146430e+01,
        4.59356482e+01,  3.27785832e+01,  3.65497577e+01,  2.71246951e+01,
        2.20101311e+01,  1.91806905e+01,  1.60554649e+01,  1.42600326e+01,
        1.08253648e+01,  1.30851378e+01,  5.86809800e+00,  8.26423892e+00,
        6.18394460e+00,  4.52598965e+00,  3.16169914e+00,  3.03624272e+00,
        4.10475042e+00,  3.84542091e+00, -3.09054114e+00,  2.09864691e+00,
        1.70236232e+01,  1.42131817e+01,  3.05888258e+01,  2.22720242e+01,
        4.34050217e+01,  3.15591274e+01,  3.13114958e+01,  2.88640361e+01,
        2.37932302e+01,  3.07695981e+01,  1.71666047e+01,  1.29264095e+01,
        1.28615530e+01,  1.40653138e+01,  2.29035682e+01,  1.02948381e+01,
        4.75335615e+00,  3.71745285e+00,  4.26398272e+00,  4.78740412e+00,
        4.21558100e+00, -4.85849078e+00,  4.94250104e+00,  2.74851939e+00,
        1.82857537e+00,  8.04804187e-01,  6.94180340e+00,  4.47914089e+00,
        3.72456772e+00,  1.98531550e+00,  4.67432777e+00,  5.80833195e+02,
        1.62601290e+00,  4.71658011e-01,  2.11301741e+01,  3.33563550e+01,
        3.55739858e+01,  2.81837634e+01,  4.20114564e+01,  6.45332648e+01,
        3.91024907e+01,  3.47556228e+00,  3.65764380e+01,  4.02871237e+01,
        4.29973578e+01,  3.46848713e+01,  1.56639032e+01,  2.23412406e+01,
        1.15560520e+01,  2.47468098e+01,  5.18621419e-01,  7.00139594e+00,
        1.17180753e+01,  7.60146386e+00,  1.42672365e+01,  1.14598135e+01,
        6.05661034e+00,  8.66608843e+00,  2.50693534e+00,  7.94492159e+00,
        1.83264931e+00,  4.25248479e+00,  2.02774349e+00, -1.32027258e+00,
        4.38667276e+00, -4.02939428e+00,  2.75280626e+00,  1.91623444e-01,
        5.81209022e+00,  3.02074132e+00,  8.45936285e+00,  1.94179039e+01,
        6.65192881e+00,  1.33758344e+01,  1.33691180e+01, -6.52813475e+00,
        6.97585116e+00,  1.55902299e+01,  1.01071703e+01, -7.86228226e+00,
        1.18775593e+01,  4.43593506e+00,  2.12463394e+00,  2.89290723e+00,
        6.76286557e+00,  1.01198844e+01, -5.03629270e-01, -4.02664447e+00,
       -1.51289989e+01, -6.04834102e+00,  1.63596317e+00,  1.05263660e+00,
       -7.39852839e-01, -2.32246218e+00,  2.28289856e+00, -1.43912883e+00,
        4.46032315e+00, -1.12163484e+00, -2.23414779e+00, -2.14832805e+00,
        3.30254804e+00,  2.18981636e+00, -1.14160236e+00,  1.58831926e+01,
        2.02707054e+01,  2.02922361e+01,  3.31890972e+01,  1.59856189e+01,
        6.46853715e+00,  8.04426835e+00,  5.34819744e+00,  1.42679007e+01,
        1.98638182e+01,  1.43077668e+01,  3.31428600e+00,  2.62182438e+00,
        9.78368178e+00,  3.20090465e+00,  1.40545615e+01,  3.21734050e+00,
        9.62152287e+00,  4.79667195e+00, -1.83496716e+00,  4.41277042e+00,
        5.09049298e+00,  8.39392187e+00, -4.29014813e+00,  7.00178365e+00,
        2.63169460e-01,  1.64580444e+00, -2.00213866e+00, -4.00916921e+00,
       -3.10051576e+00,  1.65013744e+00, -5.12682829e-01,  2.15557278e+00,
        9.82408010e+01,  1.37336946e+02,  1.73055563e+02,  1.92797152e+02,
        1.83223831e+02,  1.79398687e+02,  1.63373571e+02,  1.41844511e+02,
        1.13301310e+02,  1.04689407e+02,  8.59009050e+01,  7.73143429e+01,
        5.84305118e+01,  4.76103861e+01,  4.76375957e+01,  3.37008985e+01,
        2.70523097e+01,  2.52045692e+01,  2.22550436e+01,  1.80539050e+01,
        1.86294069e+01,  1.48162046e+01,  1.25601209e+01,  1.06376692e+01,
        1.10345577e+01,  6.27882139e+00,  6.98485767e+00,  6.37541271e+00,
        5.24968056e+00,  4.86762982e+00,  2.16928938e+00,  2.58343085e+00,
        2.21794495e+00,  2.50687214e+00,  1.24833579e+02,  2.13500390e+02,
        2.54668199e+02,  2.61852400e+02,  3.13986626e+02,  2.92229802e+02,
        2.57606368e+02,  2.37738515e+02,  2.12691575e+02,  1.75651086e+02,
        1.19973424e+02,  1.00472997e+02,  9.01522307e+01,  9.33753968e+01,
        6.69843369e+01,  6.12371590e+01,  5.40111921e+01,  4.32083191e+01,
        3.88809670e+01,  2.70007369e+01,  2.59374536e+01,  2.67378733e+01,
        1.91399732e+01,  1.96407814e+01,  1.52275659e+01,  9.87129433e+00,
        1.24175749e+01,  1.18454311e+01,  7.43273405e+00,  4.52120529e+00,
        6.28988648e+00,  6.75064040e+00,  3.83989279e+00,  2.54407655e+00,
        1.36376196e+01,  2.39456175e+01,  5.92870132e+01,  6.00939335e+01,
        5.95807099e+01,  5.22028327e+01,  4.18190754e+01,  3.98046924e+01,
        4.98179085e+01,  4.36678147e+01,  5.16866208e+01, -4.32828507e-01,
        4.68388103e+01,  6.52131528e+00,  2.37996614e+01,  2.30902124e+01,
        2.19732557e+01,  1.10776946e+01,  1.17827906e+01,  4.37100844e-01,
        8.84546894e-01,  2.49239461e+00,  1.36352799e+01,  8.08849224e+00,
        1.55027775e+00,  8.79795336e+00, -5.13153864e+00,  6.66952845e+00,
        3.40657973e+00,  4.39425535e+00, -7.33533074e+00,  2.70456482e+00,
        3.27817828e+00,  2.98766719e+00,  4.46556684e+01,  3.42209012e+01,
        8.01222338e+01,  4.72184603e+01,  8.30892768e+01,  8.42712847e+01,
        9.24104052e+01,  8.19891873e+01,  8.01481891e+01,  5.28845062e+01,
        5.41603338e+01,  6.85295987e+01,  5.05616515e+01,  6.04903276e+01,
        4.25215158e+01,  4.16369702e+01,  2.78795677e+01,  1.52598354e+01,
        1.71995824e+01,  1.35547726e+01,  2.15826267e+01,  2.17194352e+01,
        7.41457842e+00,  8.81379874e+00, -2.64888303e+00, -3.62346867e+00,
       -1.30643847e+01,  2.47110070e+00,  4.59064734e+00,  1.54480881e+00,
        8.64072442e+00,  9.45624554e+00,  7.89890939e-02, -8.72976034e-01,
        4.23393653e+00,  3.08914491e+00,  1.48871820e+01, -6.50678857e+00,
        2.54244405e+01,  4.14799193e+01,  1.46796637e+01,  1.82502607e+01,
        2.36802230e+01,  2.03689709e+01,  1.03380999e+01,  1.94990654e+01,
        9.96922200e+00,  8.49682393e+00,  1.20877649e+01,  1.86237785e+00,
        6.28407490e+00,  1.54422060e+01,  6.21538816e+00,  9.99473332e+00,
       -5.32923296e+00, -4.28573872e+00, -4.41645153e+00,  7.44451330e-01,
       -4.84027693e+00,  2.04637301e+00, -1.55602675e+00,  3.68860795e+00,
        1.01917367e+00, -2.53473024e+00,  2.76535305e+00, -2.95487601e+00,
       -4.47554982e+00,  1.35282334e+00,  9.76459743e+00,  9.48525835e+00,
        2.98979535e+01,  1.38136509e+01,  2.47256800e+01,  3.96300000e+01,
        2.44795499e+01,  2.24474357e+01,  1.19915052e+01,  4.02150213e+01,
        2.73408581e+01,  3.22398132e+01,  2.95951372e+01,  1.74657945e+01,
        1.70343811e+01,  1.49634483e+01,  8.15673517e+00,  2.50558118e+01,
        1.16017569e+01,  1.27432513e+01,  8.81148439e+00,  4.84179340e+00,
       -7.82455939e-02, -8.34401336e-01, -2.62460322e+00, -2.66060080e+00,
       -1.04058513e+00,  2.90056206e+00,  4.43198309e+00,  5.01203809e+00,
        1.99571528e+00, -1.72703823e-01, -6.76846825e+00, -1.28295322e+00])
 message: 'Iteration limit reached'
    nfev: 1099990
     nit: 100000
    njev: 100000
  status: 9
 success: False
       x: array([ 4.57587062e+03,  9.99999411e-01,  9.99999720e-01,  9.99999714e-01,
        9.99999647e-01,  9.99999709e-01,  9.99999755e-01,  9.99999422e-01,
        9.99999782e-01,  9.99999758e-01,  9.99999576e-01,  9.99999761e-01,
        9.99999727e-01,  9.99999792e-01,  9.99999670e-01,  9.99999783e-01,
        9.99999746e-01,  9.99999805e-01,  9.99999803e-01,  9.99999766e-01,
        9.99999821e-01,  9.99999785e-01,  9.99999794e-01,  9.99999837e-01,
        9.99999818e-01,  9.99999850e-01,  9.99999808e-01,  9.99999776e-01,
        9.99999800e-01,  9.99999792e-01,  9.99999856e-01,  9.99999926e-01,
        9.99999852e-01,  9.99999814e-01,  9.99999897e-01,  4.99992500e-05,
        9.99999605e-01,  9.99999736e-01,  9.99999699e-01,  9.99999704e-01,
        9.99999778e-01,  9.99999735e-01,  9.99999717e-01,  9.99999778e-01,
        9.99999790e-01,  9.99999720e-01,  9.99999774e-01,  9.99999818e-01,
        9.99999665e-01,  9.99999793e-01,  9.99999765e-01,  9.99999674e-01,
        9.99999818e-01,  9.99999824e-01,  9.99999824e-01,  9.99999856e-01,
        9.99999826e-01,  9.99999893e-01,  9.99999687e-01,  9.99999719e-01,
        9.99999718e-01,  9.99999814e-01,  9.99999850e-01,  9.99999815e-01,
        9.99999910e-01,  9.99999912e-01,  1.00000001e+00,  1.00000040e+00,
        9.99999836e-01,  9.99999821e-01,  1.00000001e+00,  9.99999848e-01,
        9.99999902e-01,  9.99999938e-01,  9.99999830e-01,  9.99999848e-01,
        9.99999689e-01,  9.99999808e-01,  9.99999831e-01,  9.99999699e-01,
        9.99999735e-01,  9.99999695e-01,  9.99999812e-01,  1.00000002e+00,
        9.99999889e-01,  9.99999703e-01,  9.99999668e-01,  9.99999804e-01,
        9.99999987e-01,  9.99999863e-01,  9.99999974e-01,  9.99999833e-01,
        9.99999942e-01,  9.99999966e-01,  9.99999947e-01,  9.99999863e-01,
        9.99999937e-01,  9.99999993e-01,  1.00000007e+00,  9.99999890e-01,
        1.00000012e+00,  9.99999788e-01,  9.99999727e-01,  1.00000029e+00,
       -2.85587923e-05,  1.00000002e+00,  9.99999848e-01,  9.99999998e-01,
        9.99999835e-01,  9.99999894e-01,  9.99999862e-01,  9.99999835e-01,
        9.99999944e-01,  9.99999866e-01,  9.99999856e-01,  9.99999822e-01,
        9.99999914e-01,  9.99999885e-01,  9.99999833e-01,  9.99999860e-01,
        9.99999888e-01,  9.99999973e-01,  9.99999918e-01,  9.99999815e-01,
        9.99999931e-01,  9.99999891e-01,  9.99999553e-01,  9.99999537e-01,
        9.99999947e-01,  9.99999744e-01,  9.99999885e-01,  9.99999590e-01,
        1.00000012e+00,  9.99999700e-01,  9.99999813e-01,  9.99999831e-01,
        9.99999967e-01,  9.99999990e-01,  9.99999565e-01,  1.00000004e+00,
        9.99999961e-01,  9.99999893e-01,  9.99999916e-01,  9.99999864e-01,
        1.00000006e+00,  9.99999983e-01,  9.99999904e-01,  9.99999991e-01,
        9.99999916e-01,  1.00000005e+00,  9.99999903e-01,  9.99999890e-01,
        9.99999871e-01,  9.99999943e-01,  1.00000004e+00,  9.99999784e-01,
        9.99999701e-01,  9.99999929e-01,  9.99999991e-01,  1.00000001e+00,
        9.99999961e-01,  1.00000006e+00,  1.00000036e+00,  9.99999998e-01,
        9.99999953e-01,  1.00000013e+00,  9.99999830e-01,  9.99999990e-01,
        1.00000008e+00,  9.99999815e-01,  9.99999777e-01,  9.99999726e-01,
        9.99999906e-01,  2.22055951e-05,  9.99999984e-01,  9.99999994e-01,
        1.00000002e+00,  9.99999949e-01,  9.99999835e-01,  9.99999924e-01,
        9.99999956e-01,  9.99999942e-01,  9.99999878e-01,  9.99999932e-01,
        9.99999967e-01,  9.99999984e-01,  1.00000003e+00,  9.99999793e-01,
        1.00000001e+00,  9.99999916e-01,  9.99999911e-01,  1.00000011e+00,
        9.99999956e-01,  9.99999940e-01,  1.00000003e+00,  9.99999856e-01,
        1.00000004e+00,  1.00000007e+00,  9.99999703e-01,  1.00000040e+00,
        9.99999943e-01,  1.00000004e+00,  1.00000034e+00,  1.00000006e+00,
        1.00000003e+00,  9.99999941e-01,  1.00000029e+00,  1.00000015e+00,
        9.99999190e-01,  9.99998981e-01,  9.99999242e-01,  9.99999515e-01,
        9.99999229e-01,  9.99999391e-01,  9.99999370e-01,  9.99999378e-01,
        9.99999384e-01,  9.99999489e-01,  9.99999664e-01,  9.99999678e-01,
        9.99999642e-01,  9.99999489e-01,  9.99999288e-01,  9.99999672e-01,
        9.99999727e-01,  9.99999559e-01,  9.99999701e-01,  9.99999128e-01,
        9.99999791e-01,  9.99999658e-01,  9.99999701e-01,  9.99999785e-01,
        9.99999750e-01,  9.99999788e-01,  9.99999820e-01,  9.99999708e-01,
        9.99999744e-01,  1.00000002e+00,  9.99999298e-01,  9.99999875e-01,
        9.99999780e-01,  9.99999848e-01,  9.99999245e-01,  9.99999313e-01,
        9.99999325e-01,  9.99998944e-01,  9.99999441e-01,  9.99999397e-01,
        9.99999591e-01,  9.99999528e-01,  9.99999631e-01,  9.99999533e-01,
        9.99999682e-01,  9.99999709e-01,  9.99999601e-01,  9.99999760e-01,
        9.99999621e-01,  9.99999704e-01,  9.99999589e-01,  9.99999721e-01,
        9.99999568e-01,  9.99999757e-01,  9.99999086e-01,  9.99999660e-01,
        9.99999741e-01,  9.99999626e-01,  9.99999868e-01,  9.99999748e-01,
        9.99999809e-01,  9.99999859e-01,  9.99999887e-01,  9.99999862e-01,
        9.99999817e-01,  9.99999834e-01,  1.00000039e+00,  9.99999898e-01,
        9.99999497e-01,  9.99999767e-01,  9.99999652e-01,  9.99999778e-01,
        9.99999609e-01,  9.99999670e-01,  9.99999545e-01,  9.99999735e-01,
        9.99999724e-01,  9.99999557e-01,  9.99999784e-01,  9.99999818e-01,
        9.99999866e-01,  9.99999769e-01,  9.99999597e-01,  9.99999709e-01,
        9.99999834e-01,  9.99999869e-01,  9.99999844e-01,  9.99999743e-01,
        9.99999793e-01,  1.00000022e+00,  9.99999686e-01,  9.99999846e-01,
        9.99999783e-01,  9.99999902e-01,  9.99998906e-01,  9.99999681e-01,
        9.99999787e-01,  9.99999783e-01,  9.99999207e-01,  9.99999287e-01,
        9.99999818e-01,  1.00000001e+00,  9.99999619e-01,  9.99999608e-01,
        9.99999709e-01,  9.99999850e-01,  9.99999780e-01,  9.99999662e-01,
        9.99999837e-01,  1.00000003e+00,  9.99999740e-01,  9.99999812e-01,
        9.99999650e-01,  9.99999755e-01,  9.99999743e-01,  9.99999478e-01,
        9.99999815e-01,  9.99999198e-01,  9.99999928e-01,  9.99999835e-01,
        9.99999570e-01,  9.99999624e-01,  9.99999051e-01,  9.99999634e-01,
        9.99999875e-01,  9.99999516e-01,  9.99999437e-01,  9.99999765e-01,
        9.99999897e-01,  9.99999792e-01,  9.99999495e-01,  1.00000002e+00,
        9.99999787e-01,  1.00000021e+00,  9.99999714e-01,  9.99999994e-01,
        9.99999909e-01,  9.99999989e-01,  9.99999925e-01,  9.99999647e-01,
        9.99999951e-01,  9.99999811e-01,  9.99999856e-01,  1.00000009e+00,
        9.99999887e-01,  9.99999756e-01,  9.99999867e-01,  1.00000022e+00,
        9.99999793e-01,  9.99999939e-01,  9.99999921e-01,  1.00000006e+00,
        9.99999788e-01,  9.99999519e-01,  1.00000015e+00,  1.00000037e+00,
        1.00000066e+00,  1.00000034e+00,  9.99999993e-01,  1.00000014e+00,
        1.00000086e+00,  1.00000078e+00,  9.99999906e-01,  1.00000051e+00,
        9.99999538e-01,  1.00000053e+00,  1.00000047e+00,  1.00000052e+00,
        9.99999103e-01,  9.99999598e-01,  1.00000017e+00,  9.99999832e-01,
        9.99999874e-01,  9.99999893e-01,  9.99999752e-01,  9.99999908e-01,
        9.99999976e-01,  9.99999960e-01,  9.99999957e-01,  9.99999868e-01,
        9.99999767e-01,  9.99999863e-01,  9.99999986e-01,  1.00000001e+00,
        9.99999907e-01,  1.00000001e+00,  9.99999794e-01,  1.00000006e+00,
        9.99999686e-01,  9.99999950e-01,  1.00000019e+00,  9.99999955e-01,
        9.99999934e-01,  9.99999781e-01,  1.00000029e+00,  9.99999685e-01,
        1.00000024e+00,  1.00000014e+00,  1.00000051e+00,  1.00000114e+00,
        1.00000023e+00,  1.00000001e+00,  1.00000017e+00,  9.99999986e-01,
        9.99999316e-01,  9.99999455e-01,  9.99999408e-01,  9.99999673e-01,
        9.99999684e-01,  9.99999665e-01,  9.99999672e-01,  9.99999667e-01,
        9.99999814e-01,  9.99999681e-01,  9.99999785e-01,  9.99999734e-01,
        9.99999759e-01,  9.99999875e-01,  9.99999800e-01,  9.99999896e-01,
        9.99999868e-01,  9.99999935e-01,  9.99999927e-01,  9.99999936e-01,
        9.99999898e-01,  9.99999917e-01,  9.99999923e-01,  9.99999937e-01,
        9.99999938e-01,  9.99999963e-01,  9.99999932e-01,  9.99999907e-01,
        9.99999932e-01,  9.99999901e-01,  9.99999999e-01,  9.99999991e-01,
        9.99999998e-01,  9.99999994e-01,  9.99999565e-01,  9.99999562e-01,
        9.99999522e-01,  9.99999732e-01,  9.99999640e-01,  9.99999677e-01,
        9.99999781e-01,  9.99999676e-01,  9.99999761e-01,  9.99999784e-01,
        9.99999814e-01,  9.99999818e-01,  9.99999901e-01,  9.99999752e-01,
        9.99999884e-01,  9.99999903e-01,  9.99999894e-01,  9.99999889e-01,
        9.99999875e-01,  9.99999961e-01,  1.00000016e+00,  9.99999864e-01,
        9.99999947e-01,  9.99999946e-01,  9.99999927e-01,  1.00000000e+00,
        9.99999974e-01,  9.99999978e-01,  9.99999998e-01,  1.00000003e+00,
        9.99999953e-01,  9.99999953e-01,  9.99999951e-01,  9.99999991e-01,
        9.99999985e-01,  9.99999966e-01,  9.99999801e-01,  9.99999823e-01,
        9.99999771e-01,  9.99999854e-01,  9.99999841e-01,  9.99999826e-01,
        9.99999701e-01,  9.99999721e-01,  9.99999599e-01,  9.99999959e-01,
        9.99999471e-01,  9.99999951e-01,  9.99999828e-01,  9.99999580e-01,
        9.99999736e-01,  9.99999818e-01,  9.99999871e-01,  9.99999974e-01,
        9.99999911e-01,  9.99999746e-01,  9.99999665e-01,  9.99999601e-01,
        9.99999816e-01,  9.99998547e-01,  1.00000008e+00,  9.99999766e-01,
        9.99999634e-01,  9.99999811e-01,  1.00000021e+00,  9.99999769e-01,
        9.99999737e-01,  9.99999587e-01,  9.99999882e-01,  9.99999992e-01,
        9.99999878e-01,  9.99999957e-01,  9.99999873e-01,  9.99999863e-01,
        9.99999853e-01,  9.99999768e-01,  9.99999805e-01,  9.99999817e-01,
        9.99999821e-01,  9.99999734e-01,  9.99999753e-01,  9.99999713e-01,
        9.99999699e-01,  9.99999801e-01,  9.99999744e-01,  9.99999867e-01,
        9.99999812e-01,  9.99999741e-01,  9.99999706e-01,  9.99999698e-01,
        9.99999673e-01,  9.99999878e-01,  9.99999853e-01,  9.99999906e-01,
        1.00000008e+00,  9.99999938e-01,  9.99999667e-01,  9.99999880e-01,
        9.99999718e-01,  9.99999193e-01,  9.99999936e-01,  9.99999939e-01,
        9.99999910e-01,  9.99999945e-01,  9.99999837e-01,  1.00000001e+00,
        9.99999817e-01,  9.99999837e-01,  9.99999924e-01,  9.99999922e-01,
        9.99999892e-01,  9.99999930e-01,  9.99999969e-01,  9.99999884e-01,
        9.99999965e-01,  9.99999940e-01,  9.99999923e-01,  1.00000001e+00,
        9.99999942e-01,  9.99999735e-01,  9.99999808e-01,  9.99999764e-01,
        1.00000005e+00,  1.00000009e+00,  1.00000010e+00,  9.99999966e-01,
        1.00000012e+00,  9.99999896e-01,  1.00000021e+00,  9.99999792e-01,
        9.99999943e-01,  1.00000011e+00,  9.99999811e-01,  1.00000022e+00,
        1.00000031e+00,  9.99999889e-01,  9.99999834e-01,  9.99999918e-01,
        9.99999874e-01,  9.99999929e-01,  9.99999906e-01,  9.99999906e-01,
        9.99999938e-01,  9.99999944e-01,  9.99999998e-01,  9.99999889e-01,
        9.99999936e-01,  9.99999886e-01,  9.99999927e-01,  9.99999954e-01,
        9.99999950e-01,  9.99999934e-01,  9.99999965e-01,  9.99999841e-01,
        9.99999860e-01,  9.99999839e-01,  9.99999832e-01,  9.99999923e-01,
        9.99999983e-01,  9.99999995e-01,  1.00000002e+00,  1.00000008e+00,
        9.99999989e-01,  9.99999850e-01,  9.99999817e-01,  9.99999773e-01,
        9.99999875e-01,  1.00000000e+00,  1.00000074e+00,  1.00000009e+00])
Traceback (most recent call last):
  File "combineYears.py", line 48, in test_mu
    result = pyhf.infer.hypotest(mu_test, self.data, self.model, qtilde=False, return_expected_set=True)
  File "/u/ki/nhartman/gpfs/miniconda3/envs/my_env/lib/python3.8/site-packages/pyhf/infer/__init__.py", line 134, in hypotest
    calc = utils.create_calculator(
  File "/u/ki/nhartman/gpfs/miniconda3/envs/my_env/lib/python3.8/site-packages/pyhf/infer/utils.py", line 45, in create_calculator
    return {'asymptotics': AsymptoticCalculator, 'toybased': ToyCalculator}[calctype](
TypeError: __init__() got an unexpected keyword argument 'qtilde'

During handling of the above exception, another exception occurred:

Traceback (most recent call last):
  File "/u/ki/nhartman/gpfs/miniconda3/envs/my_env/lib/python3.8/site-packages/pyhf/optimize/mixins.py", line 49, in _internal_minimize
    assert result.success
AssertionError
     fun: nan
     jac: array([ 7.65745310e+00,  6.01853528e+01,  7.49143222e+01,  1.00331880e+02,
        1.04059886e+02,  9.69792464e+01,  8.60846026e+01,  8.24858328e+01,
        6.60874367e+01,  5.46625068e+01,  4.91918701e+01,  3.71337882e+01,
        3.20179713e+01,  2.57996666e+01,  2.23288252e+01,  1.67688449e+01,
        1.43677320e+01,  1.29989204e+01,  1.05570790e+01,  9.55523974e+00,
        8.50402274e+00,  6.86946671e+00,  6.24071083e+00,  4.91337674e+00,
        4.94859108e+00,  3.05205785e+00,  3.89862659e+00,  3.04285028e+00,
        3.01572736e+00,  1.95006692e+00,  1.80943180e+00,  2.17681351e+00,
        1.78928860e+00,  1.22826303e+00,  1.12365013e+00, -1.45068855e+02,
        9.11556257e+01,  1.32889049e+02,  1.50799918e+02,  1.66090691e+02,
        1.67028715e+02,  1.53266132e+02,  1.37015953e+02,  1.09187033e+02,
        9.22096102e+01,  8.53009025e+01,  6.47649265e+01,  4.77498368e+01,
        4.61679806e+01,  3.74030006e+01,  2.93602946e+01,  2.44828665e+01,
        1.99101886e+01,  1.98348079e+01,  1.52549705e+01,  1.21267166e+01,
        1.12507028e+01,  9.04487886e+00,  1.00516532e+01,  8.41803612e+00,
        7.80374133e+00,  5.49018989e+00,  4.73300110e+00,  4.74703659e+00,
        2.35707930e+00,  3.47939445e+00,  4.04916790e+00,  1.51448935e+00,
        2.33163168e+00,  2.74783030e+00,  8.34458307e+00,  2.15651152e+01,
        2.52481732e+01,  2.06143989e+01,  3.41770376e+01,  3.38908598e+01,
        3.89146751e+01,  3.12593393e+01,  2.73850579e+01,  2.67287500e+01,
        2.53811630e+01,  2.49509252e+01,  1.64601737e+01,  4.84346623e+00,
        1.22323738e+01,  1.73364260e+01,  1.56556760e+01,  1.11211742e+01,
        4.53561240e+00,  6.01988300e+00,  4.32303318e+00,  7.31836236e+00,
        4.25615474e+00,  6.62727230e-01,  1.61805857e+00,  3.23937201e+00,
        7.82118840e-01,  1.40403874e+00,  7.03531879e-01,  1.86006733e+00,
       -1.36472218e+00,  2.39017917e+00,  2.29191817e+00, -2.37270295e+00,
        5.72840006e+01,  1.27786396e+01,  4.48539386e+01,  2.82128519e+01,
        5.59982111e+01,  5.12666256e+01,  6.35108032e+01,  5.59909187e+01,
        2.54837463e+01,  4.53370602e+01,  3.81988038e+01,  3.67482242e+01,
        2.51361418e+01,  2.69241638e+01,  2.74383472e+01,  2.65752202e+01,
        2.22449299e+01,  1.01575547e+01,  1.27532167e+01,  1.67147994e+01,
        9.07006284e+00,  1.14795217e+01,  1.11066871e+01,  1.37121149e+01,
        4.88739140e+00,  6.21668908e+00,  6.15444166e+00,  8.21929670e+00,
       -3.53611615e+00,  6.33636487e+00,  4.02683118e+00,  3.84527617e+00,
        7.64412687e-01,  1.07162518e-01,  3.53399256e+00, -1.01818331e+00,
        6.35446442e+00,  1.48205473e+01,  1.60270677e+01,  2.15412037e+01,
       -2.20824568e+00,  7.94457049e+00,  1.68380357e+01,  4.79799335e+00,
        1.06266254e+01, -1.61431156e+00,  1.27306559e+01,  8.39873256e+00,
        1.14340322e+01,  8.22471582e+00, -1.82433772e+00,  9.38882241e+00,
        1.20421604e+01,  3.64612587e+00,  2.96707207e+00,  3.92128028e-01,
        2.12053888e+00,  7.73473548e-01, -3.91051542e+00,  1.45478086e+00,
        1.50456077e+00, -2.02530338e+00,  3.25985298e+00,  6.92488417e-01,
       -5.16743452e-02,  2.37275914e+00,  2.20939837e+00,  1.70602909e+00,
        1.44911550e+00, -3.53111047e+01,  2.49786607e+00,  7.90493599e+00,
        6.54668099e+00,  2.03987917e+01,  3.50636441e+01,  2.98858139e+01,
        1.78820505e+01,  2.04449520e+01,  2.94512448e+01,  2.28132479e+01,
        1.67237231e+01,  7.78398978e+00, -5.79539802e+00,  2.42166954e+01,
       -3.14250918e-02,  1.01039611e+01,  7.24810302e+00, -9.34090472e+00,
        4.66099792e+00,  5.28546730e+00, -1.01998404e+00,  6.70839245e+00,
       -3.19837833e-01, -1.12647182e+00,  8.05312085e+00, -1.85939961e+00,
        3.31366849e+00,  1.44381821e+00, -6.04350672e+00, -3.31184747e-01,
        1.21591832e+00,  1.75237886e+00, -3.17615556e+00, -1.65448055e+00,
        7.05837599e+01,  1.08196225e+02,  1.23503262e+02,  1.35362004e+02,
        1.36717282e+02,  1.13944662e+02,  1.04743847e+02,  9.05472996e+01,
        7.66280952e+01,  6.25657727e+01,  4.87187494e+01,  4.04966982e+01,
        3.72632612e+01,  3.22459772e+01,  2.91083372e+01,  2.49384629e+01,
        1.96470890e+01,  1.72959619e+01,  1.48146503e+01,  1.27178622e+01,
        9.67975294e+00,  9.45684101e+00,  7.52357860e+00,  7.12881469e+00,
        5.75759786e+00,  5.55214945e+00,  4.47700101e+00,  4.48005760e+00,
        3.64680956e+00,  1.27832722e+00,  3.17305961e+00,  1.97244495e+00,
        2.31822319e+00,  1.62926367e+00,  1.09702054e+02,  1.68725516e+02,
        2.11245492e+02,  2.30850178e+02,  2.25725537e+02,  2.03589350e+02,
        1.75851259e+02,  1.56559668e+02,  1.28901745e+02,  1.12511469e+02,
        8.70350650e+01,  7.64254656e+01,  6.13744049e+01,  5.20670369e+01,
        5.02572641e+01,  3.95437895e+01,  3.96531381e+01,  3.05387692e+01,
        2.47373818e+01,  2.13700128e+01,  1.99243878e+01,  1.68740752e+01,
        1.30506372e+01,  1.38048267e+01,  8.14444761e+00,  9.20444145e+00,
        6.90262298e+00,  5.21220586e+00,  4.16104092e+00,  3.89740252e+00,
        4.50338140e+00,  4.18623170e+00, -2.79640402e+00,  2.53767402e+00,
        2.14285313e+01,  2.02626710e+01,  3.74776225e+01,  3.35501940e+01,
        5.11466514e+01,  4.11634020e+01,  4.25945146e+01,  3.98578658e+01,
        3.44430909e+01,  3.80934053e+01,  2.62705025e+01,  2.18199019e+01,
        2.03724590e+01,  1.95428258e+01,  2.60808640e+01,  1.56558197e+01,
        7.45731173e+00,  7.36511673e+00,  8.48750168e+00,  5.70978467e+00,
        6.61725323e+00, -4.85849043e+00,  6.26396293e+00,  4.12099133e+00,
        4.10114639e+00,  8.04804749e-01,  6.94180396e+00,  4.47914176e+00,
        3.72456885e+00,  1.36050456e-01,  4.67432782e+00,  1.02452059e+01,
        1.62601299e+00,  4.71657673e-01,  2.96511873e+01,  4.63799611e+01,
        5.13577382e+01,  4.86603583e+01,  6.39042252e+01,  8.06487807e+01,
        6.17445142e+01,  3.19509133e+01,  5.27279797e+01,  5.56744066e+01,
        5.84247843e+01,  4.74651402e+01,  3.15522951e+01,  3.10830681e+01,
        2.15583789e+01,  3.26389195e+01,  6.79537416e+00,  1.29221160e+01,
        1.73689588e+01,  7.60146626e+00,  1.83792706e+01,  1.41909005e+01,
        8.02986430e+00,  1.06920284e+01,  5.03520132e+00,  8.97087402e+00,
        4.12697286e+00,  6.05589759e+00,  4.12082130e+00,  1.03376960e+00,
        4.38667349e+00, -4.02939374e+00,  4.02918145e+00,  1.91623916e-01,
        6.81744293e+00,  6.76157494e+00,  1.14993156e+01,  2.23046504e+01,
        1.00545305e+01,  1.80072829e+01,  1.66466398e+01,  2.41387028e-01,
        1.14931607e+01,  2.03940511e+01,  1.18417833e+01, -7.86228182e+00,
        1.48862679e+01,  4.43593671e+00,  2.12463506e+00,  2.89290830e+00,
        8.72488790e+00,  1.03008557e+01, -5.03628861e-01, -1.04787304e+00,
       -1.51289993e+01, -6.04834014e+00,  3.32133898e+00,  1.05263658e+00,
       -7.39852347e-01, -2.32246164e+00,  2.28289858e+00, -1.43912841e+00,
        4.46032314e+00, -1.12163456e+00, -2.23414807e+00, -2.14832823e+00,
        3.30254820e+00,  2.18981695e+00, -1.14160082e+00,  1.95599450e+01,
        2.47110032e+01,  2.65355681e+01,  3.85017183e+01,  2.48080902e+01,
        1.83773539e+01,  2.03410629e+01,  1.65864541e+01,  2.08987328e+01,
        2.39286248e+01,  1.94017992e+01,  3.31428803e+00,  5.64207134e+00,
        1.21968905e+01,  3.20090653e+00,  1.59960091e+01,  8.46002913e+00,
        1.21102541e+01,  4.79667294e+00, -1.83496604e+00,  4.41277222e+00,
        6.91393231e+00,  8.39392323e+00, -4.29014894e+00,  7.94466077e+00,
        2.63170001e-01,  3.66749462e+00, -2.00213818e+00, -4.00916911e+00,
       -3.10051505e+00,  1.65013837e+00, -5.12682443e-01,  2.15557296e+00,
        1.24965063e+02,  1.69797053e+02,  2.07607780e+02,  2.21405161e+02,
        2.12564046e+02,  2.04919514e+02,  1.85437375e+02,  1.60472439e+02,
        1.30006241e+02,  1.16633903e+02,  9.45591686e+01,  8.51810129e+01,
        6.61256209e+01,  5.40760278e+01,  5.08604645e+01,  3.80839620e+01,
        3.18737285e+01,  2.82306733e+01,  2.38058393e+01,  2.05395322e+01,
        1.91413597e+01,  1.56524881e+01,  1.42366744e+01,  1.13373552e+01,
        1.13007829e+01,  7.60992050e+00,  7.42964607e+00,  6.45674675e+00,
        5.62550213e+00,  4.86763113e+00,  3.03303684e+00,  3.33257106e+00,
        2.76679870e+00,  2.80674025e+00,  1.82885370e+02,  2.76969435e+02,
        3.31444406e+02,  3.39547619e+02,  3.78243034e+02,  3.49315237e+02,
        3.08886163e+02,  2.80588318e+02,  2.44608402e+02,  2.04327578e+02,
        1.50405695e+02,  1.26641286e+02,  1.08874867e+02,  1.03871804e+02,
        7.89348172e+01,  6.89211714e+01,  6.09910762e+01,  4.99038354e+01,
        4.29965851e+01,  3.42952803e+01,  3.16307946e+01,  2.94585762e+01,
        2.24546324e+01,  2.12191058e+01,  1.69916640e+01,  1.25519327e+01,
        1.41577860e+01,  1.36798856e+01,  9.02230283e+00,  6.48343132e+00,
        7.26575206e+00,  7.40203758e+00,  4.77354634e+00,  3.74196128e+00,
        2.45777191e+01,  3.89363832e+01,  7.06106907e+01,  7.54964604e+01,
        7.64654798e+01,  7.16507037e+01,  6.66448326e+01,  6.07308440e+01,
        6.95348198e+01,  6.10805478e+01,  6.40364599e+01,  1.15038033e+01,
        5.53472713e+01,  1.85994709e+01,  3.22118231e+01,  3.28545133e+01,
        2.84929356e+01,  1.98117054e+01,  1.65364282e+01,  8.64900169e+00,
        8.29363085e+00,  5.48735936e+00,  1.52953257e+01,  1.00911248e+01,
       -3.57084910e+00,  9.71277188e+00, -4.11183518e+00,  7.34693511e+00,
        5.64697279e+00,  5.30137794e+00, -7.33533021e+00,  3.85561714e+00,
        3.91949277e+00,  3.46974646e+00,  5.86845529e+01,  5.88855764e+01,
        1.07405053e+02,  8.77842085e+01,  1.19110556e+02,  1.24758509e+02,
        1.26255034e+02,  1.18939804e+02,  1.13013059e+02,  8.93052781e+01,
        8.01842782e+01,  8.95872653e+01,  7.07045829e+01,  7.89771006e+01,
        5.97666169e+01,  5.36700098e+01,  4.10811949e+01,  2.74842228e+01,
        2.20541837e+01,  2.14381039e+01,  2.93745782e+01,  2.71488853e+01,
        9.23034727e+00,  1.28504126e+01, -8.63653253e-01, -3.62346754e+00,
       -2.84569812e+01,  6.15507975e+00,  8.81964618e+00,  4.21112161e+00,
        9.63238191e+00,  1.03595207e+01,  7.89908489e-02, -8.72974765e-01,
        7.98295127e+00,  9.90663134e+00,  2.20931664e+01,  2.42542462e+00,
        3.37859171e+01,  4.68566564e+01,  2.35475578e+01,  2.58005751e+01,
        2.61087426e+01,  2.65041606e+01,  2.16891243e+01,  2.20520775e+01,
        1.31410219e+01,  1.29401044e+01,  1.68042433e+01,  4.07674680e+00,
        1.09048872e+01,  1.85287497e+01,  6.21538980e+00,  1.13815211e+01,
       -5.32923164e+00, -4.28573726e+00, -4.41645121e+00,  7.44452074e-01,
       -4.84027666e+00,  2.04637428e+00, -1.55602614e+00,  4.29400506e+00,
        1.01917525e+00, -2.53472920e+00,  2.76535336e+00, -2.95487543e+00,
       -4.47554984e+00,  1.35282366e+00,  1.36709676e+01,  1.93941230e+01,
        4.01782550e+01,  3.13189920e+01,  4.06994627e+01,  5.81627311e+01,
        3.67055014e+01,  4.29709209e+01,  1.95396703e+01,  5.38021997e+01,
        3.86459121e+01,  4.30308442e+01,  3.91350872e+01,  2.65516298e+01,
        1.70343865e+01,  2.12340360e+01,  1.00227495e+01,  3.06506189e+01,
        1.16017581e+01,  1.27432539e+01,  1.18022838e+01,  8.08287797e+00,
       -7.82445982e-02, -8.34399932e-01, -2.62460185e+00, -2.66060013e+00,
       -1.04058382e+00,  5.26701008e+00,  4.43198405e+00,  5.01204002e+00,
        4.19380138e+00, -1.72702006e-01, -6.76846823e+00, -1.28295209e+00])
 message: 'Iteration limit reached'
    nfev: 1099990
     nit: 100000
    njev: 100000
  status: 9
 success: False
       x: array([ 9.15174124e+03,  9.99999300e-01,  9.99999665e-01,  9.99999670e-01,
        9.99999608e-01,  9.99999659e-01,  9.99999717e-01,  9.99999347e-01,
        9.99999767e-01,  9.99999733e-01,  9.99999551e-01,  9.99999735e-01,
        9.99999698e-01,  9.99999764e-01,  9.99999646e-01,  9.99999753e-01,
        9.99999717e-01,  9.99999793e-01,  9.99999789e-01,  9.99999751e-01,
        9.99999820e-01,  9.99999782e-01,  9.99999799e-01,  9.99999828e-01,
        9.99999822e-01,  9.99999826e-01,  9.99999792e-01,  9.99999770e-01,
        9.99999807e-01,  9.99999796e-01,  9.99999852e-01,  9.99999923e-01,
        9.99999863e-01,  9.99999827e-01,  9.99999902e-01,  4.99992500e-05,
        9.99999505e-01,  9.99999670e-01,  9.99999625e-01,  9.99999623e-01,
        9.99999743e-01,  9.99999687e-01,  9.99999669e-01,  9.99999731e-01,
        9.99999752e-01,  9.99999689e-01,  9.99999726e-01,  9.99999765e-01,
        9.99999605e-01,  9.99999765e-01,  9.99999738e-01,  9.99999622e-01,
        9.99999789e-01,  9.99999810e-01,  9.99999815e-01,  9.99999834e-01,
        9.99999809e-01,  9.99999864e-01,  9.99999667e-01,  9.99999705e-01,
        9.99999677e-01,  9.99999804e-01,  9.99999821e-01,  9.99999819e-01,
        9.99999885e-01,  9.99999902e-01,  9.99999936e-01,  1.00000046e+00,
        9.99999841e-01,  9.99999822e-01,  9.99999948e-01,  9.99999787e-01,
        9.99999885e-01,  9.99999800e-01,  9.99999773e-01,  9.99999809e-01,
        9.99999620e-01,  9.99999733e-01,  9.99999770e-01,  9.99999602e-01,
        9.99999655e-01,  9.99999604e-01,  9.99999724e-01,  9.99999963e-01,
        9.99999838e-01,  9.99999664e-01,  9.99999606e-01,  9.99999767e-01,
        9.99999904e-01,  9.99999819e-01,  9.99999923e-01,  9.99999786e-01,
        9.99999893e-01,  9.99999955e-01,  9.99999970e-01,  9.99999796e-01,
        9.99999925e-01,  9.99999951e-01,  9.99999900e-01,  9.99999815e-01,
        1.00000013e+00,  9.99999792e-01,  9.99999720e-01,  1.00000029e+00,
       -4.99992500e-05,  9.99999992e-01,  9.99999846e-01,  9.99999917e-01,
        9.99999778e-01,  9.99999841e-01,  9.99999816e-01,  9.99999770e-01,
        9.99999885e-01,  9.99999807e-01,  9.99999795e-01,  9.99999706e-01,
        9.99999805e-01,  9.99999797e-01,  9.99999774e-01,  9.99999814e-01,
        9.99999850e-01,  9.99999889e-01,  9.99999867e-01,  9.99999778e-01,
        9.99999886e-01,  9.99999862e-01,  9.99999344e-01,  9.99999487e-01,
        9.99999831e-01,  9.99999632e-01,  9.99999882e-01,  9.99999552e-01,
        1.00000011e+00,  9.99999689e-01,  9.99999798e-01,  9.99999830e-01,
        9.99999975e-01,  9.99999981e-01,  9.99999495e-01,  1.00000005e+00,
        9.99999947e-01,  9.99999871e-01,  9.99999884e-01,  9.99999841e-01,
        1.00000002e+00,  9.99999931e-01,  9.99999877e-01,  9.99999959e-01,
        9.99999870e-01,  1.00000001e+00,  9.99999880e-01,  9.99999862e-01,
        9.99999832e-01,  9.99999896e-01,  1.00000004e+00,  9.99999759e-01,
        9.99999712e-01,  9.99999954e-01,  9.99999950e-01,  1.00000001e+00,
        9.99999978e-01,  1.00000010e+00,  1.00000039e+00,  1.00000003e+00,
        9.99999967e-01,  1.00000014e+00,  9.99999842e-01,  1.00000001e+00,
        1.00000010e+00,  9.99999854e-01,  9.99999789e-01,  9.99999819e-01,
        9.99999924e-01,  3.11868346e-05,  9.99999994e-01,  9.99999962e-01,
        9.99999978e-01,  9.99999921e-01,  9.99999815e-01,  9.99999895e-01,
        9.99999922e-01,  9.99999924e-01,  9.99999859e-01,  9.99999906e-01,
        9.99999924e-01,  9.99999954e-01,  1.00000004e+00,  9.99999773e-01,
        1.00000001e+00,  9.99999893e-01,  9.99999919e-01,  1.00000012e+00,
        9.99999962e-01,  9.99999975e-01,  1.00000004e+00,  9.99999899e-01,
        1.00000005e+00,  1.00000008e+00,  9.99999723e-01,  1.00000048e+00,
        9.99999963e-01,  1.00000010e+00,  1.00000036e+00,  1.00000008e+00,
        1.00000008e+00,  9.99999972e-01,  1.00000031e+00,  1.00000016e+00,
        9.99999024e-01,  9.99998835e-01,  9.99999136e-01,  9.99999465e-01,
        9.99999151e-01,  9.99999319e-01,  9.99999311e-01,  9.99999308e-01,
        9.99999318e-01,  9.99999437e-01,  9.99999632e-01,  9.99999655e-01,
        9.99999617e-01,  9.99999432e-01,  9.99999232e-01,  9.99999642e-01,
        9.99999697e-01,  9.99999527e-01,  9.99999683e-01,  9.99999076e-01,
        9.99999785e-01,  9.99999631e-01,  9.99999635e-01,  9.99999786e-01,
        9.99999738e-01,  9.99999772e-01,  9.99999802e-01,  9.99999664e-01,
        9.99999727e-01,  9.99999943e-01,  9.99999306e-01,  9.99999874e-01,
        9.99999778e-01,  9.99999836e-01,  9.99999041e-01,  9.99999171e-01,
        9.99999212e-01,  9.99998748e-01,  9.99999358e-01,  9.99999263e-01,
        9.99999501e-01,  9.99999432e-01,  9.99999550e-01,  9.99999468e-01,
        9.99999624e-01,  9.99999670e-01,  9.99999538e-01,  9.99999706e-01,
        9.99999586e-01,  9.99999629e-01,  9.99999551e-01,  9.99999684e-01,
        9.99999509e-01,  9.99999732e-01,  9.99998816e-01,  9.99999593e-01,
        9.99999688e-01,  9.99999607e-01,  9.99999808e-01,  9.99999719e-01,
        9.99999790e-01,  9.99999837e-01,  9.99999850e-01,  9.99999828e-01,
        9.99999804e-01,  9.99999824e-01,  1.00000037e+00,  9.99999884e-01,
        9.99999333e-01,  9.99999661e-01,  9.99999591e-01,  9.99999673e-01,
        9.99999583e-01,  9.99999610e-01,  9.99999409e-01,  9.99999679e-01,
        9.99999617e-01,  9.99999473e-01,  9.99999678e-01,  9.99999690e-01,
        9.99999792e-01,  9.99999687e-01,  9.99999548e-01,  9.99999546e-01,
        9.99999736e-01,  9.99999737e-01,  9.99999683e-01,  9.99999653e-01,
        9.99999661e-01,  1.00000011e+00,  9.99999581e-01,  9.99999760e-01,
        9.99999518e-01,  9.99999853e-01,  9.99998713e-01,  9.99999659e-01,
        9.99999798e-01,  9.99999827e-01,  9.99999085e-01,  9.99996922e-01,
        9.99999770e-01,  1.00000002e+00,  9.99999451e-01,  9.99999451e-01,
        9.99999584e-01,  9.99999735e-01,  9.99999675e-01,  9.99999609e-01,
        9.99999754e-01,  9.99999879e-01,  9.99999634e-01,  9.99999756e-01,
        9.99999544e-01,  9.99999678e-01,  9.99999480e-01,  9.99999229e-01,
        9.99999656e-01,  9.99998868e-01,  9.99999756e-01,  9.99999701e-01,
        9.99999334e-01,  9.99999507e-01,  9.99998629e-01,  9.99999506e-01,
        9.99999827e-01,  9.99999373e-01,  9.99998916e-01,  9.99999723e-01,
        9.99999785e-01,  9.99999688e-01,  9.99998960e-01,  9.99999887e-01,
        9.99999767e-01,  1.00000019e+00,  9.99999549e-01,  9.99999990e-01,
        9.99999912e-01,  9.99999918e-01,  9.99999898e-01,  9.99999612e-01,
        9.99999924e-01,  9.99999744e-01,  9.99999821e-01,  1.00000001e+00,
        9.99999814e-01,  9.99999682e-01,  9.99999845e-01,  1.00000022e+00,
        9.99999744e-01,  9.99999974e-01,  9.99999935e-01,  1.00000016e+00,
        9.99999733e-01,  9.99999595e-01,  1.00000020e+00,  1.00000018e+00,
        1.00000069e+00,  1.00000037e+00,  9.99999912e-01,  1.00000023e+00,
        1.00000113e+00,  1.00000093e+00,  9.99999962e-01,  1.00000060e+00,
        9.99999632e-01,  1.00000064e+00,  1.00000049e+00,  1.00000057e+00,
        9.99999573e-01,  9.99999754e-01,  1.00000023e+00,  9.99999810e-01,
        9.99999857e-01,  9.99999861e-01,  9.99999719e-01,  9.99999853e-01,
        9.99999899e-01,  9.99999884e-01,  9.99999828e-01,  9.99999807e-01,
        9.99999720e-01,  9.99999813e-01,  9.99999992e-01,  9.99999983e-01,
        9.99999885e-01,  1.00000005e+00,  9.99999793e-01,  9.99999892e-01,
        9.99999616e-01,  9.99999989e-01,  1.00000024e+00,  9.99999985e-01,
        9.99999908e-01,  9.99999821e-01,  1.00000032e+00,  9.99999685e-01,
        1.00000035e+00,  9.99999928e-01,  1.00000063e+00,  1.00000130e+00,
        1.00000025e+00,  1.00000009e+00,  1.00000022e+00,  1.00000009e+00,
        9.99999169e-01,  9.99999346e-01,  9.99999303e-01,  9.99999629e-01,
        9.99999637e-01,  9.99999618e-01,  9.99999627e-01,  9.99999619e-01,
        9.99999784e-01,  9.99999641e-01,  9.99999759e-01,  9.99999696e-01,
        9.99999716e-01,  9.99999850e-01,  9.99999782e-01,  9.99999877e-01,
        9.99999825e-01,  9.99999923e-01,  9.99999920e-01,  9.99999917e-01,
        9.99999895e-01,  9.99999914e-01,  9.99999884e-01,  9.99999935e-01,
        9.99999937e-01,  9.99999939e-01,  9.99999930e-01,  9.99999912e-01,
        9.99999930e-01,  9.99999907e-01,  9.99999984e-01,  9.99999971e-01,
        9.99999980e-01,  9.99999981e-01,  9.99999423e-01,  9.99999463e-01,
        9.99999407e-01,  9.99999666e-01,  9.99999572e-01,  9.99999614e-01,
        9.99999735e-01,  9.99999609e-01,  9.99999718e-01,  9.99999737e-01,
        9.99999731e-01,  9.99999741e-01,  9.99999870e-01,  9.99999707e-01,
        9.99999846e-01,  9.99999884e-01,  9.99999866e-01,  9.99999854e-01,
        9.99999848e-01,  9.99999873e-01,  9.99999984e-01,  9.99999831e-01,
        9.99999911e-01,  9.99999940e-01,  9.99999911e-01,  9.99999962e-01,
        9.99999951e-01,  9.99999912e-01,  9.99999958e-01,  9.99999992e-01,
        9.99999934e-01,  9.99999945e-01,  9.99999930e-01,  9.99999951e-01,
        9.99999963e-01,  9.99999961e-01,  9.99999852e-01,  9.99999837e-01,
        9.99999747e-01,  9.99999815e-01,  9.99999748e-01,  9.99999733e-01,
        9.99999573e-01,  9.99999599e-01,  9.99999475e-01,  9.99999854e-01,
        9.99999328e-01,  9.99999877e-01,  9.99999759e-01,  9.99999365e-01,
        9.99999636e-01,  9.99999669e-01,  9.99999808e-01,  9.99999872e-01,
        9.99999673e-01,  9.99999530e-01,  9.99999583e-01,  9.99999451e-01,
        9.99999756e-01,  9.99998072e-01,  1.00000002e+00,  9.99999711e-01,
        9.99999333e-01,  9.99999744e-01,  1.00000015e+00,  9.99999617e-01,
        9.99999639e-01,  9.99999405e-01,  9.99999906e-01,  9.99999981e-01,
        9.99999889e-01,  9.99999899e-01,  9.99999845e-01,  9.99999814e-01,
        9.99999812e-01,  9.99999665e-01,  9.99999724e-01,  9.99999689e-01,
        9.99999729e-01,  9.99999636e-01,  9.99999640e-01,  9.99999604e-01,
        9.99999558e-01,  9.99999727e-01,  9.99999607e-01,  9.99999765e-01,
        9.99999732e-01,  9.99999581e-01,  9.99999570e-01,  9.99999590e-01,
        9.99999512e-01,  9.99999813e-01,  9.99999628e-01,  9.99999767e-01,
        1.00000005e+00,  9.99999865e-01,  9.99999358e-01,  9.99999766e-01,
        9.99999637e-01,  9.99998958e-01,  9.99999889e-01,  9.99999870e-01,
        9.99999843e-01,  9.99999875e-01,  9.99999763e-01,  9.99999954e-01,
        9.99999755e-01,  9.99999818e-01,  9.99999872e-01,  9.99999885e-01,
        9.99999900e-01,  9.99999910e-01,  9.99999911e-01,  9.99999888e-01,
        9.99999954e-01,  9.99999889e-01,  9.99999893e-01,  9.99999994e-01,
        9.99999897e-01,  9.99999684e-01,  9.99999835e-01,  9.99999733e-01,
        1.00000004e+00,  1.00000009e+00,  1.00000010e+00,  9.99999961e-01,
        1.00000011e+00,  9.99999896e-01,  1.00000022e+00,  9.99999760e-01,
        9.99999942e-01,  1.00000010e+00,  9.99999802e-01,  1.00000021e+00,
        1.00000031e+00,  9.99999890e-01,  9.99999771e-01,  9.99999854e-01,
        9.99999828e-01,  9.99999862e-01,  9.99999851e-01,  9.99999862e-01,
        9.99999907e-01,  9.99999873e-01,  9.99999985e-01,  9.99999852e-01,
        9.99999905e-01,  9.99999847e-01,  9.99999902e-01,  9.99999921e-01,
        9.99999977e-01,  9.99999904e-01,  9.99999963e-01,  9.99999805e-01,
        9.99999904e-01,  9.99999843e-01,  9.99999775e-01,  9.99999873e-01,
        9.99999976e-01,  9.99999986e-01,  1.00000001e+00,  1.00000008e+00,
        9.99999978e-01,  9.99999740e-01,  9.99999817e-01,  9.99999767e-01,
        9.99999722e-01,  1.00000001e+00,  1.00000076e+00,  1.00000010e+00])
Traceback (most recent call last):
  File "combineYears.py", line 48, in test_mu
    result = pyhf.infer.hypotest(mu_test, self.data, self.model, qtilde=False, return_expected_set=True)
  File "/u/ki/nhartman/gpfs/miniconda3/envs/my_env/lib/python3.8/site-packages/pyhf/infer/__init__.py", line 134, in hypotest
    calc = utils.create_calculator(
  File "/u/ki/nhartman/gpfs/miniconda3/envs/my_env/lib/python3.8/site-packages/pyhf/infer/utils.py", line 45, in create_calculator
    return {'asymptotics': AsymptoticCalculator, 'toybased': ToyCalculator}[calctype](
TypeError: __init__() got an unexpected keyword argument 'qtilde'

During handling of the above exception, another exception occurred:

Traceback (most recent call last):
  File "/u/ki/nhartman/gpfs/miniconda3/envs/my_env/lib/python3.8/site-packages/pyhf/optimize/mixins.py", line 49, in _internal_minimize
    assert result.success
AssertionError

During handling of the above exception, another exception occurred:

Traceback (most recent call last):
  File "combineYears.py", line 103, in run_scan
    out_obs_exp = [self.min_for_lim(args) for args in args_med]
  File "combineYears.py", line 103, in <listcomp>
    out_obs_exp = [self.min_for_lim(args) for args in args_med]
  File "combineYears.py", line 61, in min_for_lim
    return root_scalar(self.test_mu, bracket=(guess*(1-window),guess*(1+window)),
  File "/u/ki/nhartman/gpfs/miniconda3/envs/my_env/lib/python3.8/site-packages/scipy/optimize/_root_scalar.py", line 249, in root_scalar
    r, sol = methodc(f, a, b, args=args, **kwargs)
  File "/u/ki/nhartman/gpfs/miniconda3/envs/my_env/lib/python3.8/site-packages/scipy/optimize/zeros.py", line 776, in brentq
    r = _zeros._brentq(f, a, b, xtol, rtol, maxiter, args, full_output, disp)
  File "combineYears.py", line 50, in test_mu
    result = pyhf.infer.hypotest(mu_test, self.data, self.model, test_stat='q', return_expected_set=True)
  File "/u/ki/nhartman/gpfs/miniconda3/envs/my_env/lib/python3.8/site-packages/pyhf/infer/__init__.py", line 144, in hypotest
    teststat = calc.teststatistic(poi_test)
  File "/u/ki/nhartman/gpfs/miniconda3/envs/my_env/lib/python3.8/site-packages/pyhf/infer/calculators.py", line 316, in teststatistic
    qmu_v = teststat_func(
  File "/u/ki/nhartman/gpfs/miniconda3/envs/my_env/lib/python3.8/site-packages/pyhf/infer/test_statistics.py", line 114, in qmu
    return _qmu_like(mu, data, pdf, init_pars, par_bounds, fixed_params)
  File "/u/ki/nhartman/gpfs/miniconda3/envs/my_env/lib/python3.8/site-packages/pyhf/infer/test_statistics.py", line 19, in _qmu_like
    tmu_like_stat, (_, muhatbhat) = _tmu_like(
  File "/u/ki/nhartman/gpfs/miniconda3/envs/my_env/lib/python3.8/site-packages/pyhf/infer/test_statistics.py", line 38, in _tmu_like
    mubhathat, fixed_poi_fit_lhood_val = fixed_poi_fit(
  File "/u/ki/nhartman/gpfs/miniconda3/envs/my_env/lib/python3.8/site-packages/pyhf/infer/mle.py", line 196, in fixed_poi_fit
    return fit(data, pdf, init_pars, par_bounds, fixed_params, **kwargs)
  File "/u/ki/nhartman/gpfs/miniconda3/envs/my_env/lib/python3.8/site-packages/pyhf/infer/mle.py", line 125, in fit
    return opt.minimize(
  File "/u/ki/nhartman/gpfs/miniconda3/envs/my_env/lib/python3.8/site-packages/pyhf/optimize/mixins.py", line 160, in minimize
    result = self._internal_minimize(**minimizer_kwargs, options=kwargs)
  File "/u/ki/nhartman/gpfs/miniconda3/envs/my_env/lib/python3.8/site-packages/pyhf/optimize/mixins.py", line 52, in _internal_minimize
    raise exceptions.FailedMinimization(result)
pyhf.exceptions.FailedMinimization: Iteration limit reached

During handling of the above exception, another exception occurred:

Traceback (most recent call last):
  File "combineYears.py", line 48, in test_mu
    result = pyhf.infer.hypotest(mu_test, self.data, self.model, qtilde=False, return_expected_set=True)
  File "/u/ki/nhartman/gpfs/miniconda3/envs/my_env/lib/python3.8/site-packages/pyhf/infer/__init__.py", line 134, in hypotest
    calc = utils.create_calculator(
  File "/u/ki/nhartman/gpfs/miniconda3/envs/my_env/lib/python3.8/site-packages/pyhf/infer/utils.py", line 45, in create_calculator
    return {'asymptotics': AsymptoticCalculator, 'toybased': ToyCalculator}[calctype](
TypeError: __init__() got an unexpected keyword argument 'qtilde'

During handling of the above exception, another exception occurred:

Traceback (most recent call last):
  File "/u/ki/nhartman/gpfs/miniconda3/envs/my_env/lib/python3.8/site-packages/pyhf/optimize/mixins.py", line 49, in _internal_minimize
    assert result.success
AssertionError
Using uproot4
ws_in ['dEta_cats/ws-systs-1NP-noBS-dEta_hh-cat-corr-XX-SM-HH-unblind-3_dEta_hh_2SR_rev_dEta.json']
Filling in XX with the years: 16,17,18
Running with pytorch with 64b precision
Initial guess for bands (mu guess = 1.00):
[1316.39879613 1767.26786563 2453.11268798 3413.37481649 4575.8706197 ]
Beginning optimization, mu valid to 0.01
Finding med_mu for alpha = 0.05
obs tensor(0.)
Param: 2, mu: 1316.399, CLs: 0.000
Looks like initial guess was bad? Expanding for one more try
obs tensor(9.2366e-199)
Param: 2, mu: 658.199, CLs: 0.000
Traceback (most recent call last):
  File "combineYears.py", line 48, in test_mu
    result = pyhf.infer.hypotest(mu_test, self.data, self.model, qtilde=False, return_expected_set=True)
  File "/u/ki/nhartman/gpfs/miniconda3/envs/my_env/lib/python3.8/site-packages/pyhf/infer/__init__.py", line 134, in hypotest
    calc = utils.create_calculator(
  File "/u/ki/nhartman/gpfs/miniconda3/envs/my_env/lib/python3.8/site-packages/pyhf/infer/utils.py", line 45, in create_calculator
    return {'asymptotics': AsymptoticCalculator, 'toybased': ToyCalculator}[calctype](
TypeError: __init__() got an unexpected keyword argument 'qtilde'

During handling of the above exception, another exception occurred:

Traceback (most recent call last):
  File "/u/ki/nhartman/gpfs/miniconda3/envs/my_env/lib/python3.8/site-packages/pyhf/optimize/mixins.py", line 49, in _internal_minimize
    assert result.success
AssertionError

During handling of the above exception, another exception occurred:

Traceback (most recent call last):
  File "combineYears.py", line 103, in run_scan
    out_obs_exp = [self.min_for_lim(args) for args in args_med]
  File "combineYears.py", line 103, in <listcomp>
    out_obs_exp = [self.min_for_lim(args) for args in args_med]
  File "combineYears.py", line 61, in min_for_lim
    return root_scalar(self.test_mu, bracket=(guess*(1-window),guess*(1+window)), 
  File "/u/ki/nhartman/gpfs/miniconda3/envs/my_env/lib/python3.8/site-packages/scipy/optimize/_root_scalar.py", line 249, in root_scalar
    r, sol = methodc(f, a, b, args=args, **kwargs)
  File "/u/ki/nhartman/gpfs/miniconda3/envs/my_env/lib/python3.8/site-packages/scipy/optimize/zeros.py", line 776, in brentq
    r = _zeros._brentq(f, a, b, xtol, rtol, maxiter, args, full_output, disp)
  File "combineYears.py", line 50, in test_mu
    result = pyhf.infer.hypotest(mu_test, self.data, self.model, test_stat='q', return_expected_set=True)
  File "/u/ki/nhartman/gpfs/miniconda3/envs/my_env/lib/python3.8/site-packages/pyhf/infer/__init__.py", line 144, in hypotest
    teststat = calc.teststatistic(poi_test)
  File "/u/ki/nhartman/gpfs/miniconda3/envs/my_env/lib/python3.8/site-packages/pyhf/infer/calculators.py", line 316, in teststatistic
    qmu_v = teststat_func(
  File "/u/ki/nhartman/gpfs/miniconda3/envs/my_env/lib/python3.8/site-packages/pyhf/infer/test_statistics.py", line 114, in qmu
    return _qmu_like(mu, data, pdf, init_pars, par_bounds, fixed_params)
  File "/u/ki/nhartman/gpfs/miniconda3/envs/my_env/lib/python3.8/site-packages/pyhf/infer/test_statistics.py", line 19, in _qmu_like
    tmu_like_stat, (_, muhatbhat) = _tmu_like(
  File "/u/ki/nhartman/gpfs/miniconda3/envs/my_env/lib/python3.8/site-packages/pyhf/infer/test_statistics.py", line 38, in _tmu_like
    mubhathat, fixed_poi_fit_lhood_val = fixed_poi_fit(
  File "/u/ki/nhartman/gpfs/miniconda3/envs/my_env/lib/python3.8/site-packages/pyhf/infer/mle.py", line 196, in fixed_poi_fit
    return fit(data, pdf, init_pars, par_bounds, fixed_params, **kwargs)
  File "/u/ki/nhartman/gpfs/miniconda3/envs/my_env/lib/python3.8/site-packages/pyhf/infer/mle.py", line 125, in fit
    return opt.minimize(
  File "/u/ki/nhartman/gpfs/miniconda3/envs/my_env/lib/python3.8/site-packages/pyhf/optimize/mixins.py", line 160, in minimize
    result = self._internal_minimize(**minimizer_kwargs, options=kwargs)
  File "/u/ki/nhartman/gpfs/miniconda3/envs/my_env/lib/python3.8/site-packages/pyhf/optimize/mixins.py", line 52, in _internal_minimize
    raise exceptions.FailedMinimization(result)
pyhf.exceptions.FailedMinimization: Iteration limit reached

During handling of the above exception, another exception occurred:

Traceback (most recent call last):
  File "combineYears.py", line 48, in test_mu
    result = pyhf.infer.hypotest(mu_test, self.data, self.model, qtilde=False, return_expected_set=True)
  File "/u/ki/nhartman/gpfs/miniconda3/envs/my_env/lib/python3.8/site-packages/pyhf/infer/__init__.py", line 134, in hypotest
    calc = utils.create_calculator(
  File "/u/ki/nhartman/gpfs/miniconda3/envs/my_env/lib/python3.8/site-packages/pyhf/infer/utils.py", line 45, in create_calculator
    return {'asymptotics': AsymptoticCalculator, 'toybased': ToyCalculator}[calctype](
TypeError: __init__() got an unexpected keyword argument 'qtilde'

During handling of the above exception, another exception occurred:

Traceback (most recent call last):
  File "/u/ki/nhartman/gpfs/miniconda3/envs/my_env/lib/python3.8/site-packages/pyhf/optimize/mixins.py", line 49, in _internal_minimize
    assert result.success
AssertionError

During handling of the above exception, another exception occurred:

Traceback (most recent call last):
  File "combineYears.py", line 225, in <module>
    lims = find.run_scan()
  File "combineYears.py", line 113, in run_scan
    out_obs_exp = [self.min_for_lim(args) for args in args_med]
  File "combineYears.py", line 113, in <listcomp>
    out_obs_exp = [self.min_for_lim(args) for args in args_med]
  File "combineYears.py", line 61, in min_for_lim
    return root_scalar(self.test_mu, bracket=(guess*(1-window),guess*(1+window)), 
  File "/u/ki/nhartman/gpfs/miniconda3/envs/my_env/lib/python3.8/site-packages/scipy/optimize/_root_scalar.py", line 249, in root_scalar
    r, sol = methodc(f, a, b, args=args, **kwargs)
  File "/u/ki/nhartman/gpfs/miniconda3/envs/my_env/lib/python3.8/site-packages/scipy/optimize/zeros.py", line 776, in brentq
    r = _zeros._brentq(f, a, b, xtol, rtol, maxiter, args, full_output, disp)
  File "combineYears.py", line 50, in test_mu
    result = pyhf.infer.hypotest(mu_test, self.data, self.model, test_stat='q', return_expected_set=True)
  File "/u/ki/nhartman/gpfs/miniconda3/envs/my_env/lib/python3.8/site-packages/pyhf/infer/__init__.py", line 144, in hypotest
    teststat = calc.teststatistic(poi_test)
  File "/u/ki/nhartman/gpfs/miniconda3/envs/my_env/lib/python3.8/site-packages/pyhf/infer/calculators.py", line 316, in teststatistic
    qmu_v = teststat_func(
  File "/u/ki/nhartman/gpfs/miniconda3/envs/my_env/lib/python3.8/site-packages/pyhf/infer/test_statistics.py", line 114, in qmu
    return _qmu_like(mu, data, pdf, init_pars, par_bounds, fixed_params)
  File "/u/ki/nhartman/gpfs/miniconda3/envs/my_env/lib/python3.8/site-packages/pyhf/infer/test_statistics.py", line 19, in _qmu_like
    tmu_like_stat, (_, muhatbhat) = _tmu_like(
  File "/u/ki/nhartman/gpfs/miniconda3/envs/my_env/lib/python3.8/site-packages/pyhf/infer/test_statistics.py", line 38, in _tmu_like
    mubhathat, fixed_poi_fit_lhood_val = fixed_poi_fit(
  File "/u/ki/nhartman/gpfs/miniconda3/envs/my_env/lib/python3.8/site-packages/pyhf/infer/mle.py", line 196, in fixed_poi_fit
    return fit(data, pdf, init_pars, par_bounds, fixed_params, **kwargs)
  File "/u/ki/nhartman/gpfs/miniconda3/envs/my_env/lib/python3.8/site-packages/pyhf/infer/mle.py", line 125, in fit
    return opt.minimize(
  File "/u/ki/nhartman/gpfs/miniconda3/envs/my_env/lib/python3.8/site-packages/pyhf/optimize/mixins.py", line 160, in minimize
    result = self._internal_minimize(**minimizer_kwargs, options=kwargs)
  File "/u/ki/nhartman/gpfs/miniconda3/envs/my_env/lib/python3.8/site-packages/pyhf/optimize/mixins.py", line 52, in _internal_minimize
    raise exceptions.FailedMinimization(result)
pyhf.exceptions.FailedMinimization: Iteration limit reached

------------------------------------------------------------
Sender: LSF System <lsf@bubble0002>
Subject: Job 810156: <dEta_hh_3_2SR_systs-1NP-noBS-dEta_hh-cat-corr_combYrs> in cluster <slac> Exited

Job <dEta_hh_3_2SR_systs-1NP-noBS-dEta_hh-cat-corr_combYrs> was submitted from host <cent7a> by user <nhartman> in cluster <slac> at Tue Apr 20 15:14:28 2021
Job was executed on host(s) <bubble0002>, in queue <long>, as user <nhartman> in cluster <slac> at Tue Apr 20 15:14:30 2021
</u/ki/nhartman> was used as the home directory.
</u/ki/nhartman/gpfs/diHiggs4b/stats-results> was used as the working directory.
Started at Tue Apr 20 15:14:30 2021
Terminated at Thu Apr 22 02:18:52 2021
Results reported at Thu Apr 22 02:18:52 2021

Your job looked like:

------------------------------------------------------------
# LSBATCH: User input
python combineYears.py --ws_in dEta_cats/ws-systs-1NP-noBS-dEta_hh-cat-corr-XX-SM-HH-unblind-3_dEta_hh_2SR_rev_dEta.json
------------------------------------------------------------

Exited with exit code 1.

Resource usage summary:

    CPU time :                                   125948.29 sec.
    Max Memory :                                 222 MB
    Average Memory :                             217.79 MB
    Total Requested Memory :                     -
    Delta Memory :                               -
    Max Swap :                                   5 MB
    Max Processes :                              5
    Max Threads :                                10
    Run time :                                   126266 sec.
    Turnaround time :                            126264 sec.

The output (if any) is above this job summary.

