Using uproot4
ws_in ['dEta_cats/ws-stat-only-dEta_hh-cat-noBS-XX-SM-HH-unblind-3_dEta_hh_1SR_rev_dEta.json']
Filling in XX with the years: 16,17,18
Traceback (most recent call last):
  File "combineYears.py", line 211, in <module>
    ws = combineWorkspaces(ws_in_list,ws_out)
  File "combineYears.py", line 163, in combineWorkspaces
    with open(fname) as f:
FileNotFoundError: [Errno 2] No such file or directory: 'dEta_cats/ws-stat-only-dEta_hh-cat-noBS-16-SM-HH-unblind-3_dEta_hh_1SR_rev_dEta.json'

------------------------------------------------------------
Sender: LSF System <lsf@deft0018>
Subject: Job 810149: <dEta_hh_3_1SR_stat-only-dEta_hh-cat-noBS_combYrs> in cluster <slac> Exited

Job <dEta_hh_3_1SR_stat-only-dEta_hh-cat-noBS_combYrs> was submitted from host <cent7a> by user <nhartman> in cluster <slac> at Tue Apr 20 15:14:27 2021
Job was executed on host(s) <deft0018>, in queue <long>, as user <nhartman> in cluster <slac> at Tue Apr 20 15:14:29 2021
</u/ki/nhartman> was used as the home directory.
</u/ki/nhartman/gpfs/diHiggs4b/stats-results> was used as the working directory.
Started at Tue Apr 20 15:14:29 2021
Terminated at Tue Apr 20 15:14:38 2021
Results reported at Tue Apr 20 15:14:38 2021

Your job looked like:

------------------------------------------------------------
# LSBATCH: User input
python combineYears.py --ws_in dEta_cats/ws-stat-only-dEta_hh-cat-noBS-XX-SM-HH-unblind-3_dEta_hh_1SR_rev_dEta.json
------------------------------------------------------------

Exited with exit code 1.

Resource usage summary:

    CPU time :                                   1.85 sec.
    Max Memory :                                 35 MB
    Average Memory :                             35.00 MB
    Total Requested Memory :                     -
    Delta Memory :                               -
    Max Swap :                                   -
    Max Processes :                              3
    Max Threads :                                4
    Run time :                                   8 sec.
    Turnaround time :                            11 sec.

The output (if any) is above this job summary.

