  0%|          | 0/141 [00:00<?, ?it/s]  1%|          | 1/141 [00:00<00:17,  8.14it/s]  2%|▏         | 3/141 [00:00<00:14,  9.80it/s]  4%|▎         | 5/141 [00:00<00:12, 10.63it/s]  5%|▍         | 7/141 [00:00<00:12, 11.08it/s]  6%|▋         | 9/141 [00:00<00:11, 11.33it/s]  8%|▊         | 11/141 [00:01<00:11, 11.31it/s]  9%|▉         | 13/141 [00:01<00:11, 11.37it/s] 11%|█         | 15/141 [00:01<00:11, 11.45it/s] 12%|█▏        | 17/141 [00:01<00:10, 11.64it/s] 13%|█▎        | 19/141 [00:01<00:10, 11.79it/s] 15%|█▍        | 21/141 [00:01<00:10, 11.96it/s] 16%|█▋        | 23/141 [00:02<00:09, 11.97it/s] 18%|█▊        | 25/141 [00:02<00:09, 11.94it/s] 19%|█▉        | 27/141 [00:02<00:09, 11.84it/s] 21%|██        | 29/141 [00:02<00:09, 11.69it/s] 22%|██▏       | 31/141 [00:02<00:10, 10.72it/s] 23%|██▎       | 33/141 [00:02<00:10,  9.96it/s] 25%|██▍       | 35/141 [00:03<00:10, 10.35it/s] 26%|██▌       | 37/141 [00:03<00:10, 10.25it/s] 28%|██▊       | 39/141 [00:03<00:09, 10.54it/s] 29%|██▉       | 41/141 [00:03<00:09, 10.66it/s] 30%|███       | 43/141 [00:03<00:09,  9.84it/s] 32%|███▏      | 45/141 [00:04<00:09,  9.63it/s] 33%|███▎      | 46/141 [00:04<00:10,  9.33it/s] 33%|███▎      | 47/141 [00:04<00:11,  7.92it/s] 35%|███▍      | 49/141 [00:04<00:10,  8.59it/s] 36%|███▌      | 51/141 [00:04<00:09,  9.20it/s] 38%|███▊      | 53/141 [00:05<00:09,  9.58it/s] 38%|███▊      | 54/141 [00:05<00:09,  9.13it/s] 39%|███▉      | 55/141 [00:05<00:09,  8.99it/s] 40%|███▉      | 56/141 [00:05<00:09,  8.95it/s] 40%|████      | 57/141 [00:05<00:09,  8.91it/s] 42%|████▏     | 59/141 [00:05<00:08,  9.48it/s] 43%|████▎     | 61/141 [00:05<00:08,  9.69it/s] 45%|████▍     | 63/141 [00:06<00:07, 10.02it/s] 46%|████▌     | 65/141 [00:06<00:07, 10.28it/s] 48%|████▊     | 67/141 [00:06<00:07, 10.42it/s] 49%|████▉     | 69/141 [00:06<00:06, 10.52it/s] 50%|█████     | 71/141 [00:06<00:06, 10.01it/s] 52%|█████▏    | 73/141 [00:07<00:06, 10.22it/s] 53%|█████▎    | 75/141 [00:07<00:06, 10.03it/s] 55%|█████▍    | 77/141 [00:07<00:06, 10.10it/s] 56%|█████▌    | 79/141 [00:07<00:06,  9.79it/s] 57%|█████▋    | 81/141 [00:07<00:06,  9.89it/s] 58%|█████▊    | 82/141 [00:08<00:06,  9.79it/s] 60%|█████▉    | 84/141 [00:08<00:05,  9.98it/s] 61%|██████    | 86/141 [00:08<00:05, 10.09it/s] 62%|██████▏   | 88/141 [00:08<00:05, 10.28it/s] 64%|██████▍   | 90/141 [00:08<00:04, 10.23it/s] 65%|██████▌   | 92/141 [00:08<00:04, 10.16it/s] 67%|██████▋   | 94/141 [00:09<00:04, 10.05it/s] 68%|██████▊   | 96/141 [00:09<00:04,  9.81it/s] 70%|██████▉   | 98/141 [00:09<00:04,  9.95it/s] 70%|███████   | 99/141 [00:09<00:04,  9.83it/s] 72%|███████▏  | 101/141 [00:09<00:04,  9.72it/s] 73%|███████▎  | 103/141 [00:10<00:03,  9.89it/s] 74%|███████▍  | 105/141 [00:10<00:03,  9.97it/s] 76%|███████▌  | 107/141 [00:10<00:03, 10.00it/s] 77%|███████▋  | 108/141 [00:10<00:03,  9.95it/s] 77%|███████▋  | 109/141 [00:10<00:03,  9.73it/s] 79%|███████▊  | 111/141 [00:10<00:03,  9.86it/s] 79%|███████▉  | 112/141 [00:11<00:03,  9.54it/s] 81%|████████  | 114/141 [00:11<00:02,  9.73it/s] 82%|████████▏ | 115/141 [00:11<00:02,  9.26it/s] 82%|████████▏ | 116/141 [00:11<00:02,  9.29it/s] 83%|████████▎ | 117/141 [00:11<00:02,  9.03it/s] 84%|████████▎ | 118/141 [00:11<00:02,  9.18it/s] 85%|████████▌ | 120/141 [00:11<00:02,  8.96it/s] 86%|████████▌ | 121/141 [00:12<00:02,  8.97it/s] 87%|████████▋ | 122/141 [00:12<00:02,  9.14it/s] 87%|████████▋ | 123/141 [00:12<00:01,  9.30it/s] 88%|████████▊ | 124/141 [00:12<00:02,  8.23it/s] 89%|████████▊ | 125/141 [00:12<00:01,  8.55it/s] 89%|████████▉ | 126/141 [00:12<00:02,  7.43it/s] 90%|█████████ | 127/141 [00:12<00:01,  7.98it/s] 91%|█████████ | 128/141 [00:12<00:01,  7.63it/s] 91%|█████████▏| 129/141 [00:13<00:01,  6.78it/s] 92%|█████████▏| 130/141 [00:13<00:01,  7.03it/s] 93%|█████████▎| 131/141 [00:13<00:01,  7.02it/s] 94%|█████████▎| 132/141 [00:13<00:01,  7.57it/s] 94%|█████████▍| 133/141 [00:13<00:00,  8.03it/s] 95%|█████████▌| 134/141 [00:13<00:00,  7.50it/s] 96%|█████████▌| 135/141 [00:14<00:00,  6.06it/s] 96%|█████████▋| 136/141 [00:14<00:00,  6.67it/s] 97%|█████████▋| 137/141 [00:14<00:00,  6.11it/s] 98%|█████████▊| 138/141 [00:14<00:00,  6.27it/s] 99%|█████████▊| 139/141 [00:14<00:00,  6.07it/s] 99%|█████████▉| 140/141 [00:14<00:00,  6.62it/s]100%|██████████| 141/141 [00:14<00:00,  7.20it/s]100%|██████████| 141/141 [00:14<00:00,  9.48it/s]
  0%|          | 0/1 [00:00<?, ?it/s]100%|██████████| 1/1 [00:01<00:00,  1.14s/it]100%|██████████| 1/1 [00:01<00:00,  1.14s/it]
  0%|          | 0/1 [00:00<?, ?it/s]100%|██████████| 1/1 [00:00<00:00,  2.03it/s]100%|██████████| 1/1 [00:00<00:00,  2.02it/s]No direct category match for 16 assuming 4b
{'16': {'3b': [], '3b1l': [], '3b1nl': [], '4b': ['../data/RR/nom_trigs_unblind/data16_min_dR_VEC_sr_124_117_NN_100_bootstraps.root']}}
../data/RR/NNT_DEC20_MDR_VEC/MC/600043_mc16a/NanoNTuple.root
['../data/RR/NNT_DEC20_MDR_VEC/MC/600043_mc16a/NanoNTuple.root']
Running with 39 bins from 225 to 1200 for variable m_hh
data16_min_dR_VEC_sr_124_117_NN_100_bootstraps.root
(124.0,117.0) center already applied: skipping validation tree
3023.984801438291
NanoNTuple.root
SR is different! If what you want for this sample, ignore this warning
Not able to flatten, maybe double check signal counts
4b
0.25986248
Running with syst, HT cut 300.0
Running with bootstrap
Categorizing in dEta_hh with boundaries [0.0, 0.5, 1.0, 1.5] in btag regs ['4b']
cat_4b_0
Running stat error
Running syst error
cat_4b_1
Running stat error
Running syst error
cat_4b_2
Running stat error
Running syst error
Initial guess for bands (mu guess = 1.00):
[ 7.07029191  9.49188022 13.17550794 18.33301308 24.57670208]
Beginning optimization, mu valid to 0.01
Finding med_mu for alpha = 0.05

/u/ki/nhartman/.local/lib/python3.7/site-packages/pyhf/tensor/numpy_backend.py:312: RuntimeWarning: invalid value encountered in log
  return n * np.log(lam) - lam - gammaln(n + 1.0)
Guess for bands with proper med:
[ 7.25245082  9.73642889 13.51496155 18.80534459 25.2098959 ]
Refining bands in 4 threads
Final bands:
[13.514961551523026, 7.173006169834217, 9.670153434951784, 13.514961551523026, 18.967743554762187, 25.688385933117022]
Finished in 11.0 min 57.436495542526245 s
36 function calls
[13.514961551523026, 7.173006169834217, 9.670153434951784, 13.514961551523026, 18.967743554762187, 25.688385933117022]
Writing to ../stats-results/dEta_cats/lim-systs-HTcut-300.0-dEta_hh-cat-corr-16-SM-HH-3_bins.csv
outDir ../stats-results/dEta_cats
Calling save_wkspace
Saving ws to ../stats-results/dEta_cats/ws-systs-HTcut-300.0-dEta_hh-cat-corr-16-SM-HH-3_bins.json
cat_4b_0
Running stat error
Running syst error
cat_4b_1
Running stat error
Running syst error
cat_4b_2
Running stat error
Running syst error
Param: 1, mu: 9.250, CLs: 0.059
Param: 1, mu: 10.223, CLs: 0.040
Param: 1, mu: 9.713, CLs: 0.049
Param: 1, mu: 9.675, CLs: 0.050
Param: 1, mu: 9.670, CLs: 0.050
Param: 0, mu: 6.890, CLs: 0.057
Param: 0, mu: 7.615, CLs: 0.040
Param: 0, mu: 7.199, CLs: 0.049
Param: 0, mu: 7.173, CLs: 0.050
Param: 0, mu: 7.168, CLs: 0.050
Param: 3, mu: 17.865, CLs: 0.069
Param: 3, mu: 19.746, CLs: 0.039
Param: 3, mu: 19.071, CLs: 0.049
Param: 3, mu: 18.968, CLs: 0.050
Param: 3, mu: 18.973, CLs: 0.050
Param: 4, mu: 23.949, CLs: 0.080
Param: 4, mu: 26.470, CLs: 0.040
Param: 4, mu: 25.833, CLs: 0.048
Param: 4, mu: 25.683, CLs: 0.050
Param: 4, mu: 25.688, CLs: 0.050
obs 0.2996644148729821
Param: 2, mu: 7.070, CLs: 0.300
obs 0.00045899100161733524
Param: 2, mu: 24.577, CLs: 0.000
obs 0.0019110355365128335
Param: 2, mu: 21.678, CLs: 0.002
obs 0.03737541634644301
Param: 2, mu: 14.374, CLs: 0.037
obs 0.07768733816586389
Param: 2, mu: 12.137, CLs: 0.078
obs 0.047426264643698625
Param: 2, mu: 13.674, CLs: 0.047
obs 0.05008823746382821
Param: 2, mu: 13.510, CLs: 0.050
obs 0.049998013142722085
Param: 2, mu: 13.515, CLs: 0.050
Param: 2, mu: 7.070, CLs: 0.300
Param: 2, mu: 24.577, CLs: 0.000
Param: 2, mu: 21.678, CLs: 0.002
Param: 2, mu: 14.374, CLs: 0.037
Param: 2, mu: 12.137, CLs: 0.078
Param: 2, mu: 13.674, CLs: 0.047
Param: 2, mu: 13.510, CLs: 0.050
Param: 2, mu: 13.515, CLs: 0.050

------------------------------------------------------------
Sender: LSF System <lsf@deft0025>
Subject: Job 571812: <dEta_3_bins_16_corrNP> in cluster <slac> Done

Job <dEta_3_bins_16_corrNP> was submitted from host <cent7c> by user <nhartman> in cluster <slac> at Wed Mar 31 14:54:52 2021
Job was executed on host(s) <deft0025>, in queue <short>, as user <nhartman> in cluster <slac> at Wed Mar 31 14:54:54 2021
</u/ki/nhartman> was used as the home directory.
</gpfs/slac/atlas/fs1/d/nhartman/diHiggs4b/non-resonant-studies> was used as the working directory.
Started at Wed Mar 31 14:54:54 2021
Terminated at Wed Mar 31 15:07:18 2021
Results reported at Wed Mar 31 15:07:18 2021

Your job looked like:

------------------------------------------------------------
# LSBATCH: User input
python run_limits.py -d ../data/RR/nom_trigs_unblind/data16_min_dR_VEC_sr_124_117_NN_100_bootstraps.root -s ../data/RR/NNT_DEC20_MDR_VEC/MC/600043_mc16a/NanoNTuple.root -y 16 --format resolved-recon --SR-center 124 117 --categorize dEta_hh --cat-edges 0 0.5 1 1.5 --no-norm --outDir ../stats-results/dEta_cats --label 3_bins --corr_cat
------------------------------------------------------------

Successfully completed.

Resource usage summary:

    CPU time :                                   733.50 sec.
    Max Memory :                                 263 MB
    Average Memory :                             234.32 MB
    Total Requested Memory :                     -
    Delta Memory :                               -
    Max Swap :                                   -
    Max Processes :                              9
    Max Threads :                                41
    Run time :                                   744 sec.
    Turnaround time :                            746 sec.

The output (if any) is above this job summary.

