Using uproot4
No direct category match for 18 assuming 4b
{'18': {'3b': [], '3b1l': [], '3b1nl': [], '4b': ['../data/RR/nom_trigs_unblind/rev_deta/data/data18_NN_100_bootstraps.root']}}
../data/RR/nom_trigs_unblind/rev_deta/MC/600043_mc16e/NanoNTuple.root
['../data/RR/nom_trigs_unblind/rev_deta/MC/600043_mc16e/NanoNTuple.root']
Running with 34 bins from 350.0 to 1200.0 for variable m_hh
Running with SR center [124.0, 117.0]: might need to check the validation tree
../data/RR/nom_trigs_unblind/rev_deta/data/data18_NN_100_bootstraps.root
data18_NN_100_bootstraps.root
Loading in sig
Loading in validation
Closing data18_NN_100_bootstraps.root
[124.0, 117.0]
947177
SR is different! If what you want for this sample, ignore this warning
Xwt_str X_wt_tag
yr 18 NN_norm_bstrap_med_18
7965.602190566633
Running with SR center [124.0, 117.0]: might need to check the validation tree
../data/RR/nom_trigs_unblind/rev_deta/MC/600043_mc16e/NanoNTuple.root
NanoNTuple.root
Loading in sig
Running with SR center [124.0, 117.0]: might need to check the validation tree
../data/RR/nom_trigs_unblind/rev_deta/MC/600043_mc16e/NanoNTuple.root
NanoNTuple.root
Loading in sig
Loading in validation
Closing NanoNTuple.root
[124.0, 117.0]
10327
Not able to flatten, maybe double check signal counts
4b
S = 0.041213996708393
bins [ 350.  375.  400.  425.  450.  475.  500.  525.  550.  575.  600.  625.
  650.  675.  700.  725.  750.  775.  800.  825.  850.  875.  900.  925.
  950.  975. 1000. 1025. 1050. 1075. 1100. 1125. 1150. 1175. 1200.]
Categorizing in dEta_hh with boundaries [1.5, 10.0] Xhh [] in btag regs ['4b']
Running w/o any variable split
cat_4b_0
['cat', '4b', '0']
Running stat error
qmu(mu = 1.0) = 6.82462086842861e-10
Unexpectedly large med guess (75025.49), verifying by rescaling signal
cat_4b_0
['cat', '4b', '0']
Running stat error
qmu_test 0.26981611140922723
Initial guess was wrong, subbing in new guess 75.46475166148059
Initial guess for bands (mu guess = 1.00):
[ 40.49618622  54.36620635  75.46475166 105.00515696 140.76684762]
Beginning optimization, mu valid to 0.00
Finding med_mu for alpha = 0.05
obs tensor(0.2940)
Param: 2, mu: 40.496, CLs: 0.294
obs tensor(0.0003)
Param: 2, mu: 140.767, CLs: 0.000
obs tensor(0.0015)
Param: 2, mu: 123.799, CLs: 0.001
obs tensor(0.0339)
Param: 2, mu: 82.148, CLs: 0.034
obs tensor(0.0952)
Param: 2, mu: 64.526, CLs: 0.095
obs tensor(0.0452)
Param: 2, mu: 77.525, CLs: 0.045
obs tensor(0.0503)
Param: 2, mu: 75.765, CLs: 0.050
obs tensor(0.0500)
Param: 2, mu: 75.874, CLs: 0.050
obs tensor(0.0500)
Param: 2, mu: 75.870, CLs: 0.050
obs tensor(0.0500)
Param: 2, mu: 75.869, CLs: 0.050
Param: 2, mu: 40.496, CLs: 0.294
Param: 2, mu: 140.767, CLs: 0.000
Param: 2, mu: 123.799, CLs: 0.001
Param: 2, mu: 82.148, CLs: 0.034
Param: 2, mu: 64.526, CLs: 0.095
Param: 2, mu: 77.525, CLs: 0.045
Param: 2, mu: 75.765, CLs: 0.050
Param: 2, mu: 75.874, CLs: 0.050
Param: 2, mu: 75.870, CLs: 0.050
Param: 2, mu: 75.869, CLs: 0.050
Guess for bands with proper med:
[ 40.71354169  54.65800648  75.86979417 105.5687519  141.52238654]
Refining bands
Param: 0, mu: 38.678, CLs: 0.059
Param: 0, mu: 42.749, CLs: 0.041
Param: 0, mu: 40.753, CLs: 0.049
Param: 0, mu: 40.587, CLs: 0.050
Param: 0, mu: 40.588, CLs: 0.050
Param: 0, mu: 40.588, CLs: 0.050
Param: 1, mu: 51.925, CLs: 0.060
Param: 1, mu: 57.391, CLs: 0.041
Param: 1, mu: 54.788, CLs: 0.049
Param: 1, mu: 54.553, CLs: 0.050
Param: 1, mu: 54.556, CLs: 0.050
Param: 1, mu: 54.555, CLs: 0.050
Param: 3, mu: 100.290, CLs: 0.067
Param: 3, mu: 110.847, CLs: 0.038
Param: 3, mu: 106.461, CLs: 0.048
Param: 3, mu: 105.842, CLs: 0.050
Param: 3, mu: 105.855, CLs: 0.050
Param: 3, mu: 105.854, CLs: 0.050
Param: 4, mu: 134.446, CLs: 0.075
Param: 4, mu: 148.599, CLs: 0.036
Param: 4, mu: 143.383, CLs: 0.047
Param: 4, mu: 142.340, CLs: 0.050
Param: 4, mu: 142.375, CLs: 0.050
Param: 4, mu: 142.374, CLs: 0.050
Param: 4, mu: 142.374, CLs: 0.050
Final bands:
[75.86979416649217, 40.58825189842459, 54.55588105950391, 75.86979416649217, 105.85456199014158, 142.3740571246759]
Finished in 0.0 min 9.338572978973389 s
45 function calls
[75.86979416649217, 40.58825189842459, 54.55588105950391, 75.86979416649217, 105.85456199014158, 142.3740571246759]
Writing to ../stats-results/dEta_cats/lim-stat-only-noBS-dEta_hh-cat-18-SM-HH-1_dEta_hh_1SR_rev_dEta.csv
outDir ../stats-results/dEta_cats
Calling save_wkspace
Saving ws to ../stats-results/dEta_cats/ws-stat-only-noBS-dEta_hh-cat-18-SM-HH-1_dEta_hh_1SR_rev_dEta.json
cat_4b_0
['cat', '4b', '0']
Running stat error

------------------------------------------------------------
Sender: LSF System <lsf@bubble0002>
Subject: Job 419258: <rev_dEta_hh_1_bins_1SR_1NPCatstat-only_no-bootstrap> in cluster <slac> Done

Job <rev_dEta_hh_1_bins_1SR_1NPCatstat-only_no-bootstrap> was submitted from host <cent7d> by user <nhartman> in cluster <slac> at Thu Apr  8 16:34:55 2021
Job was executed on host(s) <bubble0002>, in queue <long>, as user <nhartman> in cluster <slac> at Thu Apr  8 16:39:34 2021
</u/ki/nhartman> was used as the home directory.
</gpfs/slac/atlas/fs1/d/nhartman/diHiggs4b/non-resonant-studies> was used as the working directory.
Started at Thu Apr  8 16:39:34 2021
Terminated at Thu Apr  8 16:40:02 2021
Results reported at Thu Apr  8 16:40:02 2021

Your job looked like:

------------------------------------------------------------
# LSBATCH: User input
python run_limits.py -d ../data/RR/nom_trigs_unblind/rev_deta/data/data18_NN_100_bootstraps.root -s ../data/RR/nom_trigs_unblind/rev_deta/MC/600043_mc16e/NanoNTuple.root -y 18 --format resolved-recon --SR-center 124 117 --categorize dEta_hh --cat-edges 1.5 10 --bins 34 --range 350 1200 --systvar None --stat-only --no-bootstrap --no-norm --outDir ../stats-results/dEta_cats --label 1_dEta_hh_1SR_rev_dEta
------------------------------------------------------------

Successfully completed.

Resource usage summary:

    CPU time :                                   16.56 sec.
    Max Memory :                                 57 MB
    Average Memory :                             57.00 MB
    Total Requested Memory :                     -
    Delta Memory :                               -
    Max Swap :                                   -
    Max Processes :                              3
    Max Threads :                                4
    Run time :                                   30 sec.
    Turnaround time :                            307 sec.

The output (if any) is above this job summary.

