label,pull,err
uncorr_bkguncrt174b[0],0.1822,1.1458
uncorr_bkguncrt174b[10],-0.0786,0.9537
uncorr_bkguncrt174b[11],-0.0680,0.9640
uncorr_bkguncrt174b[12],-0.0658,0.9680
uncorr_bkguncrt174b[13],-0.0629,0.9679
uncorr_bkguncrt174b[14],-0.0559,0.9728
uncorr_bkguncrt174b[15],-0.0559,0.9699
uncorr_bkguncrt174b[16],-0.0493,0.9719
uncorr_bkguncrt174b[17],-0.0441,0.9768
uncorr_bkguncrt174b[18],-0.0434,0.9722
uncorr_bkguncrt174b[19],-0.0381,0.9770
uncorr_bkguncrt174b[1],0.1349,1.0068
uncorr_bkguncrt174b[20],-0.0322,0.9785
uncorr_bkguncrt174b[21],-0.0350,0.9772
uncorr_bkguncrt174b[22],-0.0277,0.9788
uncorr_bkguncrt174b[23],-0.0283,0.9768
uncorr_bkguncrt174b[24],-0.0233,0.9828
uncorr_bkguncrt174b[25],-0.0224,0.9839
uncorr_bkguncrt174b[26],-0.0207,0.9810
uncorr_bkguncrt174b[27],-0.0162,0.9840
uncorr_bkguncrt174b[28],-0.0163,0.9848
uncorr_bkguncrt174b[29],-0.0130,0.9833
uncorr_bkguncrt174b[2],-0.0002,0.9188
uncorr_bkguncrt174b[30],-0.0153,0.9891
uncorr_bkguncrt174b[31],-0.0137,0.9886
uncorr_bkguncrt174b[32],-0.0099,0.9905
uncorr_bkguncrt174b[33],-0.0095,0.9898
uncorr_bkguncrt174b[34],-0.0084,0.9917
uncorr_bkguncrt174b[35],-0.0069,0.9938
uncorr_bkguncrt174b[36],-0.0059,0.9958
uncorr_bkguncrt174b[37],-0.0042,0.9945
uncorr_bkguncrt174b[38],0.0022,0.9971
uncorr_bkguncrt174b[39],0.0238,0.9992
uncorr_bkguncrt174b[3],-0.0014,0.7857
uncorr_bkguncrt174b[4],-0.0098,0.8298
uncorr_bkguncrt174b[5],-0.0273,0.8528
uncorr_bkguncrt174b[6],-0.0465,0.8824
uncorr_bkguncrt174b[7],-0.0641,0.9107
uncorr_bkguncrt174b[8],-0.0682,0.9397
uncorr_bkguncrt174b[9],-0.0793,0.9391
