label,pull,err
Theory,-0.0032,0.9934
bkg_norm17_4b,-0.1245,0.9895
high_HT17_4b,-0.1442,0.4099
low_HT17_4b,-0.0360,0.3329
lumi,-0.0011,0.9934
uncorr_bkguncrt174b[0],0.1640,1.1311
uncorr_bkguncrt174b[10],-0.0650,0.9549
uncorr_bkguncrt174b[11],-0.0554,0.9650
uncorr_bkguncrt174b[12],-0.0450,0.9704
uncorr_bkguncrt174b[13],-0.0408,0.9705
uncorr_bkguncrt174b[14],-0.0385,0.9746
uncorr_bkguncrt174b[15],-0.0376,0.9719
uncorr_bkguncrt174b[16],-0.0337,0.9735
uncorr_bkguncrt174b[17],-0.0331,0.9777
uncorr_bkguncrt174b[18],-0.0341,0.9730
uncorr_bkguncrt174b[19],-0.0292,0.9778
uncorr_bkguncrt174b[1],0.1286,1.0062
uncorr_bkguncrt174b[20],-0.0271,0.9789
uncorr_bkguncrt174b[21],-0.0280,0.9778
uncorr_bkguncrt174b[22],-0.0239,0.9792
uncorr_bkguncrt174b[23],-0.0265,0.9770
uncorr_bkguncrt174b[24],-0.0231,0.9829
uncorr_bkguncrt174b[25],-0.0224,0.9840
uncorr_bkguncrt174b[26],-0.0209,0.9811
uncorr_bkguncrt174b[27],-0.0174,0.9840
uncorr_bkguncrt174b[28],-0.0185,0.9848
uncorr_bkguncrt174b[29],-0.0149,0.9833
uncorr_bkguncrt174b[2],-0.0473,0.9207
uncorr_bkguncrt174b[30],-0.0179,0.9891
uncorr_bkguncrt174b[31],-0.0163,0.9886
uncorr_bkguncrt174b[32],-0.0122,0.9904
uncorr_bkguncrt174b[33],-0.0117,0.9897
uncorr_bkguncrt174b[34],-0.0107,0.9916
uncorr_bkguncrt174b[35],-0.0080,0.9938
uncorr_bkguncrt174b[36],-0.0075,0.9957
uncorr_bkguncrt174b[37],-0.0052,0.9944
uncorr_bkguncrt174b[38],0.0013,0.9970
uncorr_bkguncrt174b[39],0.0221,0.9991
uncorr_bkguncrt174b[3],-0.0413,0.8035
uncorr_bkguncrt174b[4],-0.0582,0.8735
uncorr_bkguncrt174b[5],-0.0974,0.8887
uncorr_bkguncrt174b[6],-0.1279,0.9031
uncorr_bkguncrt174b[7],-0.1254,0.9239
uncorr_bkguncrt174b[8],-0.0986,0.9436
uncorr_bkguncrt174b[9],-0.0898,0.9399
