label,post_dn,post_up,pre_dn,pre_up
lumi,0.1013,-0.0977,0.1020,-0.0984
Theory,0.3005,-0.2796,0.3026,-0.2814
bkg_norm17_4b,0.3999,-0.3875,0.4044,-0.3916
low_HT17_4b,-0.9492,1.0869,-2.4205,nan
high_HT17_4b,2.0278,-1.6377,5.6172,-3.2973
