  0%|          | 0/25 [00:00<?, ?it/s] 20%|██        | 5/25 [00:00<00:00, 44.80it/s] 40%|████      | 10/25 [00:00<00:00, 46.00it/s] 60%|██████    | 15/25 [00:00<00:00, 47.01it/s] 84%|████████▍ | 21/25 [00:00<00:00, 48.13it/s]100%|██████████| 25/25 [00:00<00:00, 48.40it/s]
Running w/ conda env: don't import root packages.
../data/data18_PFlow-FEB20-5jets/df_SM_2b_p_0.01_2b.h5
Taking 94075 events from 94075 available for the training / validation set
iter0
Model w/ seed 0 didn't train in nsf_rq-coupling_log_pT_h1_log_pT_h2_eta_h1_eta_h2_log_dphi_hh_lu_10_layers_H_32_2_blocks_K_4_B_3_lr_0.001_0.001_p0.1_iter0_data161718
Model w/ seed 1 didn't train in nsf_rq-coupling_log_pT_h1_log_pT_h2_eta_h1_eta_h2_log_dphi_hh_lu_10_layers_H_32_2_blocks_K_4_B_3_lr_0.001_0.001_p0.1_iter0_data161718
Model w/ seed 2 didn't train in nsf_rq-coupling_log_pT_h1_log_pT_h2_eta_h1_eta_h2_log_dphi_hh_lu_10_layers_H_32_2_blocks_K_4_B_3_lr_0.001_0.001_p0.1_iter0_data161718
Model w/ seed 3 didn't train in nsf_rq-coupling_log_pT_h1_log_pT_h2_eta_h1_eta_h2_log_dphi_hh_lu_10_layers_H_32_2_blocks_K_4_B_3_lr_0.001_0.001_p0.1_iter0_data161718
Model w/ seed 4 didn't train in nsf_rq-coupling_log_pT_h1_log_pT_h2_eta_h1_eta_h2_log_dphi_hh_lu_10_layers_H_32_2_blocks_K_4_B_3_lr_0.001_0.001_p0.1_iter0_data161718
Model w/ seed 5 didn't train in nsf_rq-coupling_log_pT_h1_log_pT_h2_eta_h1_eta_h2_log_dphi_hh_lu_10_layers_H_32_2_blocks_K_4_B_3_lr_0.001_0.001_p0.1_iter0_data161718
Model w/ seed 6 didn't train in nsf_rq-coupling_log_pT_h1_log_pT_h2_eta_h1_eta_h2_log_dphi_hh_lu_10_layers_H_32_2_blocks_K_4_B_3_lr_0.001_0.001_p0.1_iter0_data161718
Model w/ seed 7 didn't train in nsf_rq-coupling_log_pT_h1_log_pT_h2_eta_h1_eta_h2_log_dphi_hh_lu_10_layers_H_32_2_blocks_K_4_B_3_lr_0.001_0.001_p0.1_iter0_data161718
Model w/ seed 8 didn't train in nsf_rq-coupling_log_pT_h1_log_pT_h2_eta_h1_eta_h2_log_dphi_hh_lu_10_layers_H_32_2_blocks_K_4_B_3_lr_0.001_0.001_p0.1_iter0_data161718
Model w/ seed 9 didn't train in nsf_rq-coupling_log_pT_h1_log_pT_h2_eta_h1_eta_h2_log_dphi_hh_lu_10_layers_H_32_2_blocks_K_4_B_3_lr_0.001_0.001_p0.1_iter0_data161718
Model w/ seed 10 didn't train in nsf_rq-coupling_log_pT_h1_log_pT_h2_eta_h1_eta_h2_log_dphi_hh_lu_10_layers_H_32_2_blocks_K_4_B_3_lr_0.001_0.001_p0.1_iter0_data161718
Model w/ seed 11 didn't train in nsf_rq-coupling_log_pT_h1_log_pT_h2_eta_h1_eta_h2_log_dphi_hh_lu_10_layers_H_32_2_blocks_K_4_B_3_lr_0.001_0.001_p0.1_iter0_data161718
Model w/ seed 12 didn't train in nsf_rq-coupling_log_pT_h1_log_pT_h2_eta_h1_eta_h2_log_dphi_hh_lu_10_layers_H_32_2_blocks_K_4_B_3_lr_0.001_0.001_p0.1_iter0_data161718
Model w/ seed 13 didn't train in nsf_rq-coupling_log_pT_h1_log_pT_h2_eta_h1_eta_h2_log_dphi_hh_lu_10_layers_H_32_2_blocks_K_4_B_3_lr_0.001_0.001_p0.1_iter0_data161718
Model w/ seed 14 didn't train in nsf_rq-coupling_log_pT_h1_log_pT_h2_eta_h1_eta_h2_log_dphi_hh_lu_10_layers_H_32_2_blocks_K_4_B_3_lr_0.001_0.001_p0.1_iter0_data161718
Model w/ seed 15 didn't train in nsf_rq-coupling_log_pT_h1_log_pT_h2_eta_h1_eta_h2_log_dphi_hh_lu_10_layers_H_32_2_blocks_K_4_B_3_lr_0.001_0.001_p0.1_iter0_data161718
Model w/ seed 16 didn't train in nsf_rq-coupling_log_pT_h1_log_pT_h2_eta_h1_eta_h2_log_dphi_hh_lu_10_layers_H_32_2_blocks_K_4_B_3_lr_0.001_0.001_p0.1_iter0_data161718
Model w/ seed 17 didn't train in nsf_rq-coupling_log_pT_h1_log_pT_h2_eta_h1_eta_h2_log_dphi_hh_lu_10_layers_H_32_2_blocks_K_4_B_3_lr_0.001_0.001_p0.1_iter0_data161718
Model w/ seed 18 didn't train in nsf_rq-coupling_log_pT_h1_log_pT_h2_eta_h1_eta_h2_log_dphi_hh_lu_10_layers_H_32_2_blocks_K_4_B_3_lr_0.001_0.001_p0.1_iter0_data161718
Model w/ seed 19 didn't train in nsf_rq-coupling_log_pT_h1_log_pT_h2_eta_h1_eta_h2_log_dphi_hh_lu_10_layers_H_32_2_blocks_K_4_B_3_lr_0.001_0.001_p0.1_iter0_data161718
Model w/ seed 20 didn't train in nsf_rq-coupling_log_pT_h1_log_pT_h2_eta_h1_eta_h2_log_dphi_hh_lu_10_layers_H_32_2_blocks_K_4_B_3_lr_0.001_0.001_p0.1_iter0_data161718
Model w/ seed 21 didn't train in nsf_rq-coupling_log_pT_h1_log_pT_h2_eta_h1_eta_h2_log_dphi_hh_lu_10_layers_H_32_2_blocks_K_4_B_3_lr_0.001_0.001_p0.1_iter0_data161718
Model w/ seed 22 didn't train in nsf_rq-coupling_log_pT_h1_log_pT_h2_eta_h1_eta_h2_log_dphi_hh_lu_10_layers_H_32_2_blocks_K_4_B_3_lr_0.001_0.001_p0.1_iter0_data161718
Model w/ seed 23 didn't train in nsf_rq-coupling_log_pT_h1_log_pT_h2_eta_h1_eta_h2_log_dphi_hh_lu_10_layers_H_32_2_blocks_K_4_B_3_lr_0.001_0.001_p0.1_iter0_data161718
Model w/ seed 24 didn't train in nsf_rq-coupling_log_pT_h1_log_pT_h2_eta_h1_eta_h2_log_dphi_hh_lu_10_layers_H_32_2_blocks_K_4_B_3_lr_0.001_0.001_p0.1_iter0_data161718
data18
Traceback (most recent call last):
  File "batchEval.py", line 137, in <module>
    run_one(args.modelDir,cols,args.yrEval,args.MDpT)
  File "batchEval.py", line 107, in run_one
    stack = np.vstack(hist_list[c])
  File "<__array_function__ internals>", line 6, in vstack
  File "/gpfs/slac/atlas/fs1/d/rafaeltl/public/conda/miniconda3/envs/py3/lib/python3.7/site-packages/numpy/core/shape_base.py", line 283, in vstack
    return _nx.concatenate(arrs, 0)
  File "<__array_function__ internals>", line 6, in concatenate
ValueError: need at least one array to concatenate

------------------------------------------------------------
Sender: LSF System <lsf@bubble0003>
Subject: Job 356595: <data18_PFlow-FEB20-5jets_SM_2b_p_0.01_2b_detaCut_nsf_rq-coupling_log_pT_h1_log_pT_h2_eta_h1_eta_h2_log_dphi_hh_lu_10_layers_H_32_2_blocks_K_4_B_3_lr_0.001_0.001_p0.1_iter0_data161718_eval18> in cluster <slac> Exited

Job <data18_PFlow-FEB20-5jets_SM_2b_p_0.01_2b_detaCut_nsf_rq-coupling_log_pT_h1_log_pT_h2_eta_h1_eta_h2_log_dphi_hh_lu_10_layers_H_32_2_blocks_K_4_B_3_lr_0.001_0.001_p0.1_iter0_data161718_eval18> was submitted from host <cent7d> by user <nhartman> in cluster <slac> at Sun Dec  6 13:27:09 2020
Job was executed on host(s) <bubble0003>, in queue <medium>, as user <nhartman> in cluster <slac> at Sun Dec  6 13:27:11 2020
</u/ki/nhartman> was used as the home directory.
</u/ki/nhartman/gpfs/diHiggs4b/Shape-Syst> was used as the working directory.
Started at Sun Dec  6 13:27:11 2020
Terminated at Sun Dec  6 13:27:20 2020
Results reported at Sun Dec  6 13:27:20 2020

Your job looked like:

------------------------------------------------------------
# LSBATCH: User input
python batchEval.py --modelDir ../Flow-Models/models/data18_PFlow-FEB20-5jets_SM_2b_p_0.01_2b_detaCut/nsf_rq-coupling_log_pT_h1_log_pT_h2_eta_h1_eta_h2_log_dphi_hh_lu_10_layers_H_32_2_blocks_K_4_B_3_lr_0.001_0.001_p0.1_iter0_data161718 --yrTrain 18 --yrEval 18
------------------------------------------------------------

Exited with exit code 1.

Resource usage summary:

    CPU time :                                   5.21 sec.
    Max Memory :                                 98 MB
    Average Memory :                             98.00 MB
    Total Requested Memory :                     -
    Delta Memory :                               -
    Max Swap :                                   -
    Max Processes :                              3
    Max Threads :                                4
    Run time :                                   9 sec.
    Turnaround time :                            11 sec.

The output (if any) is above this job summary.

