label,pull,err
Theory,0.0041,0.9933
bkg_norm17_4b,-0.0006,0.9925
high_HT17_4b,0.0001,0.4748
low_HT17_4b,-0.0355,0.7586
lumi,0.0014,0.9933
uncorr_bkguncrt174b[0],0.0819,0.9941
uncorr_bkguncrt174b[10],0.0003,0.9330
uncorr_bkguncrt174b[11],0.0001,0.9428
uncorr_bkguncrt174b[12],0.0003,0.9490
uncorr_bkguncrt174b[13],0.0003,0.9542
uncorr_bkguncrt174b[14],0.0004,0.9565
uncorr_bkguncrt174b[15],0.0005,0.9597
uncorr_bkguncrt174b[16],0.0004,0.9636
uncorr_bkguncrt174b[17],0.0007,0.9656
uncorr_bkguncrt174b[18],0.0006,0.9678
uncorr_bkguncrt174b[19],0.0007,0.9703
uncorr_bkguncrt174b[1],-0.0061,0.8684
uncorr_bkguncrt174b[20],0.0006,0.9728
uncorr_bkguncrt174b[21],0.0007,0.9755
uncorr_bkguncrt174b[22],0.0007,0.9762
uncorr_bkguncrt174b[23],0.0007,0.9778
uncorr_bkguncrt174b[24],0.0007,0.9804
uncorr_bkguncrt174b[25],0.0007,0.9808
uncorr_bkguncrt174b[26],0.0006,0.9829
uncorr_bkguncrt174b[27],0.0006,0.9822
uncorr_bkguncrt174b[28],0.0007,0.9835
uncorr_bkguncrt174b[29],0.0006,0.9854
uncorr_bkguncrt174b[2],-0.0074,0.8454
uncorr_bkguncrt174b[30],0.0006,0.9877
uncorr_bkguncrt174b[31],0.0005,0.9884
uncorr_bkguncrt174b[32],0.0004,0.9905
uncorr_bkguncrt174b[33],0.0004,0.9892
uncorr_bkguncrt174b[34],0.0003,0.9926
uncorr_bkguncrt174b[35],0.0003,0.9934
uncorr_bkguncrt174b[36],0.0003,0.9943
uncorr_bkguncrt174b[37],0.0002,0.9949
uncorr_bkguncrt174b[38],0.0002,0.9961
uncorr_bkguncrt174b[39],0.0002,0.9970
uncorr_bkguncrt174b[3],-0.0036,0.8170
uncorr_bkguncrt174b[4],0.0082,0.8142
uncorr_bkguncrt174b[5],0.0118,0.8376
uncorr_bkguncrt174b[6],0.0050,0.8364
uncorr_bkguncrt174b[7],-0.0002,0.8637
uncorr_bkguncrt174b[8],-0.0016,0.8939
uncorr_bkguncrt174b[9],-0.0005,0.9156
