label,pull,err
uncorr_bkguncrt174b[0],0.1836,1.1470
uncorr_bkguncrt174b[10],-0.0952,0.9276
uncorr_bkguncrt174b[11],-0.0882,0.9327
uncorr_bkguncrt174b[12],-0.0859,0.9375
uncorr_bkguncrt174b[13],-0.0735,0.9571
uncorr_bkguncrt174b[14],-0.0672,0.9584
uncorr_bkguncrt174b[15],-0.0611,0.9650
uncorr_bkguncrt174b[16],-0.0545,0.9658
uncorr_bkguncrt174b[17],-0.0478,0.9733
uncorr_bkguncrt174b[18],-0.0441,0.9737
uncorr_bkguncrt174b[19],-0.0392,0.9772
uncorr_bkguncrt174b[1],0.0000,0.9904
uncorr_bkguncrt174b[20],-0.0339,0.9776
uncorr_bkguncrt174b[21],-0.0339,0.9795
uncorr_bkguncrt174b[22],-0.0273,0.9804
uncorr_bkguncrt174b[23],-0.0259,0.9793
uncorr_bkguncrt174b[24],-0.0223,0.9819
uncorr_bkguncrt174b[25],-0.0215,0.9830
uncorr_bkguncrt174b[26],-0.0194,0.9823
uncorr_bkguncrt174b[27],-0.0150,0.9843
uncorr_bkguncrt174b[28],-0.0158,0.9829
uncorr_bkguncrt174b[29],-0.0117,0.9865
uncorr_bkguncrt174b[2],-0.0002,0.9344
uncorr_bkguncrt174b[30],-0.0155,0.9858
uncorr_bkguncrt174b[31],-0.0120,0.9896
uncorr_bkguncrt174b[32],-0.0090,0.9910
uncorr_bkguncrt174b[33],-0.0079,0.9892
uncorr_bkguncrt174b[34],-0.0067,0.9920
uncorr_bkguncrt174b[35],-0.0065,0.9916
uncorr_bkguncrt174b[36],-0.0052,0.9941
uncorr_bkguncrt174b[37],-0.0036,0.9949
uncorr_bkguncrt174b[38],-0.0020,0.9970
uncorr_bkguncrt174b[39],0.0030,0.9970
uncorr_bkguncrt174b[3],-0.0016,0.8602
uncorr_bkguncrt174b[4],-0.0101,0.8344
uncorr_bkguncrt174b[5],-0.0295,0.8004
uncorr_bkguncrt174b[6],-0.0521,0.8409
uncorr_bkguncrt174b[7],-0.0745,0.8781
uncorr_bkguncrt174b[8],-0.0873,0.8906
uncorr_bkguncrt174b[9],-0.0935,0.9112
