label,pull,err
Theory,0.0086,0.9933
bkg_norm17_4b,-0.0004,0.9933
high_HT17_4b,-0.0015,0.7495
low_HT17_4b,-0.0042,0.5038
lumi,0.0029,0.9933
uncorr_bkguncrt174b[0],-0.0005,0.9163
uncorr_bkguncrt174b[10],-0.0005,0.9484
uncorr_bkguncrt174b[11],-0.0008,0.9557
uncorr_bkguncrt174b[12],-0.0010,0.9661
uncorr_bkguncrt174b[13],-0.0009,0.9711
uncorr_bkguncrt174b[14],-0.0007,0.9746
uncorr_bkguncrt174b[15],-0.0004,0.9778
uncorr_bkguncrt174b[16],-0.0002,0.9785
uncorr_bkguncrt174b[17],-0.0001,0.9824
uncorr_bkguncrt174b[18],-0.0001,0.9838
uncorr_bkguncrt174b[19],-0.0001,0.9852
uncorr_bkguncrt174b[1],-0.0008,0.7820
uncorr_bkguncrt174b[20],-0.0000,0.9857
uncorr_bkguncrt174b[21],0.0001,0.9860
uncorr_bkguncrt174b[22],0.0001,0.9882
uncorr_bkguncrt174b[23],0.0001,0.9893
uncorr_bkguncrt174b[24],0.0001,0.9889
uncorr_bkguncrt174b[25],0.0001,0.9891
uncorr_bkguncrt174b[26],0.0000,0.9882
uncorr_bkguncrt174b[27],0.0002,0.9889
uncorr_bkguncrt174b[28],0.0002,0.9887
uncorr_bkguncrt174b[29],0.0001,0.9905
uncorr_bkguncrt174b[2],0.0013,0.7570
uncorr_bkguncrt174b[30],0.0001,0.9911
uncorr_bkguncrt174b[31],0.0002,0.9921
uncorr_bkguncrt174b[32],0.0001,0.9937
uncorr_bkguncrt174b[33],0.0001,0.9936
uncorr_bkguncrt174b[34],0.0001,0.9942
uncorr_bkguncrt174b[35],0.0000,0.9954
uncorr_bkguncrt174b[36],0.0000,0.9960
uncorr_bkguncrt174b[37],0.0000,0.9967
uncorr_bkguncrt174b[38],0.0000,0.9973
uncorr_bkguncrt174b[39],0.0009,0.9980
uncorr_bkguncrt174b[3],0.0055,0.8150
uncorr_bkguncrt174b[4],0.0059,0.8356
uncorr_bkguncrt174b[5],0.0025,0.7990
uncorr_bkguncrt174b[6],0.0015,0.8359
uncorr_bkguncrt174b[7],0.0019,0.8896
uncorr_bkguncrt174b[8],0.0013,0.9163
uncorr_bkguncrt174b[9],0.0004,0.9314
