label,post_dn,post_up,pre_dn,pre_up
lumi,0.0189,-0.0183,0.0191,-0.0184
Theory,0.0576,-0.0522,0.0580,-0.0525
low_HT17_4b,-0.9352,1.0294,-1.6921,2.0188
bkg_norm17_4b,1.3144,-1.3359,1.3413,-1.3598
high_HT17_4b,7.1945,-6.7640,14.6135,-12.8659
