label,pull,err
Theory,-0.0000,0.9933
bkg_norm17_4b,-0.0170,0.9794
high_HT17_4b,-0.0550,0.5034
low_HT17_4b,-0.0515,0.5340
lumi,-0.0000,0.9933
uncorr_bkguncrt174b[0],0.0854,1.0034
uncorr_bkguncrt174b[10],0.0026,0.8725
uncorr_bkguncrt174b[11],0.0023,0.8963
uncorr_bkguncrt174b[12],0.0049,0.9155
uncorr_bkguncrt174b[13],0.0044,0.9202
uncorr_bkguncrt174b[14],0.0018,0.9300
uncorr_bkguncrt174b[15],0.0019,0.9359
uncorr_bkguncrt174b[16],0.0005,0.9357
uncorr_bkguncrt174b[17],-0.0025,0.9507
uncorr_bkguncrt174b[18],-0.0034,0.9474
uncorr_bkguncrt174b[19],-0.0030,0.9560
uncorr_bkguncrt174b[1],-0.0073,0.9702
uncorr_bkguncrt174b[20],-0.0044,0.9580
uncorr_bkguncrt174b[21],-0.0044,0.9570
uncorr_bkguncrt174b[22],-0.0042,0.9618
uncorr_bkguncrt174b[23],-0.0050,0.9622
uncorr_bkguncrt174b[24],-0.0052,0.9710
uncorr_bkguncrt174b[25],-0.0056,0.9723
uncorr_bkguncrt174b[26],-0.0052,0.9717
uncorr_bkguncrt174b[27],-0.0053,0.9752
uncorr_bkguncrt174b[28],-0.0051,0.9770
uncorr_bkguncrt174b[29],-0.0045,0.9744
uncorr_bkguncrt174b[2],-0.0410,0.8627
uncorr_bkguncrt174b[30],-0.0057,0.9823
uncorr_bkguncrt174b[31],-0.0051,0.9831
uncorr_bkguncrt174b[32],-0.0040,0.9867
uncorr_bkguncrt174b[33],-0.0036,0.9873
uncorr_bkguncrt174b[34],-0.0036,0.9885
uncorr_bkguncrt174b[35],-0.0025,0.9919
uncorr_bkguncrt174b[36],-0.0026,0.9941
uncorr_bkguncrt174b[37],-0.0017,0.9932
uncorr_bkguncrt174b[38],0.0088,0.9958
uncorr_bkguncrt174b[39],0.0385,0.9993
uncorr_bkguncrt174b[3],-0.0278,0.7008
uncorr_bkguncrt174b[4],-0.0194,0.6696
uncorr_bkguncrt174b[5],-0.0233,0.6999
uncorr_bkguncrt174b[6],-0.0263,0.7279
uncorr_bkguncrt174b[7],-0.0200,0.7706
uncorr_bkguncrt174b[8],-0.0106,0.8122
uncorr_bkguncrt174b[9],-0.0019,0.8369
