,mu,low_HT17_4b,high_HT17_4b,bkg_norm17_4b
mu,1.0,0.10360932019456309,-0.7407432545340826,-0.13980981726205738
low_HT17_4b,0.10360932019456309,1.0,-0.12382506098515102,0.123286177083299
high_HT17_4b,-0.7407432545340826,-0.12382506098515102,1.0,-0.011487061768966805
bkg_norm17_4b,-0.13980981726205738,0.123286177083299,-0.011487061768966805,1.0
