label,pull,err
uncorr_bkguncrt174b[0],0.0900,1.0038
uncorr_bkguncrt174b[10],-0.0095,0.8677
uncorr_bkguncrt174b[11],-0.0087,0.8922
uncorr_bkguncrt174b[12],-0.0084,0.9093
uncorr_bkguncrt174b[13],-0.0079,0.9148
uncorr_bkguncrt174b[14],-0.0071,0.9272
uncorr_bkguncrt174b[15],-0.0066,0.9332
uncorr_bkguncrt174b[16],-0.0059,0.9340
uncorr_bkguncrt174b[17],-0.0053,0.9502
uncorr_bkguncrt174b[18],-0.0049,0.9470
uncorr_bkguncrt174b[19],-0.0044,0.9556
uncorr_bkguncrt174b[1],0.0000,0.9678
uncorr_bkguncrt174b[20],-0.0038,0.9577
uncorr_bkguncrt174b[21],-0.0040,0.9567
uncorr_bkguncrt174b[22],-0.0031,0.9615
uncorr_bkguncrt174b[23],-0.0031,0.9617
uncorr_bkguncrt174b[24],-0.0027,0.9705
uncorr_bkguncrt174b[25],-0.0025,0.9717
uncorr_bkguncrt174b[26],-0.0022,0.9711
uncorr_bkguncrt174b[27],-0.0017,0.9746
uncorr_bkguncrt174b[28],-0.0017,0.9765
uncorr_bkguncrt174b[29],-0.0014,0.9740
uncorr_bkguncrt174b[2],-0.0000,0.7829
uncorr_bkguncrt174b[30],-0.0017,0.9816
uncorr_bkguncrt174b[31],-0.0015,0.9826
uncorr_bkguncrt174b[32],-0.0010,0.9864
uncorr_bkguncrt174b[33],-0.0009,0.9871
uncorr_bkguncrt174b[34],-0.0009,0.9882
uncorr_bkguncrt174b[35],-0.0007,0.9918
uncorr_bkguncrt174b[36],-0.0006,0.9940
uncorr_bkguncrt174b[37],-0.0004,0.9932
uncorr_bkguncrt174b[38],0.0106,0.9959
uncorr_bkguncrt174b[39],0.0427,0.9994
uncorr_bkguncrt174b[3],-0.0001,0.6492
uncorr_bkguncrt174b[4],-0.0006,0.6459
uncorr_bkguncrt174b[5],-0.0019,0.6741
uncorr_bkguncrt174b[6],-0.0039,0.7095
uncorr_bkguncrt174b[7],-0.0063,0.7620
uncorr_bkguncrt174b[8],-0.0077,0.8107
uncorr_bkguncrt174b[9],-0.0088,0.8351
