label,pull,err
uncorr_bkguncrt174b[0],0.0000,0.9159
uncorr_bkguncrt174b[10],-0.0001,0.9482
uncorr_bkguncrt174b[11],-0.0001,0.9546
uncorr_bkguncrt174b[12],-0.0001,0.9641
uncorr_bkguncrt174b[13],-0.0001,0.9694
uncorr_bkguncrt174b[14],-0.0001,0.9738
uncorr_bkguncrt174b[15],-0.0001,0.9776
uncorr_bkguncrt174b[16],-0.0000,0.9784
uncorr_bkguncrt174b[17],-0.0000,0.9824
uncorr_bkguncrt174b[18],-0.0000,0.9837
uncorr_bkguncrt174b[19],-0.0000,0.9852
uncorr_bkguncrt174b[1],0.0000,0.7809
uncorr_bkguncrt174b[20],-0.0000,0.9857
uncorr_bkguncrt174b[21],-0.0000,0.9859
uncorr_bkguncrt174b[22],-0.0000,0.9882
uncorr_bkguncrt174b[23],-0.0000,0.9892
uncorr_bkguncrt174b[24],-0.0000,0.9889
uncorr_bkguncrt174b[25],-0.0000,0.9890
uncorr_bkguncrt174b[26],-0.0000,0.9881
uncorr_bkguncrt174b[27],-0.0000,0.9888
uncorr_bkguncrt174b[28],-0.0000,0.9886
uncorr_bkguncrt174b[29],-0.0000,0.9904
uncorr_bkguncrt174b[2],-0.0000,0.7499
uncorr_bkguncrt174b[30],-0.0000,0.9910
uncorr_bkguncrt174b[31],-0.0000,0.9920
uncorr_bkguncrt174b[32],-0.0000,0.9937
uncorr_bkguncrt174b[33],-0.0000,0.9935
uncorr_bkguncrt174b[34],-0.0000,0.9942
uncorr_bkguncrt174b[35],-0.0000,0.9954
uncorr_bkguncrt174b[36],-0.0000,0.9959
uncorr_bkguncrt174b[37],-0.0000,0.9967
uncorr_bkguncrt174b[38],-0.0000,0.9973
uncorr_bkguncrt174b[39],0.0009,0.9980
uncorr_bkguncrt174b[3],-0.0000,0.7284
uncorr_bkguncrt174b[4],-0.0000,0.7342
uncorr_bkguncrt174b[5],-0.0000,0.7787
uncorr_bkguncrt174b[6],-0.0001,0.8321
uncorr_bkguncrt174b[7],-0.0001,0.8784
uncorr_bkguncrt174b[8],-0.0001,0.9111
uncorr_bkguncrt174b[9],-0.0001,0.9308
