label,pull,err
uncorr_bkguncrt174b[0],0.0908,0.9955
uncorr_bkguncrt174b[10],-0.0009,0.9316
uncorr_bkguncrt174b[11],-0.0008,0.9410
uncorr_bkguncrt174b[12],-0.0007,0.9481
uncorr_bkguncrt174b[13],-0.0007,0.9535
uncorr_bkguncrt174b[14],-0.0006,0.9562
uncorr_bkguncrt174b[15],-0.0006,0.9596
uncorr_bkguncrt174b[16],-0.0005,0.9635
uncorr_bkguncrt174b[17],-0.0005,0.9655
uncorr_bkguncrt174b[18],-0.0004,0.9678
uncorr_bkguncrt174b[19],-0.0004,0.9701
uncorr_bkguncrt174b[1],0.0000,0.8605
uncorr_bkguncrt174b[20],-0.0003,0.9726
uncorr_bkguncrt174b[21],-0.0003,0.9750
uncorr_bkguncrt174b[22],-0.0003,0.9757
uncorr_bkguncrt174b[23],-0.0003,0.9772
uncorr_bkguncrt174b[24],-0.0002,0.9799
uncorr_bkguncrt174b[25],-0.0002,0.9802
uncorr_bkguncrt174b[26],-0.0002,0.9825
uncorr_bkguncrt174b[27],-0.0002,0.9815
uncorr_bkguncrt174b[28],-0.0002,0.9828
uncorr_bkguncrt174b[29],-0.0001,0.9848
uncorr_bkguncrt174b[2],-0.0000,0.8330
uncorr_bkguncrt174b[30],-0.0001,0.9871
uncorr_bkguncrt174b[31],-0.0001,0.9879
uncorr_bkguncrt174b[32],-0.0001,0.9902
uncorr_bkguncrt174b[33],-0.0001,0.9889
uncorr_bkguncrt174b[34],-0.0001,0.9924
uncorr_bkguncrt174b[35],-0.0001,0.9933
uncorr_bkguncrt174b[36],-0.0001,0.9942
uncorr_bkguncrt174b[37],-0.0000,0.9949
uncorr_bkguncrt174b[38],-0.0000,0.9961
uncorr_bkguncrt174b[39],-0.0000,0.9970
uncorr_bkguncrt174b[3],-0.0000,0.8136
uncorr_bkguncrt174b[4],-0.0001,0.7985
uncorr_bkguncrt174b[5],-0.0003,0.8022
uncorr_bkguncrt174b[6],-0.0005,0.8228
uncorr_bkguncrt174b[7],-0.0007,0.8560
uncorr_bkguncrt174b[8],-0.0008,0.8858
uncorr_bkguncrt174b[9],-0.0008,0.9115
