time="2020-02-07T13:17:53-08:00" level=warning msg="\"/run/user/14660\" directory set by $XDG_RUNTIME_DIR does not exist. Either create the directory or unset $XDG_RUNTIME_DIR.: stat /run/user/14660: no such file or directory: Trying to pull image in the event that it is a public image."
df_f_0.22_2b.h5
df_f_0.22_2b_SB_rw_vars.h5
df_f_0.22_3b.h5
df_f_0.22_4b_SB_rw_vars.h5
df_f_0.22_NNT_HCs.h5
df_f_0.22_fullmassplane.h5
df_f_0.22_rw_vars.h5
df_periodABCDEFG_f_0.22_fullmassplane.h5
df_periodABC_f_0.22_fullmassplane.h5
files
old_files
  0%|          | 0/35 [00:00<?, ?it/s]/opt/conda/lib/python3.6/site-packages/pandas/core/generic.py:2530: PerformanceWarning: 
your performance may suffer as PyTables will pickle object types that it cannot
map directly to c-types [inferred_type->mixed,key->block4_values] [items->['passedTriggerHashes', 'resolvedJets_E', 'resolvedJets_pt', 'resolvedJets_phi', 'resolvedJets_eta', 'resolvedJets_MV2c10', 'resolvedJets_is_MV2c10_FixedCutBEff_70', 'muon_pt', 'muon_eta', 'muon_phi', 'muon_m', 'muon_EnergyLoss']]

  pytables.to_hdf(path_or_buf, key, self, **kwargs)
  3%|2         | 1/35 [01:32<52:24, 92.47s/it]  6%|5         | 2/35 [02:06<41:10, 74.86s/it]  9%|8         | 3/35 [02:24<30:50, 57.84s/it] 11%|#1        | 4/35 [02:30<21:53, 42.36s/it] 14%|#4        | 5/35 [02:47<17:17, 34.59s/it] 17%|#7        | 6/35 [02:59<13:27, 27.85s/it] 20%|##        | 7/35 [04:27<21:26, 45.95s/it] 23%|##2       | 8/35 [05:11<20:23, 45.30s/it] 26%|##5       | 9/35 [05:43<17:54, 41.35s/it] 29%|##8       | 10/35 [06:20<16:43, 40.13s/it] 31%|###1      | 11/35 [06:34<12:54, 32.25s/it] 34%|###4      | 12/35 [07:12<12:59, 33.90s/it] 37%|###7      | 13/35 [08:39<18:16, 49.82s/it] 40%|####      | 14/35 [09:45<19:07, 54.65s/it] 43%|####2     | 15/35 [10:56<19:55, 59.78s/it] 46%|####5     | 16/35 [11:24<15:50, 50.01s/it] 49%|####8     | 17/35 [11:56<13:26, 44.80s/it] 51%|#####1    | 18/35 [12:58<14:07, 49.82s/it] 54%|#####4    | 19/35 [13:47<13:13, 49.61s/it] 57%|#####7    | 20/35 [14:38<12:32, 50.19s/it] 60%|######    | 21/35 [14:53<09:14, 39.62s/it] 63%|######2   | 22/35 [15:14<07:22, 34.06s/it] 66%|######5   | 23/35 [16:21<08:44, 43.67s/it] 69%|######8   | 24/35 [16:57<07:35, 41.37s/it] 71%|#######1  | 25/35 [17:55<07:44, 46.43s/it] 74%|#######4  | 26/35 [18:50<07:23, 49.22s/it] 77%|#######7  | 27/35 [19:02<05:03, 37.89s/it] 80%|########  | 28/35 [19:26<03:56, 33.77s/it] 83%|########2 | 29/35 [19:48<03:01, 30.17s/it] 86%|########5 | 30/35 [19:57<01:58, 23.77s/it] 89%|########8 | 31/35 [20:36<01:53, 28.40s/it] 91%|#########1| 32/35 [21:57<02:12, 44.14s/it] 94%|#########4| 33/35 [22:00<01:03, 31.83s/it] 97%|#########7| 34/35 [22:25<00:29, 29.80s/it]100%|##########| 35/35 [23:55<00:00, 47.88s/it]100%|##########| 35/35 [23:55<00:00, 41.02s/it]
['run_number', 'event_number', 'mc_sf', 'ntag', 'njets', 'kinematic_region', 'm_hh', 'pt_hh', 'X_wt', 'm_hh_cor', 'pT_h1', 'eta_h1', 'phi_h1', 'm_h1', 'dRjj_h1', 'pT_h2', 'eta_h2', 'phi_h2', 'm_h2', 'dRjj_h2', 'pT_2', 'pT_4', 'eta_i', 'dRjj_1', 'dRjj_2', 'cosThetaStar', 'cosTheta1', 'cosTheta2', 'Phi', 'Phi1', 'HT', 'MDR', 'MDpT', 'cut_deta_hh', 'cut_Xwt', 'ml_j0_pt', 'ml_j1_pt', 'ml_j2_pt', 'ml_j3_pt', 'ml_j4_pt', 'ml_j0_eta', 'ml_j1_eta', 'ml_j2_eta', 'ml_j3_eta', 'ml_j4_eta', 'ml_j0_phi', 'ml_j1_phi', 'ml_j2_phi', 'ml_j3_phi', 'ml_j4_phi', 'ml_j0_E', 'ml_j1_E', 'ml_j2_E', 'ml_j3_E', 'ml_j4_E', 'ml_j0_Db', 'ml_j1_Db', 'ml_j2_Db', 'ml_j3_Db', 'ml_j4_Db', 'idx_HC0_j0', 'idx_HC0_j1', 'idx_HC1_j0', 'idx_HC1_j1']
Scaling pt.
Scaling E.
Saving  /u/ki/nhartman/gpfs/diHiggs4b/data/data_16_PFlow-MAY2019-5jets/files/df_periodI_f_0.22_000023_entry_0_500000_scaledInputs.h5
Getting jet pts
Getting jet etas
Getting jet phis
Getting jet Es
Calculating Xwt
Calculating Xhh
run_number
event_number
mc_sf
ntag
njets
kinematic_region
m_hh
pt_hh
X_wt
m_hh_cor
pT_h1
eta_h1
phi_h1
m_h1
dRjj_h1
pT_h2
eta_h2
phi_h2
m_h2
dRjj_h2
pT_2
pT_4
eta_i
dRjj_1
dRjj_2
cosThetaStar
cosTheta1
cosTheta2
Phi
Phi1
HT
MDR
MDpT
cut_deta_hh
cut_Xwt
ml_j0_pt
ml_j1_pt
ml_j2_pt
ml_j3_pt
ml_j4_pt
ml_j0_eta
ml_j1_eta
ml_j2_eta
ml_j3_eta
ml_j4_eta
ml_j0_phi
ml_j1_phi
ml_j2_phi
ml_j3_phi
ml_j4_phi
ml_j0_E
ml_j1_E
ml_j2_E
ml_j3_E
ml_j4_E
ml_j0_Db
ml_j1_Db
ml_j2_Db
ml_j3_Db
ml_j4_Db
idx_HC0_j0
idx_HC0_j1
idx_HC1_j0
idx_HC1_j1
Scaling pt.
Scaling E.
Saving  /u/ki/nhartman/gpfs/diHiggs4b/data/data_16_PFlow-MAY2019-5jets/files/df_periodI_f_0.22_000017_entry_0_500000_scaledInputs.h5
Getting jet pts
Getting jet etas
Getting jet phis
Getting jet Es
Calculating Xwt
Calculating Xhh
run_number
event_number
mc_sf
ntag
njets
kinematic_region
m_hh
pt_hh
X_wt
m_hh_cor
pT_h1
eta_h1
phi_h1
m_h1
dRjj_h1
pT_h2
eta_h2
phi_h2
m_h2
dRjj_h2
pT_2
pT_4
eta_i
dRjj_1
dRjj_2
cosThetaStar
cosTheta1
cosTheta2
Phi
Phi1
HT
MDR
MDpT
cut_deta_hh
cut_Xwt
ml_j0_pt
ml_j1_pt
ml_j2_pt
ml_j3_pt
ml_j4_pt
ml_j0_eta
ml_j1_eta
ml_j2_eta
ml_j3_eta
ml_j4_eta
ml_j0_phi
ml_j1_phi
ml_j2_phi
ml_j3_phi
ml_j4_phi
ml_j0_E
ml_j1_E
ml_j2_E
ml_j3_E
ml_j4_E
ml_j0_Db
ml_j1_Db
ml_j2_Db
ml_j3_Db
ml_j4_Db
idx_HC0_j0
idx_HC0_j1
idx_HC1_j0
idx_HC1_j1
Scaling pt.
Scaling E.
Saving  /u/ki/nhartman/gpfs/diHiggs4b/data/data_16_PFlow-MAY2019-5jets/files/df_periodI_f_0.22_000001_entry_0_500000_scaledInputs.h5
Getting jet pts
Getting jet etas
Getting jet phis
Getting jet Es
Calculating Xwt
Calculating Xhh
run_number
event_number
mc_sf
ntag
njets
kinematic_region
m_hh
pt_hh
X_wt
m_hh_cor
pT_h1
eta_h1
phi_h1
m_h1
dRjj_h1
pT_h2
eta_h2
phi_h2
m_h2
dRjj_h2
pT_2
pT_4
eta_i
dRjj_1
dRjj_2
cosThetaStar
cosTheta1
cosTheta2
Phi
Phi1
HT
MDR
MDpT
cut_deta_hh
cut_Xwt
ml_j0_pt
ml_j1_pt
ml_j2_pt
ml_j3_pt
ml_j4_pt
ml_j0_eta
ml_j1_eta
ml_j2_eta
ml_j3_eta
ml_j4_eta
ml_j0_phi
ml_j1_phi
ml_j2_phi
ml_j3_phi
ml_j4_phi
ml_j0_E
ml_j1_E
ml_j2_E
ml_j3_E
ml_j4_E
ml_j0_Db
ml_j1_Db
ml_j2_Db
ml_j3_Db
ml_j4_Db
idx_HC0_j0
idx_HC0_j1
idx_HC1_j0
idx_HC1_j1
Scaling pt.
Scaling E.
Saving  /u/ki/nhartman/gpfs/diHiggs4b/data/data_16_PFlow-MAY2019-5jets/files/df_periodI_f_0.22_000005_entry_0_500000_scaledInputs.h5
Getting jet pts
Getting jet etas
Getting jet phis
Getting jet Es
Calculating Xwt
Calculating Xhh
run_number
event_number
mc_sf
ntag
njets
kinematic_region
m_hh
pt_hh
X_wt
m_hh_cor
pT_h1
eta_h1
phi_h1
m_h1
dRjj_h1
pT_h2
eta_h2
phi_h2
m_h2
dRjj_h2
pT_2
pT_4
eta_i
dRjj_1
dRjj_2
cosThetaStar
cosTheta1
cosTheta2
Phi
Phi1
HT
MDR
MDpT
cut_deta_hh
cut_Xwt
ml_j0_pt
ml_j1_pt
ml_j2_pt
ml_j3_pt
ml_j4_pt
ml_j0_eta
ml_j1_eta
ml_j2_eta
ml_j3_eta
ml_j4_eta
ml_j0_phi
ml_j1_phi
ml_j2_phi
ml_j3_phi
ml_j4_phi
ml_j0_E
ml_j1_E
ml_j2_E
ml_j3_E
ml_j4_E
ml_j0_Db
ml_j1_Db
ml_j2_Db
ml_j3_Db
ml_j4_Db
idx_HC0_j0
idx_HC0_j1
idx_HC1_j0
idx_HC1_j1
Scaling pt.
Scaling E.
Saving  /u/ki/nhartman/gpfs/diHiggs4b/data/data_16_PFlow-MAY2019-5jets/files/df_periodI_f_0.22_000035_entry_0_500000_scaledInputs.h5
Getting jet pts
Getting jet etas
Getting jet phis
Getting jet Es
Calculating Xwt
Calculating Xhh
run_number
event_number
mc_sf
ntag
njets
kinematic_region
m_hh
pt_hh
X_wt
m_hh_cor
pT_h1
eta_h1
phi_h1
m_h1
dRjj_h1
pT_h2
eta_h2
phi_h2
m_h2
dRjj_h2
pT_2
pT_4
eta_i
dRjj_1
dRjj_2
cosThetaStar
cosTheta1
cosTheta2
Phi
Phi1
HT
MDR
MDpT
cut_deta_hh
cut_Xwt
ml_j0_pt
ml_j1_pt
ml_j2_pt
ml_j3_pt
ml_j4_pt
ml_j0_eta
ml_j1_eta
ml_j2_eta
ml_j3_eta
ml_j4_eta
ml_j0_phi
ml_j1_phi
ml_j2_phi
ml_j3_phi
ml_j4_phi
ml_j0_E
ml_j1_E
ml_j2_E
ml_j3_E
ml_j4_E
ml_j0_Db
ml_j1_Db
ml_j2_Db
ml_j3_Db
ml_j4_Db
idx_HC0_j0
idx_HC0_j1
idx_HC1_j0
idx_HC1_j1
Scaling pt.
Scaling E.
Saving  /u/ki/nhartman/gpfs/diHiggs4b/data/data_16_PFlow-MAY2019-5jets/files/df_periodI_f_0.22_000029_entry_0_500000_scaledInputs.h5
Getting jet pts
Getting jet etas
Getting jet phis
Getting jet Es
Calculating Xwt
Calculating Xhh
run_number
event_number
mc_sf
ntag
njets
kinematic_region
m_hh
pt_hh
X_wt
m_hh_cor
pT_h1
eta_h1
phi_h1
m_h1
dRjj_h1
pT_h2
eta_h2
phi_h2
m_h2
dRjj_h2
pT_2
pT_4
eta_i
dRjj_1
dRjj_2
cosThetaStar
cosTheta1
cosTheta2
Phi
Phi1
HT
MDR
MDpT
cut_deta_hh
cut_Xwt
ml_j0_pt
ml_j1_pt
ml_j2_pt
ml_j3_pt
ml_j4_pt
ml_j0_eta
ml_j1_eta
ml_j2_eta
ml_j3_eta
ml_j4_eta
ml_j0_phi
ml_j1_phi
ml_j2_phi
ml_j3_phi
ml_j4_phi
ml_j0_E
ml_j1_E
ml_j2_E
ml_j3_E
ml_j4_E
ml_j0_Db
ml_j1_Db
ml_j2_Db
ml_j3_Db
ml_j4_Db
idx_HC0_j0
idx_HC0_j1
idx_HC1_j0
idx_HC1_j1
Scaling pt.
Scaling E.
Saving  /u/ki/nhartman/gpfs/diHiggs4b/data/data_16_PFlow-MAY2019-5jets/files/df_periodI_f_0.22_000022_entry_0_500000_scaledInputs.h5
Getting jet pts
Getting jet etas
Getting jet phis
Getting jet Es
Calculating Xwt
Calculating Xhh
run_number
event_number
mc_sf
ntag
njets
kinematic_region
m_hh
pt_hh
X_wt
m_hh_cor
pT_h1
eta_h1
phi_h1
m_h1
dRjj_h1
pT_h2
eta_h2
phi_h2
m_h2
dRjj_h2
pT_2
pT_4
eta_i
dRjj_1
dRjj_2
cosThetaStar
cosTheta1
cosTheta2
Phi
Phi1
HT
MDR
MDpT
cut_deta_hh
cut_Xwt
ml_j0_pt
ml_j1_pt
ml_j2_pt
ml_j3_pt
ml_j4_pt
ml_j0_eta
ml_j1_eta
ml_j2_eta
ml_j3_eta
ml_j4_eta
ml_j0_phi
ml_j1_phi
ml_j2_phi
ml_j3_phi
ml_j4_phi
ml_j0_E
ml_j1_E
ml_j2_E
ml_j3_E
ml_j4_E
ml_j0_Db
ml_j1_Db
ml_j2_Db
ml_j3_Db
ml_j4_Db
idx_HC0_j0
idx_HC0_j1
idx_HC1_j0
idx_HC1_j1
Scaling pt.
Scaling E.
Saving  /u/ki/nhartman/gpfs/diHiggs4b/data/data_16_PFlow-MAY2019-5jets/files/df_periodI_f_0.22_000015_entry_0_500000_scaledInputs.h5
Getting jet pts
Getting jet etas
Getting jet phis
Getting jet Es
Calculating Xwt
Calculating Xhh
run_number
event_number
mc_sf
ntag
njets
kinematic_region
m_hh
pt_hh
X_wt
m_hh_cor
pT_h1
eta_h1
phi_h1
m_h1
dRjj_h1
pT_h2
eta_h2
phi_h2
m_h2
dRjj_h2
pT_2
pT_4
eta_i
dRjj_1
dRjj_2
cosThetaStar
cosTheta1
cosTheta2
Phi
Phi1
HT
MDR
MDpT
cut_deta_hh
cut_Xwt
ml_j0_pt
ml_j1_pt
ml_j2_pt
ml_j3_pt
ml_j4_pt
ml_j0_eta
ml_j1_eta
ml_j2_eta
ml_j3_eta
ml_j4_eta
ml_j0_phi
ml_j1_phi
ml_j2_phi
ml_j3_phi
ml_j4_phi
ml_j0_E
ml_j1_E
ml_j2_E
ml_j3_E
ml_j4_E
ml_j0_Db
ml_j1_Db
ml_j2_Db
ml_j3_Db
ml_j4_Db
idx_HC0_j0
idx_HC0_j1
idx_HC1_j0
idx_HC1_j1
Scaling pt.
Scaling E.
Saving  /u/ki/nhartman/gpfs/diHiggs4b/data/data_16_PFlow-MAY2019-5jets/files/df_periodI_f_0.22_000018_entry_0_500000_scaledInputs.h5
Getting jet pts
Getting jet etas
Getting jet phis
Getting jet Es
Calculating Xwt
Calculating Xhh
run_number
event_number
mc_sf
ntag
njets
kinematic_region
m_hh
pt_hh
X_wt
m_hh_cor
pT_h1
eta_h1
phi_h1
m_h1
dRjj_h1
pT_h2
eta_h2
phi_h2
m_h2
dRjj_h2
pT_2
pT_4
eta_i
dRjj_1
dRjj_2
cosThetaStar
cosTheta1
cosTheta2
Phi
Phi1
HT
MDR
MDpT
cut_deta_hh
cut_Xwt
ml_j0_pt
ml_j1_pt
ml_j2_pt
ml_j3_pt
ml_j4_pt
ml_j0_eta
ml_j1_eta
ml_j2_eta
ml_j3_eta
ml_j4_eta
ml_j0_phi
ml_j1_phi
ml_j2_phi
ml_j3_phi
ml_j4_phi
ml_j0_E
ml_j1_E
ml_j2_E
ml_j3_E
ml_j4_E
ml_j0_Db
ml_j1_Db
ml_j2_Db
ml_j3_Db
ml_j4_Db
idx_HC0_j0
idx_HC0_j1
idx_HC1_j0
idx_HC1_j1
Scaling pt.
Scaling E.
Saving  /u/ki/nhartman/gpfs/diHiggs4b/data/data_16_PFlow-MAY2019-5jets/files/df_periodI_f_0.22_000009_entry_0_500000_scaledInputs.h5
Getting jet pts
Getting jet etas
Getting jet phis
Getting jet Es
Calculating Xwt
Calculating Xhh
run_number
event_number
mc_sf
ntag
njets
kinematic_region
m_hh
pt_hh
X_wt
m_hh_cor
pT_h1
eta_h1
phi_h1
m_h1
dRjj_h1
pT_h2
eta_h2
phi_h2
m_h2
dRjj_h2
pT_2
pT_4
eta_i
dRjj_1
dRjj_2
cosThetaStar
cosTheta1
cosTheta2
Phi
Phi1
HT
MDR
MDpT
cut_deta_hh
cut_Xwt
ml_j0_pt
ml_j1_pt
ml_j2_pt
ml_j3_pt
ml_j4_pt
ml_j0_eta
ml_j1_eta
ml_j2_eta
ml_j3_eta
ml_j4_eta
ml_j0_phi
ml_j1_phi
ml_j2_phi
ml_j3_phi
ml_j4_phi
ml_j0_E
ml_j1_E
ml_j2_E
ml_j3_E
ml_j4_E
ml_j0_Db
ml_j1_Db
ml_j2_Db
ml_j3_Db
ml_j4_Db
idx_HC0_j0
idx_HC0_j1
idx_HC1_j0
idx_HC1_j1
Scaling pt.
Scaling E.
Saving  /u/ki/nhartman/gpfs/diHiggs4b/data/data_16_PFlow-MAY2019-5jets/files/df_periodI_f_0.22_000026_entry_0_500000_scaledInputs.h5
Getting jet pts
Getting jet etas
Getting jet phis
Getting jet Es
Calculating Xwt
Calculating Xhh
run_number
event_number
mc_sf
ntag
njets
kinematic_region
m_hh
pt_hh
X_wt
m_hh_cor
pT_h1
eta_h1
phi_h1
m_h1
dRjj_h1
pT_h2
eta_h2
phi_h2
m_h2
dRjj_h2
pT_2
pT_4
eta_i
dRjj_1
dRjj_2
cosThetaStar
cosTheta1
cosTheta2
Phi
Phi1
HT
MDR
MDpT
cut_deta_hh
cut_Xwt
ml_j0_pt
ml_j1_pt
ml_j2_pt
ml_j3_pt
ml_j4_pt
ml_j0_eta
ml_j1_eta
ml_j2_eta
ml_j3_eta
ml_j4_eta
ml_j0_phi
ml_j1_phi
ml_j2_phi
ml_j3_phi
ml_j4_phi
ml_j0_E
ml_j1_E
ml_j2_E
ml_j3_E
ml_j4_E
ml_j0_Db
ml_j1_Db
ml_j2_Db
ml_j3_Db
ml_j4_Db
idx_HC0_j0
idx_HC0_j1
idx_HC1_j0
idx_HC1_j1
Scaling pt.
Scaling E.
Saving  /u/ki/nhartman/gpfs/diHiggs4b/data/data_16_PFlow-MAY2019-5jets/files/df_periodI_f_0.22_000020_entry_0_500000_scaledInputs.h5
Getting jet pts
Getting jet etas
Getting jet phis
Getting jet Es
Calculating Xwt
Calculating Xhh
run_number
event_number
mc_sf
ntag
njets
kinematic_region
m_hh
pt_hh
X_wt
m_hh_cor
pT_h1
eta_h1
phi_h1
m_h1
dRjj_h1
pT_h2
eta_h2
phi_h2
m_h2
dRjj_h2
pT_2
pT_4
eta_i
dRjj_1
dRjj_2
cosThetaStar
cosTheta1
cosTheta2
Phi
Phi1
HT
MDR
MDpT
cut_deta_hh
cut_Xwt
ml_j0_pt
ml_j1_pt
ml_j2_pt
ml_j3_pt
ml_j4_pt
ml_j0_eta
ml_j1_eta
ml_j2_eta
ml_j3_eta
ml_j4_eta
ml_j0_phi
ml_j1_phi
ml_j2_phi
ml_j3_phi
ml_j4_phi
ml_j0_E
ml_j1_E
ml_j2_E
ml_j3_E
ml_j4_E
ml_j0_Db
ml_j1_Db
ml_j2_Db
ml_j3_Db
ml_j4_Db
idx_HC0_j0
idx_HC0_j1
idx_HC1_j0
idx_HC1_j1
Scaling pt.
Scaling E.
Saving  /u/ki/nhartman/gpfs/diHiggs4b/data/data_16_PFlow-MAY2019-5jets/files/df_periodI_f_0.22_000032_entry_0_500000_scaledInputs.h5
Getting jet pts
Getting jet etas
Getting jet phis
Getting jet Es
Calculating Xwt
Calculating Xhh
run_number
event_number
mc_sf
ntag
njets
kinematic_region
m_hh
pt_hh
X_wt
m_hh_cor
pT_h1
eta_h1
phi_h1
m_h1
dRjj_h1
pT_h2
eta_h2
phi_h2
m_h2
dRjj_h2
pT_2
pT_4
eta_i
dRjj_1
dRjj_2
cosThetaStar
cosTheta1
cosTheta2
Phi
Phi1
HT
MDR
MDpT
cut_deta_hh
cut_Xwt
ml_j0_pt
ml_j1_pt
ml_j2_pt
ml_j3_pt
ml_j4_pt
ml_j0_eta
ml_j1_eta
ml_j2_eta
ml_j3_eta
ml_j4_eta
ml_j0_phi
ml_j1_phi
ml_j2_phi
ml_j3_phi
ml_j4_phi
ml_j0_E
ml_j1_E
ml_j2_E
ml_j3_E
ml_j4_E
ml_j0_Db
ml_j1_Db
ml_j2_Db
ml_j3_Db
ml_j4_Db
idx_HC0_j0
idx_HC0_j1
idx_HC1_j0
idx_HC1_j1
Scaling pt.
Scaling E.
Saving  /u/ki/nhartman/gpfs/diHiggs4b/data/data_16_PFlow-MAY2019-5jets/files/df_periodI_f_0.22_000024_entry_0_500000_scaledInputs.h5
Getting jet pts
Getting jet etas
Getting jet phis
Getting jet Es
Calculating Xwt
Calculating Xhh
run_number
event_number
mc_sf
ntag
njets
kinematic_region
m_hh
pt_hh
X_wt
m_hh_cor
pT_h1
eta_h1
phi_h1
m_h1
dRjj_h1
pT_h2
eta_h2
phi_h2
m_h2
dRjj_h2
pT_2
pT_4
eta_i
dRjj_1
dRjj_2
cosThetaStar
cosTheta1
cosTheta2
Phi
Phi1
HT
MDR
MDpT
cut_deta_hh
cut_Xwt
ml_j0_pt
ml_j1_pt
ml_j2_pt
ml_j3_pt
ml_j4_pt
ml_j0_eta
ml_j1_eta
ml_j2_eta
ml_j3_eta
ml_j4_eta
ml_j0_phi
ml_j1_phi
ml_j2_phi
ml_j3_phi
ml_j4_phi
ml_j0_E
ml_j1_E
ml_j2_E
ml_j3_E
ml_j4_E
ml_j0_Db
ml_j1_Db
ml_j2_Db
ml_j3_Db
ml_j4_Db
idx_HC0_j0
idx_HC0_j1
idx_HC1_j0
idx_HC1_j1
Scaling pt.
Scaling E.
Saving  /u/ki/nhartman/gpfs/diHiggs4b/data/data_16_PFlow-MAY2019-5jets/files/df_periodI_f_0.22_000021_entry_0_500000_scaledInputs.h5
Getting jet pts
Getting jet etas
Getting jet phis
Getting jet Es
Calculating Xwt
Calculating Xhh
run_number
event_number
mc_sf
ntag
njets
kinematic_region
m_hh
pt_hh
X_wt
m_hh_cor
pT_h1
eta_h1
phi_h1
m_h1
dRjj_h1
pT_h2
eta_h2
phi_h2
m_h2
dRjj_h2
pT_2
pT_4
eta_i
dRjj_1
dRjj_2
cosThetaStar
cosTheta1
cosTheta2
Phi
Phi1
HT
MDR
MDpT
cut_deta_hh
cut_Xwt
ml_j0_pt
ml_j1_pt
ml_j2_pt
ml_j3_pt
ml_j4_pt
ml_j0_eta
ml_j1_eta
ml_j2_eta
ml_j3_eta
ml_j4_eta
ml_j0_phi
ml_j1_phi
ml_j2_phi
ml_j3_phi
ml_j4_phi
ml_j0_E
ml_j1_E
ml_j2_E
ml_j3_E
ml_j4_E
ml_j0_Db
ml_j1_Db
ml_j2_Db
ml_j3_Db
ml_j4_Db
idx_HC0_j0
idx_HC0_j1
idx_HC1_j0
idx_HC1_j1
Scaling pt.
Scaling E.
Saving  /u/ki/nhartman/gpfs/diHiggs4b/data/data_16_PFlow-MAY2019-5jets/files/df_periodI_f_0.22_000016_entry_0_500000_scaledInputs.h5
Getting jet pts
Getting jet etas
Getting jet phis
Getting jet Es
Calculating Xwt
Calculating Xhh
run_number
event_number
mc_sf
ntag
njets
kinematic_region
m_hh
pt_hh
X_wt
m_hh_cor
pT_h1
eta_h1
phi_h1
m_h1
dRjj_h1
pT_h2
eta_h2
phi_h2
m_h2
dRjj_h2
pT_2
pT_4
eta_i
dRjj_1
dRjj_2
cosThetaStar
cosTheta1
cosTheta2
Phi
Phi1
HT
MDR
MDpT
cut_deta_hh
cut_Xwt
ml_j0_pt
ml_j1_pt
ml_j2_pt
ml_j3_pt
ml_j4_pt
ml_j0_eta
ml_j1_eta
ml_j2_eta
ml_j3_eta
ml_j4_eta
ml_j0_phi
ml_j1_phi
ml_j2_phi
ml_j3_phi
ml_j4_phi
ml_j0_E
ml_j1_E
ml_j2_E
ml_j3_E
ml_j4_E
ml_j0_Db
ml_j1_Db
ml_j2_Db
ml_j3_Db
ml_j4_Db
idx_HC0_j0
idx_HC0_j1
idx_HC1_j0
idx_HC1_j1
Scaling pt.
Scaling E.
Saving  /u/ki/nhartman/gpfs/diHiggs4b/data/data_16_PFlow-MAY2019-5jets/files/df_periodI_f_0.22_000034_entry_0_500000_scaledInputs.h5
Getting jet pts
Getting jet etas
Getting jet phis
Getting jet Es
Calculating Xwt
Calculating Xhh
run_number
event_number
mc_sf
ntag
njets
kinematic_region
m_hh
pt_hh
X_wt
m_hh_cor
pT_h1
eta_h1
phi_h1
m_h1
dRjj_h1
pT_h2
eta_h2
phi_h2
m_h2
dRjj_h2
pT_2
pT_4
eta_i
dRjj_1
dRjj_2
cosThetaStar
cosTheta1
cosTheta2
Phi
Phi1
HT
MDR
MDpT
cut_deta_hh
cut_Xwt
ml_j0_pt
ml_j1_pt
ml_j2_pt
ml_j3_pt
ml_j4_pt
ml_j0_eta
ml_j1_eta
ml_j2_eta
ml_j3_eta
ml_j4_eta
ml_j0_phi
ml_j1_phi
ml_j2_phi
ml_j3_phi
ml_j4_phi
ml_j0_E
ml_j1_E
ml_j2_E
ml_j3_E
ml_j4_E
ml_j0_Db
ml_j1_Db
ml_j2_Db
ml_j3_Db
ml_j4_Db
idx_HC0_j0
idx_HC0_j1
idx_HC1_j0
idx_HC1_j1
Scaling pt.
Scaling E.
Saving  /u/ki/nhartman/gpfs/diHiggs4b/data/data_16_PFlow-MAY2019-5jets/files/df_periodI_f_0.22_000025_entry_0_500000_scaledInputs.h5
Getting jet pts
Getting jet etas
Getting jet phis
Getting jet Es
Calculating Xwt
Calculating Xhh
run_number
event_number
mc_sf
ntag
njets
kinematic_region
m_hh
pt_hh
X_wt
m_hh_cor
pT_h1
eta_h1
phi_h1
m_h1
dRjj_h1
pT_h2
eta_h2
phi_h2
m_h2
dRjj_h2
pT_2
pT_4
eta_i
dRjj_1
dRjj_2
cosThetaStar
cosTheta1
cosTheta2
Phi
Phi1
HT
MDR
MDpT
cut_deta_hh
cut_Xwt
ml_j0_pt
ml_j1_pt
ml_j2_pt
ml_j3_pt
ml_j4_pt
ml_j0_eta
ml_j1_eta
ml_j2_eta
ml_j3_eta
ml_j4_eta
ml_j0_phi
ml_j1_phi
ml_j2_phi
ml_j3_phi
ml_j4_phi
ml_j0_E
ml_j1_E
ml_j2_E
ml_j3_E
ml_j4_E
ml_j0_Db
ml_j1_Db
ml_j2_Db
ml_j3_Db
ml_j4_Db
idx_HC0_j0
idx_HC0_j1
idx_HC1_j0
idx_HC1_j1
Scaling pt.
Scaling E.
Saving  /u/ki/nhartman/gpfs/diHiggs4b/data/data_16_PFlow-MAY2019-5jets/files/df_periodI_f_0.22_000022_entry_500000_1000000_scaledInputs.h5
Getting jet pts
Getting jet etas
Getting jet phis
Getting jet Es
Calculating Xwt
Calculating Xhh
run_number
event_number
mc_sf
ntag
njets
kinematic_region
m_hh
pt_hh
X_wt
m_hh_cor
pT_h1
eta_h1
phi_h1
m_h1
dRjj_h1
pT_h2
eta_h2
phi_h2
m_h2
dRjj_h2
pT_2
pT_4
eta_i
dRjj_1
dRjj_2
cosThetaStar
cosTheta1
cosTheta2
Phi
Phi1
HT
MDR
MDpT
cut_deta_hh
cut_Xwt
ml_j0_pt
ml_j1_pt
ml_j2_pt
ml_j3_pt
ml_j4_pt
ml_j0_eta
ml_j1_eta
ml_j2_eta
ml_j3_eta
ml_j4_eta
ml_j0_phi
ml_j1_phi
ml_j2_phi
ml_j3_phi
ml_j4_phi
ml_j0_E
ml_j1_E
ml_j2_E
ml_j3_E
ml_j4_E
ml_j0_Db
ml_j1_Db
ml_j2_Db
ml_j3_Db
ml_j4_Db
idx_HC0_j0
idx_HC0_j1
idx_HC1_j0
idx_HC1_j1
Scaling pt.
Scaling E.
Saving  /u/ki/nhartman/gpfs/diHiggs4b/data/data_16_PFlow-MAY2019-5jets/files/df_periodI_f_0.22_000003_entry_0_500000_scaledInputs.h5
Getting jet pts
Getting jet etas
Getting jet phis
Getting jet Es
Calculating Xwt
Calculating Xhh
run_number
event_number
mc_sf
ntag
njets
kinematic_region
m_hh
pt_hh
X_wt
m_hh_cor
pT_h1
eta_h1
phi_h1
m_h1
dRjj_h1
pT_h2
eta_h2
phi_h2
m_h2
dRjj_h2
pT_2
pT_4
eta_i
dRjj_1
dRjj_2
cosThetaStar
cosTheta1
cosTheta2
Phi
Phi1
HT
MDR
MDpT
cut_deta_hh
cut_Xwt
ml_j0_pt
ml_j1_pt
ml_j2_pt
ml_j3_pt
ml_j4_pt
ml_j0_eta
ml_j1_eta
ml_j2_eta
ml_j3_eta
ml_j4_eta
ml_j0_phi
ml_j1_phi
ml_j2_phi
ml_j3_phi
ml_j4_phi
ml_j0_E
ml_j1_E
ml_j2_E
ml_j3_E
ml_j4_E
ml_j0_Db
ml_j1_Db
ml_j2_Db
ml_j3_Db
ml_j4_Db
idx_HC0_j0
idx_HC0_j1
idx_HC1_j0
idx_HC1_j1
Scaling pt.
Scaling E.
Saving  /u/ki/nhartman/gpfs/diHiggs4b/data/data_16_PFlow-MAY2019-5jets/files/df_periodI_f_0.22_000004_entry_500000_1000000_scaledInputs.h5
Getting jet pts
Getting jet etas
Getting jet phis
Getting jet Es
Calculating Xwt
Calculating Xhh
run_number
event_number
mc_sf
ntag
njets
kinematic_region
m_hh
pt_hh
X_wt
m_hh_cor
pT_h1
eta_h1
phi_h1
m_h1
dRjj_h1
pT_h2
eta_h2
phi_h2
m_h2
dRjj_h2
pT_2
pT_4
eta_i
dRjj_1
dRjj_2
cosThetaStar
cosTheta1
cosTheta2
Phi
Phi1
HT
MDR
MDpT
cut_deta_hh
cut_Xwt
ml_j0_pt
ml_j1_pt
ml_j2_pt
ml_j3_pt
ml_j4_pt
ml_j0_eta
ml_j1_eta
ml_j2_eta
ml_j3_eta
ml_j4_eta
ml_j0_phi
ml_j1_phi
ml_j2_phi
ml_j3_phi
ml_j4_phi
ml_j0_E
ml_j1_E
ml_j2_E
ml_j3_E
ml_j4_E
ml_j0_Db
ml_j1_Db
ml_j2_Db
ml_j3_Db
ml_j4_Db
idx_HC0_j0
idx_HC0_j1
idx_HC1_j0
idx_HC1_j1
Scaling pt.
Scaling E.
Saving  /u/ki/nhartman/gpfs/diHiggs4b/data/data_16_PFlow-MAY2019-5jets/files/df_periodI_f_0.22_000014_entry_500000_1000000_scaledInputs.h5
Getting jet pts
Getting jet etas
Getting jet phis
Getting jet Es
Calculating Xwt
Calculating Xhh
run_number
event_number
mc_sf
ntag
njets
kinematic_region
m_hh
pt_hh
X_wt
m_hh_cor
pT_h1
eta_h1
phi_h1
m_h1
dRjj_h1
pT_h2
eta_h2
phi_h2
m_h2
dRjj_h2
pT_2
pT_4
eta_i
dRjj_1
dRjj_2
cosThetaStar
cosTheta1
cosTheta2
Phi
Phi1
HT
MDR
MDpT
cut_deta_hh
cut_Xwt
ml_j0_pt
ml_j1_pt
ml_j2_pt
ml_j3_pt
ml_j4_pt
ml_j0_eta
ml_j1_eta
ml_j2_eta
ml_j3_eta
ml_j4_eta
ml_j0_phi
ml_j1_phi
ml_j2_phi
ml_j3_phi
ml_j4_phi
ml_j0_E
ml_j1_E
ml_j2_E
ml_j3_E
ml_j4_E
ml_j0_Db
ml_j1_Db
ml_j2_Db
ml_j3_Db
ml_j4_Db
idx_HC0_j0
idx_HC0_j1
idx_HC1_j0
idx_HC1_j1
Scaling pt.
Scaling E.
Saving  /u/ki/nhartman/gpfs/diHiggs4b/data/data_16_PFlow-MAY2019-5jets/files/df_periodI_f_0.22_000010_entry_0_500000_scaledInputs.h5
Getting jet pts
Getting jet etas
Getting jet phis
Getting jet Es
Calculating Xwt
Calculating Xhh
run_number
event_number
mc_sf
ntag
njets
kinematic_region
m_hh
pt_hh
X_wt
m_hh_cor
pT_h1
eta_h1
phi_h1
m_h1
dRjj_h1
pT_h2
eta_h2
phi_h2
m_h2
dRjj_h2
pT_2
pT_4
eta_i
dRjj_1
dRjj_2
cosThetaStar
cosTheta1
cosTheta2
Phi
Phi1
HT
MDR
MDpT
cut_deta_hh
cut_Xwt
ml_j0_pt
ml_j1_pt
ml_j2_pt
ml_j3_pt
ml_j4_pt
ml_j0_eta
ml_j1_eta
ml_j2_eta
ml_j3_eta
ml_j4_eta
ml_j0_phi
ml_j1_phi
ml_j2_phi
ml_j3_phi
ml_j4_phi
ml_j0_E
ml_j1_E
ml_j2_E
ml_j3_E
ml_j4_E
ml_j0_Db
ml_j1_Db
ml_j2_Db
ml_j3_Db
ml_j4_Db
idx_HC0_j0
idx_HC0_j1
idx_HC1_j0
idx_HC1_j1
Scaling pt.
Scaling E.
Saving  /u/ki/nhartman/gpfs/diHiggs4b/data/data_16_PFlow-MAY2019-5jets/files/df_periodI_f_0.22_000007_entry_0_500000_scaledInputs.h5
Getting jet pts
Getting jet etas
Getting jet phis
Getting jet Es
Calculating Xwt
Calculating Xhh
run_number
event_number
mc_sf
ntag
njets
kinematic_region
m_hh
pt_hh
X_wt
m_hh_cor
pT_h1
eta_h1
phi_h1
m_h1
dRjj_h1
pT_h2
eta_h2
phi_h2
m_h2
dRjj_h2
pT_2
pT_4
eta_i
dRjj_1
dRjj_2
cosThetaStar
cosTheta1
cosTheta2
Phi
Phi1
HT
MDR
MDpT
cut_deta_hh
cut_Xwt
ml_j0_pt
ml_j1_pt
ml_j2_pt
ml_j3_pt
ml_j4_pt
ml_j0_eta
ml_j1_eta
ml_j2_eta
ml_j3_eta
ml_j4_eta
ml_j0_phi
ml_j1_phi
ml_j2_phi
ml_j3_phi
ml_j4_phi
ml_j0_E
ml_j1_E
ml_j2_E
ml_j3_E
ml_j4_E
ml_j0_Db
ml_j1_Db
ml_j2_Db
ml_j3_Db
ml_j4_Db
idx_HC0_j0
idx_HC0_j1
idx_HC1_j0
idx_HC1_j1
Scaling pt.
Scaling E.
Saving  /u/ki/nhartman/gpfs/diHiggs4b/data/data_16_PFlow-MAY2019-5jets/files/df_periodI_f_0.22_000033_entry_0_500000_scaledInputs.h5
Getting jet pts
Getting jet etas
Getting jet phis
Getting jet Es
Calculating Xwt
Calculating Xhh
run_number
event_number
mc_sf
ntag
njets
kinematic_region
m_hh
pt_hh
X_wt
m_hh_cor
pT_h1
eta_h1
phi_h1
m_h1
dRjj_h1
pT_h2
eta_h2
phi_h2
m_h2
dRjj_h2
pT_2
pT_4
eta_i
dRjj_1
dRjj_2
cosThetaStar
cosTheta1
cosTheta2
Phi
Phi1
HT
MDR
MDpT
cut_deta_hh
cut_Xwt
ml_j0_pt
ml_j1_pt
ml_j2_pt
ml_j3_pt
ml_j4_pt
ml_j0_eta
ml_j1_eta
ml_j2_eta
ml_j3_eta
ml_j4_eta
ml_j0_phi
ml_j1_phi
ml_j2_phi
ml_j3_phi
ml_j4_phi
ml_j0_E
ml_j1_E
ml_j2_E
ml_j3_E
ml_j4_E
ml_j0_Db
ml_j1_Db
ml_j2_Db
ml_j3_Db
ml_j4_Db
idx_HC0_j0
idx_HC0_j1
idx_HC1_j0
idx_HC1_j1
Scaling pt.
Scaling E.
Saving  /u/ki/nhartman/gpfs/diHiggs4b/data/data_16_PFlow-MAY2019-5jets/files/df_periodI_f_0.22_000019_entry_0_500000_scaledInputs.h5
Getting jet pts
Getting jet etas
Getting jet phis
Getting jet Es
Calculating Xwt
Calculating Xhh
run_number
event_number
mc_sf
ntag
njets
kinematic_region
m_hh
pt_hh
X_wt
m_hh_cor
pT_h1
eta_h1
phi_h1
m_h1
dRjj_h1
pT_h2
eta_h2
phi_h2
m_h2
dRjj_h2
pT_2
pT_4
eta_i
dRjj_1
dRjj_2
cosThetaStar
cosTheta1
cosTheta2
Phi
Phi1
HT
MDR
MDpT
cut_deta_hh
cut_Xwt
ml_j0_pt
ml_j1_pt
ml_j2_pt
ml_j3_pt
ml_j4_pt
ml_j0_eta
ml_j1_eta
ml_j2_eta
ml_j3_eta
ml_j4_eta
ml_j0_phi
ml_j1_phi
ml_j2_phi
ml_j3_phi
ml_j4_phi
ml_j0_E
ml_j1_E
ml_j2_E
ml_j3_E
ml_j4_E
ml_j0_Db
ml_j1_Db
ml_j2_Db
ml_j3_Db
ml_j4_Db
idx_HC0_j0
idx_HC0_j1
idx_HC1_j0
idx_HC1_j1
Scaling pt.
Scaling E.
Saving  /u/ki/nhartman/gpfs/diHiggs4b/data/data_16_PFlow-MAY2019-5jets/files/df_periodI_f_0.22_000028_entry_0_500000_scaledInputs.h5
Getting jet pts
Getting jet etas
Getting jet phis
Getting jet Es
Calculating Xwt
Calculating Xhh
run_number
event_number
mc_sf
ntag
njets
kinematic_region
m_hh
pt_hh
X_wt
m_hh_cor
pT_h1
eta_h1
phi_h1
m_h1
dRjj_h1
pT_h2
eta_h2
phi_h2
m_h2
dRjj_h2
pT_2
pT_4
eta_i
dRjj_1
dRjj_2
cosThetaStar
cosTheta1
cosTheta2
Phi
Phi1
HT
MDR
MDpT
cut_deta_hh
cut_Xwt
ml_j0_pt
ml_j1_pt
ml_j2_pt
ml_j3_pt
ml_j4_pt
ml_j0_eta
ml_j1_eta
ml_j2_eta
ml_j3_eta
ml_j4_eta
ml_j0_phi
ml_j1_phi
ml_j2_phi
ml_j3_phi
ml_j4_phi
ml_j0_E
ml_j1_E
ml_j2_E
ml_j3_E
ml_j4_E
ml_j0_Db
ml_j1_Db
ml_j2_Db
ml_j3_Db
ml_j4_Db
idx_HC0_j0
idx_HC0_j1
idx_HC1_j0
idx_HC1_j1
Scaling pt.
Scaling E.
Saving  /u/ki/nhartman/gpfs/diHiggs4b/data/data_16_PFlow-MAY2019-5jets/files/df_periodI_f_0.22_000030_entry_500000_1000000_scaledInputs.h5
Getting jet pts
Getting jet etas
Getting jet phis
Getting jet Es
Calculating Xwt
Calculating Xhh
run_number
event_number
mc_sf
ntag
njets
kinematic_region
m_hh
pt_hh
X_wt
m_hh_cor
pT_h1
eta_h1
phi_h1
m_h1
dRjj_h1
pT_h2
eta_h2
phi_h2
m_h2
dRjj_h2
pT_2
pT_4
eta_i
dRjj_1
dRjj_2
cosThetaStar
cosTheta1
cosTheta2
Phi
Phi1
HT
MDR
MDpT
cut_deta_hh
cut_Xwt
ml_j0_pt
ml_j1_pt
ml_j2_pt
ml_j3_pt
ml_j4_pt
ml_j0_eta
ml_j1_eta
ml_j2_eta
ml_j3_eta
ml_j4_eta
ml_j0_phi
ml_j1_phi
ml_j2_phi
ml_j3_phi
ml_j4_phi
ml_j0_E
ml_j1_E
ml_j2_E
ml_j3_E
ml_j4_E
ml_j0_Db
ml_j1_Db
ml_j2_Db
ml_j3_Db
ml_j4_Db
idx_HC0_j0
idx_HC0_j1
idx_HC1_j0
idx_HC1_j1
Scaling pt.
Scaling E.
Saving  /u/ki/nhartman/gpfs/diHiggs4b/data/data_16_PFlow-MAY2019-5jets/files/df_periodI_f_0.22_000012_entry_500000_1000000_scaledInputs.h5
Getting jet pts
Getting jet etas
Getting jet phis
Getting jet Es
Calculating Xwt
Calculating Xhh
run_number
event_number
mc_sf
ntag
njets
kinematic_region
m_hh
pt_hh
X_wt
m_hh_cor
pT_h1
eta_h1
phi_h1
m_h1
dRjj_h1
pT_h2
eta_h2
phi_h2
m_h2
dRjj_h2
pT_2
pT_4
eta_i
dRjj_1
dRjj_2
cosThetaStar
cosTheta1
cosTheta2
Phi
Phi1
HT
MDR
MDpT
cut_deta_hh
cut_Xwt
ml_j0_pt
ml_j1_pt
ml_j2_pt
ml_j3_pt
ml_j4_pt
ml_j0_eta
ml_j1_eta
ml_j2_eta
ml_j3_eta
ml_j4_eta
ml_j0_phi
ml_j1_phi
ml_j2_phi
ml_j3_phi
ml_j4_phi
ml_j0_E
ml_j1_E
ml_j2_E
ml_j3_E
ml_j4_E
ml_j0_Db
ml_j1_Db
ml_j2_Db
ml_j3_Db
ml_j4_Db
idx_HC0_j0
idx_HC0_j1
idx_HC1_j0
idx_HC1_j1
Scaling pt.
Scaling E.
Saving  /u/ki/nhartman/gpfs/diHiggs4b/data/data_16_PFlow-MAY2019-5jets/files/df_periodI_f_0.22_000027_entry_0_500000_scaledInputs.h5
Getting jet pts
Getting jet etas
Getting jet phis
Getting jet Es
Calculating Xwt
Calculating Xhh
run_number
event_number
mc_sf
ntag
njets
kinematic_region
m_hh
pt_hh
X_wt
m_hh_cor
pT_h1
eta_h1
phi_h1
m_h1
dRjj_h1
pT_h2
eta_h2
phi_h2
m_h2
dRjj_h2
pT_2
pT_4
eta_i
dRjj_1
dRjj_2
cosThetaStar
cosTheta1
cosTheta2
Phi
Phi1
HT
MDR
MDpT
cut_deta_hh
cut_Xwt
ml_j0_pt
ml_j1_pt
ml_j2_pt
ml_j3_pt
ml_j4_pt
ml_j0_eta
ml_j1_eta
ml_j2_eta
ml_j3_eta
ml_j4_eta
ml_j0_phi
ml_j1_phi
ml_j2_phi
ml_j3_phi
ml_j4_phi
ml_j0_E
ml_j1_E
ml_j2_E
ml_j3_E
ml_j4_E
ml_j0_Db
ml_j1_Db
ml_j2_Db
ml_j3_Db
ml_j4_Db
idx_HC0_j0
idx_HC0_j1
idx_HC1_j0
idx_HC1_j1
Scaling pt.
Scaling E.
Saving  /u/ki/nhartman/gpfs/diHiggs4b/data/data_16_PFlow-MAY2019-5jets/files/df_periodI_f_0.22_000002_entry_0_500000_scaledInputs.h5
Getting jet pts
Getting jet etas
Getting jet phis
Getting jet Es
Calculating Xwt
Calculating Xhh
run_number
event_number
mc_sf
ntag
njets
kinematic_region
m_hh
pt_hh
X_wt
m_hh_cor
pT_h1
eta_h1
phi_h1
m_h1
dRjj_h1
pT_h2
eta_h2
phi_h2
m_h2
dRjj_h2
pT_2
pT_4
eta_i
dRjj_1
dRjj_2
cosThetaStar
cosTheta1
cosTheta2
Phi
Phi1
HT
MDR
MDpT
cut_deta_hh
cut_Xwt
ml_j0_pt
ml_j1_pt
ml_j2_pt
ml_j3_pt
ml_j4_pt
ml_j0_eta
ml_j1_eta
ml_j2_eta
ml_j3_eta
ml_j4_eta
ml_j0_phi
ml_j1_phi
ml_j2_phi
ml_j3_phi
ml_j4_phi
ml_j0_E
ml_j1_E
ml_j2_E
ml_j3_E
ml_j4_E
ml_j0_Db
ml_j1_Db
ml_j2_Db
ml_j3_Db
ml_j4_Db
idx_HC0_j0
idx_HC0_j1
idx_HC1_j0
idx_HC1_j1
Scaling pt.
Scaling E.
Saving  /u/ki/nhartman/gpfs/diHiggs4b/data/data_16_PFlow-MAY2019-5jets/files/df_periodI_f_0.22_000031_entry_0_500000_scaledInputs.h5
Getting jet pts
Getting jet etas
Getting jet phis
Getting jet Es
Calculating Xwt
Calculating Xhh
run_number
event_number
mc_sf
ntag
njets
kinematic_region
m_hh
pt_hh
X_wt
m_hh_cor
pT_h1
eta_h1
phi_h1
m_h1
dRjj_h1
pT_h2
eta_h2
phi_h2
m_h2
dRjj_h2
pT_2
pT_4
eta_i
dRjj_1
dRjj_2
cosThetaStar
cosTheta1
cosTheta2
Phi
Phi1
HT
MDR
MDpT
cut_deta_hh
cut_Xwt
ml_j0_pt
ml_j1_pt
ml_j2_pt
ml_j3_pt
ml_j4_pt
ml_j0_eta
ml_j1_eta
ml_j2_eta
ml_j3_eta
ml_j4_eta
ml_j0_phi
ml_j1_phi
ml_j2_phi
ml_j3_phi
ml_j4_phi
ml_j0_E
ml_j1_E
ml_j2_E
ml_j3_E
ml_j4_E
ml_j0_Db
ml_j1_Db
ml_j2_Db
ml_j3_Db
ml_j4_Db
idx_HC0_j0
idx_HC0_j1
idx_HC1_j0
idx_HC1_j1
Scaling pt.
Scaling E.
Saving  /u/ki/nhartman/gpfs/diHiggs4b/data/data_16_PFlow-MAY2019-5jets/files/df_periodI_f_0.22_000023_entry_500000_1000000_scaledInputs.h5
Getting jet pts
Getting jet etas
Getting jet phis
Getting jet Es
Calculating Xwt
Calculating Xhh
run_number
event_number
mc_sf
ntag
njets
kinematic_region
m_hh
pt_hh
X_wt
m_hh_cor
pT_h1
eta_h1
phi_h1
m_h1
dRjj_h1
pT_h2
eta_h2
phi_h2
m_h2
dRjj_h2
pT_2
pT_4
eta_i
dRjj_1
dRjj_2
cosThetaStar
cosTheta1
cosTheta2
Phi
Phi1
HT
MDR
MDpT
cut_deta_hh
cut_Xwt
ml_j0_pt
ml_j1_pt
ml_j2_pt
ml_j3_pt
ml_j4_pt
ml_j0_eta
ml_j1_eta
ml_j2_eta
ml_j3_eta
ml_j4_eta
ml_j0_phi
ml_j1_phi
ml_j2_phi
ml_j3_phi
ml_j4_phi
ml_j0_E
ml_j1_E
ml_j2_E
ml_j3_E
ml_j4_E
ml_j0_Db
ml_j1_Db
ml_j2_Db
ml_j3_Db
ml_j4_Db
idx_HC0_j0
idx_HC0_j1
idx_HC1_j0
idx_HC1_j1
Scaling pt.
Scaling E.
Saving  /u/ki/nhartman/gpfs/diHiggs4b/data/data_16_PFlow-MAY2019-5jets/files/df_periodI_f_0.22_000008_entry_0_500000_scaledInputs.h5
Getting jet pts
Getting jet etas
Getting jet phis
Getting jet Es
Calculating Xwt
Calculating Xhh
run_number
event_number
mc_sf
ntag
njets
kinematic_region
m_hh
pt_hh
X_wt
m_hh_cor
pT_h1
eta_h1
phi_h1
m_h1
dRjj_h1
pT_h2
eta_h2
phi_h2
m_h2
dRjj_h2
pT_2
pT_4
eta_i
dRjj_1
dRjj_2
cosThetaStar
cosTheta1
cosTheta2
Phi
Phi1
HT
MDR
MDpT
cut_deta_hh
cut_Xwt
ml_j0_pt
ml_j1_pt
ml_j2_pt
ml_j3_pt
ml_j4_pt
ml_j0_eta
ml_j1_eta
ml_j2_eta
ml_j3_eta
ml_j4_eta
ml_j0_phi
ml_j1_phi
ml_j2_phi
ml_j3_phi
ml_j4_phi
ml_j0_E
ml_j1_E
ml_j2_E
ml_j3_E
ml_j4_E
ml_j0_Db
ml_j1_Db
ml_j2_Db
ml_j3_Db
ml_j4_Db
idx_HC0_j0
idx_HC0_j1
idx_HC1_j0
idx_HC1_j1
Scaling pt.
Scaling E.
Saving  /u/ki/nhartman/gpfs/diHiggs4b/data/data_16_PFlow-MAY2019-5jets/files/df_periodI_f_0.22_000013_entry_0_500000_scaledInputs.h5
Getting jet pts
Getting jet etas
Getting jet phis
Getting jet Es
Calculating Xwt
Calculating Xhh
run_number
event_number
mc_sf
ntag
njets
kinematic_region
m_hh
pt_hh
X_wt
m_hh_cor
pT_h1
eta_h1
phi_h1
m_h1
dRjj_h1
pT_h2
eta_h2
phi_h2
m_h2
dRjj_h2
pT_2
pT_4
eta_i
dRjj_1
dRjj_2
cosThetaStar
cosTheta1
cosTheta2
Phi
Phi1
HT
MDR
MDpT
cut_deta_hh
cut_Xwt
ml_j0_pt
ml_j1_pt
ml_j2_pt
ml_j3_pt
ml_j4_pt
ml_j0_eta
ml_j1_eta
ml_j2_eta
ml_j3_eta
ml_j4_eta
ml_j0_phi
ml_j1_phi
ml_j2_phi
ml_j3_phi
ml_j4_phi
ml_j0_E
ml_j1_E
ml_j2_E
ml_j3_E
ml_j4_E
ml_j0_Db
ml_j1_Db
ml_j2_Db
ml_j3_Db
ml_j4_Db
idx_HC0_j0
idx_HC0_j1
idx_HC1_j0
idx_HC1_j1
Saving /u/ki/nhartman/gpfs/diHiggs4b/data/data_16_PFlow-MAY2019-5jets/files/df_periodI_f_0.22_mlJetInputs.h5

------------------------------------------------------------
Sender: LSF System <lsf@atlprf16>
Subject: Job 976725: <data_16_PFlow-MAY2019-5jets_periodI_-1b_all_jetInputs> in cluster <slac> Done

Job <data_16_PFlow-MAY2019-5jets_periodI_-1b_all_jetInputs> was submitted from host <cent7d> by user <nhartman> in cluster <slac> at Fri Feb  7 13:17:48 2020
Job was executed on host(s) <atlprf16>, in queue <atlas-t3>, as user <nhartman> in cluster <slac> at Fri Feb  7 13:17:52 2020
</u/ki/nhartman> was used as the home directory.
</u/ki/nhartman/gpfs/diHiggs4b> was used as the working directory.
Started at Fri Feb  7 13:17:52 2020
Terminated at Fri Feb  7 13:42:11 2020
Results reported at Fri Feb  7 13:42:11 2020

Your job looked like:

------------------------------------------------------------
# LSBATCH: User input
singularity exec docker://gitlab-registry.cern.ch/hartman/ml-gpu/ml-gpu:latest ./tmp_data_16_PFlow-MAY2019-5jets_periodI_-1b_all_jetInputs.sh
------------------------------------------------------------

Successfully completed.

Resource usage summary:

    CPU time :                                   1306.68 sec.
    Max Memory :                                 5082 MB
    Average Memory :                             2660.08 MB
    Total Requested Memory :                     -
    Delta Memory :                               -
    Max Swap :                                   8608 MB
    Max Processes :                              5
    Max Threads :                                30
    Run time :                                   1459 sec.
    Turnaround time :                            1463 sec.

The output (if any) is above this job summary.

