time="2020-02-12T01:15:20-08:00" level=warning msg="\"/run/user/14660\" directory set by $XDG_RUNTIME_DIR does not exist. Either create the directory or unset $XDG_RUNTIME_DIR.: stat /run/user/14660: no such file or directory: Trying to pull image in the event that it is a public image."
df_f_0.22_2b.h5
df_f_0.22_2b_SB_rw_vars.h5
df_f_0.22_3b.h5
df_f_0.22_4b_SB_rw_vars.h5
df_f_0.22_NNT_HCs.h5
df_f_0.22_PT_2b.h5
df_f_0.22_fullmassplane.h5
df_f_0.22_mlJetInputs.h5
df_f_0.22_rw_vars.h5
df_periodABCDEFG_f_0.22_fullmassplane.h5
df_periodABC_f_0.22_fullmassplane.h5
files
old_files
  0%|          | 0/11 [00:00<?, ?it/s]/opt/conda/lib/python3.6/site-packages/pandas/core/generic.py:2505: PerformanceWarning: 
your performance may suffer as PyTables will pickle object types that it cannot
map directly to c-types [inferred_type->mixed,key->block4_values] [items->Index(['passedTriggerHashes', 'resolvedJets_E', 'resolvedJets_pt',
       'resolvedJets_phi', 'resolvedJets_eta', 'resolvedJets_MV2c10',
       'resolvedJets_is_MV2c10_FixedCutBEff_70', 'muon_pt', 'muon_eta',
       'muon_phi', 'muon_m', 'muon_EnergyLoss'],
      dtype='object')]

  encoding=encoding,
  9%|9         | 1/11 [00:20<03:28, 20.88s/it] 18%|#8        | 2/11 [00:34<02:49, 18.83s/it] 27%|##7       | 3/11 [02:06<05:24, 40.60s/it] 36%|###6      | 4/11 [03:39<06:33, 56.27s/it] 45%|####5     | 5/11 [05:12<06:44, 67.36s/it] 55%|#####4    | 6/11 [05:40<04:37, 55.46s/it] 64%|######3   | 7/11 [06:34<03:40, 55.24s/it] 73%|#######2  | 8/11 [07:21<02:37, 52.57s/it] 82%|########1 | 9/11 [07:31<01:19, 40.00s/it] 91%|######### | 10/11 [08:38<00:48, 48.06s/it]100%|##########| 11/11 [09:34<00:00, 50.47s/it]100%|##########| 11/11 [09:34<00:00, 52.25s/it]
Scaling pt.
Scaling E.
Saving  /u/ki/nhartman/gpfs/diHiggs4b/data/data_16_PFlow-MAY2019-5jets/files/df_periodE_f_0.22_000007_entry_500000_1000000_scaledInputs.h5
Getting jet pts
Getting jet etas
Getting jet phis
Getting jet Es
Calculating Xwt
Calculating Xhh
Scaling pt.
Scaling E.
Saving  /u/ki/nhartman/gpfs/diHiggs4b/data/data_16_PFlow-MAY2019-5jets/files/df_periodE_f_0.22_000008_entry_500000_1000000_scaledInputs.h5
Getting jet pts
Getting jet etas
Getting jet phis
Getting jet Es
Calculating Xwt
Calculating Xhh
Scaling pt.
Scaling E.
Saving  /u/ki/nhartman/gpfs/diHiggs4b/data/data_16_PFlow-MAY2019-5jets/files/df_periodE_f_0.22_000008_entry_0_500000_scaledInputs.h5
Getting jet pts
Getting jet etas
Getting jet phis
Getting jet Es
Calculating Xwt
Calculating Xhh
Scaling pt.
Scaling E.
Saving  /u/ki/nhartman/gpfs/diHiggs4b/data/data_16_PFlow-MAY2019-5jets/files/df_periodE_f_0.22_000007_entry_0_500000_scaledInputs.h5
Getting jet pts
Getting jet etas
Getting jet phis
Getting jet Es
Calculating Xwt
Calculating Xhh
Scaling pt.
Scaling E.
Saving  /u/ki/nhartman/gpfs/diHiggs4b/data/data_16_PFlow-MAY2019-5jets/files/df_periodE_f_0.22_000009_entry_0_500000_scaledInputs.h5
Getting jet pts
Getting jet etas
Getting jet phis
Getting jet Es
Calculating Xwt
Calculating Xhh
Scaling pt.
Scaling E.
Saving  /u/ki/nhartman/gpfs/diHiggs4b/data/data_16_PFlow-MAY2019-5jets/files/df_periodE_f_0.22_000009_entry_500000_1000000_scaledInputs.h5
Getting jet pts
Getting jet etas
Getting jet phis
Getting jet Es
Calculating Xwt
Calculating Xhh
Scaling pt.
Scaling E.
Saving  /u/ki/nhartman/gpfs/diHiggs4b/data/data_16_PFlow-MAY2019-5jets/files/df_periodE_f_0.22_000001_entry_0_500000_scaledInputs.h5
Getting jet pts
Getting jet etas
Getting jet phis
Getting jet Es
Calculating Xwt
Calculating Xhh
Scaling pt.
Scaling E.
Saving  /u/ki/nhartman/gpfs/diHiggs4b/data/data_16_PFlow-MAY2019-5jets/files/df_periodE_f_0.22_000005_entry_0_500000_scaledInputs.h5
Getting jet pts
Getting jet etas
Getting jet phis
Getting jet Es
Calculating Xwt
Calculating Xhh
Scaling pt.
Scaling E.
Saving  /u/ki/nhartman/gpfs/diHiggs4b/data/data_16_PFlow-MAY2019-5jets/files/df_periodE_f_0.22_000006_entry_500000_1000000_scaledInputs.h5
Getting jet pts
Getting jet etas
Getting jet phis
Getting jet Es
Calculating Xwt
Calculating Xhh
Scaling pt.
Scaling E.
Saving  /u/ki/nhartman/gpfs/diHiggs4b/data/data_16_PFlow-MAY2019-5jets/files/df_periodE_f_0.22_000002_entry_0_500000_scaledInputs.h5
Getting jet pts
Getting jet etas
Getting jet phis
Getting jet Es
Calculating Xwt
Calculating Xhh
Scaling pt.
Scaling E.
Saving  /u/ki/nhartman/gpfs/diHiggs4b/data/data_16_PFlow-MAY2019-5jets/files/df_periodE_f_0.22_000004_entry_0_500000_scaledInputs.h5
Getting jet pts
Getting jet etas
Getting jet phis
Getting jet Es
Calculating Xwt
Calculating Xhh
Saving /u/ki/nhartman/gpfs/diHiggs4b/data/data_16_PFlow-MAY2019-5jets/files/df_periodE_f_0.22_PT_2b.h5

------------------------------------------------------------
Sender: LSF System <lsf@atlprf08>
Subject: Job 841538: <data_16_PFlow-MAY2019-5jets_periodE_-1b_all_PT_2b> in cluster <slac> Done

Job <data_16_PFlow-MAY2019-5jets_periodE_-1b_all_PT_2b> was submitted from host <cent7d> by user <nhartman> in cluster <slac> at Wed Feb 12 01:15:16 2020
Job was executed on host(s) <atlprf08>, in queue <atlas-t3>, as user <nhartman> in cluster <slac> at Wed Feb 12 01:15:20 2020
</u/ki/nhartman> was used as the home directory.
</u/ki/nhartman/gpfs/diHiggs4b> was used as the working directory.
Started at Wed Feb 12 01:15:20 2020
Terminated at Wed Feb 12 01:25:08 2020
Results reported at Wed Feb 12 01:25:08 2020

Your job looked like:

------------------------------------------------------------
# LSBATCH: User input
singularity exec docker://gitlab-registry.cern.ch/hartman/ml-gpu/ml-gpu:latest ./tmp_data_16_PFlow-MAY2019-5jets_periodE_-1b_all_PT_2b.sh
------------------------------------------------------------

Successfully completed.

Resource usage summary:

    CPU time :                                   536.20 sec.
    Max Memory :                                 5398 MB
    Average Memory :                             2829.48 MB
    Total Requested Memory :                     -
    Delta Memory :                               -
    Max Swap :                                   8985 MB
    Max Processes :                              5
    Max Threads :                                30
    Run time :                                   588 sec.
    Turnaround time :                            592 sec.

The output (if any) is above this job summary.

