time="2020-02-07T13:17:53-08:00" level=warning msg="\"/run/user/14660\" directory set by $XDG_RUNTIME_DIR does not exist. Either create the directory or unset $XDG_RUNTIME_DIR.: stat /run/user/14660: no such file or directory: Trying to pull image in the event that it is a public image."
df_f_0.22_2b.h5
df_f_0.22_2b_SB_rw_vars.h5
df_f_0.22_3b.h5
df_f_0.22_4b_SB_rw_vars.h5
df_f_0.22_NNT_HCs.h5
df_f_0.22_fullmassplane.h5
df_f_0.22_rw_vars.h5
df_periodABCDEFG_f_0.22_fullmassplane.h5
df_periodABC_f_0.22_fullmassplane.h5
files
old_files
  0%|          | 0/56 [00:00<?, ?it/s]/opt/conda/lib/python3.6/site-packages/pandas/core/generic.py:2530: PerformanceWarning: 
your performance may suffer as PyTables will pickle object types that it cannot
map directly to c-types [inferred_type->mixed,key->block4_values] [items->['passedTriggerHashes', 'resolvedJets_E', 'resolvedJets_pt', 'resolvedJets_phi', 'resolvedJets_eta', 'resolvedJets_MV2c10', 'resolvedJets_is_MV2c10_FixedCutBEff_70', 'muon_pt', 'muon_eta', 'muon_phi', 'muon_m', 'muon_EnergyLoss']]

  pytables.to_hdf(path_or_buf, key, self, **kwargs)
  2%|1         | 1/56 [00:25<23:29, 25.62s/it]  4%|3         | 2/56 [01:15<29:44, 33.04s/it]  5%|5         | 3/56 [02:01<32:31, 36.82s/it]  7%|7         | 4/56 [02:20<27:10, 31.36s/it]  9%|8         | 5/56 [02:22<19:07, 22.51s/it] 11%|#         | 6/56 [03:40<32:44, 39.29s/it] 12%|#2        | 7/56 [04:15<30:59, 37.95s/it] 14%|#4        | 8/56 [04:45<28:32, 35.68s/it] 16%|#6        | 9/56 [04:48<20:13, 25.82s/it] 18%|#7        | 10/56 [05:47<27:25, 35.77s/it] 20%|#9        | 11/56 [06:16<25:11, 33.59s/it] 21%|##1       | 12/56 [07:52<38:27, 52.45s/it] 23%|##3       | 13/56 [07:54<26:44, 37.32s/it] 25%|##5       | 14/56 [09:38<40:07, 57.31s/it] 27%|##6       | 15/56 [09:43<28:31, 41.74s/it] 29%|##8       | 16/56 [09:48<20:25, 30.63s/it] 30%|###       | 17/56 [10:44<24:54, 38.33s/it] 32%|###2      | 18/56 [11:58<30:59, 48.94s/it] 34%|###3      | 19/56 [12:08<22:57, 37.23s/it] 36%|###5      | 20/56 [13:29<30:15, 50.43s/it] 38%|###7      | 21/56 [14:04<26:38, 45.68s/it] 39%|###9      | 22/56 [14:19<20:43, 36.56s/it] 41%|####1     | 23/56 [14:33<16:26, 29.88s/it] 43%|####2     | 24/56 [15:54<24:04, 45.13s/it] 45%|####4     | 25/56 [17:23<30:01, 58.11s/it] 46%|####6     | 26/56 [18:08<27:13, 54.45s/it] 48%|####8     | 27/56 [19:46<32:35, 67.42s/it] 50%|#####     | 28/56 [20:17<26:18, 56.39s/it] 52%|#####1    | 29/56 [20:30<19:35, 43.54s/it] 54%|#####3    | 30/56 [21:56<24:23, 56.28s/it] 55%|#####5    | 31/56 [23:39<29:18, 70.34s/it] 57%|#####7    | 32/56 [24:40<26:59, 67.46s/it] 59%|#####8    | 33/56 [24:54<19:44, 51.50s/it] 61%|######    | 34/56 [25:02<14:04, 38.38s/it] 62%|######2   | 35/56 [25:40<13:25, 38.34s/it] 64%|######4   | 36/56 [26:15<12:25, 37.28s/it] 66%|######6   | 37/56 [26:48<11:22, 35.94s/it] 68%|######7   | 38/56 [27:33<11:34, 38.59s/it] 70%|######9   | 39/56 [29:02<15:11, 53.64s/it] 71%|#######1  | 40/56 [29:55<14:17, 53.62s/it] 73%|#######3  | 41/56 [31:21<15:48, 63.24s/it] 75%|#######5  | 42/56 [31:37<11:28, 49.18s/it] 77%|#######6  | 43/56 [32:47<11:57, 55.22s/it] 79%|#######8  | 44/56 [32:55<08:13, 41.13s/it] 80%|########  | 45/56 [34:09<09:21, 51.07s/it] 82%|########2 | 46/56 [35:43<10:40, 64.04s/it] 84%|########3 | 47/56 [36:02<07:32, 50.32s/it] 86%|########5 | 48/56 [36:03<04:45, 35.65s/it] 88%|########7 | 49/56 [37:36<06:09, 52.73s/it] 89%|########9 | 50/56 [38:03<04:30, 45.11s/it] 91%|#########1| 51/56 [39:37<04:58, 59.66s/it] 93%|#########2| 52/56 [40:07<03:23, 50.86s/it] 95%|#########4| 53/56 [40:40<02:16, 45.38s/it] 96%|#########6| 54/56 [42:10<01:57, 58.84s/it] 98%|#########8| 55/56 [43:44<01:09, 69.34s/it]100%|##########| 56/56 [44:09<00:00, 56.19s/it]100%|##########| 56/56 [44:09<00:00, 47.32s/it]
['run_number', 'event_number', 'mc_sf', 'ntag', 'njets', 'kinematic_region', 'm_hh', 'pt_hh', 'X_wt', 'm_hh_cor', 'pT_h1', 'eta_h1', 'phi_h1', 'm_h1', 'dRjj_h1', 'pT_h2', 'eta_h2', 'phi_h2', 'm_h2', 'dRjj_h2', 'pT_2', 'pT_4', 'eta_i', 'dRjj_1', 'dRjj_2', 'cosThetaStar', 'cosTheta1', 'cosTheta2', 'Phi', 'Phi1', 'HT', 'MDR', 'MDpT', 'cut_deta_hh', 'cut_Xwt', 'ml_j0_pt', 'ml_j1_pt', 'ml_j2_pt', 'ml_j3_pt', 'ml_j4_pt', 'ml_j0_eta', 'ml_j1_eta', 'ml_j2_eta', 'ml_j3_eta', 'ml_j4_eta', 'ml_j0_phi', 'ml_j1_phi', 'ml_j2_phi', 'ml_j3_phi', 'ml_j4_phi', 'ml_j0_E', 'ml_j1_E', 'ml_j2_E', 'ml_j3_E', 'ml_j4_E', 'ml_j0_Db', 'ml_j1_Db', 'ml_j2_Db', 'ml_j3_Db', 'ml_j4_Db', 'idx_HC0_j0', 'idx_HC0_j1', 'idx_HC1_j0', 'idx_HC1_j1']
Scaling pt.
Scaling E.
Saving  /u/ki/nhartman/gpfs/diHiggs4b/data/data_16_PFlow-MAY2019-5jets/files/df_periodL_f_0.22_000007_entry_500000_1000000_scaledInputs.h5
Getting jet pts
Getting jet etas
Getting jet phis
Getting jet Es
Calculating Xwt
Calculating Xhh
run_number
event_number
mc_sf
ntag
njets
kinematic_region
m_hh
pt_hh
X_wt
m_hh_cor
pT_h1
eta_h1
phi_h1
m_h1
dRjj_h1
pT_h2
eta_h2
phi_h2
m_h2
dRjj_h2
pT_2
pT_4
eta_i
dRjj_1
dRjj_2
cosThetaStar
cosTheta1
cosTheta2
Phi
Phi1
HT
MDR
MDpT
cut_deta_hh
cut_Xwt
ml_j0_pt
ml_j1_pt
ml_j2_pt
ml_j3_pt
ml_j4_pt
ml_j0_eta
ml_j1_eta
ml_j2_eta
ml_j3_eta
ml_j4_eta
ml_j0_phi
ml_j1_phi
ml_j2_phi
ml_j3_phi
ml_j4_phi
ml_j0_E
ml_j1_E
ml_j2_E
ml_j3_E
ml_j4_E
ml_j0_Db
ml_j1_Db
ml_j2_Db
ml_j3_Db
ml_j4_Db
idx_HC0_j0
idx_HC0_j1
idx_HC1_j0
idx_HC1_j1
Scaling pt.
Scaling E.
Saving  /u/ki/nhartman/gpfs/diHiggs4b/data/data_16_PFlow-MAY2019-5jets/files/df_periodL_f_0.22_000015_entry_0_500000_scaledInputs.h5
Getting jet pts
Getting jet etas
Getting jet phis
Getting jet Es
Calculating Xwt
Calculating Xhh
run_number
event_number
mc_sf
ntag
njets
kinematic_region
m_hh
pt_hh
X_wt
m_hh_cor
pT_h1
eta_h1
phi_h1
m_h1
dRjj_h1
pT_h2
eta_h2
phi_h2
m_h2
dRjj_h2
pT_2
pT_4
eta_i
dRjj_1
dRjj_2
cosThetaStar
cosTheta1
cosTheta2
Phi
Phi1
HT
MDR
MDpT
cut_deta_hh
cut_Xwt
ml_j0_pt
ml_j1_pt
ml_j2_pt
ml_j3_pt
ml_j4_pt
ml_j0_eta
ml_j1_eta
ml_j2_eta
ml_j3_eta
ml_j4_eta
ml_j0_phi
ml_j1_phi
ml_j2_phi
ml_j3_phi
ml_j4_phi
ml_j0_E
ml_j1_E
ml_j2_E
ml_j3_E
ml_j4_E
ml_j0_Db
ml_j1_Db
ml_j2_Db
ml_j3_Db
ml_j4_Db
idx_HC0_j0
idx_HC0_j1
idx_HC1_j0
idx_HC1_j1
Scaling pt.
Scaling E.
Saving  /u/ki/nhartman/gpfs/diHiggs4b/data/data_16_PFlow-MAY2019-5jets/files/df_periodL_f_0.22_000031_entry_1000000_1500000_scaledInputs.h5
Getting jet pts
Getting jet etas
Getting jet phis
Getting jet Es
Calculating Xwt
Calculating Xhh
run_number
event_number
mc_sf
ntag
njets
kinematic_region
m_hh
pt_hh
X_wt
m_hh_cor
pT_h1
eta_h1
phi_h1
m_h1
dRjj_h1
pT_h2
eta_h2
phi_h2
m_h2
dRjj_h2
pT_2
pT_4
eta_i
dRjj_1
dRjj_2
cosThetaStar
cosTheta1
cosTheta2
Phi
Phi1
HT
MDR
MDpT
cut_deta_hh
cut_Xwt
ml_j0_pt
ml_j1_pt
ml_j2_pt
ml_j3_pt
ml_j4_pt
ml_j0_eta
ml_j1_eta
ml_j2_eta
ml_j3_eta
ml_j4_eta
ml_j0_phi
ml_j1_phi
ml_j2_phi
ml_j3_phi
ml_j4_phi
ml_j0_E
ml_j1_E
ml_j2_E
ml_j3_E
ml_j4_E
ml_j0_Db
ml_j1_Db
ml_j2_Db
ml_j3_Db
ml_j4_Db
idx_HC0_j0
idx_HC0_j1
idx_HC1_j0
idx_HC1_j1
Scaling pt.
Scaling E.
Saving  /u/ki/nhartman/gpfs/diHiggs4b/data/data_16_PFlow-MAY2019-5jets/files/df_periodL_f_0.22_000023_entry_0_500000_scaledInputs.h5
Getting jet pts
Getting jet etas
Getting jet phis
Getting jet Es
Calculating Xwt
Calculating Xhh
run_number
event_number
mc_sf
ntag
njets
kinematic_region
m_hh
pt_hh
X_wt
m_hh_cor
pT_h1
eta_h1
phi_h1
m_h1
dRjj_h1
pT_h2
eta_h2
phi_h2
m_h2
dRjj_h2
pT_2
pT_4
eta_i
dRjj_1
dRjj_2
cosThetaStar
cosTheta1
cosTheta2
Phi
Phi1
HT
MDR
MDpT
cut_deta_hh
cut_Xwt
ml_j0_pt
ml_j1_pt
ml_j2_pt
ml_j3_pt
ml_j4_pt
ml_j0_eta
ml_j1_eta
ml_j2_eta
ml_j3_eta
ml_j4_eta
ml_j0_phi
ml_j1_phi
ml_j2_phi
ml_j3_phi
ml_j4_phi
ml_j0_E
ml_j1_E
ml_j2_E
ml_j3_E
ml_j4_E
ml_j0_Db
ml_j1_Db
ml_j2_Db
ml_j3_Db
ml_j4_Db
idx_HC0_j0
idx_HC0_j1
idx_HC1_j0
idx_HC1_j1
Scaling pt.
Scaling E.
Saving  /u/ki/nhartman/gpfs/diHiggs4b/data/data_16_PFlow-MAY2019-5jets/files/df_periodL_f_0.22_000001_entry_0_500000_scaledInputs.h5
Getting jet pts
Getting jet etas
Getting jet phis
Getting jet Es
Calculating Xwt
Calculating Xhh
run_number
event_number
mc_sf
ntag
njets
kinematic_region
m_hh
pt_hh
X_wt
m_hh_cor
pT_h1
eta_h1
phi_h1
m_h1
dRjj_h1
pT_h2
eta_h2
phi_h2
m_h2
dRjj_h2
pT_2
pT_4
eta_i
dRjj_1
dRjj_2
cosThetaStar
cosTheta1
cosTheta2
Phi
Phi1
HT
MDR
MDpT
cut_deta_hh
cut_Xwt
ml_j0_pt
ml_j1_pt
ml_j2_pt
ml_j3_pt
ml_j4_pt
ml_j0_eta
ml_j1_eta
ml_j2_eta
ml_j3_eta
ml_j4_eta
ml_j0_phi
ml_j1_phi
ml_j2_phi
ml_j3_phi
ml_j4_phi
ml_j0_E
ml_j1_E
ml_j2_E
ml_j3_E
ml_j4_E
ml_j0_Db
ml_j1_Db
ml_j2_Db
ml_j3_Db
ml_j4_Db
idx_HC0_j0
idx_HC0_j1
idx_HC1_j0
idx_HC1_j1
Scaling pt.
Scaling E.
Saving  /u/ki/nhartman/gpfs/diHiggs4b/data/data_16_PFlow-MAY2019-5jets/files/df_periodL_f_0.22_000036_entry_0_500000_scaledInputs.h5
Getting jet pts
Getting jet etas
Getting jet phis
Getting jet Es
Calculating Xwt
Calculating Xhh
run_number
event_number
mc_sf
ntag
njets
kinematic_region
m_hh
pt_hh
X_wt
m_hh_cor
pT_h1
eta_h1
phi_h1
m_h1
dRjj_h1
pT_h2
eta_h2
phi_h2
m_h2
dRjj_h2
pT_2
pT_4
eta_i
dRjj_1
dRjj_2
cosThetaStar
cosTheta1
cosTheta2
Phi
Phi1
HT
MDR
MDpT
cut_deta_hh
cut_Xwt
ml_j0_pt
ml_j1_pt
ml_j2_pt
ml_j3_pt
ml_j4_pt
ml_j0_eta
ml_j1_eta
ml_j2_eta
ml_j3_eta
ml_j4_eta
ml_j0_phi
ml_j1_phi
ml_j2_phi
ml_j3_phi
ml_j4_phi
ml_j0_E
ml_j1_E
ml_j2_E
ml_j3_E
ml_j4_E
ml_j0_Db
ml_j1_Db
ml_j2_Db
ml_j3_Db
ml_j4_Db
idx_HC0_j0
idx_HC0_j1
idx_HC1_j0
idx_HC1_j1
Scaling pt.
Scaling E.
Saving  /u/ki/nhartman/gpfs/diHiggs4b/data/data_16_PFlow-MAY2019-5jets/files/df_periodL_f_0.22_000036_entry_500000_1000000_scaledInputs.h5
Getting jet pts
Getting jet etas
Getting jet phis
Getting jet Es
Calculating Xwt
Calculating Xhh
run_number
event_number
mc_sf
ntag
njets
kinematic_region
m_hh
pt_hh
X_wt
m_hh_cor
pT_h1
eta_h1
phi_h1
m_h1
dRjj_h1
pT_h2
eta_h2
phi_h2
m_h2
dRjj_h2
pT_2
pT_4
eta_i
dRjj_1
dRjj_2
cosThetaStar
cosTheta1
cosTheta2
Phi
Phi1
HT
MDR
MDpT
cut_deta_hh
cut_Xwt
ml_j0_pt
ml_j1_pt
ml_j2_pt
ml_j3_pt
ml_j4_pt
ml_j0_eta
ml_j1_eta
ml_j2_eta
ml_j3_eta
ml_j4_eta
ml_j0_phi
ml_j1_phi
ml_j2_phi
ml_j3_phi
ml_j4_phi
ml_j0_E
ml_j1_E
ml_j2_E
ml_j3_E
ml_j4_E
ml_j0_Db
ml_j1_Db
ml_j2_Db
ml_j3_Db
ml_j4_Db
idx_HC0_j0
idx_HC0_j1
idx_HC1_j0
idx_HC1_j1
Scaling pt.
Scaling E.
Saving  /u/ki/nhartman/gpfs/diHiggs4b/data/data_16_PFlow-MAY2019-5jets/files/df_periodL_f_0.22_000027_entry_0_500000_scaledInputs.h5
Getting jet pts
Getting jet etas
Getting jet phis
Getting jet Es
Calculating Xwt
Calculating Xhh
run_number
event_number
mc_sf
ntag
njets
kinematic_region
m_hh
pt_hh
X_wt
m_hh_cor
pT_h1
eta_h1
phi_h1
m_h1
dRjj_h1
pT_h2
eta_h2
phi_h2
m_h2
dRjj_h2
pT_2
pT_4
eta_i
dRjj_1
dRjj_2
cosThetaStar
cosTheta1
cosTheta2
Phi
Phi1
HT
MDR
MDpT
cut_deta_hh
cut_Xwt
ml_j0_pt
ml_j1_pt
ml_j2_pt
ml_j3_pt
ml_j4_pt
ml_j0_eta
ml_j1_eta
ml_j2_eta
ml_j3_eta
ml_j4_eta
ml_j0_phi
ml_j1_phi
ml_j2_phi
ml_j3_phi
ml_j4_phi
ml_j0_E
ml_j1_E
ml_j2_E
ml_j3_E
ml_j4_E
ml_j0_Db
ml_j1_Db
ml_j2_Db
ml_j3_Db
ml_j4_Db
idx_HC0_j0
idx_HC0_j1
idx_HC1_j0
idx_HC1_j1
Scaling pt.
Scaling E.
Saving  /u/ki/nhartman/gpfs/diHiggs4b/data/data_16_PFlow-MAY2019-5jets/files/df_periodL_f_0.22_000026_entry_500000_1000000_scaledInputs.h5
Getting jet pts
Getting jet etas
Getting jet phis
Getting jet Es
Calculating Xwt
Calculating Xhh
run_number
event_number
mc_sf
ntag
njets
kinematic_region
m_hh
pt_hh
X_wt
m_hh_cor
pT_h1
eta_h1
phi_h1
m_h1
dRjj_h1
pT_h2
eta_h2
phi_h2
m_h2
dRjj_h2
pT_2
pT_4
eta_i
dRjj_1
dRjj_2
cosThetaStar
cosTheta1
cosTheta2
Phi
Phi1
HT
MDR
MDpT
cut_deta_hh
cut_Xwt
ml_j0_pt
ml_j1_pt
ml_j2_pt
ml_j3_pt
ml_j4_pt
ml_j0_eta
ml_j1_eta
ml_j2_eta
ml_j3_eta
ml_j4_eta
ml_j0_phi
ml_j1_phi
ml_j2_phi
ml_j3_phi
ml_j4_phi
ml_j0_E
ml_j1_E
ml_j2_E
ml_j3_E
ml_j4_E
ml_j0_Db
ml_j1_Db
ml_j2_Db
ml_j3_Db
ml_j4_Db
idx_HC0_j0
idx_HC0_j1
idx_HC1_j0
idx_HC1_j1
Scaling pt.
Scaling E.
Saving  /u/ki/nhartman/gpfs/diHiggs4b/data/data_16_PFlow-MAY2019-5jets/files/df_periodL_f_0.22_000010_entry_0_500000_scaledInputs.h5
Getting jet pts
Getting jet etas
Getting jet phis
Getting jet Es
Calculating Xwt
Calculating Xhh
run_number
event_number
mc_sf
ntag
njets
kinematic_region
m_hh
pt_hh
X_wt
m_hh_cor
pT_h1
eta_h1
phi_h1
m_h1
dRjj_h1
pT_h2
eta_h2
phi_h2
m_h2
dRjj_h2
pT_2
pT_4
eta_i
dRjj_1
dRjj_2
cosThetaStar
cosTheta1
cosTheta2
Phi
Phi1
HT
MDR
MDpT
cut_deta_hh
cut_Xwt
ml_j0_pt
ml_j1_pt
ml_j2_pt
ml_j3_pt
ml_j4_pt
ml_j0_eta
ml_j1_eta
ml_j2_eta
ml_j3_eta
ml_j4_eta
ml_j0_phi
ml_j1_phi
ml_j2_phi
ml_j3_phi
ml_j4_phi
ml_j0_E
ml_j1_E
ml_j2_E
ml_j3_E
ml_j4_E
ml_j0_Db
ml_j1_Db
ml_j2_Db
ml_j3_Db
ml_j4_Db
idx_HC0_j0
idx_HC0_j1
idx_HC1_j0
idx_HC1_j1
Scaling pt.
Scaling E.
Saving  /u/ki/nhartman/gpfs/diHiggs4b/data/data_16_PFlow-MAY2019-5jets/files/df_periodL_f_0.22_000039_entry_0_500000_scaledInputs.h5
Getting jet pts
Getting jet etas
Getting jet phis
Getting jet Es
Calculating Xwt
Calculating Xhh
run_number
event_number
mc_sf
ntag
njets
kinematic_region
m_hh
pt_hh
X_wt
m_hh_cor
pT_h1
eta_h1
phi_h1
m_h1
dRjj_h1
pT_h2
eta_h2
phi_h2
m_h2
dRjj_h2
pT_2
pT_4
eta_i
dRjj_1
dRjj_2
cosThetaStar
cosTheta1
cosTheta2
Phi
Phi1
HT
MDR
MDpT
cut_deta_hh
cut_Xwt
ml_j0_pt
ml_j1_pt
ml_j2_pt
ml_j3_pt
ml_j4_pt
ml_j0_eta
ml_j1_eta
ml_j2_eta
ml_j3_eta
ml_j4_eta
ml_j0_phi
ml_j1_phi
ml_j2_phi
ml_j3_phi
ml_j4_phi
ml_j0_E
ml_j1_E
ml_j2_E
ml_j3_E
ml_j4_E
ml_j0_Db
ml_j1_Db
ml_j2_Db
ml_j3_Db
ml_j4_Db
idx_HC0_j0
idx_HC0_j1
idx_HC1_j0
idx_HC1_j1
Scaling pt.
Scaling E.
Saving  /u/ki/nhartman/gpfs/diHiggs4b/data/data_16_PFlow-MAY2019-5jets/files/df_periodL_f_0.22_000005_entry_0_500000_scaledInputs.h5
Getting jet pts
Getting jet etas
Getting jet phis
Getting jet Es
Calculating Xwt
Calculating Xhh
run_number
event_number
mc_sf
ntag
njets
kinematic_region
m_hh
pt_hh
X_wt
m_hh_cor
pT_h1
eta_h1
phi_h1
m_h1
dRjj_h1
pT_h2
eta_h2
phi_h2
m_h2
dRjj_h2
pT_2
pT_4
eta_i
dRjj_1
dRjj_2
cosThetaStar
cosTheta1
cosTheta2
Phi
Phi1
HT
MDR
MDpT
cut_deta_hh
cut_Xwt
ml_j0_pt
ml_j1_pt
ml_j2_pt
ml_j3_pt
ml_j4_pt
ml_j0_eta
ml_j1_eta
ml_j2_eta
ml_j3_eta
ml_j4_eta
ml_j0_phi
ml_j1_phi
ml_j2_phi
ml_j3_phi
ml_j4_phi
ml_j0_E
ml_j1_E
ml_j2_E
ml_j3_E
ml_j4_E
ml_j0_Db
ml_j1_Db
ml_j2_Db
ml_j3_Db
ml_j4_Db
idx_HC0_j0
idx_HC0_j1
idx_HC1_j0
idx_HC1_j1
Scaling pt.
Scaling E.
Saving  /u/ki/nhartman/gpfs/diHiggs4b/data/data_16_PFlow-MAY2019-5jets/files/df_periodL_f_0.22_000042_entry_0_500000_scaledInputs.h5
Getting jet pts
Getting jet etas
Getting jet phis
Getting jet Es
Calculating Xwt
Calculating Xhh
run_number
event_number
mc_sf
ntag
njets
kinematic_region
m_hh
pt_hh
X_wt
m_hh_cor
pT_h1
eta_h1
phi_h1
m_h1
dRjj_h1
pT_h2
eta_h2
phi_h2
m_h2
dRjj_h2
pT_2
pT_4
eta_i
dRjj_1
dRjj_2
cosThetaStar
cosTheta1
cosTheta2
Phi
Phi1
HT
MDR
MDpT
cut_deta_hh
cut_Xwt
ml_j0_pt
ml_j1_pt
ml_j2_pt
ml_j3_pt
ml_j4_pt
ml_j0_eta
ml_j1_eta
ml_j2_eta
ml_j3_eta
ml_j4_eta
ml_j0_phi
ml_j1_phi
ml_j2_phi
ml_j3_phi
ml_j4_phi
ml_j0_E
ml_j1_E
ml_j2_E
ml_j3_E
ml_j4_E
ml_j0_Db
ml_j1_Db
ml_j2_Db
ml_j3_Db
ml_j4_Db
idx_HC0_j0
idx_HC0_j1
idx_HC1_j0
idx_HC1_j1
Scaling pt.
Scaling E.
Saving  /u/ki/nhartman/gpfs/diHiggs4b/data/data_16_PFlow-MAY2019-5jets/files/df_periodL_f_0.22_000007_entry_0_500000_scaledInputs.h5
Getting jet pts
Getting jet etas
Getting jet phis
Getting jet Es
Calculating Xwt
Calculating Xhh
run_number
event_number
mc_sf
ntag
njets
kinematic_region
m_hh
pt_hh
X_wt
m_hh_cor
pT_h1
eta_h1
phi_h1
m_h1
dRjj_h1
pT_h2
eta_h2
phi_h2
m_h2
dRjj_h2
pT_2
pT_4
eta_i
dRjj_1
dRjj_2
cosThetaStar
cosTheta1
cosTheta2
Phi
Phi1
HT
MDR
MDpT
cut_deta_hh
cut_Xwt
ml_j0_pt
ml_j1_pt
ml_j2_pt
ml_j3_pt
ml_j4_pt
ml_j0_eta
ml_j1_eta
ml_j2_eta
ml_j3_eta
ml_j4_eta
ml_j0_phi
ml_j1_phi
ml_j2_phi
ml_j3_phi
ml_j4_phi
ml_j0_E
ml_j1_E
ml_j2_E
ml_j3_E
ml_j4_E
ml_j0_Db
ml_j1_Db
ml_j2_Db
ml_j3_Db
ml_j4_Db
idx_HC0_j0
idx_HC0_j1
idx_HC1_j0
idx_HC1_j1
Scaling pt.
Scaling E.
Saving  /u/ki/nhartman/gpfs/diHiggs4b/data/data_16_PFlow-MAY2019-5jets/files/df_periodL_f_0.22_000032_entry_500000_1000000_scaledInputs.h5
Getting jet pts
Getting jet etas
Getting jet phis
Getting jet Es
Calculating Xwt
Calculating Xhh
run_number
event_number
mc_sf
ntag
njets
kinematic_region
m_hh
pt_hh
X_wt
m_hh_cor
pT_h1
eta_h1
phi_h1
m_h1
dRjj_h1
pT_h2
eta_h2
phi_h2
m_h2
dRjj_h2
pT_2
pT_4
eta_i
dRjj_1
dRjj_2
cosThetaStar
cosTheta1
cosTheta2
Phi
Phi1
HT
MDR
MDpT
cut_deta_hh
cut_Xwt
ml_j0_pt
ml_j1_pt
ml_j2_pt
ml_j3_pt
ml_j4_pt
ml_j0_eta
ml_j1_eta
ml_j2_eta
ml_j3_eta
ml_j4_eta
ml_j0_phi
ml_j1_phi
ml_j2_phi
ml_j3_phi
ml_j4_phi
ml_j0_E
ml_j1_E
ml_j2_E
ml_j3_E
ml_j4_E
ml_j0_Db
ml_j1_Db
ml_j2_Db
ml_j3_Db
ml_j4_Db
idx_HC0_j0
idx_HC0_j1
idx_HC1_j0
idx_HC1_j1
Scaling pt.
Scaling E.
Saving  /u/ki/nhartman/gpfs/diHiggs4b/data/data_16_PFlow-MAY2019-5jets/files/df_periodL_f_0.22_000013_entry_500000_1000000_scaledInputs.h5
Getting jet pts
Getting jet etas
Getting jet phis
Getting jet Es
Calculating Xwt
Calculating Xhh
run_number
event_number
mc_sf
ntag
njets
kinematic_region
m_hh
pt_hh
X_wt
m_hh_cor
pT_h1
eta_h1
phi_h1
m_h1
dRjj_h1
pT_h2
eta_h2
phi_h2
m_h2
dRjj_h2
pT_2
pT_4
eta_i
dRjj_1
dRjj_2
cosThetaStar
cosTheta1
cosTheta2
Phi
Phi1
HT
MDR
MDpT
cut_deta_hh
cut_Xwt
ml_j0_pt
ml_j1_pt
ml_j2_pt
ml_j3_pt
ml_j4_pt
ml_j0_eta
ml_j1_eta
ml_j2_eta
ml_j3_eta
ml_j4_eta
ml_j0_phi
ml_j1_phi
ml_j2_phi
ml_j3_phi
ml_j4_phi
ml_j0_E
ml_j1_E
ml_j2_E
ml_j3_E
ml_j4_E
ml_j0_Db
ml_j1_Db
ml_j2_Db
ml_j3_Db
ml_j4_Db
idx_HC0_j0
idx_HC0_j1
idx_HC1_j0
idx_HC1_j1
Scaling pt.
Scaling E.
Saving  /u/ki/nhartman/gpfs/diHiggs4b/data/data_16_PFlow-MAY2019-5jets/files/df_periodL_f_0.22_000044_entry_0_500000_scaledInputs.h5
Getting jet pts
Getting jet etas
Getting jet phis
Getting jet Es
Calculating Xwt
Calculating Xhh
run_number
event_number
mc_sf
ntag
njets
kinematic_region
m_hh
pt_hh
X_wt
m_hh_cor
pT_h1
eta_h1
phi_h1
m_h1
dRjj_h1
pT_h2
eta_h2
phi_h2
m_h2
dRjj_h2
pT_2
pT_4
eta_i
dRjj_1
dRjj_2
cosThetaStar
cosTheta1
cosTheta2
Phi
Phi1
HT
MDR
MDpT
cut_deta_hh
cut_Xwt
ml_j0_pt
ml_j1_pt
ml_j2_pt
ml_j3_pt
ml_j4_pt
ml_j0_eta
ml_j1_eta
ml_j2_eta
ml_j3_eta
ml_j4_eta
ml_j0_phi
ml_j1_phi
ml_j2_phi
ml_j3_phi
ml_j4_phi
ml_j0_E
ml_j1_E
ml_j2_E
ml_j3_E
ml_j4_E
ml_j0_Db
ml_j1_Db
ml_j2_Db
ml_j3_Db
ml_j4_Db
idx_HC0_j0
idx_HC0_j1
idx_HC1_j0
idx_HC1_j1
Scaling pt.
Scaling E.
Saving  /u/ki/nhartman/gpfs/diHiggs4b/data/data_16_PFlow-MAY2019-5jets/files/df_periodL_f_0.22_000030_entry_0_500000_scaledInputs.h5
Getting jet pts
Getting jet etas
Getting jet phis
Getting jet Es
Calculating Xwt
Calculating Xhh
run_number
event_number
mc_sf
ntag
njets
kinematic_region
m_hh
pt_hh
X_wt
m_hh_cor
pT_h1
eta_h1
phi_h1
m_h1
dRjj_h1
pT_h2
eta_h2
phi_h2
m_h2
dRjj_h2
pT_2
pT_4
eta_i
dRjj_1
dRjj_2
cosThetaStar
cosTheta1
cosTheta2
Phi
Phi1
HT
MDR
MDpT
cut_deta_hh
cut_Xwt
ml_j0_pt
ml_j1_pt
ml_j2_pt
ml_j3_pt
ml_j4_pt
ml_j0_eta
ml_j1_eta
ml_j2_eta
ml_j3_eta
ml_j4_eta
ml_j0_phi
ml_j1_phi
ml_j2_phi
ml_j3_phi
ml_j4_phi
ml_j0_E
ml_j1_E
ml_j2_E
ml_j3_E
ml_j4_E
ml_j0_Db
ml_j1_Db
ml_j2_Db
ml_j3_Db
ml_j4_Db
idx_HC0_j0
idx_HC0_j1
idx_HC1_j0
idx_HC1_j1
Scaling pt.
Scaling E.
Saving  /u/ki/nhartman/gpfs/diHiggs4b/data/data_16_PFlow-MAY2019-5jets/files/df_periodL_f_0.22_000003_entry_0_500000_scaledInputs.h5
Getting jet pts
Getting jet etas
Getting jet phis
Getting jet Es
Calculating Xwt
Calculating Xhh
run_number
event_number
mc_sf
ntag
njets
kinematic_region
m_hh
pt_hh
X_wt
m_hh_cor
pT_h1
eta_h1
phi_h1
m_h1
dRjj_h1
pT_h2
eta_h2
phi_h2
m_h2
dRjj_h2
pT_2
pT_4
eta_i
dRjj_1
dRjj_2
cosThetaStar
cosTheta1
cosTheta2
Phi
Phi1
HT
MDR
MDpT
cut_deta_hh
cut_Xwt
ml_j0_pt
ml_j1_pt
ml_j2_pt
ml_j3_pt
ml_j4_pt
ml_j0_eta
ml_j1_eta
ml_j2_eta
ml_j3_eta
ml_j4_eta
ml_j0_phi
ml_j1_phi
ml_j2_phi
ml_j3_phi
ml_j4_phi
ml_j0_E
ml_j1_E
ml_j2_E
ml_j3_E
ml_j4_E
ml_j0_Db
ml_j1_Db
ml_j2_Db
ml_j3_Db
ml_j4_Db
idx_HC0_j0
idx_HC0_j1
idx_HC1_j0
idx_HC1_j1
Scaling pt.
Scaling E.
Saving  /u/ki/nhartman/gpfs/diHiggs4b/data/data_16_PFlow-MAY2019-5jets/files/df_periodL_f_0.22_000034_entry_500000_1000000_scaledInputs.h5
Getting jet pts
Getting jet etas
Getting jet phis
Getting jet Es
Calculating Xwt
Calculating Xhh
run_number
event_number
mc_sf
ntag
njets
kinematic_region
m_hh
pt_hh
X_wt
m_hh_cor
pT_h1
eta_h1
phi_h1
m_h1
dRjj_h1
pT_h2
eta_h2
phi_h2
m_h2
dRjj_h2
pT_2
pT_4
eta_i
dRjj_1
dRjj_2
cosThetaStar
cosTheta1
cosTheta2
Phi
Phi1
HT
MDR
MDpT
cut_deta_hh
cut_Xwt
ml_j0_pt
ml_j1_pt
ml_j2_pt
ml_j3_pt
ml_j4_pt
ml_j0_eta
ml_j1_eta
ml_j2_eta
ml_j3_eta
ml_j4_eta
ml_j0_phi
ml_j1_phi
ml_j2_phi
ml_j3_phi
ml_j4_phi
ml_j0_E
ml_j1_E
ml_j2_E
ml_j3_E
ml_j4_E
ml_j0_Db
ml_j1_Db
ml_j2_Db
ml_j3_Db
ml_j4_Db
idx_HC0_j0
idx_HC0_j1
idx_HC1_j0
idx_HC1_j1
Scaling pt.
Scaling E.
Saving  /u/ki/nhartman/gpfs/diHiggs4b/data/data_16_PFlow-MAY2019-5jets/files/df_periodL_f_0.22_000016_entry_500000_1000000_scaledInputs.h5
Getting jet pts
Getting jet etas
Getting jet phis
Getting jet Es
Calculating Xwt
Calculating Xhh
run_number
event_number
mc_sf
ntag
njets
kinematic_region
m_hh
pt_hh
X_wt
m_hh_cor
pT_h1
eta_h1
phi_h1
m_h1
dRjj_h1
pT_h2
eta_h2
phi_h2
m_h2
dRjj_h2
pT_2
pT_4
eta_i
dRjj_1
dRjj_2
cosThetaStar
cosTheta1
cosTheta2
Phi
Phi1
HT
MDR
MDpT
cut_deta_hh
cut_Xwt
ml_j0_pt
ml_j1_pt
ml_j2_pt
ml_j3_pt
ml_j4_pt
ml_j0_eta
ml_j1_eta
ml_j2_eta
ml_j3_eta
ml_j4_eta
ml_j0_phi
ml_j1_phi
ml_j2_phi
ml_j3_phi
ml_j4_phi
ml_j0_E
ml_j1_E
ml_j2_E
ml_j3_E
ml_j4_E
ml_j0_Db
ml_j1_Db
ml_j2_Db
ml_j3_Db
ml_j4_Db
idx_HC0_j0
idx_HC0_j1
idx_HC1_j0
idx_HC1_j1
Scaling pt.
Scaling E.
Saving  /u/ki/nhartman/gpfs/diHiggs4b/data/data_16_PFlow-MAY2019-5jets/files/df_periodL_f_0.22_000033_entry_500000_1000000_scaledInputs.h5
Getting jet pts
Getting jet etas
Getting jet phis
Getting jet Es
Calculating Xwt
Calculating Xhh
run_number
event_number
mc_sf
ntag
njets
kinematic_region
m_hh
pt_hh
X_wt
m_hh_cor
pT_h1
eta_h1
phi_h1
m_h1
dRjj_h1
pT_h2
eta_h2
phi_h2
m_h2
dRjj_h2
pT_2
pT_4
eta_i
dRjj_1
dRjj_2
cosThetaStar
cosTheta1
cosTheta2
Phi
Phi1
HT
MDR
MDpT
cut_deta_hh
cut_Xwt
ml_j0_pt
ml_j1_pt
ml_j2_pt
ml_j3_pt
ml_j4_pt
ml_j0_eta
ml_j1_eta
ml_j2_eta
ml_j3_eta
ml_j4_eta
ml_j0_phi
ml_j1_phi
ml_j2_phi
ml_j3_phi
ml_j4_phi
ml_j0_E
ml_j1_E
ml_j2_E
ml_j3_E
ml_j4_E
ml_j0_Db
ml_j1_Db
ml_j2_Db
ml_j3_Db
ml_j4_Db
idx_HC0_j0
idx_HC0_j1
idx_HC1_j0
idx_HC1_j1
Scaling pt.
Scaling E.
Saving  /u/ki/nhartman/gpfs/diHiggs4b/data/data_16_PFlow-MAY2019-5jets/files/df_periodL_f_0.22_000028_entry_500000_1000000_scaledInputs.h5
Getting jet pts
Getting jet etas
Getting jet phis
Getting jet Es
Calculating Xwt
Calculating Xhh
run_number
event_number
mc_sf
ntag
njets
kinematic_region
m_hh
pt_hh
X_wt
m_hh_cor
pT_h1
eta_h1
phi_h1
m_h1
dRjj_h1
pT_h2
eta_h2
phi_h2
m_h2
dRjj_h2
pT_2
pT_4
eta_i
dRjj_1
dRjj_2
cosThetaStar
cosTheta1
cosTheta2
Phi
Phi1
HT
MDR
MDpT
cut_deta_hh
cut_Xwt
ml_j0_pt
ml_j1_pt
ml_j2_pt
ml_j3_pt
ml_j4_pt
ml_j0_eta
ml_j1_eta
ml_j2_eta
ml_j3_eta
ml_j4_eta
ml_j0_phi
ml_j1_phi
ml_j2_phi
ml_j3_phi
ml_j4_phi
ml_j0_E
ml_j1_E
ml_j2_E
ml_j3_E
ml_j4_E
ml_j0_Db
ml_j1_Db
ml_j2_Db
ml_j3_Db
ml_j4_Db
idx_HC0_j0
idx_HC0_j1
idx_HC1_j0
idx_HC1_j1
Scaling pt.
Scaling E.
Saving  /u/ki/nhartman/gpfs/diHiggs4b/data/data_16_PFlow-MAY2019-5jets/files/df_periodL_f_0.22_000040_entry_0_500000_scaledInputs.h5
Getting jet pts
Getting jet etas
Getting jet phis
Getting jet Es
Calculating Xwt
Calculating Xhh
run_number
event_number
mc_sf
ntag
njets
kinematic_region
m_hh
pt_hh
X_wt
m_hh_cor
pT_h1
eta_h1
phi_h1
m_h1
dRjj_h1
pT_h2
eta_h2
phi_h2
m_h2
dRjj_h2
pT_2
pT_4
eta_i
dRjj_1
dRjj_2
cosThetaStar
cosTheta1
cosTheta2
Phi
Phi1
HT
MDR
MDpT
cut_deta_hh
cut_Xwt
ml_j0_pt
ml_j1_pt
ml_j2_pt
ml_j3_pt
ml_j4_pt
ml_j0_eta
ml_j1_eta
ml_j2_eta
ml_j3_eta
ml_j4_eta
ml_j0_phi
ml_j1_phi
ml_j2_phi
ml_j3_phi
ml_j4_phi
ml_j0_E
ml_j1_E
ml_j2_E
ml_j3_E
ml_j4_E
ml_j0_Db
ml_j1_Db
ml_j2_Db
ml_j3_Db
ml_j4_Db
idx_HC0_j0
idx_HC0_j1
idx_HC1_j0
idx_HC1_j1
Scaling pt.
Scaling E.
Saving  /u/ki/nhartman/gpfs/diHiggs4b/data/data_16_PFlow-MAY2019-5jets/files/df_periodL_f_0.22_000016_entry_0_500000_scaledInputs.h5
Getting jet pts
Getting jet etas
Getting jet phis
Getting jet Es
Calculating Xwt
Calculating Xhh
run_number
event_number
mc_sf
ntag
njets
kinematic_region
m_hh
pt_hh
X_wt
m_hh_cor
pT_h1
eta_h1
phi_h1
m_h1
dRjj_h1
pT_h2
eta_h2
phi_h2
m_h2
dRjj_h2
pT_2
pT_4
eta_i
dRjj_1
dRjj_2
cosThetaStar
cosTheta1
cosTheta2
Phi
Phi1
HT
MDR
MDpT
cut_deta_hh
cut_Xwt
ml_j0_pt
ml_j1_pt
ml_j2_pt
ml_j3_pt
ml_j4_pt
ml_j0_eta
ml_j1_eta
ml_j2_eta
ml_j3_eta
ml_j4_eta
ml_j0_phi
ml_j1_phi
ml_j2_phi
ml_j3_phi
ml_j4_phi
ml_j0_E
ml_j1_E
ml_j2_E
ml_j3_E
ml_j4_E
ml_j0_Db
ml_j1_Db
ml_j2_Db
ml_j3_Db
ml_j4_Db
idx_HC0_j0
idx_HC0_j1
idx_HC1_j0
idx_HC1_j1
Scaling pt.
Scaling E.
Saving  /u/ki/nhartman/gpfs/diHiggs4b/data/data_16_PFlow-MAY2019-5jets/files/df_periodL_f_0.22_000038_entry_0_500000_scaledInputs.h5
Getting jet pts
Getting jet etas
Getting jet phis
Getting jet Es
Calculating Xwt
Calculating Xhh
run_number
event_number
mc_sf
ntag
njets
kinematic_region
m_hh
pt_hh
X_wt
m_hh_cor
pT_h1
eta_h1
phi_h1
m_h1
dRjj_h1
pT_h2
eta_h2
phi_h2
m_h2
dRjj_h2
pT_2
pT_4
eta_i
dRjj_1
dRjj_2
cosThetaStar
cosTheta1
cosTheta2
Phi
Phi1
HT
MDR
MDpT
cut_deta_hh
cut_Xwt
ml_j0_pt
ml_j1_pt
ml_j2_pt
ml_j3_pt
ml_j4_pt
ml_j0_eta
ml_j1_eta
ml_j2_eta
ml_j3_eta
ml_j4_eta
ml_j0_phi
ml_j1_phi
ml_j2_phi
ml_j3_phi
ml_j4_phi
ml_j0_E
ml_j1_E
ml_j2_E
ml_j3_E
ml_j4_E
ml_j0_Db
ml_j1_Db
ml_j2_Db
ml_j3_Db
ml_j4_Db
idx_HC0_j0
idx_HC0_j1
idx_HC1_j0
idx_HC1_j1
Scaling pt.
Scaling E.
Saving  /u/ki/nhartman/gpfs/diHiggs4b/data/data_16_PFlow-MAY2019-5jets/files/df_periodL_f_0.22_000031_entry_500000_1000000_scaledInputs.h5
Getting jet pts
Getting jet etas
Getting jet phis
Getting jet Es
Calculating Xwt
Calculating Xhh
run_number
event_number
mc_sf
ntag
njets
kinematic_region
m_hh
pt_hh
X_wt
m_hh_cor
pT_h1
eta_h1
phi_h1
m_h1
dRjj_h1
pT_h2
eta_h2
phi_h2
m_h2
dRjj_h2
pT_2
pT_4
eta_i
dRjj_1
dRjj_2
cosThetaStar
cosTheta1
cosTheta2
Phi
Phi1
HT
MDR
MDpT
cut_deta_hh
cut_Xwt
ml_j0_pt
ml_j1_pt
ml_j2_pt
ml_j3_pt
ml_j4_pt
ml_j0_eta
ml_j1_eta
ml_j2_eta
ml_j3_eta
ml_j4_eta
ml_j0_phi
ml_j1_phi
ml_j2_phi
ml_j3_phi
ml_j4_phi
ml_j0_E
ml_j1_E
ml_j2_E
ml_j3_E
ml_j4_E
ml_j0_Db
ml_j1_Db
ml_j2_Db
ml_j3_Db
ml_j4_Db
idx_HC0_j0
idx_HC0_j1
idx_HC1_j0
idx_HC1_j1
Scaling pt.
Scaling E.
Saving  /u/ki/nhartman/gpfs/diHiggs4b/data/data_16_PFlow-MAY2019-5jets/files/df_periodL_f_0.22_000029_entry_0_500000_scaledInputs.h5
Getting jet pts
Getting jet etas
Getting jet phis
Getting jet Es
Calculating Xwt
Calculating Xhh
run_number
event_number
mc_sf
ntag
njets
kinematic_region
m_hh
pt_hh
X_wt
m_hh_cor
pT_h1
eta_h1
phi_h1
m_h1
dRjj_h1
pT_h2
eta_h2
phi_h2
m_h2
dRjj_h2
pT_2
pT_4
eta_i
dRjj_1
dRjj_2
cosThetaStar
cosTheta1
cosTheta2
Phi
Phi1
HT
MDR
MDpT
cut_deta_hh
cut_Xwt
ml_j0_pt
ml_j1_pt
ml_j2_pt
ml_j3_pt
ml_j4_pt
ml_j0_eta
ml_j1_eta
ml_j2_eta
ml_j3_eta
ml_j4_eta
ml_j0_phi
ml_j1_phi
ml_j2_phi
ml_j3_phi
ml_j4_phi
ml_j0_E
ml_j1_E
ml_j2_E
ml_j3_E
ml_j4_E
ml_j0_Db
ml_j1_Db
ml_j2_Db
ml_j3_Db
ml_j4_Db
idx_HC0_j0
idx_HC0_j1
idx_HC1_j0
idx_HC1_j1
Scaling pt.
Scaling E.
Saving  /u/ki/nhartman/gpfs/diHiggs4b/data/data_16_PFlow-MAY2019-5jets/files/df_periodL_f_0.22_000008_entry_0_500000_scaledInputs.h5
Getting jet pts
Getting jet etas
Getting jet phis
Getting jet Es
Calculating Xwt
Calculating Xhh
run_number
event_number
mc_sf
ntag
njets
kinematic_region
m_hh
pt_hh
X_wt
m_hh_cor
pT_h1
eta_h1
phi_h1
m_h1
dRjj_h1
pT_h2
eta_h2
phi_h2
m_h2
dRjj_h2
pT_2
pT_4
eta_i
dRjj_1
dRjj_2
cosThetaStar
cosTheta1
cosTheta2
Phi
Phi1
HT
MDR
MDpT
cut_deta_hh
cut_Xwt
ml_j0_pt
ml_j1_pt
ml_j2_pt
ml_j3_pt
ml_j4_pt
ml_j0_eta
ml_j1_eta
ml_j2_eta
ml_j3_eta
ml_j4_eta
ml_j0_phi
ml_j1_phi
ml_j2_phi
ml_j3_phi
ml_j4_phi
ml_j0_E
ml_j1_E
ml_j2_E
ml_j3_E
ml_j4_E
ml_j0_Db
ml_j1_Db
ml_j2_Db
ml_j3_Db
ml_j4_Db
idx_HC0_j0
idx_HC0_j1
idx_HC1_j0
idx_HC1_j1
Scaling pt.
Scaling E.
Saving  /u/ki/nhartman/gpfs/diHiggs4b/data/data_16_PFlow-MAY2019-5jets/files/df_periodL_f_0.22_000017_entry_0_500000_scaledInputs.h5
Getting jet pts
Getting jet etas
Getting jet phis
Getting jet Es
Calculating Xwt
Calculating Xhh
run_number
event_number
mc_sf
ntag
njets
kinematic_region
m_hh
pt_hh
X_wt
m_hh_cor
pT_h1
eta_h1
phi_h1
m_h1
dRjj_h1
pT_h2
eta_h2
phi_h2
m_h2
dRjj_h2
pT_2
pT_4
eta_i
dRjj_1
dRjj_2
cosThetaStar
cosTheta1
cosTheta2
Phi
Phi1
HT
MDR
MDpT
cut_deta_hh
cut_Xwt
ml_j0_pt
ml_j1_pt
ml_j2_pt
ml_j3_pt
ml_j4_pt
ml_j0_eta
ml_j1_eta
ml_j2_eta
ml_j3_eta
ml_j4_eta
ml_j0_phi
ml_j1_phi
ml_j2_phi
ml_j3_phi
ml_j4_phi
ml_j0_E
ml_j1_E
ml_j2_E
ml_j3_E
ml_j4_E
ml_j0_Db
ml_j1_Db
ml_j2_Db
ml_j3_Db
ml_j4_Db
idx_HC0_j0
idx_HC0_j1
idx_HC1_j0
idx_HC1_j1
Scaling pt.
Scaling E.
Saving  /u/ki/nhartman/gpfs/diHiggs4b/data/data_16_PFlow-MAY2019-5jets/files/df_periodL_f_0.22_000019_entry_0_500000_scaledInputs.h5
Getting jet pts
Getting jet etas
Getting jet phis
Getting jet Es
Calculating Xwt
Calculating Xhh
run_number
event_number
mc_sf
ntag
njets
kinematic_region
m_hh
pt_hh
X_wt
m_hh_cor
pT_h1
eta_h1
phi_h1
m_h1
dRjj_h1
pT_h2
eta_h2
phi_h2
m_h2
dRjj_h2
pT_2
pT_4
eta_i
dRjj_1
dRjj_2
cosThetaStar
cosTheta1
cosTheta2
Phi
Phi1
HT
MDR
MDpT
cut_deta_hh
cut_Xwt
ml_j0_pt
ml_j1_pt
ml_j2_pt
ml_j3_pt
ml_j4_pt
ml_j0_eta
ml_j1_eta
ml_j2_eta
ml_j3_eta
ml_j4_eta
ml_j0_phi
ml_j1_phi
ml_j2_phi
ml_j3_phi
ml_j4_phi
ml_j0_E
ml_j1_E
ml_j2_E
ml_j3_E
ml_j4_E
ml_j0_Db
ml_j1_Db
ml_j2_Db
ml_j3_Db
ml_j4_Db
idx_HC0_j0
idx_HC0_j1
idx_HC1_j0
idx_HC1_j1
Scaling pt.
Scaling E.
Saving  /u/ki/nhartman/gpfs/diHiggs4b/data/data_16_PFlow-MAY2019-5jets/files/df_periodL_f_0.22_000020_entry_500000_1000000_scaledInputs.h5
Getting jet pts
Getting jet etas
Getting jet phis
Getting jet Es
Calculating Xwt
Calculating Xhh
run_number
event_number
mc_sf
ntag
njets
kinematic_region
m_hh
pt_hh
X_wt
m_hh_cor
pT_h1
eta_h1
phi_h1
m_h1
dRjj_h1
pT_h2
eta_h2
phi_h2
m_h2
dRjj_h2
pT_2
pT_4
eta_i
dRjj_1
dRjj_2
cosThetaStar
cosTheta1
cosTheta2
Phi
Phi1
HT
MDR
MDpT
cut_deta_hh
cut_Xwt
ml_j0_pt
ml_j1_pt
ml_j2_pt
ml_j3_pt
ml_j4_pt
ml_j0_eta
ml_j1_eta
ml_j2_eta
ml_j3_eta
ml_j4_eta
ml_j0_phi
ml_j1_phi
ml_j2_phi
ml_j3_phi
ml_j4_phi
ml_j0_E
ml_j1_E
ml_j2_E
ml_j3_E
ml_j4_E
ml_j0_Db
ml_j1_Db
ml_j2_Db
ml_j3_Db
ml_j4_Db
idx_HC0_j0
idx_HC0_j1
idx_HC1_j0
idx_HC1_j1
Scaling pt.
Scaling E.
Saving  /u/ki/nhartman/gpfs/diHiggs4b/data/data_16_PFlow-MAY2019-5jets/files/df_periodL_f_0.22_000019_entry_500000_1000000_scaledInputs.h5
Getting jet pts
Getting jet etas
Getting jet phis
Getting jet Es
Calculating Xwt
Calculating Xhh
run_number
event_number
mc_sf
ntag
njets
kinematic_region
m_hh
pt_hh
X_wt
m_hh_cor
pT_h1
eta_h1
phi_h1
m_h1
dRjj_h1
pT_h2
eta_h2
phi_h2
m_h2
dRjj_h2
pT_2
pT_4
eta_i
dRjj_1
dRjj_2
cosThetaStar
cosTheta1
cosTheta2
Phi
Phi1
HT
MDR
MDpT
cut_deta_hh
cut_Xwt
ml_j0_pt
ml_j1_pt
ml_j2_pt
ml_j3_pt
ml_j4_pt
ml_j0_eta
ml_j1_eta
ml_j2_eta
ml_j3_eta
ml_j4_eta
ml_j0_phi
ml_j1_phi
ml_j2_phi
ml_j3_phi
ml_j4_phi
ml_j0_E
ml_j1_E
ml_j2_E
ml_j3_E
ml_j4_E
ml_j0_Db
ml_j1_Db
ml_j2_Db
ml_j3_Db
ml_j4_Db
idx_HC0_j0
idx_HC0_j1
idx_HC1_j0
idx_HC1_j1
Scaling pt.
Scaling E.
Saving  /u/ki/nhartman/gpfs/diHiggs4b/data/data_16_PFlow-MAY2019-5jets/files/df_periodL_f_0.22_000014_entry_500000_1000000_scaledInputs.h5
Getting jet pts
Getting jet etas
Getting jet phis
Getting jet Es
Calculating Xwt
Calculating Xhh
run_number
event_number
mc_sf
ntag
njets
kinematic_region
m_hh
pt_hh
X_wt
m_hh_cor
pT_h1
eta_h1
phi_h1
m_h1
dRjj_h1
pT_h2
eta_h2
phi_h2
m_h2
dRjj_h2
pT_2
pT_4
eta_i
dRjj_1
dRjj_2
cosThetaStar
cosTheta1
cosTheta2
Phi
Phi1
HT
MDR
MDpT
cut_deta_hh
cut_Xwt
ml_j0_pt
ml_j1_pt
ml_j2_pt
ml_j3_pt
ml_j4_pt
ml_j0_eta
ml_j1_eta
ml_j2_eta
ml_j3_eta
ml_j4_eta
ml_j0_phi
ml_j1_phi
ml_j2_phi
ml_j3_phi
ml_j4_phi
ml_j0_E
ml_j1_E
ml_j2_E
ml_j3_E
ml_j4_E
ml_j0_Db
ml_j1_Db
ml_j2_Db
ml_j3_Db
ml_j4_Db
idx_HC0_j0
idx_HC0_j1
idx_HC1_j0
idx_HC1_j1
Scaling pt.
Scaling E.
Saving  /u/ki/nhartman/gpfs/diHiggs4b/data/data_16_PFlow-MAY2019-5jets/files/df_periodL_f_0.22_000024_entry_500000_1000000_scaledInputs.h5
Getting jet pts
Getting jet etas
Getting jet phis
Getting jet Es
Calculating Xwt
Calculating Xhh
run_number
event_number
mc_sf
ntag
njets
kinematic_region
m_hh
pt_hh
X_wt
m_hh_cor
pT_h1
eta_h1
phi_h1
m_h1
dRjj_h1
pT_h2
eta_h2
phi_h2
m_h2
dRjj_h2
pT_2
pT_4
eta_i
dRjj_1
dRjj_2
cosThetaStar
cosTheta1
cosTheta2
Phi
Phi1
HT
MDR
MDpT
cut_deta_hh
cut_Xwt
ml_j0_pt
ml_j1_pt
ml_j2_pt
ml_j3_pt
ml_j4_pt
ml_j0_eta
ml_j1_eta
ml_j2_eta
ml_j3_eta
ml_j4_eta
ml_j0_phi
ml_j1_phi
ml_j2_phi
ml_j3_phi
ml_j4_phi
ml_j0_E
ml_j1_E
ml_j2_E
ml_j3_E
ml_j4_E
ml_j0_Db
ml_j1_Db
ml_j2_Db
ml_j3_Db
ml_j4_Db
idx_HC0_j0
idx_HC0_j1
idx_HC1_j0
idx_HC1_j1
Scaling pt.
Scaling E.
Saving  /u/ki/nhartman/gpfs/diHiggs4b/data/data_16_PFlow-MAY2019-5jets/files/df_periodL_f_0.22_000035_entry_500000_1000000_scaledInputs.h5
Getting jet pts
Getting jet etas
Getting jet phis
Getting jet Es
Calculating Xwt
Calculating Xhh
run_number
event_number
mc_sf
ntag
njets
kinematic_region
m_hh
pt_hh
X_wt
m_hh_cor
pT_h1
eta_h1
phi_h1
m_h1
dRjj_h1
pT_h2
eta_h2
phi_h2
m_h2
dRjj_h2
pT_2
pT_4
eta_i
dRjj_1
dRjj_2
cosThetaStar
cosTheta1
cosTheta2
Phi
Phi1
HT
MDR
MDpT
cut_deta_hh
cut_Xwt
ml_j0_pt
ml_j1_pt
ml_j2_pt
ml_j3_pt
ml_j4_pt
ml_j0_eta
ml_j1_eta
ml_j2_eta
ml_j3_eta
ml_j4_eta
ml_j0_phi
ml_j1_phi
ml_j2_phi
ml_j3_phi
ml_j4_phi
ml_j0_E
ml_j1_E
ml_j2_E
ml_j3_E
ml_j4_E
ml_j0_Db
ml_j1_Db
ml_j2_Db
ml_j3_Db
ml_j4_Db
idx_HC0_j0
idx_HC0_j1
idx_HC1_j0
idx_HC1_j1
Scaling pt.
Scaling E.
Saving  /u/ki/nhartman/gpfs/diHiggs4b/data/data_16_PFlow-MAY2019-5jets/files/df_periodL_f_0.22_000022_entry_0_500000_scaledInputs.h5
Getting jet pts
Getting jet etas
Getting jet phis
Getting jet Es
Calculating Xwt
Calculating Xhh
run_number
event_number
mc_sf
ntag
njets
kinematic_region
m_hh
pt_hh
X_wt
m_hh_cor
pT_h1
eta_h1
phi_h1
m_h1
dRjj_h1
pT_h2
eta_h2
phi_h2
m_h2
dRjj_h2
pT_2
pT_4
eta_i
dRjj_1
dRjj_2
cosThetaStar
cosTheta1
cosTheta2
Phi
Phi1
HT
MDR
MDpT
cut_deta_hh
cut_Xwt
ml_j0_pt
ml_j1_pt
ml_j2_pt
ml_j3_pt
ml_j4_pt
ml_j0_eta
ml_j1_eta
ml_j2_eta
ml_j3_eta
ml_j4_eta
ml_j0_phi
ml_j1_phi
ml_j2_phi
ml_j3_phi
ml_j4_phi
ml_j0_E
ml_j1_E
ml_j2_E
ml_j3_E
ml_j4_E
ml_j0_Db
ml_j1_Db
ml_j2_Db
ml_j3_Db
ml_j4_Db
idx_HC0_j0
idx_HC0_j1
idx_HC1_j0
idx_HC1_j1
Scaling pt.
Scaling E.
Saving  /u/ki/nhartman/gpfs/diHiggs4b/data/data_16_PFlow-MAY2019-5jets/files/df_periodL_f_0.22_000004_entry_500000_1000000_scaledInputs.h5
Getting jet pts
Getting jet etas
Getting jet phis
Getting jet Es
Calculating Xwt
Calculating Xhh
run_number
event_number
mc_sf
ntag
njets
kinematic_region
m_hh
pt_hh
X_wt
m_hh_cor
pT_h1
eta_h1
phi_h1
m_h1
dRjj_h1
pT_h2
eta_h2
phi_h2
m_h2
dRjj_h2
pT_2
pT_4
eta_i
dRjj_1
dRjj_2
cosThetaStar
cosTheta1
cosTheta2
Phi
Phi1
HT
MDR
MDpT
cut_deta_hh
cut_Xwt
ml_j0_pt
ml_j1_pt
ml_j2_pt
ml_j3_pt
ml_j4_pt
ml_j0_eta
ml_j1_eta
ml_j2_eta
ml_j3_eta
ml_j4_eta
ml_j0_phi
ml_j1_phi
ml_j2_phi
ml_j3_phi
ml_j4_phi
ml_j0_E
ml_j1_E
ml_j2_E
ml_j3_E
ml_j4_E
ml_j0_Db
ml_j1_Db
ml_j2_Db
ml_j3_Db
ml_j4_Db
idx_HC0_j0
idx_HC0_j1
idx_HC1_j0
idx_HC1_j1
Scaling pt.
Scaling E.
Saving  /u/ki/nhartman/gpfs/diHiggs4b/data/data_16_PFlow-MAY2019-5jets/files/df_periodL_f_0.22_000026_entry_0_500000_scaledInputs.h5
Getting jet pts
Getting jet etas
Getting jet phis
Getting jet Es
Calculating Xwt
Calculating Xhh
run_number
event_number
mc_sf
ntag
njets
kinematic_region
m_hh
pt_hh
X_wt
m_hh_cor
pT_h1
eta_h1
phi_h1
m_h1
dRjj_h1
pT_h2
eta_h2
phi_h2
m_h2
dRjj_h2
pT_2
pT_4
eta_i
dRjj_1
dRjj_2
cosThetaStar
cosTheta1
cosTheta2
Phi
Phi1
HT
MDR
MDpT
cut_deta_hh
cut_Xwt
ml_j0_pt
ml_j1_pt
ml_j2_pt
ml_j3_pt
ml_j4_pt
ml_j0_eta
ml_j1_eta
ml_j2_eta
ml_j3_eta
ml_j4_eta
ml_j0_phi
ml_j1_phi
ml_j2_phi
ml_j3_phi
ml_j4_phi
ml_j0_E
ml_j1_E
ml_j2_E
ml_j3_E
ml_j4_E
ml_j0_Db
ml_j1_Db
ml_j2_Db
ml_j3_Db
ml_j4_Db
idx_HC0_j0
idx_HC0_j1
idx_HC1_j0
idx_HC1_j1
Scaling pt.
Scaling E.
Saving  /u/ki/nhartman/gpfs/diHiggs4b/data/data_16_PFlow-MAY2019-5jets/files/df_periodL_f_0.22_000021_entry_0_500000_scaledInputs.h5
Getting jet pts
Getting jet etas
Getting jet phis
Getting jet Es
Calculating Xwt
Calculating Xhh
run_number
event_number
mc_sf
ntag
njets
kinematic_region
m_hh
pt_hh
X_wt
m_hh_cor
pT_h1
eta_h1
phi_h1
m_h1
dRjj_h1
pT_h2
eta_h2
phi_h2
m_h2
dRjj_h2
pT_2
pT_4
eta_i
dRjj_1
dRjj_2
cosThetaStar
cosTheta1
cosTheta2
Phi
Phi1
HT
MDR
MDpT
cut_deta_hh
cut_Xwt
ml_j0_pt
ml_j1_pt
ml_j2_pt
ml_j3_pt
ml_j4_pt
ml_j0_eta
ml_j1_eta
ml_j2_eta
ml_j3_eta
ml_j4_eta
ml_j0_phi
ml_j1_phi
ml_j2_phi
ml_j3_phi
ml_j4_phi
ml_j0_E
ml_j1_E
ml_j2_E
ml_j3_E
ml_j4_E
ml_j0_Db
ml_j1_Db
ml_j2_Db
ml_j3_Db
ml_j4_Db
idx_HC0_j0
idx_HC0_j1
idx_HC1_j0
idx_HC1_j1
Scaling pt.
Scaling E.
Saving  /u/ki/nhartman/gpfs/diHiggs4b/data/data_16_PFlow-MAY2019-5jets/files/df_periodL_f_0.22_000037_entry_0_500000_scaledInputs.h5
Getting jet pts
Getting jet etas
Getting jet phis
Getting jet Es
Calculating Xwt
Calculating Xhh
run_number
event_number
mc_sf
ntag
njets
kinematic_region
m_hh
pt_hh
X_wt
m_hh_cor
pT_h1
eta_h1
phi_h1
m_h1
dRjj_h1
pT_h2
eta_h2
phi_h2
m_h2
dRjj_h2
pT_2
pT_4
eta_i
dRjj_1
dRjj_2
cosThetaStar
cosTheta1
cosTheta2
Phi
Phi1
HT
MDR
MDpT
cut_deta_hh
cut_Xwt
ml_j0_pt
ml_j1_pt
ml_j2_pt
ml_j3_pt
ml_j4_pt
ml_j0_eta
ml_j1_eta
ml_j2_eta
ml_j3_eta
ml_j4_eta
ml_j0_phi
ml_j1_phi
ml_j2_phi
ml_j3_phi
ml_j4_phi
ml_j0_E
ml_j1_E
ml_j2_E
ml_j3_E
ml_j4_E
ml_j0_Db
ml_j1_Db
ml_j2_Db
ml_j3_Db
ml_j4_Db
idx_HC0_j0
idx_HC0_j1
idx_HC1_j0
idx_HC1_j1
Scaling pt.
Scaling E.
Saving  /u/ki/nhartman/gpfs/diHiggs4b/data/data_16_PFlow-MAY2019-5jets/files/df_periodL_f_0.22_000006_entry_0_500000_scaledInputs.h5
Getting jet pts
Getting jet etas
Getting jet phis
Getting jet Es
Calculating Xwt
Calculating Xhh
run_number
event_number
mc_sf
ntag
njets
kinematic_region
m_hh
pt_hh
X_wt
m_hh_cor
pT_h1
eta_h1
phi_h1
m_h1
dRjj_h1
pT_h2
eta_h2
phi_h2
m_h2
dRjj_h2
pT_2
pT_4
eta_i
dRjj_1
dRjj_2
cosThetaStar
cosTheta1
cosTheta2
Phi
Phi1
HT
MDR
MDpT
cut_deta_hh
cut_Xwt
ml_j0_pt
ml_j1_pt
ml_j2_pt
ml_j3_pt
ml_j4_pt
ml_j0_eta
ml_j1_eta
ml_j2_eta
ml_j3_eta
ml_j4_eta
ml_j0_phi
ml_j1_phi
ml_j2_phi
ml_j3_phi
ml_j4_phi
ml_j0_E
ml_j1_E
ml_j2_E
ml_j3_E
ml_j4_E
ml_j0_Db
ml_j1_Db
ml_j2_Db
ml_j3_Db
ml_j4_Db
idx_HC0_j0
idx_HC0_j1
idx_HC1_j0
idx_HC1_j1
Scaling pt.
Scaling E.
Saving  /u/ki/nhartman/gpfs/diHiggs4b/data/data_16_PFlow-MAY2019-5jets/files/df_periodL_f_0.22_000018_entry_0_500000_scaledInputs.h5
Getting jet pts
Getting jet etas
Getting jet phis
Getting jet Es
Calculating Xwt
Calculating Xhh
run_number
event_number
mc_sf
ntag
njets
kinematic_region
m_hh
pt_hh
X_wt
m_hh_cor
pT_h1
eta_h1
phi_h1
m_h1
dRjj_h1
pT_h2
eta_h2
phi_h2
m_h2
dRjj_h2
pT_2
pT_4
eta_i
dRjj_1
dRjj_2
cosThetaStar
cosTheta1
cosTheta2
Phi
Phi1
HT
MDR
MDpT
cut_deta_hh
cut_Xwt
ml_j0_pt
ml_j1_pt
ml_j2_pt
ml_j3_pt
ml_j4_pt
ml_j0_eta
ml_j1_eta
ml_j2_eta
ml_j3_eta
ml_j4_eta
ml_j0_phi
ml_j1_phi
ml_j2_phi
ml_j3_phi
ml_j4_phi
ml_j0_E
ml_j1_E
ml_j2_E
ml_j3_E
ml_j4_E
ml_j0_Db
ml_j1_Db
ml_j2_Db
ml_j3_Db
ml_j4_Db
idx_HC0_j0
idx_HC0_j1
idx_HC1_j0
idx_HC1_j1
Scaling pt.
Scaling E.
Saving  /u/ki/nhartman/gpfs/diHiggs4b/data/data_16_PFlow-MAY2019-5jets/files/df_periodL_f_0.22_000041_entry_500000_1000000_scaledInputs.h5
Getting jet pts
Getting jet etas
Getting jet phis
Getting jet Es
Calculating Xwt
Calculating Xhh
run_number
event_number
mc_sf
ntag
njets
kinematic_region
m_hh
pt_hh
X_wt
m_hh_cor
pT_h1
eta_h1
phi_h1
m_h1
dRjj_h1
pT_h2
eta_h2
phi_h2
m_h2
dRjj_h2
pT_2
pT_4
eta_i
dRjj_1
dRjj_2
cosThetaStar
cosTheta1
cosTheta2
Phi
Phi1
HT
MDR
MDpT
cut_deta_hh
cut_Xwt
ml_j0_pt
ml_j1_pt
ml_j2_pt
ml_j3_pt
ml_j4_pt
ml_j0_eta
ml_j1_eta
ml_j2_eta
ml_j3_eta
ml_j4_eta
ml_j0_phi
ml_j1_phi
ml_j2_phi
ml_j3_phi
ml_j4_phi
ml_j0_E
ml_j1_E
ml_j2_E
ml_j3_E
ml_j4_E
ml_j0_Db
ml_j1_Db
ml_j2_Db
ml_j3_Db
ml_j4_Db
idx_HC0_j0
idx_HC0_j1
idx_HC1_j0
idx_HC1_j1
Scaling pt.
Scaling E.
Saving  /u/ki/nhartman/gpfs/diHiggs4b/data/data_16_PFlow-MAY2019-5jets/files/df_periodL_f_0.22_000043_entry_0_500000_scaledInputs.h5
Getting jet pts
Getting jet etas
Getting jet phis
Getting jet Es
Calculating Xwt
Calculating Xhh
run_number
event_number
mc_sf
ntag
njets
kinematic_region
m_hh
pt_hh
X_wt
m_hh_cor
pT_h1
eta_h1
phi_h1
m_h1
dRjj_h1
pT_h2
eta_h2
phi_h2
m_h2
dRjj_h2
pT_2
pT_4
eta_i
dRjj_1
dRjj_2
cosThetaStar
cosTheta1
cosTheta2
Phi
Phi1
HT
MDR
MDpT
cut_deta_hh
cut_Xwt
ml_j0_pt
ml_j1_pt
ml_j2_pt
ml_j3_pt
ml_j4_pt
ml_j0_eta
ml_j1_eta
ml_j2_eta
ml_j3_eta
ml_j4_eta
ml_j0_phi
ml_j1_phi
ml_j2_phi
ml_j3_phi
ml_j4_phi
ml_j0_E
ml_j1_E
ml_j2_E
ml_j3_E
ml_j4_E
ml_j0_Db
ml_j1_Db
ml_j2_Db
ml_j3_Db
ml_j4_Db
idx_HC0_j0
idx_HC0_j1
idx_HC1_j0
idx_HC1_j1
Scaling pt.
Scaling E.
Saving  /u/ki/nhartman/gpfs/diHiggs4b/data/data_16_PFlow-MAY2019-5jets/files/df_periodL_f_0.22_000020_entry_0_500000_scaledInputs.h5
Getting jet pts
Getting jet etas
Getting jet phis
Getting jet Es
Calculating Xwt
Calculating Xhh
run_number
event_number
mc_sf
ntag
njets
kinematic_region
m_hh
pt_hh
X_wt
m_hh_cor
pT_h1
eta_h1
phi_h1
m_h1
dRjj_h1
pT_h2
eta_h2
phi_h2
m_h2
dRjj_h2
pT_2
pT_4
eta_i
dRjj_1
dRjj_2
cosThetaStar
cosTheta1
cosTheta2
Phi
Phi1
HT
MDR
MDpT
cut_deta_hh
cut_Xwt
ml_j0_pt
ml_j1_pt
ml_j2_pt
ml_j3_pt
ml_j4_pt
ml_j0_eta
ml_j1_eta
ml_j2_eta
ml_j3_eta
ml_j4_eta
ml_j0_phi
ml_j1_phi
ml_j2_phi
ml_j3_phi
ml_j4_phi
ml_j0_E
ml_j1_E
ml_j2_E
ml_j3_E
ml_j4_E
ml_j0_Db
ml_j1_Db
ml_j2_Db
ml_j3_Db
ml_j4_Db
idx_HC0_j0
idx_HC0_j1
idx_HC1_j0
idx_HC1_j1
Scaling pt.
Scaling E.
Saving  /u/ki/nhartman/gpfs/diHiggs4b/data/data_16_PFlow-MAY2019-5jets/files/df_periodL_f_0.22_000011_entry_0_500000_scaledInputs.h5
Getting jet pts
Getting jet etas
Getting jet phis
Getting jet Es
Calculating Xwt
Calculating Xhh
run_number
event_number
mc_sf
ntag
njets
kinematic_region
m_hh
pt_hh
X_wt
m_hh_cor
pT_h1
eta_h1
phi_h1
m_h1
dRjj_h1
pT_h2
eta_h2
phi_h2
m_h2
dRjj_h2
pT_2
pT_4
eta_i
dRjj_1
dRjj_2
cosThetaStar
cosTheta1
cosTheta2
Phi
Phi1
HT
MDR
MDpT
cut_deta_hh
cut_Xwt
ml_j0_pt
ml_j1_pt
ml_j2_pt
ml_j3_pt
ml_j4_pt
ml_j0_eta
ml_j1_eta
ml_j2_eta
ml_j3_eta
ml_j4_eta
ml_j0_phi
ml_j1_phi
ml_j2_phi
ml_j3_phi
ml_j4_phi
ml_j0_E
ml_j1_E
ml_j2_E
ml_j3_E
ml_j4_E
ml_j0_Db
ml_j1_Db
ml_j2_Db
ml_j3_Db
ml_j4_Db
idx_HC0_j0
idx_HC0_j1
idx_HC1_j0
idx_HC1_j1
Scaling pt.
Scaling E.
Saving  /u/ki/nhartman/gpfs/diHiggs4b/data/data_16_PFlow-MAY2019-5jets/files/df_periodL_f_0.22_000002_entry_0_500000_scaledInputs.h5
Getting jet pts
Getting jet etas
Getting jet phis
Getting jet Es
Calculating Xwt
Calculating Xhh
run_number
event_number
mc_sf
ntag
njets
kinematic_region
m_hh
pt_hh
X_wt
m_hh_cor
pT_h1
eta_h1
phi_h1
m_h1
dRjj_h1
pT_h2
eta_h2
phi_h2
m_h2
dRjj_h2
pT_2
pT_4
eta_i
dRjj_1
dRjj_2
cosThetaStar
cosTheta1
cosTheta2
Phi
Phi1
HT
MDR
MDpT
cut_deta_hh
cut_Xwt
ml_j0_pt
ml_j1_pt
ml_j2_pt
ml_j3_pt
ml_j4_pt
ml_j0_eta
ml_j1_eta
ml_j2_eta
ml_j3_eta
ml_j4_eta
ml_j0_phi
ml_j1_phi
ml_j2_phi
ml_j3_phi
ml_j4_phi
ml_j0_E
ml_j1_E
ml_j2_E
ml_j3_E
ml_j4_E
ml_j0_Db
ml_j1_Db
ml_j2_Db
ml_j3_Db
ml_j4_Db
idx_HC0_j0
idx_HC0_j1
idx_HC1_j0
idx_HC1_j1
Scaling pt.
Scaling E.
Saving  /u/ki/nhartman/gpfs/diHiggs4b/data/data_16_PFlow-MAY2019-5jets/files/df_periodL_f_0.22_000024_entry_0_500000_scaledInputs.h5
Getting jet pts
Getting jet etas
Getting jet phis
Getting jet Es
Calculating Xwt
Calculating Xhh
run_number
event_number
mc_sf
ntag
njets
kinematic_region
m_hh
pt_hh
X_wt
m_hh_cor
pT_h1
eta_h1
phi_h1
m_h1
dRjj_h1
pT_h2
eta_h2
phi_h2
m_h2
dRjj_h2
pT_2
pT_4
eta_i
dRjj_1
dRjj_2
cosThetaStar
cosTheta1
cosTheta2
Phi
Phi1
HT
MDR
MDpT
cut_deta_hh
cut_Xwt
ml_j0_pt
ml_j1_pt
ml_j2_pt
ml_j3_pt
ml_j4_pt
ml_j0_eta
ml_j1_eta
ml_j2_eta
ml_j3_eta
ml_j4_eta
ml_j0_phi
ml_j1_phi
ml_j2_phi
ml_j3_phi
ml_j4_phi
ml_j0_E
ml_j1_E
ml_j2_E
ml_j3_E
ml_j4_E
ml_j0_Db
ml_j1_Db
ml_j2_Db
ml_j3_Db
ml_j4_Db
idx_HC0_j0
idx_HC0_j1
idx_HC1_j0
idx_HC1_j1
Scaling pt.
Scaling E.
Saving  /u/ki/nhartman/gpfs/diHiggs4b/data/data_16_PFlow-MAY2019-5jets/files/df_periodL_f_0.22_000045_entry_0_500000_scaledInputs.h5
Getting jet pts
Getting jet etas
Getting jet phis
Getting jet Es
Calculating Xwt
Calculating Xhh
run_number
event_number
mc_sf
ntag
njets
kinematic_region
m_hh
pt_hh
X_wt
m_hh_cor
pT_h1
eta_h1
phi_h1
m_h1
dRjj_h1
pT_h2
eta_h2
phi_h2
m_h2
dRjj_h2
pT_2
pT_4
eta_i
dRjj_1
dRjj_2
cosThetaStar
cosTheta1
cosTheta2
Phi
Phi1
HT
MDR
MDpT
cut_deta_hh
cut_Xwt
ml_j0_pt
ml_j1_pt
ml_j2_pt
ml_j3_pt
ml_j4_pt
ml_j0_eta
ml_j1_eta
ml_j2_eta
ml_j3_eta
ml_j4_eta
ml_j0_phi
ml_j1_phi
ml_j2_phi
ml_j3_phi
ml_j4_phi
ml_j0_E
ml_j1_E
ml_j2_E
ml_j3_E
ml_j4_E
ml_j0_Db
ml_j1_Db
ml_j2_Db
ml_j3_Db
ml_j4_Db
idx_HC0_j0
idx_HC0_j1
idx_HC1_j0
idx_HC1_j1
Scaling pt.
Scaling E.
Saving  /u/ki/nhartman/gpfs/diHiggs4b/data/data_16_PFlow-MAY2019-5jets/files/df_periodL_f_0.22_000034_entry_0_500000_scaledInputs.h5
Getting jet pts
Getting jet etas
Getting jet phis
Getting jet Es
Calculating Xwt
Calculating Xhh
run_number
event_number
mc_sf
ntag
njets
kinematic_region
m_hh
pt_hh
X_wt
m_hh_cor
pT_h1
eta_h1
phi_h1
m_h1
dRjj_h1
pT_h2
eta_h2
phi_h2
m_h2
dRjj_h2
pT_2
pT_4
eta_i
dRjj_1
dRjj_2
cosThetaStar
cosTheta1
cosTheta2
Phi
Phi1
HT
MDR
MDpT
cut_deta_hh
cut_Xwt
ml_j0_pt
ml_j1_pt
ml_j2_pt
ml_j3_pt
ml_j4_pt
ml_j0_eta
ml_j1_eta
ml_j2_eta
ml_j3_eta
ml_j4_eta
ml_j0_phi
ml_j1_phi
ml_j2_phi
ml_j3_phi
ml_j4_phi
ml_j0_E
ml_j1_E
ml_j2_E
ml_j3_E
ml_j4_E
ml_j0_Db
ml_j1_Db
ml_j2_Db
ml_j3_Db
ml_j4_Db
idx_HC0_j0
idx_HC0_j1
idx_HC1_j0
idx_HC1_j1
Scaling pt.
Scaling E.
Saving  /u/ki/nhartman/gpfs/diHiggs4b/data/data_16_PFlow-MAY2019-5jets/files/df_periodL_f_0.22_000012_entry_0_500000_scaledInputs.h5
Getting jet pts
Getting jet etas
Getting jet phis
Getting jet Es
Calculating Xwt
Calculating Xhh
run_number
event_number
mc_sf
ntag
njets
kinematic_region
m_hh
pt_hh
X_wt
m_hh_cor
pT_h1
eta_h1
phi_h1
m_h1
dRjj_h1
pT_h2
eta_h2
phi_h2
m_h2
dRjj_h2
pT_2
pT_4
eta_i
dRjj_1
dRjj_2
cosThetaStar
cosTheta1
cosTheta2
Phi
Phi1
HT
MDR
MDpT
cut_deta_hh
cut_Xwt
ml_j0_pt
ml_j1_pt
ml_j2_pt
ml_j3_pt
ml_j4_pt
ml_j0_eta
ml_j1_eta
ml_j2_eta
ml_j3_eta
ml_j4_eta
ml_j0_phi
ml_j1_phi
ml_j2_phi
ml_j3_phi
ml_j4_phi
ml_j0_E
ml_j1_E
ml_j2_E
ml_j3_E
ml_j4_E
ml_j0_Db
ml_j1_Db
ml_j2_Db
ml_j3_Db
ml_j4_Db
idx_HC0_j0
idx_HC0_j1
idx_HC1_j0
idx_HC1_j1
Scaling pt.
Scaling E.
Saving  /u/ki/nhartman/gpfs/diHiggs4b/data/data_16_PFlow-MAY2019-5jets/files/df_periodL_f_0.22_000025_entry_500000_1000000_scaledInputs.h5
Getting jet pts
Getting jet etas
Getting jet phis
Getting jet Es
Calculating Xwt
Calculating Xhh
run_number
event_number
mc_sf
ntag
njets
kinematic_region
m_hh
pt_hh
X_wt
m_hh_cor
pT_h1
eta_h1
phi_h1
m_h1
dRjj_h1
pT_h2
eta_h2
phi_h2
m_h2
dRjj_h2
pT_2
pT_4
eta_i
dRjj_1
dRjj_2
cosThetaStar
cosTheta1
cosTheta2
Phi
Phi1
HT
MDR
MDpT
cut_deta_hh
cut_Xwt
ml_j0_pt
ml_j1_pt
ml_j2_pt
ml_j3_pt
ml_j4_pt
ml_j0_eta
ml_j1_eta
ml_j2_eta
ml_j3_eta
ml_j4_eta
ml_j0_phi
ml_j1_phi
ml_j2_phi
ml_j3_phi
ml_j4_phi
ml_j0_E
ml_j1_E
ml_j2_E
ml_j3_E
ml_j4_E
ml_j0_Db
ml_j1_Db
ml_j2_Db
ml_j3_Db
ml_j4_Db
idx_HC0_j0
idx_HC0_j1
idx_HC1_j0
idx_HC1_j1
Scaling pt.
Scaling E.
Saving  /u/ki/nhartman/gpfs/diHiggs4b/data/data_16_PFlow-MAY2019-5jets/files/df_periodL_f_0.22_000009_entry_0_500000_scaledInputs.h5
Getting jet pts
Getting jet etas
Getting jet phis
Getting jet Es
Calculating Xwt
Calculating Xhh
run_number
event_number
mc_sf
ntag
njets
kinematic_region
m_hh
pt_hh
X_wt
m_hh_cor
pT_h1
eta_h1
phi_h1
m_h1
dRjj_h1
pT_h2
eta_h2
phi_h2
m_h2
dRjj_h2
pT_2
pT_4
eta_i
dRjj_1
dRjj_2
cosThetaStar
cosTheta1
cosTheta2
Phi
Phi1
HT
MDR
MDpT
cut_deta_hh
cut_Xwt
ml_j0_pt
ml_j1_pt
ml_j2_pt
ml_j3_pt
ml_j4_pt
ml_j0_eta
ml_j1_eta
ml_j2_eta
ml_j3_eta
ml_j4_eta
ml_j0_phi
ml_j1_phi
ml_j2_phi
ml_j3_phi
ml_j4_phi
ml_j0_E
ml_j1_E
ml_j2_E
ml_j3_E
ml_j4_E
ml_j0_Db
ml_j1_Db
ml_j2_Db
ml_j3_Db
ml_j4_Db
idx_HC0_j0
idx_HC0_j1
idx_HC1_j0
idx_HC1_j1
Scaling pt.
Scaling E.
Saving  /u/ki/nhartman/gpfs/diHiggs4b/data/data_16_PFlow-MAY2019-5jets/files/df_periodL_f_0.22_000033_entry_0_500000_scaledInputs.h5
Getting jet pts
Getting jet etas
Getting jet phis
Getting jet Es
Calculating Xwt
Calculating Xhh
run_number
event_number
mc_sf
ntag
njets
kinematic_region
m_hh
pt_hh
X_wt
m_hh_cor
pT_h1
eta_h1
phi_h1
m_h1
dRjj_h1
pT_h2
eta_h2
phi_h2
m_h2
dRjj_h2
pT_2
pT_4
eta_i
dRjj_1
dRjj_2
cosThetaStar
cosTheta1
cosTheta2
Phi
Phi1
HT
MDR
MDpT
cut_deta_hh
cut_Xwt
ml_j0_pt
ml_j1_pt
ml_j2_pt
ml_j3_pt
ml_j4_pt
ml_j0_eta
ml_j1_eta
ml_j2_eta
ml_j3_eta
ml_j4_eta
ml_j0_phi
ml_j1_phi
ml_j2_phi
ml_j3_phi
ml_j4_phi
ml_j0_E
ml_j1_E
ml_j2_E
ml_j3_E
ml_j4_E
ml_j0_Db
ml_j1_Db
ml_j2_Db
ml_j3_Db
ml_j4_Db
idx_HC0_j0
idx_HC0_j1
idx_HC1_j0
idx_HC1_j1
Scaling pt.
Scaling E.
Saving  /u/ki/nhartman/gpfs/diHiggs4b/data/data_16_PFlow-MAY2019-5jets/files/df_periodL_f_0.22_000047_entry_0_500000_scaledInputs.h5
Getting jet pts
Getting jet etas
Getting jet phis
Getting jet Es
Calculating Xwt
Calculating Xhh
run_number
event_number
mc_sf
ntag
njets
kinematic_region
m_hh
pt_hh
X_wt
m_hh_cor
pT_h1
eta_h1
phi_h1
m_h1
dRjj_h1
pT_h2
eta_h2
phi_h2
m_h2
dRjj_h2
pT_2
pT_4
eta_i
dRjj_1
dRjj_2
cosThetaStar
cosTheta1
cosTheta2
Phi
Phi1
HT
MDR
MDpT
cut_deta_hh
cut_Xwt
ml_j0_pt
ml_j1_pt
ml_j2_pt
ml_j3_pt
ml_j4_pt
ml_j0_eta
ml_j1_eta
ml_j2_eta
ml_j3_eta
ml_j4_eta
ml_j0_phi
ml_j1_phi
ml_j2_phi
ml_j3_phi
ml_j4_phi
ml_j0_E
ml_j1_E
ml_j2_E
ml_j3_E
ml_j4_E
ml_j0_Db
ml_j1_Db
ml_j2_Db
ml_j3_Db
ml_j4_Db
idx_HC0_j0
idx_HC0_j1
idx_HC1_j0
idx_HC1_j1
Saving /u/ki/nhartman/gpfs/diHiggs4b/data/data_16_PFlow-MAY2019-5jets/files/df_periodL_f_0.22_mlJetInputs.h5

------------------------------------------------------------
Sender: LSF System <lsf@atlprf19>
Subject: Job 976732: <data_16_PFlow-MAY2019-5jets_periodL_-1b_all_jetInputs> in cluster <slac> Done

Job <data_16_PFlow-MAY2019-5jets_periodL_-1b_all_jetInputs> was submitted from host <cent7d> by user <nhartman> in cluster <slac> at Fri Feb  7 13:17:49 2020
Job was executed on host(s) <atlprf19>, in queue <atlas-t3>, as user <nhartman> in cluster <slac> at Fri Feb  7 13:17:52 2020
</u/ki/nhartman> was used as the home directory.
</u/ki/nhartman/gpfs/diHiggs4b> was used as the working directory.
Started at Fri Feb  7 13:17:52 2020
Terminated at Fri Feb  7 14:02:38 2020
Results reported at Fri Feb  7 14:02:38 2020

Your job looked like:

------------------------------------------------------------
# LSBATCH: User input
singularity exec docker://gitlab-registry.cern.ch/hartman/ml-gpu/ml-gpu:latest ./tmp_data_16_PFlow-MAY2019-5jets_periodL_-1b_all_jetInputs.sh
------------------------------------------------------------

Successfully completed.

Resource usage summary:

    CPU time :                                   2414.42 sec.
    Max Memory :                                 6117 MB
    Average Memory :                             3354.21 MB
    Total Requested Memory :                     -
    Delta Memory :                               -
    Max Swap :                                   10442 MB
    Max Processes :                              5
    Max Threads :                                34
    Run time :                                   2686 sec.
    Turnaround time :                            2689 sec.

The output (if any) is above this job summary.

