time="2020-02-07T13:17:53-08:00" level=warning msg="\"/run/user/14660\" directory set by $XDG_RUNTIME_DIR does not exist. Either create the directory or unset $XDG_RUNTIME_DIR.: stat /run/user/14660: no such file or directory: Trying to pull image in the event that it is a public image."
df_f_0.22_2b.h5
df_f_0.22_2b_SB_rw_vars.h5
df_f_0.22_3b.h5
df_f_0.22_4b_SB_rw_vars.h5
df_f_0.22_NNT_HCs.h5
df_f_0.22_fullmassplane.h5
df_f_0.22_rw_vars.h5
df_periodABCDEFG_f_0.22_fullmassplane.h5
df_periodABC_f_0.22_fullmassplane.h5
files
old_files
  0%|          | 0/26 [00:00<?, ?it/s]/opt/conda/lib/python3.6/site-packages/pandas/core/generic.py:2530: PerformanceWarning: 
your performance may suffer as PyTables will pickle object types that it cannot
map directly to c-types [inferred_type->mixed,key->block4_values] [items->['passedTriggerHashes', 'resolvedJets_E', 'resolvedJets_pt', 'resolvedJets_phi', 'resolvedJets_eta', 'resolvedJets_MV2c10', 'resolvedJets_is_MV2c10_FixedCutBEff_70', 'muon_pt', 'muon_eta', 'muon_phi', 'muon_m', 'muon_EnergyLoss']]

  pytables.to_hdf(path_or_buf, key, self, **kwargs)
  4%|3         | 1/26 [01:36<40:11, 96.48s/it]  8%|7         | 2/26 [03:05<37:38, 94.10s/it] 12%|#1        | 3/26 [03:27<27:47, 72.52s/it] 15%|#5        | 4/26 [04:12<23:36, 64.39s/it] 19%|#9        | 5/26 [05:37<24:44, 70.68s/it] 23%|##3       | 6/26 [05:49<17:38, 52.94s/it] 27%|##6       | 7/26 [06:24<15:00, 47.41s/it] 31%|###       | 8/26 [06:33<10:49, 36.08s/it] 35%|###4      | 9/26 [07:05<09:52, 34.85s/it] 38%|###8      | 10/26 [08:20<12:29, 46.85s/it] 42%|####2     | 11/26 [09:22<12:52, 51.53s/it] 46%|####6     | 12/26 [09:31<08:58, 38.50s/it] 50%|#####     | 13/26 [10:12<08:31, 39.35s/it] 54%|#####3    | 14/26 [11:46<11:11, 55.92s/it] 58%|#####7    | 15/26 [12:31<09:37, 52.49s/it] 62%|######1   | 16/26 [13:38<09:29, 56.97s/it] 65%|######5   | 17/26 [13:56<06:46, 45.20s/it] 69%|######9   | 18/26 [15:00<06:47, 50.93s/it] 73%|#######3  | 19/26 [16:15<06:46, 58.13s/it] 77%|#######6  | 20/26 [16:25<04:21, 43.51s/it] 81%|########  | 21/26 [16:59<03:24, 40.87s/it] 85%|########4 | 22/26 [18:10<03:19, 49.82s/it] 88%|########8 | 23/26 [18:13<01:47, 35.79s/it] 92%|#########2| 24/26 [18:21<00:54, 27.37s/it] 96%|#########6| 25/26 [18:45<00:26, 26.50s/it]100%|##########| 26/26 [18:48<00:00, 19.25s/it]100%|##########| 26/26 [18:48<00:00, 43.39s/it]
['run_number', 'event_number', 'mc_sf', 'ntag', 'njets', 'kinematic_region', 'm_hh', 'pt_hh', 'X_wt', 'm_hh_cor', 'pT_h1', 'eta_h1', 'phi_h1', 'm_h1', 'dRjj_h1', 'pT_h2', 'eta_h2', 'phi_h2', 'm_h2', 'dRjj_h2', 'pT_2', 'pT_4', 'eta_i', 'dRjj_1', 'dRjj_2', 'cosThetaStar', 'cosTheta1', 'cosTheta2', 'Phi', 'Phi1', 'HT', 'MDR', 'MDpT', 'cut_deta_hh', 'cut_Xwt', 'ml_j0_pt', 'ml_j1_pt', 'ml_j2_pt', 'ml_j3_pt', 'ml_j4_pt', 'ml_j0_eta', 'ml_j1_eta', 'ml_j2_eta', 'ml_j3_eta', 'ml_j4_eta', 'ml_j0_phi', 'ml_j1_phi', 'ml_j2_phi', 'ml_j3_phi', 'ml_j4_phi', 'ml_j0_E', 'ml_j1_E', 'ml_j2_E', 'ml_j3_E', 'ml_j4_E', 'ml_j0_Db', 'ml_j1_Db', 'ml_j2_Db', 'ml_j3_Db', 'ml_j4_Db', 'idx_HC0_j0', 'idx_HC0_j1', 'idx_HC1_j0', 'idx_HC1_j1']
Scaling pt.
Scaling E.
Saving  /u/ki/nhartman/gpfs/diHiggs4b/data/data_16_PFlow-MAY2019-5jets/files/df_periodC_f_0.22_000011_entry_0_500000_scaledInputs.h5
Getting jet pts
Getting jet etas
Getting jet phis
Getting jet Es
Calculating Xwt
Calculating Xhh
run_number
event_number
mc_sf
ntag
njets
kinematic_region
m_hh
pt_hh
X_wt
m_hh_cor
pT_h1
eta_h1
phi_h1
m_h1
dRjj_h1
pT_h2
eta_h2
phi_h2
m_h2
dRjj_h2
pT_2
pT_4
eta_i
dRjj_1
dRjj_2
cosThetaStar
cosTheta1
cosTheta2
Phi
Phi1
HT
MDR
MDpT
cut_deta_hh
cut_Xwt
ml_j0_pt
ml_j1_pt
ml_j2_pt
ml_j3_pt
ml_j4_pt
ml_j0_eta
ml_j1_eta
ml_j2_eta
ml_j3_eta
ml_j4_eta
ml_j0_phi
ml_j1_phi
ml_j2_phi
ml_j3_phi
ml_j4_phi
ml_j0_E
ml_j1_E
ml_j2_E
ml_j3_E
ml_j4_E
ml_j0_Db
ml_j1_Db
ml_j2_Db
ml_j3_Db
ml_j4_Db
idx_HC0_j0
idx_HC0_j1
idx_HC1_j0
idx_HC1_j1
Scaling pt.
Scaling E.
Saving  /u/ki/nhartman/gpfs/diHiggs4b/data/data_16_PFlow-MAY2019-5jets/files/df_periodC_f_0.22_000003_entry_0_500000_scaledInputs.h5
Getting jet pts
Getting jet etas
Getting jet phis
Getting jet Es
Calculating Xwt
Calculating Xhh
run_number
event_number
mc_sf
ntag
njets
kinematic_region
m_hh
pt_hh
X_wt
m_hh_cor
pT_h1
eta_h1
phi_h1
m_h1
dRjj_h1
pT_h2
eta_h2
phi_h2
m_h2
dRjj_h2
pT_2
pT_4
eta_i
dRjj_1
dRjj_2
cosThetaStar
cosTheta1
cosTheta2
Phi
Phi1
HT
MDR
MDpT
cut_deta_hh
cut_Xwt
ml_j0_pt
ml_j1_pt
ml_j2_pt
ml_j3_pt
ml_j4_pt
ml_j0_eta
ml_j1_eta
ml_j2_eta
ml_j3_eta
ml_j4_eta
ml_j0_phi
ml_j1_phi
ml_j2_phi
ml_j3_phi
ml_j4_phi
ml_j0_E
ml_j1_E
ml_j2_E
ml_j3_E
ml_j4_E
ml_j0_Db
ml_j1_Db
ml_j2_Db
ml_j3_Db
ml_j4_Db
idx_HC0_j0
idx_HC0_j1
idx_HC1_j0
idx_HC1_j1
Scaling pt.
Scaling E.
Saving  /u/ki/nhartman/gpfs/diHiggs4b/data/data_16_PFlow-MAY2019-5jets/files/df_periodC_f_0.22_000011_entry_500000_1000000_scaledInputs.h5
Getting jet pts
Getting jet etas
Getting jet phis
Getting jet Es
Calculating Xwt
Calculating Xhh
run_number
event_number
mc_sf
ntag
njets
kinematic_region
m_hh
pt_hh
X_wt
m_hh_cor
pT_h1
eta_h1
phi_h1
m_h1
dRjj_h1
pT_h2
eta_h2
phi_h2
m_h2
dRjj_h2
pT_2
pT_4
eta_i
dRjj_1
dRjj_2
cosThetaStar
cosTheta1
cosTheta2
Phi
Phi1
HT
MDR
MDpT
cut_deta_hh
cut_Xwt
ml_j0_pt
ml_j1_pt
ml_j2_pt
ml_j3_pt
ml_j4_pt
ml_j0_eta
ml_j1_eta
ml_j2_eta
ml_j3_eta
ml_j4_eta
ml_j0_phi
ml_j1_phi
ml_j2_phi
ml_j3_phi
ml_j4_phi
ml_j0_E
ml_j1_E
ml_j2_E
ml_j3_E
ml_j4_E
ml_j0_Db
ml_j1_Db
ml_j2_Db
ml_j3_Db
ml_j4_Db
idx_HC0_j0
idx_HC0_j1
idx_HC1_j0
idx_HC1_j1
Scaling pt.
Scaling E.
Saving  /u/ki/nhartman/gpfs/diHiggs4b/data/data_16_PFlow-MAY2019-5jets/files/df_periodC_f_0.22_000010_entry_0_500000_scaledInputs.h5
Getting jet pts
Getting jet etas
Getting jet phis
Getting jet Es
Calculating Xwt
Calculating Xhh
run_number
event_number
mc_sf
ntag
njets
kinematic_region
m_hh
pt_hh
X_wt
m_hh_cor
pT_h1
eta_h1
phi_h1
m_h1
dRjj_h1
pT_h2
eta_h2
phi_h2
m_h2
dRjj_h2
pT_2
pT_4
eta_i
dRjj_1
dRjj_2
cosThetaStar
cosTheta1
cosTheta2
Phi
Phi1
HT
MDR
MDpT
cut_deta_hh
cut_Xwt
ml_j0_pt
ml_j1_pt
ml_j2_pt
ml_j3_pt
ml_j4_pt
ml_j0_eta
ml_j1_eta
ml_j2_eta
ml_j3_eta
ml_j4_eta
ml_j0_phi
ml_j1_phi
ml_j2_phi
ml_j3_phi
ml_j4_phi
ml_j0_E
ml_j1_E
ml_j2_E
ml_j3_E
ml_j4_E
ml_j0_Db
ml_j1_Db
ml_j2_Db
ml_j3_Db
ml_j4_Db
idx_HC0_j0
idx_HC0_j1
idx_HC1_j0
idx_HC1_j1
Scaling pt.
Scaling E.
Saving  /u/ki/nhartman/gpfs/diHiggs4b/data/data_16_PFlow-MAY2019-5jets/files/df_periodC_f_0.22_000009_entry_0_500000_scaledInputs.h5
Getting jet pts
Getting jet etas
Getting jet phis
Getting jet Es
Calculating Xwt
Calculating Xhh
run_number
event_number
mc_sf
ntag
njets
kinematic_region
m_hh
pt_hh
X_wt
m_hh_cor
pT_h1
eta_h1
phi_h1
m_h1
dRjj_h1
pT_h2
eta_h2
phi_h2
m_h2
dRjj_h2
pT_2
pT_4
eta_i
dRjj_1
dRjj_2
cosThetaStar
cosTheta1
cosTheta2
Phi
Phi1
HT
MDR
MDpT
cut_deta_hh
cut_Xwt
ml_j0_pt
ml_j1_pt
ml_j2_pt
ml_j3_pt
ml_j4_pt
ml_j0_eta
ml_j1_eta
ml_j2_eta
ml_j3_eta
ml_j4_eta
ml_j0_phi
ml_j1_phi
ml_j2_phi
ml_j3_phi
ml_j4_phi
ml_j0_E
ml_j1_E
ml_j2_E
ml_j3_E
ml_j4_E
ml_j0_Db
ml_j1_Db
ml_j2_Db
ml_j3_Db
ml_j4_Db
idx_HC0_j0
idx_HC0_j1
idx_HC1_j0
idx_HC1_j1
Scaling pt.
Scaling E.
Saving  /u/ki/nhartman/gpfs/diHiggs4b/data/data_16_PFlow-MAY2019-5jets/files/df_periodC_f_0.22_000014_entry_0_500000_scaledInputs.h5
Getting jet pts
Getting jet etas
Getting jet phis
Getting jet Es
Calculating Xwt
Calculating Xhh
run_number
event_number
mc_sf
ntag
njets
kinematic_region
m_hh
pt_hh
X_wt
m_hh_cor
pT_h1
eta_h1
phi_h1
m_h1
dRjj_h1
pT_h2
eta_h2
phi_h2
m_h2
dRjj_h2
pT_2
pT_4
eta_i
dRjj_1
dRjj_2
cosThetaStar
cosTheta1
cosTheta2
Phi
Phi1
HT
MDR
MDpT
cut_deta_hh
cut_Xwt
ml_j0_pt
ml_j1_pt
ml_j2_pt
ml_j3_pt
ml_j4_pt
ml_j0_eta
ml_j1_eta
ml_j2_eta
ml_j3_eta
ml_j4_eta
ml_j0_phi
ml_j1_phi
ml_j2_phi
ml_j3_phi
ml_j4_phi
ml_j0_E
ml_j1_E
ml_j2_E
ml_j3_E
ml_j4_E
ml_j0_Db
ml_j1_Db
ml_j2_Db
ml_j3_Db
ml_j4_Db
idx_HC0_j0
idx_HC0_j1
idx_HC1_j0
idx_HC1_j1
Scaling pt.
Scaling E.
Saving  /u/ki/nhartman/gpfs/diHiggs4b/data/data_16_PFlow-MAY2019-5jets/files/df_periodC_f_0.22_000024_entry_0_500000_scaledInputs.h5
Getting jet pts
Getting jet etas
Getting jet phis
Getting jet Es
Calculating Xwt
Calculating Xhh
run_number
event_number
mc_sf
ntag
njets
kinematic_region
m_hh
pt_hh
X_wt
m_hh_cor
pT_h1
eta_h1
phi_h1
m_h1
dRjj_h1
pT_h2
eta_h2
phi_h2
m_h2
dRjj_h2
pT_2
pT_4
eta_i
dRjj_1
dRjj_2
cosThetaStar
cosTheta1
cosTheta2
Phi
Phi1
HT
MDR
MDpT
cut_deta_hh
cut_Xwt
ml_j0_pt
ml_j1_pt
ml_j2_pt
ml_j3_pt
ml_j4_pt
ml_j0_eta
ml_j1_eta
ml_j2_eta
ml_j3_eta
ml_j4_eta
ml_j0_phi
ml_j1_phi
ml_j2_phi
ml_j3_phi
ml_j4_phi
ml_j0_E
ml_j1_E
ml_j2_E
ml_j3_E
ml_j4_E
ml_j0_Db
ml_j1_Db
ml_j2_Db
ml_j3_Db
ml_j4_Db
idx_HC0_j0
idx_HC0_j1
idx_HC1_j0
idx_HC1_j1
Scaling pt.
Scaling E.
Saving  /u/ki/nhartman/gpfs/diHiggs4b/data/data_16_PFlow-MAY2019-5jets/files/df_periodC_f_0.22_000013_entry_500000_1000000_scaledInputs.h5
Getting jet pts
Getting jet etas
Getting jet phis
Getting jet Es
Calculating Xwt
Calculating Xhh
run_number
event_number
mc_sf
ntag
njets
kinematic_region
m_hh
pt_hh
X_wt
m_hh_cor
pT_h1
eta_h1
phi_h1
m_h1
dRjj_h1
pT_h2
eta_h2
phi_h2
m_h2
dRjj_h2
pT_2
pT_4
eta_i
dRjj_1
dRjj_2
cosThetaStar
cosTheta1
cosTheta2
Phi
Phi1
HT
MDR
MDpT
cut_deta_hh
cut_Xwt
ml_j0_pt
ml_j1_pt
ml_j2_pt
ml_j3_pt
ml_j4_pt
ml_j0_eta
ml_j1_eta
ml_j2_eta
ml_j3_eta
ml_j4_eta
ml_j0_phi
ml_j1_phi
ml_j2_phi
ml_j3_phi
ml_j4_phi
ml_j0_E
ml_j1_E
ml_j2_E
ml_j3_E
ml_j4_E
ml_j0_Db
ml_j1_Db
ml_j2_Db
ml_j3_Db
ml_j4_Db
idx_HC0_j0
idx_HC0_j1
idx_HC1_j0
idx_HC1_j1
Scaling pt.
Scaling E.
Saving  /u/ki/nhartman/gpfs/diHiggs4b/data/data_16_PFlow-MAY2019-5jets/files/df_periodC_f_0.22_000023_entry_0_500000_scaledInputs.h5
Getting jet pts
Getting jet etas
Getting jet phis
Getting jet Es
Calculating Xwt
Calculating Xhh
run_number
event_number
mc_sf
ntag
njets
kinematic_region
m_hh
pt_hh
X_wt
m_hh_cor
pT_h1
eta_h1
phi_h1
m_h1
dRjj_h1
pT_h2
eta_h2
phi_h2
m_h2
dRjj_h2
pT_2
pT_4
eta_i
dRjj_1
dRjj_2
cosThetaStar
cosTheta1
cosTheta2
Phi
Phi1
HT
MDR
MDpT
cut_deta_hh
cut_Xwt
ml_j0_pt
ml_j1_pt
ml_j2_pt
ml_j3_pt
ml_j4_pt
ml_j0_eta
ml_j1_eta
ml_j2_eta
ml_j3_eta
ml_j4_eta
ml_j0_phi
ml_j1_phi
ml_j2_phi
ml_j3_phi
ml_j4_phi
ml_j0_E
ml_j1_E
ml_j2_E
ml_j3_E
ml_j4_E
ml_j0_Db
ml_j1_Db
ml_j2_Db
ml_j3_Db
ml_j4_Db
idx_HC0_j0
idx_HC0_j1
idx_HC1_j0
idx_HC1_j1
Scaling pt.
Scaling E.
Saving  /u/ki/nhartman/gpfs/diHiggs4b/data/data_16_PFlow-MAY2019-5jets/files/df_periodC_f_0.22_000005_entry_0_500000_scaledInputs.h5
Getting jet pts
Getting jet etas
Getting jet phis
Getting jet Es
Calculating Xwt
Calculating Xhh
run_number
event_number
mc_sf
ntag
njets
kinematic_region
m_hh
pt_hh
X_wt
m_hh_cor
pT_h1
eta_h1
phi_h1
m_h1
dRjj_h1
pT_h2
eta_h2
phi_h2
m_h2
dRjj_h2
pT_2
pT_4
eta_i
dRjj_1
dRjj_2
cosThetaStar
cosTheta1
cosTheta2
Phi
Phi1
HT
MDR
MDpT
cut_deta_hh
cut_Xwt
ml_j0_pt
ml_j1_pt
ml_j2_pt
ml_j3_pt
ml_j4_pt
ml_j0_eta
ml_j1_eta
ml_j2_eta
ml_j3_eta
ml_j4_eta
ml_j0_phi
ml_j1_phi
ml_j2_phi
ml_j3_phi
ml_j4_phi
ml_j0_E
ml_j1_E
ml_j2_E
ml_j3_E
ml_j4_E
ml_j0_Db
ml_j1_Db
ml_j2_Db
ml_j3_Db
ml_j4_Db
idx_HC0_j0
idx_HC0_j1
idx_HC1_j0
idx_HC1_j1
Scaling pt.
Scaling E.
Saving  /u/ki/nhartman/gpfs/diHiggs4b/data/data_16_PFlow-MAY2019-5jets/files/df_periodC_f_0.22_000016_entry_0_500000_scaledInputs.h5
Getting jet pts
Getting jet etas
Getting jet phis
Getting jet Es
Calculating Xwt
Calculating Xhh
run_number
event_number
mc_sf
ntag
njets
kinematic_region
m_hh
pt_hh
X_wt
m_hh_cor
pT_h1
eta_h1
phi_h1
m_h1
dRjj_h1
pT_h2
eta_h2
phi_h2
m_h2
dRjj_h2
pT_2
pT_4
eta_i
dRjj_1
dRjj_2
cosThetaStar
cosTheta1
cosTheta2
Phi
Phi1
HT
MDR
MDpT
cut_deta_hh
cut_Xwt
ml_j0_pt
ml_j1_pt
ml_j2_pt
ml_j3_pt
ml_j4_pt
ml_j0_eta
ml_j1_eta
ml_j2_eta
ml_j3_eta
ml_j4_eta
ml_j0_phi
ml_j1_phi
ml_j2_phi
ml_j3_phi
ml_j4_phi
ml_j0_E
ml_j1_E
ml_j2_E
ml_j3_E
ml_j4_E
ml_j0_Db
ml_j1_Db
ml_j2_Db
ml_j3_Db
ml_j4_Db
idx_HC0_j0
idx_HC0_j1
idx_HC1_j0
idx_HC1_j1
Scaling pt.
Scaling E.
Saving  /u/ki/nhartman/gpfs/diHiggs4b/data/data_16_PFlow-MAY2019-5jets/files/df_periodC_f_0.22_000003_entry_500000_1000000_scaledInputs.h5
Getting jet pts
Getting jet etas
Getting jet phis
Getting jet Es
Calculating Xwt
Calculating Xhh
run_number
event_number
mc_sf
ntag
njets
kinematic_region
m_hh
pt_hh
X_wt
m_hh_cor
pT_h1
eta_h1
phi_h1
m_h1
dRjj_h1
pT_h2
eta_h2
phi_h2
m_h2
dRjj_h2
pT_2
pT_4
eta_i
dRjj_1
dRjj_2
cosThetaStar
cosTheta1
cosTheta2
Phi
Phi1
HT
MDR
MDpT
cut_deta_hh
cut_Xwt
ml_j0_pt
ml_j1_pt
ml_j2_pt
ml_j3_pt
ml_j4_pt
ml_j0_eta
ml_j1_eta
ml_j2_eta
ml_j3_eta
ml_j4_eta
ml_j0_phi
ml_j1_phi
ml_j2_phi
ml_j3_phi
ml_j4_phi
ml_j0_E
ml_j1_E
ml_j2_E
ml_j3_E
ml_j4_E
ml_j0_Db
ml_j1_Db
ml_j2_Db
ml_j3_Db
ml_j4_Db
idx_HC0_j0
idx_HC0_j1
idx_HC1_j0
idx_HC1_j1
Scaling pt.
Scaling E.
Saving  /u/ki/nhartman/gpfs/diHiggs4b/data/data_16_PFlow-MAY2019-5jets/files/df_periodC_f_0.22_000017_entry_500000_1000000_scaledInputs.h5
Getting jet pts
Getting jet etas
Getting jet phis
Getting jet Es
Calculating Xwt
Calculating Xhh
run_number
event_number
mc_sf
ntag
njets
kinematic_region
m_hh
pt_hh
X_wt
m_hh_cor
pT_h1
eta_h1
phi_h1
m_h1
dRjj_h1
pT_h2
eta_h2
phi_h2
m_h2
dRjj_h2
pT_2
pT_4
eta_i
dRjj_1
dRjj_2
cosThetaStar
cosTheta1
cosTheta2
Phi
Phi1
HT
MDR
MDpT
cut_deta_hh
cut_Xwt
ml_j0_pt
ml_j1_pt
ml_j2_pt
ml_j3_pt
ml_j4_pt
ml_j0_eta
ml_j1_eta
ml_j2_eta
ml_j3_eta
ml_j4_eta
ml_j0_phi
ml_j1_phi
ml_j2_phi
ml_j3_phi
ml_j4_phi
ml_j0_E
ml_j1_E
ml_j2_E
ml_j3_E
ml_j4_E
ml_j0_Db
ml_j1_Db
ml_j2_Db
ml_j3_Db
ml_j4_Db
idx_HC0_j0
idx_HC0_j1
idx_HC1_j0
idx_HC1_j1
Scaling pt.
Scaling E.
Saving  /u/ki/nhartman/gpfs/diHiggs4b/data/data_16_PFlow-MAY2019-5jets/files/df_periodC_f_0.22_000017_entry_0_500000_scaledInputs.h5
Getting jet pts
Getting jet etas
Getting jet phis
Getting jet Es
Calculating Xwt
Calculating Xhh
run_number
event_number
mc_sf
ntag
njets
kinematic_region
m_hh
pt_hh
X_wt
m_hh_cor
pT_h1
eta_h1
phi_h1
m_h1
dRjj_h1
pT_h2
eta_h2
phi_h2
m_h2
dRjj_h2
pT_2
pT_4
eta_i
dRjj_1
dRjj_2
cosThetaStar
cosTheta1
cosTheta2
Phi
Phi1
HT
MDR
MDpT
cut_deta_hh
cut_Xwt
ml_j0_pt
ml_j1_pt
ml_j2_pt
ml_j3_pt
ml_j4_pt
ml_j0_eta
ml_j1_eta
ml_j2_eta
ml_j3_eta
ml_j4_eta
ml_j0_phi
ml_j1_phi
ml_j2_phi
ml_j3_phi
ml_j4_phi
ml_j0_E
ml_j1_E
ml_j2_E
ml_j3_E
ml_j4_E
ml_j0_Db
ml_j1_Db
ml_j2_Db
ml_j3_Db
ml_j4_Db
idx_HC0_j0
idx_HC0_j1
idx_HC1_j0
idx_HC1_j1
Scaling pt.
Scaling E.
Saving  /u/ki/nhartman/gpfs/diHiggs4b/data/data_16_PFlow-MAY2019-5jets/files/df_periodC_f_0.22_000022_entry_0_500000_scaledInputs.h5
Getting jet pts
Getting jet etas
Getting jet phis
Getting jet Es
Calculating Xwt
Calculating Xhh
run_number
event_number
mc_sf
ntag
njets
kinematic_region
m_hh
pt_hh
X_wt
m_hh_cor
pT_h1
eta_h1
phi_h1
m_h1
dRjj_h1
pT_h2
eta_h2
phi_h2
m_h2
dRjj_h2
pT_2
pT_4
eta_i
dRjj_1
dRjj_2
cosThetaStar
cosTheta1
cosTheta2
Phi
Phi1
HT
MDR
MDpT
cut_deta_hh
cut_Xwt
ml_j0_pt
ml_j1_pt
ml_j2_pt
ml_j3_pt
ml_j4_pt
ml_j0_eta
ml_j1_eta
ml_j2_eta
ml_j3_eta
ml_j4_eta
ml_j0_phi
ml_j1_phi
ml_j2_phi
ml_j3_phi
ml_j4_phi
ml_j0_E
ml_j1_E
ml_j2_E
ml_j3_E
ml_j4_E
ml_j0_Db
ml_j1_Db
ml_j2_Db
ml_j3_Db
ml_j4_Db
idx_HC0_j0
idx_HC0_j1
idx_HC1_j0
idx_HC1_j1
Scaling pt.
Scaling E.
Saving  /u/ki/nhartman/gpfs/diHiggs4b/data/data_16_PFlow-MAY2019-5jets/files/df_periodC_f_0.22_000019_entry_0_500000_scaledInputs.h5
Getting jet pts
Getting jet etas
Getting jet phis
Getting jet Es
Calculating Xwt
Calculating Xhh
run_number
event_number
mc_sf
ntag
njets
kinematic_region
m_hh
pt_hh
X_wt
m_hh_cor
pT_h1
eta_h1
phi_h1
m_h1
dRjj_h1
pT_h2
eta_h2
phi_h2
m_h2
dRjj_h2
pT_2
pT_4
eta_i
dRjj_1
dRjj_2
cosThetaStar
cosTheta1
cosTheta2
Phi
Phi1
HT
MDR
MDpT
cut_deta_hh
cut_Xwt
ml_j0_pt
ml_j1_pt
ml_j2_pt
ml_j3_pt
ml_j4_pt
ml_j0_eta
ml_j1_eta
ml_j2_eta
ml_j3_eta
ml_j4_eta
ml_j0_phi
ml_j1_phi
ml_j2_phi
ml_j3_phi
ml_j4_phi
ml_j0_E
ml_j1_E
ml_j2_E
ml_j3_E
ml_j4_E
ml_j0_Db
ml_j1_Db
ml_j2_Db
ml_j3_Db
ml_j4_Db
idx_HC0_j0
idx_HC0_j1
idx_HC1_j0
idx_HC1_j1
Scaling pt.
Scaling E.
Saving  /u/ki/nhartman/gpfs/diHiggs4b/data/data_16_PFlow-MAY2019-5jets/files/df_periodC_f_0.22_000018_entry_0_500000_scaledInputs.h5
Getting jet pts
Getting jet etas
Getting jet phis
Getting jet Es
Calculating Xwt
Calculating Xhh
run_number
event_number
mc_sf
ntag
njets
kinematic_region
m_hh
pt_hh
X_wt
m_hh_cor
pT_h1
eta_h1
phi_h1
m_h1
dRjj_h1
pT_h2
eta_h2
phi_h2
m_h2
dRjj_h2
pT_2
pT_4
eta_i
dRjj_1
dRjj_2
cosThetaStar
cosTheta1
cosTheta2
Phi
Phi1
HT
MDR
MDpT
cut_deta_hh
cut_Xwt
ml_j0_pt
ml_j1_pt
ml_j2_pt
ml_j3_pt
ml_j4_pt
ml_j0_eta
ml_j1_eta
ml_j2_eta
ml_j3_eta
ml_j4_eta
ml_j0_phi
ml_j1_phi
ml_j2_phi
ml_j3_phi
ml_j4_phi
ml_j0_E
ml_j1_E
ml_j2_E
ml_j3_E
ml_j4_E
ml_j0_Db
ml_j1_Db
ml_j2_Db
ml_j3_Db
ml_j4_Db
idx_HC0_j0
idx_HC0_j1
idx_HC1_j0
idx_HC1_j1
Scaling pt.
Scaling E.
Saving  /u/ki/nhartman/gpfs/diHiggs4b/data/data_16_PFlow-MAY2019-5jets/files/df_periodC_f_0.22_000008_entry_0_500000_scaledInputs.h5
Getting jet pts
Getting jet etas
Getting jet phis
Getting jet Es
Calculating Xwt
Calculating Xhh
run_number
event_number
mc_sf
ntag
njets
kinematic_region
m_hh
pt_hh
X_wt
m_hh_cor
pT_h1
eta_h1
phi_h1
m_h1
dRjj_h1
pT_h2
eta_h2
phi_h2
m_h2
dRjj_h2
pT_2
pT_4
eta_i
dRjj_1
dRjj_2
cosThetaStar
cosTheta1
cosTheta2
Phi
Phi1
HT
MDR
MDpT
cut_deta_hh
cut_Xwt
ml_j0_pt
ml_j1_pt
ml_j2_pt
ml_j3_pt
ml_j4_pt
ml_j0_eta
ml_j1_eta
ml_j2_eta
ml_j3_eta
ml_j4_eta
ml_j0_phi
ml_j1_phi
ml_j2_phi
ml_j3_phi
ml_j4_phi
ml_j0_E
ml_j1_E
ml_j2_E
ml_j3_E
ml_j4_E
ml_j0_Db
ml_j1_Db
ml_j2_Db
ml_j3_Db
ml_j4_Db
idx_HC0_j0
idx_HC0_j1
idx_HC1_j0
idx_HC1_j1
Scaling pt.
Scaling E.
Saving  /u/ki/nhartman/gpfs/diHiggs4b/data/data_16_PFlow-MAY2019-5jets/files/df_periodC_f_0.22_000012_entry_0_500000_scaledInputs.h5
Getting jet pts
Getting jet etas
Getting jet phis
Getting jet Es
Calculating Xwt
Calculating Xhh
run_number
event_number
mc_sf
ntag
njets
kinematic_region
m_hh
pt_hh
X_wt
m_hh_cor
pT_h1
eta_h1
phi_h1
m_h1
dRjj_h1
pT_h2
eta_h2
phi_h2
m_h2
dRjj_h2
pT_2
pT_4
eta_i
dRjj_1
dRjj_2
cosThetaStar
cosTheta1
cosTheta2
Phi
Phi1
HT
MDR
MDpT
cut_deta_hh
cut_Xwt
ml_j0_pt
ml_j1_pt
ml_j2_pt
ml_j3_pt
ml_j4_pt
ml_j0_eta
ml_j1_eta
ml_j2_eta
ml_j3_eta
ml_j4_eta
ml_j0_phi
ml_j1_phi
ml_j2_phi
ml_j3_phi
ml_j4_phi
ml_j0_E
ml_j1_E
ml_j2_E
ml_j3_E
ml_j4_E
ml_j0_Db
ml_j1_Db
ml_j2_Db
ml_j3_Db
ml_j4_Db
idx_HC0_j0
idx_HC0_j1
idx_HC1_j0
idx_HC1_j1
Scaling pt.
Scaling E.
Saving  /u/ki/nhartman/gpfs/diHiggs4b/data/data_16_PFlow-MAY2019-5jets/files/df_periodC_f_0.22_000025_entry_0_500000_scaledInputs.h5
Getting jet pts
Getting jet etas
Getting jet phis
Getting jet Es
Calculating Xwt
Calculating Xhh
run_number
event_number
mc_sf
ntag
njets
kinematic_region
m_hh
pt_hh
X_wt
m_hh_cor
pT_h1
eta_h1
phi_h1
m_h1
dRjj_h1
pT_h2
eta_h2
phi_h2
m_h2
dRjj_h2
pT_2
pT_4
eta_i
dRjj_1
dRjj_2
cosThetaStar
cosTheta1
cosTheta2
Phi
Phi1
HT
MDR
MDpT
cut_deta_hh
cut_Xwt
ml_j0_pt
ml_j1_pt
ml_j2_pt
ml_j3_pt
ml_j4_pt
ml_j0_eta
ml_j1_eta
ml_j2_eta
ml_j3_eta
ml_j4_eta
ml_j0_phi
ml_j1_phi
ml_j2_phi
ml_j3_phi
ml_j4_phi
ml_j0_E
ml_j1_E
ml_j2_E
ml_j3_E
ml_j4_E
ml_j0_Db
ml_j1_Db
ml_j2_Db
ml_j3_Db
ml_j4_Db
idx_HC0_j0
idx_HC0_j1
idx_HC1_j0
idx_HC1_j1
Scaling pt.
Scaling E.
Saving  /u/ki/nhartman/gpfs/diHiggs4b/data/data_16_PFlow-MAY2019-5jets/files/df_periodC_f_0.22_000006_entry_0_500000_scaledInputs.h5
Getting jet pts
Getting jet etas
Getting jet phis
Getting jet Es
Calculating Xwt
Calculating Xhh
run_number
event_number
mc_sf
ntag
njets
kinematic_region
m_hh
pt_hh
X_wt
m_hh_cor
pT_h1
eta_h1
phi_h1
m_h1
dRjj_h1
pT_h2
eta_h2
phi_h2
m_h2
dRjj_h2
pT_2
pT_4
eta_i
dRjj_1
dRjj_2
cosThetaStar
cosTheta1
cosTheta2
Phi
Phi1
HT
MDR
MDpT
cut_deta_hh
cut_Xwt
ml_j0_pt
ml_j1_pt
ml_j2_pt
ml_j3_pt
ml_j4_pt
ml_j0_eta
ml_j1_eta
ml_j2_eta
ml_j3_eta
ml_j4_eta
ml_j0_phi
ml_j1_phi
ml_j2_phi
ml_j3_phi
ml_j4_phi
ml_j0_E
ml_j1_E
ml_j2_E
ml_j3_E
ml_j4_E
ml_j0_Db
ml_j1_Db
ml_j2_Db
ml_j3_Db
ml_j4_Db
idx_HC0_j0
idx_HC0_j1
idx_HC1_j0
idx_HC1_j1
Scaling pt.
Scaling E.
Saving  /u/ki/nhartman/gpfs/diHiggs4b/data/data_16_PFlow-MAY2019-5jets/files/df_periodC_f_0.22_000015_entry_500000_1000000_scaledInputs.h5
Getting jet pts
Getting jet etas
Getting jet phis
Getting jet Es
Calculating Xwt
Calculating Xhh
run_number
event_number
mc_sf
ntag
njets
kinematic_region
m_hh
pt_hh
X_wt
m_hh_cor
pT_h1
eta_h1
phi_h1
m_h1
dRjj_h1
pT_h2
eta_h2
phi_h2
m_h2
dRjj_h2
pT_2
pT_4
eta_i
dRjj_1
dRjj_2
cosThetaStar
cosTheta1
cosTheta2
Phi
Phi1
HT
MDR
MDpT
cut_deta_hh
cut_Xwt
ml_j0_pt
ml_j1_pt
ml_j2_pt
ml_j3_pt
ml_j4_pt
ml_j0_eta
ml_j1_eta
ml_j2_eta
ml_j3_eta
ml_j4_eta
ml_j0_phi
ml_j1_phi
ml_j2_phi
ml_j3_phi
ml_j4_phi
ml_j0_E
ml_j1_E
ml_j2_E
ml_j3_E
ml_j4_E
ml_j0_Db
ml_j1_Db
ml_j2_Db
ml_j3_Db
ml_j4_Db
idx_HC0_j0
idx_HC0_j1
idx_HC1_j0
idx_HC1_j1
Scaling pt.
Scaling E.
Saving  /u/ki/nhartman/gpfs/diHiggs4b/data/data_16_PFlow-MAY2019-5jets/files/df_periodC_f_0.22_000001_entry_0_500000_scaledInputs.h5
Getting jet pts
Getting jet etas
Getting jet phis
Getting jet Es
Calculating Xwt
Calculating Xhh
run_number
event_number
mc_sf
ntag
njets
kinematic_region
m_hh
pt_hh
X_wt
m_hh_cor
pT_h1
eta_h1
phi_h1
m_h1
dRjj_h1
pT_h2
eta_h2
phi_h2
m_h2
dRjj_h2
pT_2
pT_4
eta_i
dRjj_1
dRjj_2
cosThetaStar
cosTheta1
cosTheta2
Phi
Phi1
HT
MDR
MDpT
cut_deta_hh
cut_Xwt
ml_j0_pt
ml_j1_pt
ml_j2_pt
ml_j3_pt
ml_j4_pt
ml_j0_eta
ml_j1_eta
ml_j2_eta
ml_j3_eta
ml_j4_eta
ml_j0_phi
ml_j1_phi
ml_j2_phi
ml_j3_phi
ml_j4_phi
ml_j0_E
ml_j1_E
ml_j2_E
ml_j3_E
ml_j4_E
ml_j0_Db
ml_j1_Db
ml_j2_Db
ml_j3_Db
ml_j4_Db
idx_HC0_j0
idx_HC0_j1
idx_HC1_j0
idx_HC1_j1
Scaling pt.
Scaling E.
Saving  /u/ki/nhartman/gpfs/diHiggs4b/data/data_16_PFlow-MAY2019-5jets/files/df_periodC_f_0.22_000020_entry_0_500000_scaledInputs.h5
Getting jet pts
Getting jet etas
Getting jet phis
Getting jet Es
Calculating Xwt
Calculating Xhh
run_number
event_number
mc_sf
ntag
njets
kinematic_region
m_hh
pt_hh
X_wt
m_hh_cor
pT_h1
eta_h1
phi_h1
m_h1
dRjj_h1
pT_h2
eta_h2
phi_h2
m_h2
dRjj_h2
pT_2
pT_4
eta_i
dRjj_1
dRjj_2
cosThetaStar
cosTheta1
cosTheta2
Phi
Phi1
HT
MDR
MDpT
cut_deta_hh
cut_Xwt
ml_j0_pt
ml_j1_pt
ml_j2_pt
ml_j3_pt
ml_j4_pt
ml_j0_eta
ml_j1_eta
ml_j2_eta
ml_j3_eta
ml_j4_eta
ml_j0_phi
ml_j1_phi
ml_j2_phi
ml_j3_phi
ml_j4_phi
ml_j0_E
ml_j1_E
ml_j2_E
ml_j3_E
ml_j4_E
ml_j0_Db
ml_j1_Db
ml_j2_Db
ml_j3_Db
ml_j4_Db
idx_HC0_j0
idx_HC0_j1
idx_HC1_j0
idx_HC1_j1
Scaling pt.
Scaling E.
Saving  /u/ki/nhartman/gpfs/diHiggs4b/data/data_16_PFlow-MAY2019-5jets/files/df_periodC_f_0.22_000004_entry_500000_1000000_scaledInputs.h5
Getting jet pts
Getting jet etas
Getting jet phis
Getting jet Es
Calculating Xwt
Calculating Xhh
run_number
event_number
mc_sf
ntag
njets
kinematic_region
m_hh
pt_hh
X_wt
m_hh_cor
pT_h1
eta_h1
phi_h1
m_h1
dRjj_h1
pT_h2
eta_h2
phi_h2
m_h2
dRjj_h2
pT_2
pT_4
eta_i
dRjj_1
dRjj_2
cosThetaStar
cosTheta1
cosTheta2
Phi
Phi1
HT
MDR
MDpT
cut_deta_hh
cut_Xwt
ml_j0_pt
ml_j1_pt
ml_j2_pt
ml_j3_pt
ml_j4_pt
ml_j0_eta
ml_j1_eta
ml_j2_eta
ml_j3_eta
ml_j4_eta
ml_j0_phi
ml_j1_phi
ml_j2_phi
ml_j3_phi
ml_j4_phi
ml_j0_E
ml_j1_E
ml_j2_E
ml_j3_E
ml_j4_E
ml_j0_Db
ml_j1_Db
ml_j2_Db
ml_j3_Db
ml_j4_Db
idx_HC0_j0
idx_HC0_j1
idx_HC1_j0
idx_HC1_j1
Scaling pt.
Scaling E.
Saving  /u/ki/nhartman/gpfs/diHiggs4b/data/data_16_PFlow-MAY2019-5jets/files/df_periodC_f_0.22_000002_entry_0_500000_scaledInputs.h5
Getting jet pts
Getting jet etas
Getting jet phis
Getting jet Es
Calculating Xwt
Calculating Xhh
run_number
event_number
mc_sf
ntag
njets
kinematic_region
m_hh
pt_hh
X_wt
m_hh_cor
pT_h1
eta_h1
phi_h1
m_h1
dRjj_h1
pT_h2
eta_h2
phi_h2
m_h2
dRjj_h2
pT_2
pT_4
eta_i
dRjj_1
dRjj_2
cosThetaStar
cosTheta1
cosTheta2
Phi
Phi1
HT
MDR
MDpT
cut_deta_hh
cut_Xwt
ml_j0_pt
ml_j1_pt
ml_j2_pt
ml_j3_pt
ml_j4_pt
ml_j0_eta
ml_j1_eta
ml_j2_eta
ml_j3_eta
ml_j4_eta
ml_j0_phi
ml_j1_phi
ml_j2_phi
ml_j3_phi
ml_j4_phi
ml_j0_E
ml_j1_E
ml_j2_E
ml_j3_E
ml_j4_E
ml_j0_Db
ml_j1_Db
ml_j2_Db
ml_j3_Db
ml_j4_Db
idx_HC0_j0
idx_HC0_j1
idx_HC1_j0
idx_HC1_j1
Saving /u/ki/nhartman/gpfs/diHiggs4b/data/data_16_PFlow-MAY2019-5jets/files/df_periodC_f_0.22_mlJetInputs.h5

------------------------------------------------------------
Sender: LSF System <lsf@atlprf05>
Subject: Job 976713: <data_16_PFlow-MAY2019-5jets_periodC_-1b_all_jetInputs> in cluster <slac> Done

Job <data_16_PFlow-MAY2019-5jets_periodC_-1b_all_jetInputs> was submitted from host <cent7d> by user <nhartman> in cluster <slac> at Fri Feb  7 13:17:47 2020
Job was executed on host(s) <atlprf05>, in queue <atlas-t3>, as user <nhartman> in cluster <slac> at Fri Feb  7 13:17:52 2020
</u/ki/nhartman> was used as the home directory.
</u/ki/nhartman/gpfs/diHiggs4b> was used as the working directory.
Started at Fri Feb  7 13:17:52 2020
Terminated at Fri Feb  7 13:36:59 2020
Results reported at Fri Feb  7 13:36:59 2020

Your job looked like:

------------------------------------------------------------
# LSBATCH: User input
singularity exec docker://gitlab-registry.cern.ch/hartman/ml-gpu/ml-gpu:latest ./tmp_data_16_PFlow-MAY2019-5jets_periodC_-1b_all_jetInputs.sh
------------------------------------------------------------

Successfully completed.

Resource usage summary:

    CPU time :                                   1029.56 sec.
    Max Memory :                                 5466 MB
    Average Memory :                             2744.71 MB
    Total Requested Memory :                     -
    Delta Memory :                               -
    Max Swap :                                   8046 MB
    Max Processes :                              5
    Max Threads :                                30
    Run time :                                   1147 sec.
    Turnaround time :                            1152 sec.

The output (if any) is above this job summary.

