time="2020-02-12T01:15:21-08:00" level=warning msg="\"/run/user/14660\" directory set by $XDG_RUNTIME_DIR does not exist. Either create the directory or unset $XDG_RUNTIME_DIR.: stat /run/user/14660: no such file or directory: Trying to pull image in the event that it is a public image."
df_f_0.22_2b.h5
df_f_0.22_2b_SB_rw_vars.h5
df_f_0.22_3b.h5
df_f_0.22_4b_SB_rw_vars.h5
df_f_0.22_NNT_HCs.h5
df_f_0.22_PT_2b.h5
df_f_0.22_fullmassplane.h5
df_f_0.22_mlJetInputs.h5
df_f_0.22_rw_vars.h5
df_periodABCDEFG_f_0.22_fullmassplane.h5
df_periodABC_f_0.22_fullmassplane.h5
files
old_files
  0%|          | 0/22 [00:00<?, ?it/s]/opt/conda/lib/python3.6/site-packages/pandas/core/generic.py:2505: PerformanceWarning: 
your performance may suffer as PyTables will pickle object types that it cannot
map directly to c-types [inferred_type->mixed,key->block4_values] [items->Index(['passedTriggerHashes', 'resolvedJets_E', 'resolvedJets_pt',
       'resolvedJets_phi', 'resolvedJets_eta', 'resolvedJets_MV2c10',
       'resolvedJets_is_MV2c10_FixedCutBEff_70', 'muon_pt', 'muon_eta',
       'muon_phi', 'muon_m', 'muon_EnergyLoss'],
      dtype='object')]

  encoding=encoding,
  5%|4         | 1/22 [00:27<09:39, 27.57s/it]  9%|9         | 2/22 [00:46<08:17, 24.88s/it] 14%|#3        | 3/22 [01:53<11:55, 37.64s/it] 18%|#8        | 4/22 [01:56<08:09, 27.21s/it] 23%|##2       | 5/22 [02:53<10:14, 36.12s/it] 27%|##7       | 6/22 [03:09<08:00, 30.04s/it] 32%|###1      | 7/22 [03:13<05:36, 22.42s/it] 36%|###6      | 8/22 [03:50<06:12, 26.61s/it] 41%|####      | 9/22 [03:51<04:07, 19.02s/it] 45%|####5     | 10/22 [04:10<03:48, 19.03s/it] 50%|#####     | 11/22 [05:01<05:15, 28.65s/it] 55%|#####4    | 12/22 [06:02<06:22, 38.24s/it] 59%|#####9    | 13/22 [06:30<05:16, 35.19s/it] 64%|######3   | 14/22 [06:44<03:52, 29.01s/it] 68%|######8   | 15/22 [07:23<03:43, 31.94s/it] 73%|#######2  | 16/22 [08:17<03:51, 38.61s/it] 77%|#######7  | 17/22 [09:31<04:04, 49.00s/it] 82%|########1 | 18/22 [10:27<03:25, 51.29s/it] 86%|########6 | 19/22 [11:40<02:53, 57.84s/it] 91%|######### | 20/22 [12:01<01:33, 46.61s/it] 95%|#########5| 21/22 [12:07<00:34, 34.51s/it]100%|##########| 22/22 [12:48<00:00, 36.41s/it]100%|##########| 22/22 [12:48<00:00, 34.93s/it]
Scaling pt.
Scaling E.
Saving  /u/ki/nhartman/gpfs/diHiggs4b/data/data_16_PFlow-MAY2019-5jets/files/df_periodF_f_0.22_000024_entry_0_500000_scaledInputs.h5
Getting jet pts
Getting jet etas
Getting jet phis
Getting jet Es
Calculating Xwt
Calculating Xhh
Scaling pt.
Scaling E.
Saving  /u/ki/nhartman/gpfs/diHiggs4b/data/data_16_PFlow-MAY2019-5jets/files/df_periodF_f_0.22_000012_entry_500000_1000000_scaledInputs.h5
Getting jet pts
Getting jet etas
Getting jet phis
Getting jet Es
Calculating Xwt
Calculating Xhh
Scaling pt.
Scaling E.
Saving  /u/ki/nhartman/gpfs/diHiggs4b/data/data_16_PFlow-MAY2019-5jets/files/df_periodF_f_0.22_000002_entry_0_500000_scaledInputs.h5
Getting jet pts
Getting jet etas
Getting jet phis
Getting jet Es
Calculating Xwt
Calculating Xhh
Scaling pt.
Scaling E.
Saving  /u/ki/nhartman/gpfs/diHiggs4b/data/data_16_PFlow-MAY2019-5jets/files/df_periodF_f_0.22_000004_entry_0_500000_scaledInputs.h5
Getting jet pts
Getting jet etas
Getting jet phis
Getting jet Es
Calculating Xwt
Calculating Xhh
Scaling pt.
Scaling E.
Saving  /u/ki/nhartman/gpfs/diHiggs4b/data/data_16_PFlow-MAY2019-5jets/files/df_periodF_f_0.22_000022_entry_0_500000_scaledInputs.h5
Getting jet pts
Getting jet etas
Getting jet phis
Getting jet Es
Calculating Xwt
Calculating Xhh
Scaling pt.
Scaling E.
Saving  /u/ki/nhartman/gpfs/diHiggs4b/data/data_16_PFlow-MAY2019-5jets/files/df_periodF_f_0.22_000006_entry_0_500000_scaledInputs.h5
Getting jet pts
Getting jet etas
Getting jet phis
Getting jet Es
Calculating Xwt
Calculating Xhh
Scaling pt.
Scaling E.
Saving  /u/ki/nhartman/gpfs/diHiggs4b/data/data_16_PFlow-MAY2019-5jets/files/df_periodF_f_0.22_000008_entry_0_500000_scaledInputs.h5
Getting jet pts
Getting jet etas
Getting jet phis
Getting jet Es
Calculating Xwt
Calculating Xhh
Scaling pt.
Scaling E.
Saving  /u/ki/nhartman/gpfs/diHiggs4b/data/data_16_PFlow-MAY2019-5jets/files/df_periodF_f_0.22_000005_entry_0_500000_scaledInputs.h5
Getting jet pts
Getting jet etas
Getting jet phis
Getting jet Es
Calculating Xwt
Calculating Xhh
Scaling pt.
Scaling E.
Saving  /u/ki/nhartman/gpfs/diHiggs4b/data/data_16_PFlow-MAY2019-5jets/files/df_periodF_f_0.22_000015_entry_0_500000_scaledInputs.h5
Getting jet pts
Getting jet etas
Getting jet phis
Getting jet Es
Calculating Xwt
Calculating Xhh
Scaling pt.
Scaling E.
Saving  /u/ki/nhartman/gpfs/diHiggs4b/data/data_16_PFlow-MAY2019-5jets/files/df_periodF_f_0.22_000010_entry_0_500000_scaledInputs.h5
Getting jet pts
Getting jet etas
Getting jet phis
Getting jet Es
Calculating Xwt
Calculating Xhh
Scaling pt.
Scaling E.
Saving  /u/ki/nhartman/gpfs/diHiggs4b/data/data_16_PFlow-MAY2019-5jets/files/df_periodF_f_0.22_000011_entry_0_500000_scaledInputs.h5
Getting jet pts
Getting jet etas
Getting jet phis
Getting jet Es
Calculating Xwt
Calculating Xhh
Scaling pt.
Scaling E.
Saving  /u/ki/nhartman/gpfs/diHiggs4b/data/data_16_PFlow-MAY2019-5jets/files/df_periodF_f_0.22_000021_entry_0_500000_scaledInputs.h5
Getting jet pts
Getting jet etas
Getting jet phis
Getting jet Es
Calculating Xwt
Calculating Xhh
Scaling pt.
Scaling E.
Saving  /u/ki/nhartman/gpfs/diHiggs4b/data/data_16_PFlow-MAY2019-5jets/files/df_periodF_f_0.22_000016_entry_0_500000_scaledInputs.h5
Getting jet pts
Getting jet etas
Getting jet phis
Getting jet Es
Calculating Xwt
Calculating Xhh
Scaling pt.
Scaling E.
Saving  /u/ki/nhartman/gpfs/diHiggs4b/data/data_16_PFlow-MAY2019-5jets/files/df_periodF_f_0.22_000017_entry_0_500000_scaledInputs.h5
Getting jet pts
Getting jet etas
Getting jet phis
Getting jet Es
Calculating Xwt
Calculating Xhh
Scaling pt.
Scaling E.
Saving  /u/ki/nhartman/gpfs/diHiggs4b/data/data_16_PFlow-MAY2019-5jets/files/df_periodF_f_0.22_000009_entry_0_500000_scaledInputs.h5
Getting jet pts
Getting jet etas
Getting jet phis
Getting jet Es
Calculating Xwt
Calculating Xhh
Scaling pt.
Scaling E.
Saving  /u/ki/nhartman/gpfs/diHiggs4b/data/data_16_PFlow-MAY2019-5jets/files/df_periodF_f_0.22_000001_entry_0_500000_scaledInputs.h5
Getting jet pts
Getting jet etas
Getting jet phis
Getting jet Es
Calculating Xwt
Calculating Xhh
Scaling pt.
Scaling E.
Saving  /u/ki/nhartman/gpfs/diHiggs4b/data/data_16_PFlow-MAY2019-5jets/files/df_periodF_f_0.22_000020_entry_0_500000_scaledInputs.h5
Getting jet pts
Getting jet etas
Getting jet phis
Getting jet Es
Calculating Xwt
Calculating Xhh
Scaling pt.
Scaling E.
Saving  /u/ki/nhartman/gpfs/diHiggs4b/data/data_16_PFlow-MAY2019-5jets/files/df_periodF_f_0.22_000014_entry_0_500000_scaledInputs.h5
Getting jet pts
Getting jet etas
Getting jet phis
Getting jet Es
Calculating Xwt
Calculating Xhh
Scaling pt.
Scaling E.
Saving  /u/ki/nhartman/gpfs/diHiggs4b/data/data_16_PFlow-MAY2019-5jets/files/df_periodF_f_0.22_000019_entry_0_500000_scaledInputs.h5
Getting jet pts
Getting jet etas
Getting jet phis
Getting jet Es
Calculating Xwt
Calculating Xhh
Scaling pt.
Scaling E.
Saving  /u/ki/nhartman/gpfs/diHiggs4b/data/data_16_PFlow-MAY2019-5jets/files/df_periodF_f_0.22_000023_entry_0_500000_scaledInputs.h5
Getting jet pts
Getting jet etas
Getting jet phis
Getting jet Es
Calculating Xwt
Calculating Xhh
Scaling pt.
Scaling E.
Saving  /u/ki/nhartman/gpfs/diHiggs4b/data/data_16_PFlow-MAY2019-5jets/files/df_periodF_f_0.22_000025_entry_500000_1000000_scaledInputs.h5
Getting jet pts
Getting jet etas
Getting jet phis
Getting jet Es
Calculating Xwt
Calculating Xhh
Scaling pt.
Scaling E.
Saving  /u/ki/nhartman/gpfs/diHiggs4b/data/data_16_PFlow-MAY2019-5jets/files/df_periodF_f_0.22_000018_entry_0_500000_scaledInputs.h5
Getting jet pts
Getting jet etas
Getting jet phis
Getting jet Es
Calculating Xwt
Calculating Xhh
Saving /u/ki/nhartman/gpfs/diHiggs4b/data/data_16_PFlow-MAY2019-5jets/files/df_periodF_f_0.22_PT_2b.h5

------------------------------------------------------------
Sender: LSF System <lsf@atlprf13>
Subject: Job 841539: <data_16_PFlow-MAY2019-5jets_periodF_-1b_all_PT_2b> in cluster <slac> Done

Job <data_16_PFlow-MAY2019-5jets_periodF_-1b_all_PT_2b> was submitted from host <cent7d> by user <nhartman> in cluster <slac> at Wed Feb 12 01:15:16 2020
Job was executed on host(s) <atlprf13>, in queue <atlas-t3>, as user <nhartman> in cluster <slac> at Wed Feb 12 01:15:20 2020
</u/ki/nhartman> was used as the home directory.
</u/ki/nhartman/gpfs/diHiggs4b> was used as the working directory.
Started at Wed Feb 12 01:15:20 2020
Terminated at Wed Feb 12 01:28:23 2020
Results reported at Wed Feb 12 01:28:23 2020

Your job looked like:

------------------------------------------------------------
# LSBATCH: User input
singularity exec docker://gitlab-registry.cern.ch/hartman/ml-gpu/ml-gpu:latest ./tmp_data_16_PFlow-MAY2019-5jets_periodF_-1b_all_PT_2b.sh
------------------------------------------------------------

Successfully completed.

Resource usage summary:

    CPU time :                                   697.14 sec.
    Max Memory :                                 3770 MB
    Average Memory :                             2162.50 MB
    Total Requested Memory :                     -
    Delta Memory :                               -
    Max Swap :                                   7306 MB
    Max Processes :                              5
    Max Threads :                                30
    Run time :                                   782 sec.
    Turnaround time :                            787 sec.

The output (if any) is above this job summary.

