time="2020-01-27T01:33:16-08:00" level=warning msg="\"/run/user/14660\" directory set by $XDG_RUNTIME_DIR does not exist. Either create the directory or unset $XDG_RUNTIME_DIR.: stat /run/user/14660: no such file or directory: Trying to pull image in the event that it is a public image."
df_f_0.22_2b.h5
df_f_0.22_2b_SB_rw_vars.h5
df_f_0.22_3b.h5
df_f_0.22_4b_SB_rw_vars.h5
df_f_0.22_NNT_HCs.h5
df_f_0.22_fullmassplane.h5
df_f_0.22_rw_vars.h5
df_periodABCDEFG_f_0.22_fullmassplane.h5
df_periodABC_f_0.22_fullmassplane.h5
files
old_files
  0%|          | 0/20 [00:00<?, ?it/s]/opt/conda/lib/python3.6/site-packages/pandas/core/generic.py:2530: PerformanceWarning: 
your performance may suffer as PyTables will pickle object types that it cannot
map directly to c-types [inferred_type->mixed,key->block4_values] [items->['passedTriggerHashes', 'resolvedJets_E', 'resolvedJets_pt', 'resolvedJets_phi', 'resolvedJets_eta', 'resolvedJets_MV2c10', 'resolvedJets_is_MV2c10_FixedCutBEff_70', 'muon_pt', 'muon_eta', 'muon_phi', 'muon_m', 'muon_EnergyLoss']]

  pytables.to_hdf(path_or_buf, key, self, **kwargs)
  5%|5         | 1/20 [00:05<01:50,  5.83s/it] 10%|#         | 2/20 [00:26<03:04, 10.25s/it] 15%|#5        | 3/20 [00:28<02:11,  7.75s/it] 20%|##        | 4/20 [00:50<03:13, 12.12s/it] 25%|##5       | 5/20 [00:56<02:33, 10.25s/it] 30%|###       | 6/20 [01:04<02:14,  9.59s/it] 35%|###5      | 7/20 [01:06<01:33,  7.16s/it] 40%|####      | 8/20 [01:17<01:40,  8.37s/it] 45%|####5     | 9/20 [01:21<01:17,  7.04s/it] 50%|#####     | 10/20 [01:22<00:52,  5.26s/it] 55%|#####5    | 11/20 [01:48<01:43, 11.53s/it] 60%|######    | 12/20 [01:54<01:18,  9.79s/it] 65%|######5   | 13/20 [02:12<01:25, 12.25s/it] 70%|#######   | 14/20 [02:14<00:55,  9.21s/it] 75%|#######5  | 15/20 [02:18<00:38,  7.64s/it] 80%|########  | 16/20 [02:32<00:38,  9.64s/it] 85%|########5 | 17/20 [02:38<00:25,  8.54s/it] 90%|######### | 18/20 [03:14<00:33, 16.91s/it] 95%|#########5| 19/20 [03:27<00:15, 15.65s/it]100%|##########| 20/20 [03:34<00:00, 12.92s/it]100%|##########| 20/20 [03:34<00:00, 10.71s/it]
['run_number', 'event_number', 'mc_sf', 'ntag', 'njets', 'kinematic_region', 'm_hh', 'pt_hh', 'X_wt', 'm_hh_cor', 'pT_h1', 'eta_h1', 'phi_h1', 'm_h1', 'dRjj_h1', 'pT_h2', 'eta_h2', 'phi_h2', 'm_h2', 'dRjj_h2', 'pT_2', 'pT_4', 'eta_i', 'dRjj_1', 'dRjj_2', 'cosThetaStar', 'cosTheta1', 'cosTheta2', 'Phi', 'Phi1', 'HT', 'MDR', 'MDpT', 'cut_deta_hh', 'cut_Xwt']
Scaling pt.
Scaling E.
Saving  /u/ki/nhartman/gpfs/diHiggs4b/data/data_16_PFlow-MAY2019-5jets/files/df_periodA_f_0.22_000017_entry_0_500000_scaledInputs.h5
Getting jet pts
Getting jet etas
Getting jet phis
Getting jet Es
Calculating Xwt
Calculating Xhh
run_number
event_number
mc_sf
ntag
njets
kinematic_region
m_hh
pt_hh
X_wt
m_hh_cor
pT_h1
eta_h1
phi_h1
m_h1
dRjj_h1
pT_h2
eta_h2
phi_h2
m_h2
dRjj_h2
pT_2
pT_4
eta_i
dRjj_1
dRjj_2
cosThetaStar
cosTheta1
cosTheta2
Phi
Phi1
HT
MDR
MDpT
cut_deta_hh
cut_Xwt
Scaling pt.
Scaling E.
Saving  /u/ki/nhartman/gpfs/diHiggs4b/data/data_16_PFlow-MAY2019-5jets/files/df_periodA_f_0.22_000014_entry_0_500000_scaledInputs.h5
Getting jet pts
Getting jet etas
Getting jet phis
Getting jet Es
Calculating Xwt
Calculating Xhh
run_number
event_number
mc_sf
ntag
njets
kinematic_region
m_hh
pt_hh
X_wt
m_hh_cor
pT_h1
eta_h1
phi_h1
m_h1
dRjj_h1
pT_h2
eta_h2
phi_h2
m_h2
dRjj_h2
pT_2
pT_4
eta_i
dRjj_1
dRjj_2
cosThetaStar
cosTheta1
cosTheta2
Phi
Phi1
HT
MDR
MDpT
cut_deta_hh
cut_Xwt
Scaling pt.
Scaling E.
Saving  /u/ki/nhartman/gpfs/diHiggs4b/data/data_16_PFlow-MAY2019-5jets/files/df_periodA_f_0.22_000001_entry_0_500000_scaledInputs.h5
Getting jet pts
Getting jet etas
Getting jet phis
Getting jet Es
Calculating Xwt
Calculating Xhh
run_number
event_number
mc_sf
ntag
njets
kinematic_region
m_hh
pt_hh
X_wt
m_hh_cor
pT_h1
eta_h1
phi_h1
m_h1
dRjj_h1
pT_h2
eta_h2
phi_h2
m_h2
dRjj_h2
pT_2
pT_4
eta_i
dRjj_1
dRjj_2
cosThetaStar
cosTheta1
cosTheta2
Phi
Phi1
HT
MDR
MDpT
cut_deta_hh
cut_Xwt
Scaling pt.
Scaling E.
Saving  /u/ki/nhartman/gpfs/diHiggs4b/data/data_16_PFlow-MAY2019-5jets/files/df_periodA_f_0.22_000013_entry_0_500000_scaledInputs.h5
Getting jet pts
Getting jet etas
Getting jet phis
Getting jet Es
Calculating Xwt
Calculating Xhh
run_number
event_number
mc_sf
ntag
njets
kinematic_region
m_hh
pt_hh
X_wt
m_hh_cor
pT_h1
eta_h1
phi_h1
m_h1
dRjj_h1
pT_h2
eta_h2
phi_h2
m_h2
dRjj_h2
pT_2
pT_4
eta_i
dRjj_1
dRjj_2
cosThetaStar
cosTheta1
cosTheta2
Phi
Phi1
HT
MDR
MDpT
cut_deta_hh
cut_Xwt
Scaling pt.
Scaling E.
Saving  /u/ki/nhartman/gpfs/diHiggs4b/data/data_16_PFlow-MAY2019-5jets/files/df_periodA_f_0.22_000010_entry_0_500000_scaledInputs.h5
Getting jet pts
Getting jet etas
Getting jet phis
Getting jet Es
Calculating Xwt
Calculating Xhh
run_number
event_number
mc_sf
ntag
njets
kinematic_region
m_hh
pt_hh
X_wt
m_hh_cor
pT_h1
eta_h1
phi_h1
m_h1
dRjj_h1
pT_h2
eta_h2
phi_h2
m_h2
dRjj_h2
pT_2
pT_4
eta_i
dRjj_1
dRjj_2
cosThetaStar
cosTheta1
cosTheta2
Phi
Phi1
HT
MDR
MDpT
cut_deta_hh
cut_Xwt
Scaling pt.
Scaling E.
Saving  /u/ki/nhartman/gpfs/diHiggs4b/data/data_16_PFlow-MAY2019-5jets/files/df_periodA_f_0.22_000021_entry_0_500000_scaledInputs.h5
Getting jet pts
Getting jet etas
Getting jet phis
Getting jet Es
Calculating Xwt
Calculating Xhh
run_number
event_number
mc_sf
ntag
njets
kinematic_region
m_hh
pt_hh
X_wt
m_hh_cor
pT_h1
eta_h1
phi_h1
m_h1
dRjj_h1
pT_h2
eta_h2
phi_h2
m_h2
dRjj_h2
pT_2
pT_4
eta_i
dRjj_1
dRjj_2
cosThetaStar
cosTheta1
cosTheta2
Phi
Phi1
HT
MDR
MDpT
cut_deta_hh
cut_Xwt
Scaling pt.
Scaling E.
Saving  /u/ki/nhartman/gpfs/diHiggs4b/data/data_16_PFlow-MAY2019-5jets/files/df_periodA_f_0.22_000002_entry_0_500000_scaledInputs.h5
Getting jet pts
Getting jet etas
Getting jet phis
Getting jet Es
Calculating Xwt
Calculating Xhh
run_number
event_number
mc_sf
ntag
njets
kinematic_region
m_hh
pt_hh
X_wt
m_hh_cor
pT_h1
eta_h1
phi_h1
m_h1
dRjj_h1
pT_h2
eta_h2
phi_h2
m_h2
dRjj_h2
pT_2
pT_4
eta_i
dRjj_1
dRjj_2
cosThetaStar
cosTheta1
cosTheta2
Phi
Phi1
HT
MDR
MDpT
cut_deta_hh
cut_Xwt
Scaling pt.
Scaling E.
Saving  /u/ki/nhartman/gpfs/diHiggs4b/data/data_16_PFlow-MAY2019-5jets/files/df_periodA_f_0.22_000016_entry_0_500000_scaledInputs.h5
Getting jet pts
Getting jet etas
Getting jet phis
Getting jet Es
Calculating Xwt
Calculating Xhh
run_number
event_number
mc_sf
ntag
njets
kinematic_region
m_hh
pt_hh
X_wt
m_hh_cor
pT_h1
eta_h1
phi_h1
m_h1
dRjj_h1
pT_h2
eta_h2
phi_h2
m_h2
dRjj_h2
pT_2
pT_4
eta_i
dRjj_1
dRjj_2
cosThetaStar
cosTheta1
cosTheta2
Phi
Phi1
HT
MDR
MDpT
cut_deta_hh
cut_Xwt
Scaling pt.
Scaling E.
Saving  /u/ki/nhartman/gpfs/diHiggs4b/data/data_16_PFlow-MAY2019-5jets/files/df_periodA_f_0.22_000011_entry_0_500000_scaledInputs.h5
Getting jet pts
Getting jet etas
Getting jet phis
Getting jet Es
Calculating Xwt
Calculating Xhh
run_number
event_number
mc_sf
ntag
njets
kinematic_region
m_hh
pt_hh
X_wt
m_hh_cor
pT_h1
eta_h1
phi_h1
m_h1
dRjj_h1
pT_h2
eta_h2
phi_h2
m_h2
dRjj_h2
pT_2
pT_4
eta_i
dRjj_1
dRjj_2
cosThetaStar
cosTheta1
cosTheta2
Phi
Phi1
HT
MDR
MDpT
cut_deta_hh
cut_Xwt
Scaling pt.
Scaling E.
Saving  /u/ki/nhartman/gpfs/diHiggs4b/data/data_16_PFlow-MAY2019-5jets/files/df_periodA_f_0.22_000004_entry_0_500000_scaledInputs.h5
Getting jet pts
Getting jet etas
Getting jet phis
Getting jet Es
Calculating Xwt
Calculating Xhh
run_number
event_number
mc_sf
ntag
njets
kinematic_region
m_hh
pt_hh
X_wt
m_hh_cor
pT_h1
eta_h1
phi_h1
m_h1
dRjj_h1
pT_h2
eta_h2
phi_h2
m_h2
dRjj_h2
pT_2
pT_4
eta_i
dRjj_1
dRjj_2
cosThetaStar
cosTheta1
cosTheta2
Phi
Phi1
HT
MDR
MDpT
cut_deta_hh
cut_Xwt
Scaling pt.
Scaling E.
Saving  /u/ki/nhartman/gpfs/diHiggs4b/data/data_16_PFlow-MAY2019-5jets/files/df_periodA_f_0.22_000018_entry_0_500000_scaledInputs.h5
Getting jet pts
Getting jet etas
Getting jet phis
Getting jet Es
Calculating Xwt
Calculating Xhh
run_number
event_number
mc_sf
ntag
njets
kinematic_region
m_hh
pt_hh
X_wt
m_hh_cor
pT_h1
eta_h1
phi_h1
m_h1
dRjj_h1
pT_h2
eta_h2
phi_h2
m_h2
dRjj_h2
pT_2
pT_4
eta_i
dRjj_1
dRjj_2
cosThetaStar
cosTheta1
cosTheta2
Phi
Phi1
HT
MDR
MDpT
cut_deta_hh
cut_Xwt
Scaling pt.
Scaling E.
Saving  /u/ki/nhartman/gpfs/diHiggs4b/data/data_16_PFlow-MAY2019-5jets/files/df_periodA_f_0.22_000008_entry_0_500000_scaledInputs.h5
Getting jet pts
Getting jet etas
Getting jet phis
Getting jet Es
Calculating Xwt
Calculating Xhh
run_number
event_number
mc_sf
ntag
njets
kinematic_region
m_hh
pt_hh
X_wt
m_hh_cor
pT_h1
eta_h1
phi_h1
m_h1
dRjj_h1
pT_h2
eta_h2
phi_h2
m_h2
dRjj_h2
pT_2
pT_4
eta_i
dRjj_1
dRjj_2
cosThetaStar
cosTheta1
cosTheta2
Phi
Phi1
HT
MDR
MDpT
cut_deta_hh
cut_Xwt
Scaling pt.
Scaling E.
Saving  /u/ki/nhartman/gpfs/diHiggs4b/data/data_16_PFlow-MAY2019-5jets/files/df_periodA_f_0.22_000020_entry_0_500000_scaledInputs.h5
Getting jet pts
Getting jet etas
Getting jet phis
Getting jet Es
Calculating Xwt
Calculating Xhh
run_number
event_number
mc_sf
ntag
njets
kinematic_region
m_hh
pt_hh
X_wt
m_hh_cor
pT_h1
eta_h1
phi_h1
m_h1
dRjj_h1
pT_h2
eta_h2
phi_h2
m_h2
dRjj_h2
pT_2
pT_4
eta_i
dRjj_1
dRjj_2
cosThetaStar
cosTheta1
cosTheta2
Phi
Phi1
HT
MDR
MDpT
cut_deta_hh
cut_Xwt
Scaling pt.
Scaling E.
Saving  /u/ki/nhartman/gpfs/diHiggs4b/data/data_16_PFlow-MAY2019-5jets/files/df_periodA_f_0.22_000005_entry_0_500000_scaledInputs.h5
Getting jet pts
Getting jet etas
Getting jet phis
Getting jet Es
Calculating Xwt
Calculating Xhh
run_number
event_number
mc_sf
ntag
njets
kinematic_region
m_hh
pt_hh
X_wt
m_hh_cor
pT_h1
eta_h1
phi_h1
m_h1
dRjj_h1
pT_h2
eta_h2
phi_h2
m_h2
dRjj_h2
pT_2
pT_4
eta_i
dRjj_1
dRjj_2
cosThetaStar
cosTheta1
cosTheta2
Phi
Phi1
HT
MDR
MDpT
cut_deta_hh
cut_Xwt
Scaling pt.
Scaling E.
Saving  /u/ki/nhartman/gpfs/diHiggs4b/data/data_16_PFlow-MAY2019-5jets/files/df_periodA_f_0.22_000007_entry_0_500000_scaledInputs.h5
Getting jet pts
Getting jet etas
Getting jet phis
Getting jet Es
Calculating Xwt
Calculating Xhh
run_number
event_number
mc_sf
ntag
njets
kinematic_region
m_hh
pt_hh
X_wt
m_hh_cor
pT_h1
eta_h1
phi_h1
m_h1
dRjj_h1
pT_h2
eta_h2
phi_h2
m_h2
dRjj_h2
pT_2
pT_4
eta_i
dRjj_1
dRjj_2
cosThetaStar
cosTheta1
cosTheta2
Phi
Phi1
HT
MDR
MDpT
cut_deta_hh
cut_Xwt
Scaling pt.
Scaling E.
Saving  /u/ki/nhartman/gpfs/diHiggs4b/data/data_16_PFlow-MAY2019-5jets/files/df_periodA_f_0.22_000022_entry_0_500000_scaledInputs.h5
Getting jet pts
Getting jet etas
Getting jet phis
Getting jet Es
Calculating Xwt
Calculating Xhh
run_number
event_number
mc_sf
ntag
njets
kinematic_region
m_hh
pt_hh
X_wt
m_hh_cor
pT_h1
eta_h1
phi_h1
m_h1
dRjj_h1
pT_h2
eta_h2
phi_h2
m_h2
dRjj_h2
pT_2
pT_4
eta_i
dRjj_1
dRjj_2
cosThetaStar
cosTheta1
cosTheta2
Phi
Phi1
HT
MDR
MDpT
cut_deta_hh
cut_Xwt
Scaling pt.
Scaling E.
Saving  /u/ki/nhartman/gpfs/diHiggs4b/data/data_16_PFlow-MAY2019-5jets/files/df_periodA_f_0.22_000009_entry_0_500000_scaledInputs.h5
Getting jet pts
Getting jet etas
Getting jet phis
Getting jet Es
Calculating Xwt
Calculating Xhh
run_number
event_number
mc_sf
ntag
njets
kinematic_region
m_hh
pt_hh
X_wt
m_hh_cor
pT_h1
eta_h1
phi_h1
m_h1
dRjj_h1
pT_h2
eta_h2
phi_h2
m_h2
dRjj_h2
pT_2
pT_4
eta_i
dRjj_1
dRjj_2
cosThetaStar
cosTheta1
cosTheta2
Phi
Phi1
HT
MDR
MDpT
cut_deta_hh
cut_Xwt
Scaling pt.
Scaling E.
Saving  /u/ki/nhartman/gpfs/diHiggs4b/data/data_16_PFlow-MAY2019-5jets/files/df_periodA_f_0.22_000019_entry_0_500000_scaledInputs.h5
Getting jet pts
Getting jet etas
Getting jet phis
Getting jet Es
Calculating Xwt
Calculating Xhh
run_number
event_number
mc_sf
ntag
njets
kinematic_region
m_hh
pt_hh
X_wt
m_hh_cor
pT_h1
eta_h1
phi_h1
m_h1
dRjj_h1
pT_h2
eta_h2
phi_h2
m_h2
dRjj_h2
pT_2
pT_4
eta_i
dRjj_1
dRjj_2
cosThetaStar
cosTheta1
cosTheta2
Phi
Phi1
HT
MDR
MDpT
cut_deta_hh
cut_Xwt
Scaling pt.
Scaling E.
Saving  /u/ki/nhartman/gpfs/diHiggs4b/data/data_16_PFlow-MAY2019-5jets/files/df_periodA_f_0.22_000012_entry_0_500000_scaledInputs.h5
Getting jet pts
Getting jet etas
Getting jet phis
Getting jet Es
Calculating Xwt
Calculating Xhh
run_number
event_number
mc_sf
ntag
njets
kinematic_region
m_hh
pt_hh
X_wt
m_hh_cor
pT_h1
eta_h1
phi_h1
m_h1
dRjj_h1
pT_h2
eta_h2
phi_h2
m_h2
dRjj_h2
pT_2
pT_4
eta_i
dRjj_1
dRjj_2
cosThetaStar
cosTheta1
cosTheta2
Phi
Phi1
HT
MDR
MDpT
cut_deta_hh
cut_Xwt
Scaling pt.
Scaling E.
Saving  /u/ki/nhartman/gpfs/diHiggs4b/data/data_16_PFlow-MAY2019-5jets/files/df_periodA_f_0.22_000024_entry_0_500000_scaledInputs.h5
Getting jet pts
Getting jet etas
Getting jet phis
Getting jet Es
Calculating Xwt
Calculating Xhh
run_number
event_number
mc_sf
ntag
njets
kinematic_region
m_hh
pt_hh
X_wt
m_hh_cor
pT_h1
eta_h1
phi_h1
m_h1
dRjj_h1
pT_h2
eta_h2
phi_h2
m_h2
dRjj_h2
pT_2
pT_4
eta_i
dRjj_1
dRjj_2
cosThetaStar
cosTheta1
cosTheta2
Phi
Phi1
HT
MDR
MDpT
cut_deta_hh
cut_Xwt

------------------------------------------------------------
Sender: LSF System <lsf@atlprf02>
Subject: Job 823970: <data_16_PFlow-MAY2019-5jets_periodA_-1b_all_NNT_vars> in cluster <slac> Done

Job <data_16_PFlow-MAY2019-5jets_periodA_-1b_all_NNT_vars> was submitted from host <cent7d> by user <nhartman> in cluster <slac> at Mon Jan 27 01:33:11 2020
Job was executed on host(s) <atlprf02>, in queue <atlas-t3>, as user <nhartman> in cluster <slac> at Mon Jan 27 01:33:15 2020
</u/ki/nhartman> was used as the home directory.
</u/ki/nhartman/gpfs/diHiggs4b> was used as the working directory.
Started at Mon Jan 27 01:33:15 2020
Terminated at Mon Jan 27 01:37:02 2020
Results reported at Mon Jan 27 01:37:02 2020

Your job looked like:

------------------------------------------------------------
# LSBATCH: User input
singularity exec docker://gitlab-registry.cern.ch/hartman/ml-gpu/ml-gpu:latest ./tmp_data_16_PFlow-MAY2019-5jets_periodA_-1b_all_NNT_vars.sh
------------------------------------------------------------

Successfully completed.

Resource usage summary:

    CPU time :                                   194.64 sec.
    Max Memory :                                 1816 MB
    Average Memory :                             689.00 MB
    Total Requested Memory :                     -
    Delta Memory :                               -
    Max Swap :                                   5280 MB
    Max Processes :                              5
    Max Threads :                                30
    Run time :                                   227 sec.
    Turnaround time :                            231 sec.

The output (if any) is above this job summary.

