time="2020-02-12T01:15:21-08:00" level=warning msg="\"/run/user/14660\" directory set by $XDG_RUNTIME_DIR does not exist. Either create the directory or unset $XDG_RUNTIME_DIR.: stat /run/user/14660: no such file or directory: Trying to pull image in the event that it is a public image."
df_f_0.22_2b.h5
df_f_0.22_2b_SB_rw_vars.h5
df_f_0.22_3b.h5
df_f_0.22_4b_SB_rw_vars.h5
df_f_0.22_NNT_HCs.h5
df_f_0.22_PT_2b.h5
df_f_0.22_fullmassplane.h5
df_f_0.22_mlJetInputs.h5
df_f_0.22_rw_vars.h5
df_periodABCDEFG_f_0.22_fullmassplane.h5
df_periodABC_f_0.22_fullmassplane.h5
files
old_files
  0%|          | 0/26 [00:00<?, ?it/s]/opt/conda/lib/python3.6/site-packages/pandas/core/generic.py:2505: PerformanceWarning: 
your performance may suffer as PyTables will pickle object types that it cannot
map directly to c-types [inferred_type->mixed,key->block4_values] [items->Index(['passedTriggerHashes', 'resolvedJets_E', 'resolvedJets_pt',
       'resolvedJets_phi', 'resolvedJets_eta', 'resolvedJets_MV2c10',
       'resolvedJets_is_MV2c10_FixedCutBEff_70', 'muon_pt', 'muon_eta',
       'muon_phi', 'muon_m', 'muon_EnergyLoss'],
      dtype='object')]

  encoding=encoding,
  4%|3         | 1/26 [01:36<40:24, 97.00s/it]  8%|7         | 2/26 [03:10<38:24, 96.03s/it] 12%|#1        | 3/26 [03:33<28:22, 74.03s/it] 15%|#5        | 4/26 [04:21<24:15, 66.15s/it] 19%|#9        | 5/26 [05:41<24:36, 70.29s/it] 23%|##3       | 6/26 [05:53<17:36, 52.84s/it] 27%|##6       | 7/26 [06:29<15:09, 47.87s/it] 31%|###       | 8/26 [06:38<10:53, 36.31s/it] 35%|###4      | 9/26 [07:11<09:59, 35.29s/it] 38%|###8      | 10/26 [08:31<12:57, 48.57s/it] 42%|####2     | 11/26 [09:37<13:25, 53.73s/it] 46%|####6     | 12/26 [09:45<09:21, 40.11s/it] 50%|#####     | 13/26 [10:29<08:58, 41.40s/it] 54%|#####3    | 14/26 [12:14<12:03, 60.32s/it] 58%|#####7    | 15/26 [13:01<10:21, 56.46s/it] 62%|######1   | 16/26 [14:12<10:06, 60.61s/it] 65%|######5   | 17/26 [14:31<07:13, 48.15s/it] 69%|######9   | 18/26 [15:38<07:10, 53.78s/it] 73%|#######3  | 19/26 [16:58<07:11, 61.67s/it] 77%|#######6  | 20/26 [17:08<04:36, 46.14s/it] 81%|########  | 21/26 [17:44<03:36, 43.30s/it] 85%|########4 | 22/26 [18:58<03:29, 52.50s/it] 88%|########8 | 23/26 [19:01<01:52, 37.66s/it] 92%|#########2| 24/26 [19:09<00:57, 28.70s/it] 96%|#########6| 25/26 [19:35<00:27, 27.80s/it]100%|##########| 26/26 [19:37<00:00, 20.22s/it]100%|##########| 26/26 [19:37<00:00, 45.30s/it]
Scaling pt.
Scaling E.
Saving  /u/ki/nhartman/gpfs/diHiggs4b/data/data_16_PFlow-MAY2019-5jets/files/df_periodC_f_0.22_000011_entry_0_500000_scaledInputs.h5
Getting jet pts
Getting jet etas
Getting jet phis
Getting jet Es
Calculating Xwt
Calculating Xhh
Scaling pt.
Scaling E.
Saving  /u/ki/nhartman/gpfs/diHiggs4b/data/data_16_PFlow-MAY2019-5jets/files/df_periodC_f_0.22_000003_entry_0_500000_scaledInputs.h5
Getting jet pts
Getting jet etas
Getting jet phis
Getting jet Es
Calculating Xwt
Calculating Xhh
Scaling pt.
Scaling E.
Saving  /u/ki/nhartman/gpfs/diHiggs4b/data/data_16_PFlow-MAY2019-5jets/files/df_periodC_f_0.22_000011_entry_500000_1000000_scaledInputs.h5
Getting jet pts
Getting jet etas
Getting jet phis
Getting jet Es
Calculating Xwt
Calculating Xhh
Scaling pt.
Scaling E.
Saving  /u/ki/nhartman/gpfs/diHiggs4b/data/data_16_PFlow-MAY2019-5jets/files/df_periodC_f_0.22_000010_entry_0_500000_scaledInputs.h5
Getting jet pts
Getting jet etas
Getting jet phis
Getting jet Es
Calculating Xwt
Calculating Xhh
Scaling pt.
Scaling E.
Saving  /u/ki/nhartman/gpfs/diHiggs4b/data/data_16_PFlow-MAY2019-5jets/files/df_periodC_f_0.22_000009_entry_0_500000_scaledInputs.h5
Getting jet pts
Getting jet etas
Getting jet phis
Getting jet Es
Calculating Xwt
Calculating Xhh
Scaling pt.
Scaling E.
Saving  /u/ki/nhartman/gpfs/diHiggs4b/data/data_16_PFlow-MAY2019-5jets/files/df_periodC_f_0.22_000014_entry_0_500000_scaledInputs.h5
Getting jet pts
Getting jet etas
Getting jet phis
Getting jet Es
Calculating Xwt
Calculating Xhh
Scaling pt.
Scaling E.
Saving  /u/ki/nhartman/gpfs/diHiggs4b/data/data_16_PFlow-MAY2019-5jets/files/df_periodC_f_0.22_000024_entry_0_500000_scaledInputs.h5
Getting jet pts
Getting jet etas
Getting jet phis
Getting jet Es
Calculating Xwt
Calculating Xhh
Scaling pt.
Scaling E.
Saving  /u/ki/nhartman/gpfs/diHiggs4b/data/data_16_PFlow-MAY2019-5jets/files/df_periodC_f_0.22_000013_entry_500000_1000000_scaledInputs.h5
Getting jet pts
Getting jet etas
Getting jet phis
Getting jet Es
Calculating Xwt
Calculating Xhh
Scaling pt.
Scaling E.
Saving  /u/ki/nhartman/gpfs/diHiggs4b/data/data_16_PFlow-MAY2019-5jets/files/df_periodC_f_0.22_000023_entry_0_500000_scaledInputs.h5
Getting jet pts
Getting jet etas
Getting jet phis
Getting jet Es
Calculating Xwt
Calculating Xhh
Scaling pt.
Scaling E.
Saving  /u/ki/nhartman/gpfs/diHiggs4b/data/data_16_PFlow-MAY2019-5jets/files/df_periodC_f_0.22_000005_entry_0_500000_scaledInputs.h5
Getting jet pts
Getting jet etas
Getting jet phis
Getting jet Es
Calculating Xwt
Calculating Xhh
Scaling pt.
Scaling E.
Saving  /u/ki/nhartman/gpfs/diHiggs4b/data/data_16_PFlow-MAY2019-5jets/files/df_periodC_f_0.22_000016_entry_0_500000_scaledInputs.h5
Getting jet pts
Getting jet etas
Getting jet phis
Getting jet Es
Calculating Xwt
Calculating Xhh
Scaling pt.
Scaling E.
Saving  /u/ki/nhartman/gpfs/diHiggs4b/data/data_16_PFlow-MAY2019-5jets/files/df_periodC_f_0.22_000003_entry_500000_1000000_scaledInputs.h5
Getting jet pts
Getting jet etas
Getting jet phis
Getting jet Es
Calculating Xwt
Calculating Xhh
Scaling pt.
Scaling E.
Saving  /u/ki/nhartman/gpfs/diHiggs4b/data/data_16_PFlow-MAY2019-5jets/files/df_periodC_f_0.22_000017_entry_500000_1000000_scaledInputs.h5
Getting jet pts
Getting jet etas
Getting jet phis
Getting jet Es
Calculating Xwt
Calculating Xhh
Scaling pt.
Scaling E.
Saving  /u/ki/nhartman/gpfs/diHiggs4b/data/data_16_PFlow-MAY2019-5jets/files/df_periodC_f_0.22_000017_entry_0_500000_scaledInputs.h5
Getting jet pts
Getting jet etas
Getting jet phis
Getting jet Es
Calculating Xwt
Calculating Xhh
Scaling pt.
Scaling E.
Saving  /u/ki/nhartman/gpfs/diHiggs4b/data/data_16_PFlow-MAY2019-5jets/files/df_periodC_f_0.22_000022_entry_0_500000_scaledInputs.h5
Getting jet pts
Getting jet etas
Getting jet phis
Getting jet Es
Calculating Xwt
Calculating Xhh
Scaling pt.
Scaling E.
Saving  /u/ki/nhartman/gpfs/diHiggs4b/data/data_16_PFlow-MAY2019-5jets/files/df_periodC_f_0.22_000019_entry_0_500000_scaledInputs.h5
Getting jet pts
Getting jet etas
Getting jet phis
Getting jet Es
Calculating Xwt
Calculating Xhh
Scaling pt.
Scaling E.
Saving  /u/ki/nhartman/gpfs/diHiggs4b/data/data_16_PFlow-MAY2019-5jets/files/df_periodC_f_0.22_000018_entry_0_500000_scaledInputs.h5
Getting jet pts
Getting jet etas
Getting jet phis
Getting jet Es
Calculating Xwt
Calculating Xhh
Scaling pt.
Scaling E.
Saving  /u/ki/nhartman/gpfs/diHiggs4b/data/data_16_PFlow-MAY2019-5jets/files/df_periodC_f_0.22_000008_entry_0_500000_scaledInputs.h5
Getting jet pts
Getting jet etas
Getting jet phis
Getting jet Es
Calculating Xwt
Calculating Xhh
Scaling pt.
Scaling E.
Saving  /u/ki/nhartman/gpfs/diHiggs4b/data/data_16_PFlow-MAY2019-5jets/files/df_periodC_f_0.22_000012_entry_0_500000_scaledInputs.h5
Getting jet pts
Getting jet etas
Getting jet phis
Getting jet Es
Calculating Xwt
Calculating Xhh
Scaling pt.
Scaling E.
Saving  /u/ki/nhartman/gpfs/diHiggs4b/data/data_16_PFlow-MAY2019-5jets/files/df_periodC_f_0.22_000025_entry_0_500000_scaledInputs.h5
Getting jet pts
Getting jet etas
Getting jet phis
Getting jet Es
Calculating Xwt
Calculating Xhh
Scaling pt.
Scaling E.
Saving  /u/ki/nhartman/gpfs/diHiggs4b/data/data_16_PFlow-MAY2019-5jets/files/df_periodC_f_0.22_000006_entry_0_500000_scaledInputs.h5
Getting jet pts
Getting jet etas
Getting jet phis
Getting jet Es
Calculating Xwt
Calculating Xhh
Scaling pt.
Scaling E.
Saving  /u/ki/nhartman/gpfs/diHiggs4b/data/data_16_PFlow-MAY2019-5jets/files/df_periodC_f_0.22_000015_entry_500000_1000000_scaledInputs.h5
Getting jet pts
Getting jet etas
Getting jet phis
Getting jet Es
Calculating Xwt
Calculating Xhh
Scaling pt.
Scaling E.
Saving  /u/ki/nhartman/gpfs/diHiggs4b/data/data_16_PFlow-MAY2019-5jets/files/df_periodC_f_0.22_000001_entry_0_500000_scaledInputs.h5
Getting jet pts
Getting jet etas
Getting jet phis
Getting jet Es
Calculating Xwt
Calculating Xhh
Scaling pt.
Scaling E.
Saving  /u/ki/nhartman/gpfs/diHiggs4b/data/data_16_PFlow-MAY2019-5jets/files/df_periodC_f_0.22_000020_entry_0_500000_scaledInputs.h5
Getting jet pts
Getting jet etas
Getting jet phis
Getting jet Es
Calculating Xwt
Calculating Xhh
Scaling pt.
Scaling E.
Saving  /u/ki/nhartman/gpfs/diHiggs4b/data/data_16_PFlow-MAY2019-5jets/files/df_periodC_f_0.22_000004_entry_500000_1000000_scaledInputs.h5
Getting jet pts
Getting jet etas
Getting jet phis
Getting jet Es
Calculating Xwt
Calculating Xhh
Scaling pt.
Scaling E.
Saving  /u/ki/nhartman/gpfs/diHiggs4b/data/data_16_PFlow-MAY2019-5jets/files/df_periodC_f_0.22_000002_entry_0_500000_scaledInputs.h5
Getting jet pts
Getting jet etas
Getting jet phis
Getting jet Es
Calculating Xwt
Calculating Xhh
Saving /u/ki/nhartman/gpfs/diHiggs4b/data/data_16_PFlow-MAY2019-5jets/files/df_periodC_f_0.22_PT_2b.h5

------------------------------------------------------------
Sender: LSF System <lsf@atlprf05>
Subject: Job 841534: <data_16_PFlow-MAY2019-5jets_periodC_-1b_all_PT_2b> in cluster <slac> Done

Job <data_16_PFlow-MAY2019-5jets_periodC_-1b_all_PT_2b> was submitted from host <cent7d> by user <nhartman> in cluster <slac> at Wed Feb 12 01:15:15 2020
Job was executed on host(s) <atlprf05>, in queue <atlas-t3>, as user <nhartman> in cluster <slac> at Wed Feb 12 01:15:20 2020
</u/ki/nhartman> was used as the home directory.
</u/ki/nhartman/gpfs/diHiggs4b> was used as the working directory.
Started at Wed Feb 12 01:15:20 2020
Terminated at Wed Feb 12 01:35:17 2020
Results reported at Wed Feb 12 01:35:17 2020

Your job looked like:

------------------------------------------------------------
# LSBATCH: User input
singularity exec docker://gitlab-registry.cern.ch/hartman/ml-gpu/ml-gpu:latest ./tmp_data_16_PFlow-MAY2019-5jets_periodC_-1b_all_PT_2b.sh
------------------------------------------------------------

Successfully completed.

Resource usage summary:

    CPU time :                                   1107.76 sec.
    Max Memory :                                 5131 MB
    Average Memory :                             2796.69 MB
    Total Requested Memory :                     -
    Delta Memory :                               -
    Max Swap :                                   8632 MB
    Max Processes :                              5
    Max Threads :                                30
    Run time :                                   1197 sec.
    Turnaround time :                            1202 sec.

The output (if any) is above this job summary.

