df_f_0.22_2b.h5
df_f_0.22_2b_SB_rw_vars.h5
df_f_0.22_3b.h5
df_f_0.22_4b_SB_rw_vars.h5
df_f_0.22_rw_vars.h5
files
old_files
  0%|          | 0/56 [00:00<?, ?it/s]/opt/conda/lib/python3.6/site-packages/pandas/core/generic.py:2530: PerformanceWarning: 
your performance may suffer as PyTables will pickle object types that it cannot
map directly to c-types [inferred_type->mixed,key->block4_values] [items->['passedTriggerHashes', 'resolvedJets_E', 'resolvedJets_pt', 'resolvedJets_phi', 'resolvedJets_eta', 'resolvedJets_MV2c10', 'resolvedJets_is_MV2c10_FixedCutBEff_70', 'muon_pt', 'muon_eta', 'muon_phi', 'muon_m', 'muon_EnergyLoss']]

  pytables.to_hdf(path_or_buf, key, self, **kwargs)
  2%|1         | 1/56 [00:33<30:38, 33.42s/it]  4%|3         | 2/56 [01:30<36:19, 40.37s/it]  5%|5         | 3/56 [02:22<38:53, 44.02s/it]  7%|7         | 4/56 [02:42<31:47, 36.68s/it]  9%|8         | 5/56 [02:43<22:14, 26.17s/it] 11%|#         | 6/56 [04:12<37:19, 44.79s/it] 12%|#2        | 7/56 [04:51<35:16, 43.20s/it] 14%|#4        | 8/56 [05:25<32:24, 40.51s/it] 16%|#6        | 9/56 [05:28<22:57, 29.31s/it] 18%|#7        | 10/56 [06:34<30:52, 40.26s/it] 20%|#9        | 11/56 [07:07<28:25, 37.90s/it] 21%|##1       | 12/56 [08:34<38:45, 52.84s/it] 23%|##3       | 13/56 [08:36<26:55, 37.58s/it] 25%|##5       | 14/56 [10:10<38:01, 54.32s/it] 27%|##6       | 15/56 [10:16<27:15, 39.90s/it] 29%|##8       | 16/56 [10:21<19:38, 29.46s/it] 30%|###       | 17/56 [11:24<25:42, 39.54s/it] 32%|###2      | 18/56 [12:44<32:48, 51.80s/it] 34%|###3      | 19/56 [12:55<24:17, 39.40s/it] 36%|###5      | 20/56 [14:21<32:00, 53.35s/it] 38%|###7      | 21/56 [14:59<28:30, 48.88s/it] 39%|###9      | 22/56 [15:17<22:23, 39.51s/it] 41%|####1     | 23/56 [15:33<17:52, 32.51s/it] 43%|####2     | 24/56 [17:05<26:48, 50.28s/it]Scaling pt.
Scaling E.
Saving  /u/ki/nhartman/gpfs/diHiggs4b/data/data_16_PFlow-MAY2019-5jets/files/df_periodL_f_0.22_000007_entry_500000_1000000_scaledInputs.h5
Getting jet pts
Getting jet etas
Getting jet phis
Getting jet Es
Getting jet pts
Getting jet etas
Getting jet phis
Getting jet Es
Calculating Xwt
Calculating Xhh
Scaling pt.
Scaling E.
Saving  /u/ki/nhartman/gpfs/diHiggs4b/data/data_16_PFlow-MAY2019-5jets/files/df_periodL_f_0.22_000015_entry_0_500000_scaledInputs.h5
Getting jet pts
Getting jet etas
Getting jet phis
Getting jet Es
Getting jet pts
Getting jet etas
Getting jet phis
Getting jet Es
Calculating Xwt
Calculating Xhh
Scaling pt.
Scaling E.
Saving  /u/ki/nhartman/gpfs/diHiggs4b/data/data_16_PFlow-MAY2019-5jets/files/df_periodL_f_0.22_000031_entry_1000000_1500000_scaledInputs.h5
Getting jet pts
Getting jet etas
Getting jet phis
Getting jet Es
Getting jet pts
Getting jet etas
Getting jet phis
Getting jet Es
Calculating Xwt
Calculating Xhh
Scaling pt.
Scaling E.
Saving  /u/ki/nhartman/gpfs/diHiggs4b/data/data_16_PFlow-MAY2019-5jets/files/df_periodL_f_0.22_000023_entry_0_500000_scaledInputs.h5
Getting jet pts
Getting jet etas
Getting jet phis
Getting jet Es
Getting jet pts
Getting jet etas
Getting jet phis
Getting jet Es
Calculating Xwt
Calculating Xhh
Scaling pt.
Scaling E.
Saving  /u/ki/nhartman/gpfs/diHiggs4b/data/data_16_PFlow-MAY2019-5jets/files/df_periodL_f_0.22_000001_entry_0_500000_scaledInputs.h5
Getting jet pts
Getting jet etas
Getting jet phis
Getting jet Es
Getting jet pts
Getting jet etas
Getting jet phis
Getting jet Es
Calculating Xwt
Calculating Xhh
Scaling pt.
Scaling E.
Saving  /u/ki/nhartman/gpfs/diHiggs4b/data/data_16_PFlow-MAY2019-5jets/files/df_periodL_f_0.22_000036_entry_0_500000_scaledInputs.h5
Getting jet pts
Getting jet etas
Getting jet phis
Getting jet Es
Getting jet pts
Getting jet etas
Getting jet phis
Getting jet Es
Calculating Xwt
Calculating Xhh
Scaling pt.
Scaling E.
Saving  /u/ki/nhartman/gpfs/diHiggs4b/data/data_16_PFlow-MAY2019-5jets/files/df_periodL_f_0.22_000036_entry_500000_1000000_scaledInputs.h5
Getting jet pts
Getting jet etas
Getting jet phis
Getting jet Es
Getting jet pts
Getting jet etas
Getting jet phis
Getting jet Es
Calculating Xwt
Calculating Xhh
Scaling pt.
Scaling E.
Saving  /u/ki/nhartman/gpfs/diHiggs4b/data/data_16_PFlow-MAY2019-5jets/files/df_periodL_f_0.22_000027_entry_0_500000_scaledInputs.h5
Getting jet pts
Getting jet etas
Getting jet phis
Getting jet Es
Getting jet pts
Getting jet etas
Getting jet phis
Getting jet Es
Calculating Xwt
Calculating Xhh
Scaling pt.
Scaling E.
Saving  /u/ki/nhartman/gpfs/diHiggs4b/data/data_16_PFlow-MAY2019-5jets/files/df_periodL_f_0.22_000026_entry_500000_1000000_scaledInputs.h5
Getting jet pts
Getting jet etas
Getting jet phis
Getting jet Es
Getting jet pts
Getting jet etas
Getting jet phis
Getting jet Es
Calculating Xwt
Calculating Xhh
Scaling pt.
Scaling E.
Saving  /u/ki/nhartman/gpfs/diHiggs4b/data/data_16_PFlow-MAY2019-5jets/files/df_periodL_f_0.22_000010_entry_0_500000_scaledInputs.h5
Getting jet pts
Getting jet etas
Getting jet phis
Getting jet Es
Getting jet pts
Getting jet etas
Getting jet phis
Getting jet Es
Calculating Xwt
Calculating Xhh
Scaling pt.
Scaling E.
Saving  /u/ki/nhartman/gpfs/diHiggs4b/data/data_16_PFlow-MAY2019-5jets/files/df_periodL_f_0.22_000039_entry_0_500000_scaledInputs.h5
Getting jet pts
Getting jet etas
Getting jet phis
Getting jet Es
Getting jet pts
Getting jet etas
Getting jet phis
Getting jet Es
Calculating Xwt
Calculating Xhh
Scaling pt.
Scaling E.
Saving  /u/ki/nhartman/gpfs/diHiggs4b/data/data_16_PFlow-MAY2019-5jets/files/df_periodL_f_0.22_000005_entry_0_500000_scaledInputs.h5
Getting jet pts
Getting jet etas
Getting jet phis
Getting jet Es
Getting jet pts
Getting jet etas
Getting jet phis
Getting jet Es
Calculating Xwt
Calculating Xhh
Scaling pt.
Scaling E.
Saving  /u/ki/nhartman/gpfs/diHiggs4b/data/data_16_PFlow-MAY2019-5jets/files/df_periodL_f_0.22_000042_entry_0_500000_scaledInputs.h5
Getting jet pts
Getting jet etas
Getting jet phis
Getting jet Es
Getting jet pts
Getting jet etas
Getting jet phis
Getting jet Es
Calculating Xwt
Calculating Xhh
Scaling pt.
Scaling E.
Saving  /u/ki/nhartman/gpfs/diHiggs4b/data/data_16_PFlow-MAY2019-5jets/files/df_periodL_f_0.22_000007_entry_0_500000_scaledInputs.h5
Getting jet pts
Getting jet etas
Getting jet phis
Getting jet Es
Getting jet pts
Getting jet etas
Getting jet phis
Getting jet Es
Calculating Xwt
Calculating Xhh
Scaling pt.
Scaling E.
Saving  /u/ki/nhartman/gpfs/diHiggs4b/data/data_16_PFlow-MAY2019-5jets/files/df_periodL_f_0.22_000032_entry_500000_1000000_scaledInputs.h5
Getting jet pts
Getting jet etas
Getting jet phis
Getting jet Es
Getting jet pts
Getting jet etas
Getting jet phis
Getting jet Es
Calculating Xwt
Calculating Xhh
Scaling pt.
Scaling E.
Saving  /u/ki/nhartman/gpfs/diHiggs4b/data/data_16_PFlow-MAY2019-5jets/files/df_periodL_f_0.22_000013_entry_500000_1000000_scaledInputs.h5
Getting jet pts
Getting jet etas
Getting jet phis
Getting jet Es
Getting jet pts
Getting jet etas
Getting jet phis
Getting jet Es
Calculating Xwt
Calculating Xhh
Scaling pt.
Scaling E.
Saving  /u/ki/nhartman/gpfs/diHiggs4b/data/data_16_PFlow-MAY2019-5jets/files/df_periodL_f_0.22_000044_entry_0_500000_scaledInputs.h5
Getting jet pts
Getting jet etas
Getting jet phis
Getting jet Es
Getting jet pts
Getting jet etas
Getting jet phis
Getting jet Es
Calculating Xwt
Calculating Xhh
Scaling pt.
Scaling E.
Saving  /u/ki/nhartman/gpfs/diHiggs4b/data/data_16_PFlow-MAY2019-5jets/files/df_periodL_f_0.22_000030_entry_0_500000_scaledInputs.h5
Getting jet pts
Getting jet etas
Getting jet phis
Getting jet Es
Getting jet pts
Getting jet etas
Getting jet phis
Getting jet Es
Calculating Xwt
Calculating Xhh
Scaling pt.
Scaling E.
Saving  /u/ki/nhartman/gpfs/diHiggs4b/data/data_16_PFlow-MAY2019-5jets/files/df_periodL_f_0.22_000003_entry_0_500000_scaledInputs.h5
Getting jet pts
Getting jet etas
Getting jet phis
Getting jet Es
Getting jet pts
Getting jet etas
Getting jet phis
Getting jet Es
Calculating Xwt
Calculating Xhh
Scaling pt.
Scaling E.
Saving  /u/ki/nhartman/gpfs/diHiggs4b/data/data_16_PFlow-MAY2019-5jets/files/df_periodL_f_0.22_000034_entry_500000_1000000_scaledInputs.h5
Getting jet pts
Getting jet etas
Getting jet phis
Getting jet Es
Getting jet pts
Getting jet etas
Getting jet phis
Getting jet Es
Calculating Xwt
Calculating Xhh
Scaling pt.
Scaling E.
Saving  /u/ki/nhartman/gpfs/diHiggs4b/data/data_16_PFlow-MAY2019-5jets/files/df_periodL_f_0.22_000016_entry_500000_1000000_scaledInputs.h5
Getting jet pts
Getting jet etas
Getting jet phis
Getting jet Es
Getting jet pts
Getting jet etas
Getting jet phis
Getting jet Es
Calculating Xwt
Calculating Xhh
Scaling pt.
Scaling E.
Saving  /u/ki/nhartman/gpfs/diHiggs4b/data/data_16_PFlow-MAY2019-5jets/files/df_periodL_f_0.22_000033_entry_500000_1000000_scaledInputs.h5
Getting jet pts
Getting jet etas
Getting jet phis
Getting jet Es
Getting jet pts
Getting jet etas
Getting jet phis
Getting jet Es
Calculating Xwt
Calculating Xhh
Scaling pt.
Scaling E.
Saving  /u/ki/nhartman/gpfs/diHiggs4b/data/data_16_PFlow-MAY2019-5jets/files/df_periodL_f_0.22_000028_entry_500000_1000000_scaledInputs.h5
Getting jet pts
Getting jet etas
Getting jet phis
Getting jet Es
Getting jet pts
Getting jet etas
Getting jet phis
Getting jet Es
Calculating Xwt
Calculating Xhh
Scaling pt.
Scaling E.
Saving  /u/ki/nhartman/gpfs/diHiggs4b/data/data_16_PFlow-MAY2019-5jets/files/df_periodL_f_0.22_000040_entry_0_500000_scaledInputs.h5
Getting jet pts
Getting jet etas
Getting jet phis
Getting jet Es
Getting jet pts
Getting jet etas
Getting jet phis
Getting jet Es
Calculating Xwt
Calculating Xhh
Traceback (most recent call last):
  File "processData.py", line 85, in <module>
    print("period 'all' configuration for concatenating the dfs is not implemented yet.")
  File "processData.py", line 26, in concatDfs
    dfi = pairAndProcess(myFile,nbtags,region)
  File "/gpfs/slac/atlas/fs1/d/nhartman/diHiggs4b/GraphNN/preprocess.py", line 402, in pairAndProcess
    df = transformData(inputFile,scalingFile)
  File "/gpfs/slac/atlas/fs1/d/nhartman/diHiggs4b/GraphNN/preprocess.py", line 107, in transformData
    df = pd.read_hdf(inputFile,key='df')
  File "/opt/conda/lib/python3.6/site-packages/pandas/io/pytables.py", line 407, in read_hdf
    return store.select(key, auto_close=auto_close, **kwargs)
  File "/opt/conda/lib/python3.6/site-packages/pandas/io/pytables.py", line 782, in select
    return it.get_result()
  File "/opt/conda/lib/python3.6/site-packages/pandas/io/pytables.py", line 1639, in get_result
    results = self.func(self.start, self.stop, where)
  File "/opt/conda/lib/python3.6/site-packages/pandas/io/pytables.py", line 766, in func
    return s.read(start=_start, stop=_stop, where=_where, columns=columns)
  File "/opt/conda/lib/python3.6/site-packages/pandas/io/pytables.py", line 3204, in read
    blk_items = self.read_index("block{idx}_items".format(idx=i))
  File "/opt/conda/lib/python3.6/site-packages/pandas/io/pytables.py", line 2771, in read_index
    _, index = self.read_index_node(getattr(self.group, key), **kwargs)
  File "/opt/conda/lib/python3.6/site-packages/pandas/io/pytables.py", line 2877, in read_index_node
    data = node[start:stop]
  File "/opt/conda/lib/python3.6/site-packages/tables/array.py", line 658, in __getitem__
    arr = self._read_slice(startl, stopl, stepl, shape)
  File "/opt/conda/lib/python3.6/site-packages/tables/array.py", line 762, in _read_slice
    self._g_read_slice(startl, stopl, stepl, nparr)
KeyboardInterrupt
Closing remaining open files:/u/ki/nhartman/gpfs/diHiggs4b/data/data_16_PFlow-MAY2019-5jets/files/df_periodL_f_0.22_000016_entry_0_500000.h5...done
 43%|####2     | 24/56 [17:06<22:48, 42.75s/it]

------------------------------------------------------------
Sender: LSF System <lsf@atlprf05>
Subject: Job 816403: <data_16_PFlow-MAY2019-5jets_periodL_3b_SB> in cluster <slac> Exited

Job <data_16_PFlow-MAY2019-5jets_periodL_3b_SB> was submitted from host <rhel6-64d> by user <nhartman> in cluster <slac> at Mon Jan 13 04:43:14 2020
Job was executed on host(s) <atlprf05>, in queue <atlas-t3>, as user <nhartman> in cluster <slac> at Mon Jan 13 04:43:50 2020
</u/ki/nhartman> was used as the home directory.
</u/ki/nhartman/gpfs/diHiggs4b> was used as the working directory.
Started at Mon Jan 13 04:43:50 2020
Terminated at Mon Jan 13 05:01:04 2020
Results reported at Mon Jan 13 05:01:04 2020

Your job looked like:

------------------------------------------------------------
# LSBATCH: User input
singularity exec docker://gitlab-registry.cern.ch/hartman/ml-gpu/ml-gpu:latest ./tmp_data_16_PFlow-MAY2019-5jets_periodL_3b_SB.sh
------------------------------------------------------------

TERM_OWNER: job killed by owner.
Exited with exit code 130.

Resource usage summary:

    CPU time :                                   977.93 sec.
    Max Memory :                                 5131 MB
    Average Memory :                             2734.45 MB
    Total Requested Memory :                     -
    Delta Memory :                               -
    Max Swap :                                   8589 MB
    Max Processes :                              5
    Max Threads :                                30
    Run time :                                   1034 sec.
    Turnaround time :                            1070 sec.

The output (if any) is above this job summary.

