time="2020-02-07T13:17:53-08:00" level=warning msg="\"/run/user/14660\" directory set by $XDG_RUNTIME_DIR does not exist. Either create the directory or unset $XDG_RUNTIME_DIR.: stat /run/user/14660: no such file or directory: Trying to pull image in the event that it is a public image."
df_f_0.22_2b.h5
df_f_0.22_2b_SB_rw_vars.h5
df_f_0.22_3b.h5
df_f_0.22_4b_SB_rw_vars.h5
df_f_0.22_NNT_HCs.h5
df_f_0.22_fullmassplane.h5
df_f_0.22_rw_vars.h5
df_periodABCDEFG_f_0.22_fullmassplane.h5
df_periodABC_f_0.22_fullmassplane.h5
files
old_files
  0%|          | 0/11 [00:00<?, ?it/s]/opt/conda/lib/python3.6/site-packages/pandas/core/generic.py:2530: PerformanceWarning: 
your performance may suffer as PyTables will pickle object types that it cannot
map directly to c-types [inferred_type->mixed,key->block4_values] [items->['passedTriggerHashes', 'resolvedJets_E', 'resolvedJets_pt', 'resolvedJets_phi', 'resolvedJets_eta', 'resolvedJets_MV2c10', 'resolvedJets_is_MV2c10_FixedCutBEff_70', 'muon_pt', 'muon_eta', 'muon_phi', 'muon_m', 'muon_EnergyLoss']]

  pytables.to_hdf(path_or_buf, key, self, **kwargs)
  9%|9         | 1/11 [00:22<03:42, 22.22s/it] 18%|#8        | 2/11 [00:35<02:56, 19.62s/it] 27%|##7       | 3/11 [02:04<05:23, 40.38s/it] 36%|###6      | 4/11 [03:34<06:25, 55.10s/it] 45%|####5     | 5/11 [05:03<06:32, 65.41s/it] 55%|#####4    | 6/11 [05:30<04:30, 54.00s/it] 64%|######3   | 7/11 [06:23<03:34, 53.67s/it] 73%|#######2  | 8/11 [07:07<02:31, 50.54s/it] 82%|########1 | 9/11 [07:18<01:17, 38.96s/it] 91%|######### | 10/11 [08:25<00:47, 47.22s/it]100%|##########| 11/11 [09:21<00:00, 50.00s/it]100%|##########| 11/11 [09:21<00:00, 51.08s/it]
['run_number', 'event_number', 'mc_sf', 'ntag', 'njets', 'kinematic_region', 'm_hh', 'pt_hh', 'X_wt', 'm_hh_cor', 'pT_h1', 'eta_h1', 'phi_h1', 'm_h1', 'dRjj_h1', 'pT_h2', 'eta_h2', 'phi_h2', 'm_h2', 'dRjj_h2', 'pT_2', 'pT_4', 'eta_i', 'dRjj_1', 'dRjj_2', 'cosThetaStar', 'cosTheta1', 'cosTheta2', 'Phi', 'Phi1', 'HT', 'MDR', 'MDpT', 'cut_deta_hh', 'cut_Xwt', 'ml_j0_pt', 'ml_j1_pt', 'ml_j2_pt', 'ml_j3_pt', 'ml_j4_pt', 'ml_j0_eta', 'ml_j1_eta', 'ml_j2_eta', 'ml_j3_eta', 'ml_j4_eta', 'ml_j0_phi', 'ml_j1_phi', 'ml_j2_phi', 'ml_j3_phi', 'ml_j4_phi', 'ml_j0_E', 'ml_j1_E', 'ml_j2_E', 'ml_j3_E', 'ml_j4_E', 'ml_j0_Db', 'ml_j1_Db', 'ml_j2_Db', 'ml_j3_Db', 'ml_j4_Db', 'idx_HC0_j0', 'idx_HC0_j1', 'idx_HC1_j0', 'idx_HC1_j1']
Scaling pt.
Scaling E.
Saving  /u/ki/nhartman/gpfs/diHiggs4b/data/data_16_PFlow-MAY2019-5jets/files/df_periodE_f_0.22_000007_entry_500000_1000000_scaledInputs.h5
Getting jet pts
Getting jet etas
Getting jet phis
Getting jet Es
Calculating Xwt
Calculating Xhh
run_number
event_number
mc_sf
ntag
njets
kinematic_region
m_hh
pt_hh
X_wt
m_hh_cor
pT_h1
eta_h1
phi_h1
m_h1
dRjj_h1
pT_h2
eta_h2
phi_h2
m_h2
dRjj_h2
pT_2
pT_4
eta_i
dRjj_1
dRjj_2
cosThetaStar
cosTheta1
cosTheta2
Phi
Phi1
HT
MDR
MDpT
cut_deta_hh
cut_Xwt
ml_j0_pt
ml_j1_pt
ml_j2_pt
ml_j3_pt
ml_j4_pt
ml_j0_eta
ml_j1_eta
ml_j2_eta
ml_j3_eta
ml_j4_eta
ml_j0_phi
ml_j1_phi
ml_j2_phi
ml_j3_phi
ml_j4_phi
ml_j0_E
ml_j1_E
ml_j2_E
ml_j3_E
ml_j4_E
ml_j0_Db
ml_j1_Db
ml_j2_Db
ml_j3_Db
ml_j4_Db
idx_HC0_j0
idx_HC0_j1
idx_HC1_j0
idx_HC1_j1
Scaling pt.
Scaling E.
Saving  /u/ki/nhartman/gpfs/diHiggs4b/data/data_16_PFlow-MAY2019-5jets/files/df_periodE_f_0.22_000008_entry_500000_1000000_scaledInputs.h5
Getting jet pts
Getting jet etas
Getting jet phis
Getting jet Es
Calculating Xwt
Calculating Xhh
run_number
event_number
mc_sf
ntag
njets
kinematic_region
m_hh
pt_hh
X_wt
m_hh_cor
pT_h1
eta_h1
phi_h1
m_h1
dRjj_h1
pT_h2
eta_h2
phi_h2
m_h2
dRjj_h2
pT_2
pT_4
eta_i
dRjj_1
dRjj_2
cosThetaStar
cosTheta1
cosTheta2
Phi
Phi1
HT
MDR
MDpT
cut_deta_hh
cut_Xwt
ml_j0_pt
ml_j1_pt
ml_j2_pt
ml_j3_pt
ml_j4_pt
ml_j0_eta
ml_j1_eta
ml_j2_eta
ml_j3_eta
ml_j4_eta
ml_j0_phi
ml_j1_phi
ml_j2_phi
ml_j3_phi
ml_j4_phi
ml_j0_E
ml_j1_E
ml_j2_E
ml_j3_E
ml_j4_E
ml_j0_Db
ml_j1_Db
ml_j2_Db
ml_j3_Db
ml_j4_Db
idx_HC0_j0
idx_HC0_j1
idx_HC1_j0
idx_HC1_j1
Scaling pt.
Scaling E.
Saving  /u/ki/nhartman/gpfs/diHiggs4b/data/data_16_PFlow-MAY2019-5jets/files/df_periodE_f_0.22_000008_entry_0_500000_scaledInputs.h5
Getting jet pts
Getting jet etas
Getting jet phis
Getting jet Es
Calculating Xwt
Calculating Xhh
run_number
event_number
mc_sf
ntag
njets
kinematic_region
m_hh
pt_hh
X_wt
m_hh_cor
pT_h1
eta_h1
phi_h1
m_h1
dRjj_h1
pT_h2
eta_h2
phi_h2
m_h2
dRjj_h2
pT_2
pT_4
eta_i
dRjj_1
dRjj_2
cosThetaStar
cosTheta1
cosTheta2
Phi
Phi1
HT
MDR
MDpT
cut_deta_hh
cut_Xwt
ml_j0_pt
ml_j1_pt
ml_j2_pt
ml_j3_pt
ml_j4_pt
ml_j0_eta
ml_j1_eta
ml_j2_eta
ml_j3_eta
ml_j4_eta
ml_j0_phi
ml_j1_phi
ml_j2_phi
ml_j3_phi
ml_j4_phi
ml_j0_E
ml_j1_E
ml_j2_E
ml_j3_E
ml_j4_E
ml_j0_Db
ml_j1_Db
ml_j2_Db
ml_j3_Db
ml_j4_Db
idx_HC0_j0
idx_HC0_j1
idx_HC1_j0
idx_HC1_j1
Scaling pt.
Scaling E.
Saving  /u/ki/nhartman/gpfs/diHiggs4b/data/data_16_PFlow-MAY2019-5jets/files/df_periodE_f_0.22_000007_entry_0_500000_scaledInputs.h5
Getting jet pts
Getting jet etas
Getting jet phis
Getting jet Es
Calculating Xwt
Calculating Xhh
run_number
event_number
mc_sf
ntag
njets
kinematic_region
m_hh
pt_hh
X_wt
m_hh_cor
pT_h1
eta_h1
phi_h1
m_h1
dRjj_h1
pT_h2
eta_h2
phi_h2
m_h2
dRjj_h2
pT_2
pT_4
eta_i
dRjj_1
dRjj_2
cosThetaStar
cosTheta1
cosTheta2
Phi
Phi1
HT
MDR
MDpT
cut_deta_hh
cut_Xwt
ml_j0_pt
ml_j1_pt
ml_j2_pt
ml_j3_pt
ml_j4_pt
ml_j0_eta
ml_j1_eta
ml_j2_eta
ml_j3_eta
ml_j4_eta
ml_j0_phi
ml_j1_phi
ml_j2_phi
ml_j3_phi
ml_j4_phi
ml_j0_E
ml_j1_E
ml_j2_E
ml_j3_E
ml_j4_E
ml_j0_Db
ml_j1_Db
ml_j2_Db
ml_j3_Db
ml_j4_Db
idx_HC0_j0
idx_HC0_j1
idx_HC1_j0
idx_HC1_j1
Scaling pt.
Scaling E.
Saving  /u/ki/nhartman/gpfs/diHiggs4b/data/data_16_PFlow-MAY2019-5jets/files/df_periodE_f_0.22_000009_entry_0_500000_scaledInputs.h5
Getting jet pts
Getting jet etas
Getting jet phis
Getting jet Es
Calculating Xwt
Calculating Xhh
run_number
event_number
mc_sf
ntag
njets
kinematic_region
m_hh
pt_hh
X_wt
m_hh_cor
pT_h1
eta_h1
phi_h1
m_h1
dRjj_h1
pT_h2
eta_h2
phi_h2
m_h2
dRjj_h2
pT_2
pT_4
eta_i
dRjj_1
dRjj_2
cosThetaStar
cosTheta1
cosTheta2
Phi
Phi1
HT
MDR
MDpT
cut_deta_hh
cut_Xwt
ml_j0_pt
ml_j1_pt
ml_j2_pt
ml_j3_pt
ml_j4_pt
ml_j0_eta
ml_j1_eta
ml_j2_eta
ml_j3_eta
ml_j4_eta
ml_j0_phi
ml_j1_phi
ml_j2_phi
ml_j3_phi
ml_j4_phi
ml_j0_E
ml_j1_E
ml_j2_E
ml_j3_E
ml_j4_E
ml_j0_Db
ml_j1_Db
ml_j2_Db
ml_j3_Db
ml_j4_Db
idx_HC0_j0
idx_HC0_j1
idx_HC1_j0
idx_HC1_j1
Scaling pt.
Scaling E.
Saving  /u/ki/nhartman/gpfs/diHiggs4b/data/data_16_PFlow-MAY2019-5jets/files/df_periodE_f_0.22_000009_entry_500000_1000000_scaledInputs.h5
Getting jet pts
Getting jet etas
Getting jet phis
Getting jet Es
Calculating Xwt
Calculating Xhh
run_number
event_number
mc_sf
ntag
njets
kinematic_region
m_hh
pt_hh
X_wt
m_hh_cor
pT_h1
eta_h1
phi_h1
m_h1
dRjj_h1
pT_h2
eta_h2
phi_h2
m_h2
dRjj_h2
pT_2
pT_4
eta_i
dRjj_1
dRjj_2
cosThetaStar
cosTheta1
cosTheta2
Phi
Phi1
HT
MDR
MDpT
cut_deta_hh
cut_Xwt
ml_j0_pt
ml_j1_pt
ml_j2_pt
ml_j3_pt
ml_j4_pt
ml_j0_eta
ml_j1_eta
ml_j2_eta
ml_j3_eta
ml_j4_eta
ml_j0_phi
ml_j1_phi
ml_j2_phi
ml_j3_phi
ml_j4_phi
ml_j0_E
ml_j1_E
ml_j2_E
ml_j3_E
ml_j4_E
ml_j0_Db
ml_j1_Db
ml_j2_Db
ml_j3_Db
ml_j4_Db
idx_HC0_j0
idx_HC0_j1
idx_HC1_j0
idx_HC1_j1
Scaling pt.
Scaling E.
Saving  /u/ki/nhartman/gpfs/diHiggs4b/data/data_16_PFlow-MAY2019-5jets/files/df_periodE_f_0.22_000001_entry_0_500000_scaledInputs.h5
Getting jet pts
Getting jet etas
Getting jet phis
Getting jet Es
Calculating Xwt
Calculating Xhh
run_number
event_number
mc_sf
ntag
njets
kinematic_region
m_hh
pt_hh
X_wt
m_hh_cor
pT_h1
eta_h1
phi_h1
m_h1
dRjj_h1
pT_h2
eta_h2
phi_h2
m_h2
dRjj_h2
pT_2
pT_4
eta_i
dRjj_1
dRjj_2
cosThetaStar
cosTheta1
cosTheta2
Phi
Phi1
HT
MDR
MDpT
cut_deta_hh
cut_Xwt
ml_j0_pt
ml_j1_pt
ml_j2_pt
ml_j3_pt
ml_j4_pt
ml_j0_eta
ml_j1_eta
ml_j2_eta
ml_j3_eta
ml_j4_eta
ml_j0_phi
ml_j1_phi
ml_j2_phi
ml_j3_phi
ml_j4_phi
ml_j0_E
ml_j1_E
ml_j2_E
ml_j3_E
ml_j4_E
ml_j0_Db
ml_j1_Db
ml_j2_Db
ml_j3_Db
ml_j4_Db
idx_HC0_j0
idx_HC0_j1
idx_HC1_j0
idx_HC1_j1
Scaling pt.
Scaling E.
Saving  /u/ki/nhartman/gpfs/diHiggs4b/data/data_16_PFlow-MAY2019-5jets/files/df_periodE_f_0.22_000005_entry_0_500000_scaledInputs.h5
Getting jet pts
Getting jet etas
Getting jet phis
Getting jet Es
Calculating Xwt
Calculating Xhh
run_number
event_number
mc_sf
ntag
njets
kinematic_region
m_hh
pt_hh
X_wt
m_hh_cor
pT_h1
eta_h1
phi_h1
m_h1
dRjj_h1
pT_h2
eta_h2
phi_h2
m_h2
dRjj_h2
pT_2
pT_4
eta_i
dRjj_1
dRjj_2
cosThetaStar
cosTheta1
cosTheta2
Phi
Phi1
HT
MDR
MDpT
cut_deta_hh
cut_Xwt
ml_j0_pt
ml_j1_pt
ml_j2_pt
ml_j3_pt
ml_j4_pt
ml_j0_eta
ml_j1_eta
ml_j2_eta
ml_j3_eta
ml_j4_eta
ml_j0_phi
ml_j1_phi
ml_j2_phi
ml_j3_phi
ml_j4_phi
ml_j0_E
ml_j1_E
ml_j2_E
ml_j3_E
ml_j4_E
ml_j0_Db
ml_j1_Db
ml_j2_Db
ml_j3_Db
ml_j4_Db
idx_HC0_j0
idx_HC0_j1
idx_HC1_j0
idx_HC1_j1
Scaling pt.
Scaling E.
Saving  /u/ki/nhartman/gpfs/diHiggs4b/data/data_16_PFlow-MAY2019-5jets/files/df_periodE_f_0.22_000006_entry_500000_1000000_scaledInputs.h5
Getting jet pts
Getting jet etas
Getting jet phis
Getting jet Es
Calculating Xwt
Calculating Xhh
run_number
event_number
mc_sf
ntag
njets
kinematic_region
m_hh
pt_hh
X_wt
m_hh_cor
pT_h1
eta_h1
phi_h1
m_h1
dRjj_h1
pT_h2
eta_h2
phi_h2
m_h2
dRjj_h2
pT_2
pT_4
eta_i
dRjj_1
dRjj_2
cosThetaStar
cosTheta1
cosTheta2
Phi
Phi1
HT
MDR
MDpT
cut_deta_hh
cut_Xwt
ml_j0_pt
ml_j1_pt
ml_j2_pt
ml_j3_pt
ml_j4_pt
ml_j0_eta
ml_j1_eta
ml_j2_eta
ml_j3_eta
ml_j4_eta
ml_j0_phi
ml_j1_phi
ml_j2_phi
ml_j3_phi
ml_j4_phi
ml_j0_E
ml_j1_E
ml_j2_E
ml_j3_E
ml_j4_E
ml_j0_Db
ml_j1_Db
ml_j2_Db
ml_j3_Db
ml_j4_Db
idx_HC0_j0
idx_HC0_j1
idx_HC1_j0
idx_HC1_j1
Scaling pt.
Scaling E.
Saving  /u/ki/nhartman/gpfs/diHiggs4b/data/data_16_PFlow-MAY2019-5jets/files/df_periodE_f_0.22_000002_entry_0_500000_scaledInputs.h5
Getting jet pts
Getting jet etas
Getting jet phis
Getting jet Es
Calculating Xwt
Calculating Xhh
run_number
event_number
mc_sf
ntag
njets
kinematic_region
m_hh
pt_hh
X_wt
m_hh_cor
pT_h1
eta_h1
phi_h1
m_h1
dRjj_h1
pT_h2
eta_h2
phi_h2
m_h2
dRjj_h2
pT_2
pT_4
eta_i
dRjj_1
dRjj_2
cosThetaStar
cosTheta1
cosTheta2
Phi
Phi1
HT
MDR
MDpT
cut_deta_hh
cut_Xwt
ml_j0_pt
ml_j1_pt
ml_j2_pt
ml_j3_pt
ml_j4_pt
ml_j0_eta
ml_j1_eta
ml_j2_eta
ml_j3_eta
ml_j4_eta
ml_j0_phi
ml_j1_phi
ml_j2_phi
ml_j3_phi
ml_j4_phi
ml_j0_E
ml_j1_E
ml_j2_E
ml_j3_E
ml_j4_E
ml_j0_Db
ml_j1_Db
ml_j2_Db
ml_j3_Db
ml_j4_Db
idx_HC0_j0
idx_HC0_j1
idx_HC1_j0
idx_HC1_j1
Scaling pt.
Scaling E.
Saving  /u/ki/nhartman/gpfs/diHiggs4b/data/data_16_PFlow-MAY2019-5jets/files/df_periodE_f_0.22_000004_entry_0_500000_scaledInputs.h5
Getting jet pts
Getting jet etas
Getting jet phis
Getting jet Es
Calculating Xwt
Calculating Xhh
run_number
event_number
mc_sf
ntag
njets
kinematic_region
m_hh
pt_hh
X_wt
m_hh_cor
pT_h1
eta_h1
phi_h1
m_h1
dRjj_h1
pT_h2
eta_h2
phi_h2
m_h2
dRjj_h2
pT_2
pT_4
eta_i
dRjj_1
dRjj_2
cosThetaStar
cosTheta1
cosTheta2
Phi
Phi1
HT
MDR
MDpT
cut_deta_hh
cut_Xwt
ml_j0_pt
ml_j1_pt
ml_j2_pt
ml_j3_pt
ml_j4_pt
ml_j0_eta
ml_j1_eta
ml_j2_eta
ml_j3_eta
ml_j4_eta
ml_j0_phi
ml_j1_phi
ml_j2_phi
ml_j3_phi
ml_j4_phi
ml_j0_E
ml_j1_E
ml_j2_E
ml_j3_E
ml_j4_E
ml_j0_Db
ml_j1_Db
ml_j2_Db
ml_j3_Db
ml_j4_Db
idx_HC0_j0
idx_HC0_j1
idx_HC1_j0
idx_HC1_j1
Saving /u/ki/nhartman/gpfs/diHiggs4b/data/data_16_PFlow-MAY2019-5jets/files/df_periodE_f_0.22_mlJetInputs.h5

------------------------------------------------------------
Sender: LSF System <lsf@atlprf08>
Subject: Job 976717: <data_16_PFlow-MAY2019-5jets_periodE_-1b_all_jetInputs> in cluster <slac> Done

Job <data_16_PFlow-MAY2019-5jets_periodE_-1b_all_jetInputs> was submitted from host <cent7d> by user <nhartman> in cluster <slac> at Fri Feb  7 13:17:48 2020
Job was executed on host(s) <atlprf08>, in queue <atlas-t3>, as user <nhartman> in cluster <slac> at Fri Feb  7 13:17:52 2020
</u/ki/nhartman> was used as the home directory.
</u/ki/nhartman/gpfs/diHiggs4b> was used as the working directory.
Started at Fri Feb  7 13:17:52 2020
Terminated at Fri Feb  7 13:27:30 2020
Results reported at Fri Feb  7 13:27:30 2020

Your job looked like:

------------------------------------------------------------
# LSBATCH: User input
singularity exec docker://gitlab-registry.cern.ch/hartman/ml-gpu/ml-gpu:latest ./tmp_data_16_PFlow-MAY2019-5jets_periodE_-1b_all_jetInputs.sh
------------------------------------------------------------

Successfully completed.

Resource usage summary:

    CPU time :                                   511.66 sec.
    Max Memory :                                 5487 MB
    Average Memory :                             2957.19 MB
    Total Requested Memory :                     -
    Delta Memory :                               -
    Max Swap :                                   8945 MB
    Max Processes :                              5
    Max Threads :                                30
    Run time :                                   578 sec.
    Turnaround time :                            582 sec.

The output (if any) is above this job summary.

