label,pull,err
high_HT16_3b1f_0,1.0697,0.3319
high_HT16_3b1f_1,0.8538,0.4045
high_HT17_3b1f_0,0.1523,0.2190
high_HT17_3b1f_1,0.4903,0.3796
high_HT18_3b1f_0,1.8118,0.3992
high_HT18_3b1f_1,0.6351,0.2655
low_HT16_3b1f_0,0.8874,0.1905
low_HT16_3b1f_1,1.2841,0.3962
low_HT17_3b1f_0,0.8205,0.2374
low_HT17_3b1f_1,1.4663,0.5994
low_HT18_3b1f_0,1.2946,0.2197
low_HT18_3b1f_1,1.0075,0.4016
uncorr_bkguncrt16cat_3b1f_0_Xhh-0.0-0.95[00],-0.5756,0.8878
uncorr_bkguncrt16cat_3b1f_0_Xhh-0.0-0.95[01],0.2587,0.8856
uncorr_bkguncrt16cat_3b1f_0_Xhh-0.0-0.95[02],0.6272,0.8818
uncorr_bkguncrt16cat_3b1f_0_Xhh-0.0-0.95[03],0.7535,0.8812
uncorr_bkguncrt16cat_3b1f_0_Xhh-0.0-0.95[04],-0.2613,0.8850
uncorr_bkguncrt16cat_3b1f_0_Xhh-0.0-0.95[05],-0.2594,0.8947
uncorr_bkguncrt16cat_3b1f_0_Xhh-0.0-0.95[06],-0.5446,0.8997
uncorr_bkguncrt16cat_3b1f_0_Xhh-0.0-0.95[07],-0.2421,0.9110
uncorr_bkguncrt16cat_3b1f_0_Xhh-0.0-0.95[08],-0.4285,0.9111
uncorr_bkguncrt16cat_3b1f_0_Xhh-0.0-0.95[09],0.2904,0.9225
uncorr_bkguncrt16cat_3b1f_0_Xhh-0.0-0.95[10],-0.3025,0.9109
uncorr_bkguncrt16cat_3b1f_0_Xhh-0.0-0.95[11],-1.4422,0.8808
uncorr_bkguncrt16cat_3b1f_0_Xhh-0.0-0.95[12],-0.6547,0.8826
uncorr_bkguncrt16cat_3b1f_0_Xhh-0.0-0.95[13],0.2417,0.9402
uncorr_bkguncrt16cat_3b1f_0_Xhh-0.0-0.95[14],-0.6511,0.9064
uncorr_bkguncrt16cat_3b1f_0_Xhh-0.0-0.95[15],-0.4505,0.8979
uncorr_bkguncrt16cat_3b1f_0_Xhh-0.0-0.95[16],0.0243,0.9477
uncorr_bkguncrt16cat_3b1f_0_Xhh-0.0-0.95[17],-0.3972,0.9095
uncorr_bkguncrt16cat_3b1f_0_Xhh-0.95-1.6[00],-0.3820,0.8731
uncorr_bkguncrt16cat_3b1f_0_Xhh-0.95-1.6[01],-0.3305,0.8662
uncorr_bkguncrt16cat_3b1f_0_Xhh-0.95-1.6[02],-0.2979,0.8465
uncorr_bkguncrt16cat_3b1f_0_Xhh-0.95-1.6[03],0.5793,0.8475
uncorr_bkguncrt16cat_3b1f_0_Xhh-0.95-1.6[04],1.3302,0.8553
uncorr_bkguncrt16cat_3b1f_0_Xhh-0.95-1.6[05],-0.3699,0.8596
uncorr_bkguncrt16cat_3b1f_0_Xhh-0.95-1.6[06],0.2191,0.8690
uncorr_bkguncrt16cat_3b1f_0_Xhh-0.95-1.6[07],-0.0343,0.8736
uncorr_bkguncrt16cat_3b1f_0_Xhh-0.95-1.6[08],-0.1220,0.8875
uncorr_bkguncrt16cat_3b1f_0_Xhh-0.95-1.6[09],0.3766,0.8953
uncorr_bkguncrt16cat_3b1f_0_Xhh-0.95-1.6[10],0.1233,0.8924
uncorr_bkguncrt16cat_3b1f_0_Xhh-0.95-1.6[11],0.1879,0.8680
uncorr_bkguncrt16cat_3b1f_0_Xhh-0.95-1.6[12],0.4502,0.9052
uncorr_bkguncrt16cat_3b1f_0_Xhh-0.95-1.6[13],-0.8194,0.8877
uncorr_bkguncrt16cat_3b1f_0_Xhh-0.95-1.6[14],-0.0310,0.8985
uncorr_bkguncrt16cat_3b1f_0_Xhh-0.95-1.6[15],-0.1733,0.8652
uncorr_bkguncrt16cat_3b1f_0_Xhh-0.95-1.6[16],0.2622,0.9134
uncorr_bkguncrt16cat_3b1f_0_Xhh-0.95-1.6[17],0.5758,0.9566
uncorr_bkguncrt16cat_3b1f_1_Xhh-0.0-0.95[00],-0.5556,0.8627
uncorr_bkguncrt16cat_3b1f_1_Xhh-0.0-0.95[01],-0.4280,0.8715
uncorr_bkguncrt16cat_3b1f_1_Xhh-0.0-0.95[02],-0.0252,0.8916
uncorr_bkguncrt16cat_3b1f_1_Xhh-0.0-0.95[03],0.7235,0.9036
uncorr_bkguncrt16cat_3b1f_1_Xhh-0.0-0.95[04],0.7268,0.8997
uncorr_bkguncrt16cat_3b1f_1_Xhh-0.0-0.95[05],0.1355,0.8961
uncorr_bkguncrt16cat_3b1f_1_Xhh-0.0-0.95[06],-0.6092,0.8929
uncorr_bkguncrt16cat_3b1f_1_Xhh-0.0-0.95[07],-0.2010,0.8987
uncorr_bkguncrt16cat_3b1f_1_Xhh-0.0-0.95[08],-0.0429,0.9017
uncorr_bkguncrt16cat_3b1f_1_Xhh-0.0-0.95[09],0.1424,0.9087
uncorr_bkguncrt16cat_3b1f_1_Xhh-0.0-0.95[10],0.1749,0.9177
uncorr_bkguncrt16cat_3b1f_1_Xhh-0.0-0.95[11],-0.3914,0.9079
uncorr_bkguncrt16cat_3b1f_1_Xhh-0.0-0.95[12],-0.3910,0.9084
uncorr_bkguncrt16cat_3b1f_1_Xhh-0.0-0.95[13],0.1156,0.9283
uncorr_bkguncrt16cat_3b1f_1_Xhh-0.0-0.95[14],-0.4688,0.9034
uncorr_bkguncrt16cat_3b1f_1_Xhh-0.0-0.95[15],-0.5108,0.9009
uncorr_bkguncrt16cat_3b1f_1_Xhh-0.0-0.95[16],0.2458,0.9403
uncorr_bkguncrt16cat_3b1f_1_Xhh-0.0-0.95[17],-0.0289,0.9223
uncorr_bkguncrt16cat_3b1f_1_Xhh-0.95-1.6[00],0.1695,0.8731
uncorr_bkguncrt16cat_3b1f_1_Xhh-0.95-1.6[01],-0.0175,0.8700
uncorr_bkguncrt16cat_3b1f_1_Xhh-0.95-1.6[02],-0.2916,0.8603
uncorr_bkguncrt16cat_3b1f_1_Xhh-0.95-1.6[03],0.1244,0.8774
uncorr_bkguncrt16cat_3b1f_1_Xhh-0.95-1.6[04],-0.2014,0.8580
uncorr_bkguncrt16cat_3b1f_1_Xhh-0.95-1.6[05],0.0628,0.8555
uncorr_bkguncrt16cat_3b1f_1_Xhh-0.95-1.6[06],0.2865,0.8689
uncorr_bkguncrt16cat_3b1f_1_Xhh-0.95-1.6[07],0.0029,0.8725
uncorr_bkguncrt16cat_3b1f_1_Xhh-0.95-1.6[08],-0.3628,0.8777
uncorr_bkguncrt16cat_3b1f_1_Xhh-0.95-1.6[09],0.0149,0.8879
uncorr_bkguncrt16cat_3b1f_1_Xhh-0.95-1.6[10],0.3448,0.8921
uncorr_bkguncrt16cat_3b1f_1_Xhh-0.95-1.6[11],0.0453,0.8845
uncorr_bkguncrt16cat_3b1f_1_Xhh-0.95-1.6[12],0.4310,0.9002
uncorr_bkguncrt16cat_3b1f_1_Xhh-0.95-1.6[13],-0.2539,0.8847
uncorr_bkguncrt16cat_3b1f_1_Xhh-0.95-1.6[14],-0.0153,0.9051
uncorr_bkguncrt16cat_3b1f_1_Xhh-0.95-1.6[15],0.5306,0.8891
uncorr_bkguncrt16cat_3b1f_1_Xhh-0.95-1.6[16],-0.5187,0.8867
uncorr_bkguncrt16cat_3b1f_1_Xhh-0.95-1.6[17],-0.2291,0.8608
uncorr_bkguncrt17cat_3b1f_0_Xhh-0.0-0.95[00],-0.0907,0.8664
uncorr_bkguncrt17cat_3b1f_0_Xhh-0.0-0.95[01],0.1234,0.8633
uncorr_bkguncrt17cat_3b1f_0_Xhh-0.0-0.95[02],0.6359,0.8666
uncorr_bkguncrt17cat_3b1f_0_Xhh-0.0-0.95[03],0.1950,0.8545
uncorr_bkguncrt17cat_3b1f_0_Xhh-0.0-0.95[04],0.2690,0.8810
uncorr_bkguncrt17cat_3b1f_0_Xhh-0.0-0.95[05],0.0517,0.8670
uncorr_bkguncrt17cat_3b1f_0_Xhh-0.0-0.95[06],-0.0166,0.8829
uncorr_bkguncrt17cat_3b1f_0_Xhh-0.0-0.95[07],0.1187,0.9003
uncorr_bkguncrt17cat_3b1f_0_Xhh-0.0-0.95[08],1.3294,0.9275
uncorr_bkguncrt17cat_3b1f_0_Xhh-0.0-0.95[09],-0.0399,0.9006
uncorr_bkguncrt17cat_3b1f_0_Xhh-0.0-0.95[10],0.0656,0.9134
uncorr_bkguncrt17cat_3b1f_0_Xhh-0.0-0.95[11],0.4844,0.9127
uncorr_bkguncrt17cat_3b1f_0_Xhh-0.0-0.95[12],-0.3645,0.9015
uncorr_bkguncrt17cat_3b1f_0_Xhh-0.0-0.95[13],-0.5427,0.8562
uncorr_bkguncrt17cat_3b1f_0_Xhh-0.0-0.95[14],-0.0004,0.9296
uncorr_bkguncrt17cat_3b1f_0_Xhh-0.0-0.95[15],-0.6358,0.8161
uncorr_bkguncrt17cat_3b1f_0_Xhh-0.0-0.95[16],-0.5650,0.9067
uncorr_bkguncrt17cat_3b1f_0_Xhh-0.0-0.95[17],0.1776,0.9293
uncorr_bkguncrt17cat_3b1f_0_Xhh-0.95-1.6[00],-0.6872,0.8495
uncorr_bkguncrt17cat_3b1f_0_Xhh-0.95-1.6[01],-0.3599,0.8671
uncorr_bkguncrt17cat_3b1f_0_Xhh-0.95-1.6[02],0.6422,0.8315
uncorr_bkguncrt17cat_3b1f_0_Xhh-0.95-1.6[03],-0.0336,0.7989
uncorr_bkguncrt17cat_3b1f_0_Xhh-0.95-1.6[04],-0.2185,0.8360
uncorr_bkguncrt17cat_3b1f_0_Xhh-0.95-1.6[05],0.2539,0.8417
uncorr_bkguncrt17cat_3b1f_0_Xhh-0.95-1.6[06],-0.1302,0.8457
uncorr_bkguncrt17cat_3b1f_0_Xhh-0.95-1.6[07],0.4014,0.8583
uncorr_bkguncrt17cat_3b1f_0_Xhh-0.95-1.6[08],0.3568,0.8711
uncorr_bkguncrt17cat_3b1f_0_Xhh-0.95-1.6[09],-0.5275,0.8607
uncorr_bkguncrt17cat_3b1f_0_Xhh-0.95-1.6[10],0.3380,0.8749
uncorr_bkguncrt17cat_3b1f_0_Xhh-0.95-1.6[11],-1.1394,0.8412
uncorr_bkguncrt17cat_3b1f_0_Xhh-0.95-1.6[12],-0.9224,0.8609
uncorr_bkguncrt17cat_3b1f_0_Xhh-0.95-1.6[13],0.2050,0.8795
uncorr_bkguncrt17cat_3b1f_0_Xhh-0.95-1.6[14],0.5005,0.9032
uncorr_bkguncrt17cat_3b1f_0_Xhh-0.95-1.6[15],0.0314,0.8829
uncorr_bkguncrt17cat_3b1f_0_Xhh-0.95-1.6[16],0.0673,0.9025
uncorr_bkguncrt17cat_3b1f_0_Xhh-0.95-1.6[17],0.0430,0.9086
uncorr_bkguncrt17cat_3b1f_1_Xhh-0.0-0.95[00],0.4940,0.9129
uncorr_bkguncrt17cat_3b1f_1_Xhh-0.0-0.95[01],-0.1730,0.8510
uncorr_bkguncrt17cat_3b1f_1_Xhh-0.0-0.95[02],-0.9872,0.8305
uncorr_bkguncrt17cat_3b1f_1_Xhh-0.0-0.95[03],0.3388,0.8678
uncorr_bkguncrt17cat_3b1f_1_Xhh-0.0-0.95[04],0.0061,0.8707
uncorr_bkguncrt17cat_3b1f_1_Xhh-0.0-0.95[05],-0.0129,0.8732
uncorr_bkguncrt17cat_3b1f_1_Xhh-0.0-0.95[06],0.2843,0.8787
uncorr_bkguncrt17cat_3b1f_1_Xhh-0.0-0.95[07],-0.3617,0.8844
uncorr_bkguncrt17cat_3b1f_1_Xhh-0.0-0.95[08],-0.0116,0.8957
uncorr_bkguncrt17cat_3b1f_1_Xhh-0.0-0.95[09],0.8991,0.9090
uncorr_bkguncrt17cat_3b1f_1_Xhh-0.0-0.95[10],0.2739,0.9025
uncorr_bkguncrt17cat_3b1f_1_Xhh-0.0-0.95[11],0.2141,0.9046
uncorr_bkguncrt17cat_3b1f_1_Xhh-0.0-0.95[12],-0.3127,0.8874
uncorr_bkguncrt17cat_3b1f_1_Xhh-0.0-0.95[13],-0.2064,0.9022
uncorr_bkguncrt17cat_3b1f_1_Xhh-0.0-0.95[14],0.0353,0.9130
uncorr_bkguncrt17cat_3b1f_1_Xhh-0.0-0.95[15],0.2086,0.9203
uncorr_bkguncrt17cat_3b1f_1_Xhh-0.0-0.95[16],-0.4220,0.8992
uncorr_bkguncrt17cat_3b1f_1_Xhh-0.0-0.95[17],-0.8600,0.8275
uncorr_bkguncrt17cat_3b1f_1_Xhh-0.95-1.6[00],0.1919,0.8631
uncorr_bkguncrt17cat_3b1f_1_Xhh-0.95-1.6[01],0.7622,0.8532
uncorr_bkguncrt17cat_3b1f_1_Xhh-0.95-1.6[02],-0.2876,0.8223
uncorr_bkguncrt17cat_3b1f_1_Xhh-0.95-1.6[03],1.2626,0.8287
uncorr_bkguncrt17cat_3b1f_1_Xhh-0.95-1.6[04],0.0167,0.8394
uncorr_bkguncrt17cat_3b1f_1_Xhh-0.95-1.6[05],-0.4032,0.8367
uncorr_bkguncrt17cat_3b1f_1_Xhh-0.95-1.6[06],-0.1815,0.8444
uncorr_bkguncrt17cat_3b1f_1_Xhh-0.95-1.6[07],0.1169,0.8495
uncorr_bkguncrt17cat_3b1f_1_Xhh-0.95-1.6[08],-0.2207,0.8443
uncorr_bkguncrt17cat_3b1f_1_Xhh-0.95-1.6[09],-0.1108,0.8523
uncorr_bkguncrt17cat_3b1f_1_Xhh-0.95-1.6[10],0.5412,0.8736
uncorr_bkguncrt17cat_3b1f_1_Xhh-0.95-1.6[11],-0.0949,0.8797
uncorr_bkguncrt17cat_3b1f_1_Xhh-0.95-1.6[12],-0.8182,0.8454
uncorr_bkguncrt17cat_3b1f_1_Xhh-0.95-1.6[13],0.4219,0.8824
uncorr_bkguncrt17cat_3b1f_1_Xhh-0.95-1.6[14],-0.1595,0.8860
uncorr_bkguncrt17cat_3b1f_1_Xhh-0.95-1.6[15],0.6399,0.9080
uncorr_bkguncrt17cat_3b1f_1_Xhh-0.95-1.6[16],0.6440,0.8971
uncorr_bkguncrt17cat_3b1f_1_Xhh-0.95-1.6[17],-0.2140,0.8443
uncorr_bkguncrt18cat_3b1f_0_Xhh-0.0-0.95[00],-0.4666,0.8490
uncorr_bkguncrt18cat_3b1f_0_Xhh-0.0-0.95[01],0.1500,0.8417
uncorr_bkguncrt18cat_3b1f_0_Xhh-0.0-0.95[02],0.6905,0.8581
uncorr_bkguncrt18cat_3b1f_0_Xhh-0.0-0.95[03],1.6133,0.8644
uncorr_bkguncrt18cat_3b1f_0_Xhh-0.0-0.95[04],0.0247,0.8789
uncorr_bkguncrt18cat_3b1f_0_Xhh-0.0-0.95[05],-0.8829,0.8932
uncorr_bkguncrt18cat_3b1f_0_Xhh-0.0-0.95[06],-0.1192,0.8999
uncorr_bkguncrt18cat_3b1f_0_Xhh-0.0-0.95[07],-0.1335,0.8909
uncorr_bkguncrt18cat_3b1f_0_Xhh-0.0-0.95[08],0.4807,0.8839
uncorr_bkguncrt18cat_3b1f_0_Xhh-0.0-0.95[09],0.0221,0.8963
uncorr_bkguncrt18cat_3b1f_0_Xhh-0.0-0.95[10],0.1926,0.8945
uncorr_bkguncrt18cat_3b1f_0_Xhh-0.0-0.95[11],-0.4934,0.8690
uncorr_bkguncrt18cat_3b1f_0_Xhh-0.0-0.95[12],-0.8393,0.8728
uncorr_bkguncrt18cat_3b1f_0_Xhh-0.0-0.95[13],-0.4523,0.8735
uncorr_bkguncrt18cat_3b1f_0_Xhh-0.0-0.95[14],-0.5535,0.8823
uncorr_bkguncrt18cat_3b1f_0_Xhh-0.0-0.95[15],0.3136,0.9284
uncorr_bkguncrt18cat_3b1f_0_Xhh-0.0-0.95[16],-0.3874,0.8961
uncorr_bkguncrt18cat_3b1f_0_Xhh-0.0-0.95[17],-0.8002,0.8498
uncorr_bkguncrt18cat_3b1f_0_Xhh-0.95-1.6[00],-0.9363,0.7980
uncorr_bkguncrt18cat_3b1f_0_Xhh-0.95-1.6[01],-0.6405,0.8303
uncorr_bkguncrt18cat_3b1f_0_Xhh-0.95-1.6[02],0.2141,0.8144
uncorr_bkguncrt18cat_3b1f_0_Xhh-0.95-1.6[03],0.5505,0.8421
uncorr_bkguncrt18cat_3b1f_0_Xhh-0.95-1.6[04],0.0465,0.8537
uncorr_bkguncrt18cat_3b1f_0_Xhh-0.95-1.6[05],0.6832,0.8693
uncorr_bkguncrt18cat_3b1f_0_Xhh-0.95-1.6[06],1.4086,0.8622
uncorr_bkguncrt18cat_3b1f_0_Xhh-0.95-1.6[07],0.5556,0.8546
uncorr_bkguncrt18cat_3b1f_0_Xhh-0.95-1.6[08],1.2312,0.8531
uncorr_bkguncrt18cat_3b1f_0_Xhh-0.95-1.6[09],0.4599,0.8410
uncorr_bkguncrt18cat_3b1f_0_Xhh-0.95-1.6[10],0.0895,0.8502
uncorr_bkguncrt18cat_3b1f_0_Xhh-0.95-1.6[11],-0.7649,0.8230
uncorr_bkguncrt18cat_3b1f_0_Xhh-0.95-1.6[12],-0.4588,0.8404
uncorr_bkguncrt18cat_3b1f_0_Xhh-0.95-1.6[13],-0.2793,0.8270
uncorr_bkguncrt18cat_3b1f_0_Xhh-0.95-1.6[14],0.3096,0.8483
uncorr_bkguncrt18cat_3b1f_0_Xhh-0.95-1.6[15],-0.7119,0.8397
uncorr_bkguncrt18cat_3b1f_0_Xhh-0.95-1.6[16],-0.1113,0.8746
uncorr_bkguncrt18cat_3b1f_0_Xhh-0.95-1.6[17],0.3061,0.8833
uncorr_bkguncrt18cat_3b1f_1_Xhh-0.0-0.95[00],0.3449,0.8574
uncorr_bkguncrt18cat_3b1f_1_Xhh-0.0-0.95[01],0.8872,0.8368
uncorr_bkguncrt18cat_3b1f_1_Xhh-0.0-0.95[02],-0.3940,0.8346
uncorr_bkguncrt18cat_3b1f_1_Xhh-0.0-0.95[03],0.7005,0.8779
uncorr_bkguncrt18cat_3b1f_1_Xhh-0.0-0.95[04],0.2474,0.8827
uncorr_bkguncrt18cat_3b1f_1_Xhh-0.0-0.95[05],-0.0715,0.8951
uncorr_bkguncrt18cat_3b1f_1_Xhh-0.0-0.95[06],-0.2239,0.9008
uncorr_bkguncrt18cat_3b1f_1_Xhh-0.0-0.95[07],0.4795,0.9102
uncorr_bkguncrt18cat_3b1f_1_Xhh-0.0-0.95[08],-0.3934,0.8902
uncorr_bkguncrt18cat_3b1f_1_Xhh-0.0-0.95[09],1.0194,0.9021
uncorr_bkguncrt18cat_3b1f_1_Xhh-0.0-0.95[10],0.6416,0.8950
uncorr_bkguncrt18cat_3b1f_1_Xhh-0.0-0.95[11],0.5301,0.8960
uncorr_bkguncrt18cat_3b1f_1_Xhh-0.0-0.95[12],-0.2867,0.8641
uncorr_bkguncrt18cat_3b1f_1_Xhh-0.0-0.95[13],-0.1567,0.8512
uncorr_bkguncrt18cat_3b1f_1_Xhh-0.0-0.95[14],0.2083,0.8811
uncorr_bkguncrt18cat_3b1f_1_Xhh-0.0-0.95[15],0.0540,0.9012
uncorr_bkguncrt18cat_3b1f_1_Xhh-0.0-0.95[16],0.0900,0.9169
uncorr_bkguncrt18cat_3b1f_1_Xhh-0.0-0.95[17],-0.2329,0.7896
uncorr_bkguncrt18cat_3b1f_1_Xhh-0.95-1.6[00],0.4313,0.8237
uncorr_bkguncrt18cat_3b1f_1_Xhh-0.95-1.6[01],-0.3584,0.8034
uncorr_bkguncrt18cat_3b1f_1_Xhh-0.95-1.6[02],-0.3559,0.8269
uncorr_bkguncrt18cat_3b1f_1_Xhh-0.95-1.6[03],0.0229,0.8238
uncorr_bkguncrt18cat_3b1f_1_Xhh-0.95-1.6[04],0.3874,0.8371
uncorr_bkguncrt18cat_3b1f_1_Xhh-0.95-1.6[05],0.4193,0.8586
uncorr_bkguncrt18cat_3b1f_1_Xhh-0.95-1.6[06],-0.9969,0.8736
uncorr_bkguncrt18cat_3b1f_1_Xhh-0.95-1.6[07],-0.8007,0.8757
uncorr_bkguncrt18cat_3b1f_1_Xhh-0.95-1.6[08],-0.3653,0.8555
uncorr_bkguncrt18cat_3b1f_1_Xhh-0.95-1.6[09],0.5643,0.8456
uncorr_bkguncrt18cat_3b1f_1_Xhh-0.95-1.6[10],2.1249,0.8745
uncorr_bkguncrt18cat_3b1f_1_Xhh-0.95-1.6[11],-0.0705,0.8355
uncorr_bkguncrt18cat_3b1f_1_Xhh-0.95-1.6[12],0.3664,0.8430
uncorr_bkguncrt18cat_3b1f_1_Xhh-0.95-1.6[13],0.1158,0.8306
uncorr_bkguncrt18cat_3b1f_1_Xhh-0.95-1.6[14],-0.4647,0.8309
uncorr_bkguncrt18cat_3b1f_1_Xhh-0.95-1.6[15],0.5417,0.8636
uncorr_bkguncrt18cat_3b1f_1_Xhh-0.95-1.6[16],0.4465,0.8758
uncorr_bkguncrt18cat_3b1f_1_Xhh-0.95-1.6[17],0.2991,0.7266
