label,pull,err
high_HT16_3b1f_Xhh-0.0-0.95,1.9293,0.3866
high_HT16_3b1f_Xhh-0.95-1.6,2.0645,0.3002
high_HT17_3b1f_Xhh-0.0-0.95,1.8262,0.2625
high_HT17_3b1f_Xhh-0.95-1.6,1.0374,0.2186
high_HT18_3b1f_Xhh-0.0-0.95,-0.0340,0.3195
high_HT18_3b1f_Xhh-0.95-1.6,0.4481,0.2796
low_HT16_3b1f_Xhh-0.0-0.95,1.3183,0.2868
low_HT16_3b1f_Xhh-0.95-1.6,0.6827,0.2117
low_HT17_3b1f_Xhh-0.0-0.95,0.9301,0.3851
low_HT17_3b1f_Xhh-0.95-1.6,0.8055,0.2701
low_HT18_3b1f_Xhh-0.0-0.95,2.4094,0.3316
low_HT18_3b1f_Xhh-0.95-1.6,1.3690,0.2198
uncorr_bkguncrt16cat_3b1f_0_Xhh-0.0-0.95[00],-0.7032,0.8848
uncorr_bkguncrt16cat_3b1f_0_Xhh-0.0-0.95[01],-0.1836,0.9046
uncorr_bkguncrt16cat_3b1f_0_Xhh-0.0-0.95[02],0.0686,0.9033
uncorr_bkguncrt16cat_3b1f_0_Xhh-0.0-0.95[03],0.5061,0.8820
uncorr_bkguncrt16cat_3b1f_0_Xhh-0.0-0.95[04],-0.1640,0.8842
uncorr_bkguncrt16cat_3b1f_0_Xhh-0.0-0.95[05],0.0524,0.8934
uncorr_bkguncrt16cat_3b1f_0_Xhh-0.0-0.95[06],-0.1121,0.8981
uncorr_bkguncrt16cat_3b1f_0_Xhh-0.0-0.95[07],0.1577,0.9092
uncorr_bkguncrt16cat_3b1f_0_Xhh-0.0-0.95[08],0.0075,0.9089
uncorr_bkguncrt16cat_3b1f_0_Xhh-0.0-0.95[09],0.7759,0.9190
uncorr_bkguncrt16cat_3b1f_0_Xhh-0.0-0.95[10],0.3153,0.9068
uncorr_bkguncrt16cat_3b1f_0_Xhh-0.0-0.95[11],-1.0679,0.8778
uncorr_bkguncrt16cat_3b1f_0_Xhh-0.0-0.95[12],-0.2335,0.8806
uncorr_bkguncrt16cat_3b1f_0_Xhh-0.0-0.95[13],0.7088,0.9388
uncorr_bkguncrt16cat_3b1f_0_Xhh-0.0-0.95[14],-0.3629,0.9087
uncorr_bkguncrt16cat_3b1f_0_Xhh-0.0-0.95[15],-0.0847,0.9050
uncorr_bkguncrt16cat_3b1f_0_Xhh-0.0-0.95[16],0.4358,0.9560
uncorr_bkguncrt16cat_3b1f_0_Xhh-0.0-0.95[17],-0.1543,0.9203
uncorr_bkguncrt16cat_3b1f_0_Xhh-0.95-1.6[00],-0.2064,0.8813
uncorr_bkguncrt16cat_3b1f_0_Xhh-0.95-1.6[01],0.0167,0.8888
uncorr_bkguncrt16cat_3b1f_0_Xhh-0.95-1.6[02],-0.2314,0.8580
uncorr_bkguncrt16cat_3b1f_0_Xhh-0.95-1.6[03],0.3205,0.8416
uncorr_bkguncrt16cat_3b1f_0_Xhh-0.95-1.6[04],1.2989,0.8502
uncorr_bkguncrt16cat_3b1f_0_Xhh-0.95-1.6[05],-0.2359,0.8555
uncorr_bkguncrt16cat_3b1f_0_Xhh-0.95-1.6[06],0.3925,0.8635
uncorr_bkguncrt16cat_3b1f_0_Xhh-0.95-1.6[07],0.1835,0.8664
uncorr_bkguncrt16cat_3b1f_0_Xhh-0.95-1.6[08],0.0116,0.8791
uncorr_bkguncrt16cat_3b1f_0_Xhh-0.95-1.6[09],0.4891,0.8859
uncorr_bkguncrt16cat_3b1f_0_Xhh-0.95-1.6[10],0.3085,0.8833
uncorr_bkguncrt16cat_3b1f_0_Xhh-0.95-1.6[11],0.5151,0.8627
uncorr_bkguncrt16cat_3b1f_0_Xhh-0.95-1.6[12],0.6489,0.8983
uncorr_bkguncrt16cat_3b1f_0_Xhh-0.95-1.6[13],-0.6364,0.8848
uncorr_bkguncrt16cat_3b1f_0_Xhh-0.95-1.6[14],0.2569,0.8994
uncorr_bkguncrt16cat_3b1f_0_Xhh-0.95-1.6[15],0.2306,0.8806
uncorr_bkguncrt16cat_3b1f_0_Xhh-0.95-1.6[16],0.5668,0.9273
uncorr_bkguncrt16cat_3b1f_0_Xhh-0.95-1.6[17],0.9136,0.9711
uncorr_bkguncrt16cat_3b1f_1_Xhh-0.0-0.95[00],-0.4954,0.8657
uncorr_bkguncrt16cat_3b1f_1_Xhh-0.0-0.95[01],-0.4036,0.8714
uncorr_bkguncrt16cat_3b1f_1_Xhh-0.0-0.95[02],-0.0291,0.8810
uncorr_bkguncrt16cat_3b1f_1_Xhh-0.0-0.95[03],0.7622,0.8955
uncorr_bkguncrt16cat_3b1f_1_Xhh-0.0-0.95[04],0.8766,0.8974
uncorr_bkguncrt16cat_3b1f_1_Xhh-0.0-0.95[05],0.3717,0.8949
uncorr_bkguncrt16cat_3b1f_1_Xhh-0.0-0.95[06],-0.4239,0.8906
uncorr_bkguncrt16cat_3b1f_1_Xhh-0.0-0.95[07],-0.1066,0.8944
uncorr_bkguncrt16cat_3b1f_1_Xhh-0.0-0.95[08],0.0014,0.8951
uncorr_bkguncrt16cat_3b1f_1_Xhh-0.0-0.95[09],0.2022,0.9012
uncorr_bkguncrt16cat_3b1f_1_Xhh-0.0-0.95[10],0.2632,0.9108
uncorr_bkguncrt16cat_3b1f_1_Xhh-0.0-0.95[11],-0.3430,0.9020
uncorr_bkguncrt16cat_3b1f_1_Xhh-0.0-0.95[12],-0.2129,0.9046
uncorr_bkguncrt16cat_3b1f_1_Xhh-0.0-0.95[13],0.4076,0.9267
uncorr_bkguncrt16cat_3b1f_1_Xhh-0.0-0.95[14],-0.2653,0.9041
uncorr_bkguncrt16cat_3b1f_1_Xhh-0.0-0.95[15],-0.3358,0.9043
uncorr_bkguncrt16cat_3b1f_1_Xhh-0.0-0.95[16],0.4126,0.9450
uncorr_bkguncrt16cat_3b1f_1_Xhh-0.0-0.95[17],0.3420,0.9368
uncorr_bkguncrt16cat_3b1f_1_Xhh-0.95-1.6[00],0.1804,0.8732
uncorr_bkguncrt16cat_3b1f_1_Xhh-0.95-1.6[01],0.3000,0.8642
uncorr_bkguncrt16cat_3b1f_1_Xhh-0.95-1.6[02],0.1753,0.8355
uncorr_bkguncrt16cat_3b1f_1_Xhh-0.95-1.6[03],0.3598,0.8582
uncorr_bkguncrt16cat_3b1f_1_Xhh-0.95-1.6[04],-0.0733,0.8527
uncorr_bkguncrt16cat_3b1f_1_Xhh-0.95-1.6[05],0.2170,0.8536
uncorr_bkguncrt16cat_3b1f_1_Xhh-0.95-1.6[06],0.3951,0.8652
uncorr_bkguncrt16cat_3b1f_1_Xhh-0.95-1.6[07],-0.0763,0.8620
uncorr_bkguncrt16cat_3b1f_1_Xhh-0.95-1.6[08],-0.5036,0.8642
uncorr_bkguncrt16cat_3b1f_1_Xhh-0.95-1.6[09],-0.2180,0.8703
uncorr_bkguncrt16cat_3b1f_1_Xhh-0.95-1.6[10],0.1972,0.8773
uncorr_bkguncrt16cat_3b1f_1_Xhh-0.95-1.6[11],0.0795,0.8760
uncorr_bkguncrt16cat_3b1f_1_Xhh-0.95-1.6[12],0.4530,0.8932
uncorr_bkguncrt16cat_3b1f_1_Xhh-0.95-1.6[13],-0.1344,0.8838
uncorr_bkguncrt16cat_3b1f_1_Xhh-0.95-1.6[14],0.1879,0.9071
uncorr_bkguncrt16cat_3b1f_1_Xhh-0.95-1.6[15],0.8040,0.8959
uncorr_bkguncrt16cat_3b1f_1_Xhh-0.95-1.6[16],-0.2596,0.8974
uncorr_bkguncrt16cat_3b1f_1_Xhh-0.95-1.6[17],0.3915,0.8930
uncorr_bkguncrt17cat_3b1f_0_Xhh-0.0-0.95[00],-0.0894,0.8739
uncorr_bkguncrt17cat_3b1f_0_Xhh-0.0-0.95[01],0.0800,0.8915
uncorr_bkguncrt17cat_3b1f_0_Xhh-0.0-0.95[02],0.3799,0.8976
uncorr_bkguncrt17cat_3b1f_0_Xhh-0.0-0.95[03],-0.5249,0.8513
uncorr_bkguncrt17cat_3b1f_0_Xhh-0.0-0.95[04],-0.4286,0.8724
uncorr_bkguncrt17cat_3b1f_0_Xhh-0.0-0.95[05],-0.1585,0.8569
uncorr_bkguncrt17cat_3b1f_0_Xhh-0.0-0.95[06],0.3296,0.8734
uncorr_bkguncrt17cat_3b1f_0_Xhh-0.0-0.95[07],0.5214,0.8894
uncorr_bkguncrt17cat_3b1f_0_Xhh-0.0-0.95[08],1.9465,0.9165
uncorr_bkguncrt17cat_3b1f_0_Xhh-0.0-0.95[09],0.2892,0.8889
uncorr_bkguncrt17cat_3b1f_0_Xhh-0.0-0.95[10],0.1021,0.8976
uncorr_bkguncrt17cat_3b1f_0_Xhh-0.0-0.95[11],0.6135,0.8926
uncorr_bkguncrt17cat_3b1f_0_Xhh-0.0-0.95[12],-0.4140,0.8795
uncorr_bkguncrt17cat_3b1f_0_Xhh-0.0-0.95[13],-0.4450,0.8343
uncorr_bkguncrt17cat_3b1f_0_Xhh-0.0-0.95[14],-0.0163,0.9077
uncorr_bkguncrt17cat_3b1f_0_Xhh-0.0-0.95[15],-0.5996,0.7786
uncorr_bkguncrt17cat_3b1f_0_Xhh-0.0-0.95[16],-0.4281,0.8901
uncorr_bkguncrt17cat_3b1f_0_Xhh-0.0-0.95[17],0.6486,0.9229
uncorr_bkguncrt17cat_3b1f_0_Xhh-0.95-1.6[00],-0.6490,0.8557
uncorr_bkguncrt17cat_3b1f_0_Xhh-0.95-1.6[01],-0.3079,0.8856
uncorr_bkguncrt17cat_3b1f_0_Xhh-0.95-1.6[02],0.4939,0.8414
uncorr_bkguncrt17cat_3b1f_0_Xhh-0.95-1.6[03],-0.4262,0.7939
uncorr_bkguncrt17cat_3b1f_0_Xhh-0.95-1.6[04],-0.5815,0.8303
uncorr_bkguncrt17cat_3b1f_0_Xhh-0.95-1.6[05],0.2053,0.8370
uncorr_bkguncrt17cat_3b1f_0_Xhh-0.95-1.6[06],0.0693,0.8408
uncorr_bkguncrt17cat_3b1f_0_Xhh-0.95-1.6[07],0.8457,0.8527
uncorr_bkguncrt17cat_3b1f_0_Xhh-0.95-1.6[08],0.6954,0.8656
uncorr_bkguncrt17cat_3b1f_0_Xhh-0.95-1.6[09],-0.3084,0.8543
uncorr_bkguncrt17cat_3b1f_0_Xhh-0.95-1.6[10],0.4753,0.8663
uncorr_bkguncrt17cat_3b1f_0_Xhh-0.95-1.6[11],-1.1775,0.8287
uncorr_bkguncrt17cat_3b1f_0_Xhh-0.95-1.6[12],-0.9490,0.8476
uncorr_bkguncrt17cat_3b1f_0_Xhh-0.95-1.6[13],0.2201,0.8669
uncorr_bkguncrt17cat_3b1f_0_Xhh-0.95-1.6[14],0.6054,0.8904
uncorr_bkguncrt17cat_3b1f_0_Xhh-0.95-1.6[15],-0.0257,0.8656
uncorr_bkguncrt17cat_3b1f_0_Xhh-0.95-1.6[16],0.1774,0.8920
uncorr_bkguncrt17cat_3b1f_0_Xhh-0.95-1.6[17],0.1054,0.8994
uncorr_bkguncrt17cat_3b1f_1_Xhh-0.0-0.95[00],0.5272,0.9146
uncorr_bkguncrt17cat_3b1f_1_Xhh-0.0-0.95[01],-0.1208,0.8520
uncorr_bkguncrt17cat_3b1f_1_Xhh-0.0-0.95[02],-0.8376,0.8305
uncorr_bkguncrt17cat_3b1f_1_Xhh-0.0-0.95[03],0.6244,0.8647
uncorr_bkguncrt17cat_3b1f_1_Xhh-0.0-0.95[04],0.2611,0.8650
uncorr_bkguncrt17cat_3b1f_1_Xhh-0.0-0.95[05],0.1001,0.8673
uncorr_bkguncrt17cat_3b1f_1_Xhh-0.0-0.95[06],0.4284,0.8726
uncorr_bkguncrt17cat_3b1f_1_Xhh-0.0-0.95[07],-0.0421,0.8819
uncorr_bkguncrt17cat_3b1f_1_Xhh-0.0-0.95[08],0.4202,0.8936
uncorr_bkguncrt17cat_3b1f_1_Xhh-0.0-0.95[09],1.2455,0.9036
uncorr_bkguncrt17cat_3b1f_1_Xhh-0.0-0.95[10],0.4910,0.8944
uncorr_bkguncrt17cat_3b1f_1_Xhh-0.0-0.95[11],0.2976,0.8937
uncorr_bkguncrt17cat_3b1f_1_Xhh-0.0-0.95[12],-0.3236,0.8726
uncorr_bkguncrt17cat_3b1f_1_Xhh-0.0-0.95[13],-0.3942,0.8822
uncorr_bkguncrt17cat_3b1f_1_Xhh-0.0-0.95[14],0.0939,0.8987
uncorr_bkguncrt17cat_3b1f_1_Xhh-0.0-0.95[15],0.1150,0.9025
uncorr_bkguncrt17cat_3b1f_1_Xhh-0.0-0.95[16],-0.5353,0.8798
uncorr_bkguncrt17cat_3b1f_1_Xhh-0.0-0.95[17],-0.8465,0.8036
uncorr_bkguncrt17cat_3b1f_1_Xhh-0.95-1.6[00],0.3100,0.8638
uncorr_bkguncrt17cat_3b1f_1_Xhh-0.95-1.6[01],0.9785,0.8472
uncorr_bkguncrt17cat_3b1f_1_Xhh-0.95-1.6[02],0.0975,0.7969
uncorr_bkguncrt17cat_3b1f_1_Xhh-0.95-1.6[03],1.6397,0.8089
uncorr_bkguncrt17cat_3b1f_1_Xhh-0.95-1.6[04],0.3528,0.8275
uncorr_bkguncrt17cat_3b1f_1_Xhh-0.95-1.6[05],-0.1723,0.8298
uncorr_bkguncrt17cat_3b1f_1_Xhh-0.95-1.6[06],0.1113,0.8403
uncorr_bkguncrt17cat_3b1f_1_Xhh-0.95-1.6[07],0.5277,0.8471
uncorr_bkguncrt17cat_3b1f_1_Xhh-0.95-1.6[08],0.1697,0.8421
uncorr_bkguncrt17cat_3b1f_1_Xhh-0.95-1.6[09],0.2204,0.8492
uncorr_bkguncrt17cat_3b1f_1_Xhh-0.95-1.6[10],0.8292,0.8693
uncorr_bkguncrt17cat_3b1f_1_Xhh-0.95-1.6[11],0.1021,0.8734
uncorr_bkguncrt17cat_3b1f_1_Xhh-0.95-1.6[12],-0.6874,0.8367
uncorr_bkguncrt17cat_3b1f_1_Xhh-0.95-1.6[13],0.4527,0.8694
uncorr_bkguncrt17cat_3b1f_1_Xhh-0.95-1.6[14],-0.1518,0.8746
uncorr_bkguncrt17cat_3b1f_1_Xhh-0.95-1.6[15],0.6210,0.8934
uncorr_bkguncrt17cat_3b1f_1_Xhh-0.95-1.6[16],0.6643,0.8895
uncorr_bkguncrt17cat_3b1f_1_Xhh-0.95-1.6[17],-0.1598,0.8344
uncorr_bkguncrt18cat_3b1f_0_Xhh-0.0-0.95[00],-0.7652,0.8411
uncorr_bkguncrt18cat_3b1f_0_Xhh-0.0-0.95[01],-0.6330,0.8583
uncorr_bkguncrt18cat_3b1f_0_Xhh-0.0-0.95[02],0.1715,0.8983
uncorr_bkguncrt18cat_3b1f_0_Xhh-0.0-0.95[03],2.3083,0.8722
uncorr_bkguncrt18cat_3b1f_0_Xhh-0.0-0.95[04],1.0520,0.8780
uncorr_bkguncrt18cat_3b1f_0_Xhh-0.0-0.95[05],-0.4374,0.8866
uncorr_bkguncrt18cat_3b1f_0_Xhh-0.0-0.95[06],0.3814,0.8886
uncorr_bkguncrt18cat_3b1f_0_Xhh-0.0-0.95[07],0.5630,0.8795
uncorr_bkguncrt18cat_3b1f_0_Xhh-0.0-0.95[08],1.5653,0.8757
uncorr_bkguncrt18cat_3b1f_0_Xhh-0.0-0.95[09],0.9948,0.8911
uncorr_bkguncrt18cat_3b1f_0_Xhh-0.0-0.95[10],1.1526,0.8929
uncorr_bkguncrt18cat_3b1f_0_Xhh-0.0-0.95[11],0.3143,0.8677
uncorr_bkguncrt18cat_3b1f_0_Xhh-0.0-0.95[12],-0.1571,0.8759
uncorr_bkguncrt18cat_3b1f_0_Xhh-0.0-0.95[13],0.1757,0.8739
uncorr_bkguncrt18cat_3b1f_0_Xhh-0.0-0.95[14],-0.1330,0.8824
uncorr_bkguncrt18cat_3b1f_0_Xhh-0.0-0.95[15],0.7024,0.9219
uncorr_bkguncrt18cat_3b1f_0_Xhh-0.0-0.95[16],-0.1535,0.8874
uncorr_bkguncrt18cat_3b1f_0_Xhh-0.0-0.95[17],-0.7840,0.8222
uncorr_bkguncrt18cat_3b1f_0_Xhh-0.95-1.6[00],-0.9611,0.7969
uncorr_bkguncrt18cat_3b1f_0_Xhh-0.95-1.6[01],-0.4721,0.8394
uncorr_bkguncrt18cat_3b1f_0_Xhh-0.95-1.6[02],1.0706,0.8315
uncorr_bkguncrt18cat_3b1f_0_Xhh-0.95-1.6[03],2.1033,0.8282
uncorr_bkguncrt18cat_3b1f_0_Xhh-0.95-1.6[04],1.1948,0.8464
uncorr_bkguncrt18cat_3b1f_0_Xhh-0.95-1.6[05],1.2496,0.8643
uncorr_bkguncrt18cat_3b1f_0_Xhh-0.95-1.6[06],1.8010,0.8486
uncorr_bkguncrt18cat_3b1f_0_Xhh-0.95-1.6[07],1.0688,0.8425
uncorr_bkguncrt18cat_3b1f_0_Xhh-0.95-1.6[08],1.9718,0.8449
uncorr_bkguncrt18cat_3b1f_0_Xhh-0.95-1.6[09],1.1133,0.8351
uncorr_bkguncrt18cat_3b1f_0_Xhh-0.95-1.6[10],0.8566,0.8476
uncorr_bkguncrt18cat_3b1f_0_Xhh-0.95-1.6[11],-0.1898,0.8220
uncorr_bkguncrt18cat_3b1f_0_Xhh-0.95-1.6[12],0.1077,0.8406
uncorr_bkguncrt18cat_3b1f_0_Xhh-0.95-1.6[13],0.1838,0.8257
uncorr_bkguncrt18cat_3b1f_0_Xhh-0.95-1.6[14],0.5892,0.8475
uncorr_bkguncrt18cat_3b1f_0_Xhh-0.95-1.6[15],-0.6153,0.8313
uncorr_bkguncrt18cat_3b1f_0_Xhh-0.95-1.6[16],-0.0872,0.8638
uncorr_bkguncrt18cat_3b1f_0_Xhh-0.95-1.6[17],0.1223,0.8362
uncorr_bkguncrt18cat_3b1f_1_Xhh-0.0-0.95[00],0.1463,0.8448
uncorr_bkguncrt18cat_3b1f_1_Xhh-0.0-0.95[01],0.5198,0.8241
uncorr_bkguncrt18cat_3b1f_1_Xhh-0.0-0.95[02],-0.7676,0.8242
uncorr_bkguncrt18cat_3b1f_1_Xhh-0.0-0.95[03],0.5181,0.8713
uncorr_bkguncrt18cat_3b1f_1_Xhh-0.0-0.95[04],0.3626,0.8807
uncorr_bkguncrt18cat_3b1f_1_Xhh-0.0-0.95[05],0.1063,0.8958
uncorr_bkguncrt18cat_3b1f_1_Xhh-0.0-0.95[06],-0.1291,0.9062
uncorr_bkguncrt18cat_3b1f_1_Xhh-0.0-0.95[07],0.5625,0.9151
uncorr_bkguncrt18cat_3b1f_1_Xhh-0.0-0.95[08],-0.2064,0.8916
uncorr_bkguncrt18cat_3b1f_1_Xhh-0.0-0.95[09],1.4101,0.9001
uncorr_bkguncrt18cat_3b1f_1_Xhh-0.0-0.95[10],1.0355,0.8928
uncorr_bkguncrt18cat_3b1f_1_Xhh-0.0-0.95[11],0.9940,0.8944
uncorr_bkguncrt18cat_3b1f_1_Xhh-0.0-0.95[12],0.1163,0.8637
uncorr_bkguncrt18cat_3b1f_1_Xhh-0.0-0.95[13],0.1145,0.8502
uncorr_bkguncrt18cat_3b1f_1_Xhh-0.0-0.95[14],0.4831,0.8822
uncorr_bkguncrt18cat_3b1f_1_Xhh-0.0-0.95[15],0.4326,0.9029
uncorr_bkguncrt18cat_3b1f_1_Xhh-0.0-0.95[16],0.3459,0.9185
uncorr_bkguncrt18cat_3b1f_1_Xhh-0.0-0.95[17],-0.2107,0.7795
uncorr_bkguncrt18cat_3b1f_1_Xhh-0.95-1.6[00],0.2909,0.8024
uncorr_bkguncrt18cat_3b1f_1_Xhh-0.95-1.6[01],-0.5563,0.7599
uncorr_bkguncrt18cat_3b1f_1_Xhh-0.95-1.6[02],-0.5198,0.7815
uncorr_bkguncrt18cat_3b1f_1_Xhh-0.95-1.6[03],0.0552,0.8002
uncorr_bkguncrt18cat_3b1f_1_Xhh-0.95-1.6[04],0.6182,0.8338
uncorr_bkguncrt18cat_3b1f_1_Xhh-0.95-1.6[05],0.7271,0.8589
uncorr_bkguncrt18cat_3b1f_1_Xhh-0.95-1.6[06],-0.6736,0.8761
uncorr_bkguncrt18cat_3b1f_1_Xhh-0.95-1.6[07],-0.5267,0.8802
uncorr_bkguncrt18cat_3b1f_1_Xhh-0.95-1.6[08],-0.0552,0.8584
uncorr_bkguncrt18cat_3b1f_1_Xhh-0.95-1.6[09],0.8937,0.8467
uncorr_bkguncrt18cat_3b1f_1_Xhh-0.95-1.6[10],2.5377,0.8741
uncorr_bkguncrt18cat_3b1f_1_Xhh-0.95-1.6[11],0.2385,0.8349
uncorr_bkguncrt18cat_3b1f_1_Xhh-0.95-1.6[12],0.6801,0.8425
uncorr_bkguncrt18cat_3b1f_1_Xhh-0.95-1.6[13],0.4352,0.8303
uncorr_bkguncrt18cat_3b1f_1_Xhh-0.95-1.6[14],-0.2329,0.8312
uncorr_bkguncrt18cat_3b1f_1_Xhh-0.95-1.6[15],0.7478,0.8635
uncorr_bkguncrt18cat_3b1f_1_Xhh-0.95-1.6[16],0.6287,0.8754
uncorr_bkguncrt18cat_3b1f_1_Xhh-0.95-1.6[17],0.3834,0.7241
