label,pull,err
high_HT16_3b1f,2.1273,0.2451
high_HT17_3b1f,1.4060,0.1709
high_HT18_3b1f,0.2356,0.2155
low_HT16_3b1f,0.9232,0.1741
low_HT17_3b1f,0.8700,0.2280
low_HT18_3b1f,1.7624,0.1888
uncorr_bkguncrt16cat_3b1f_0_Xhh-0.0-0.95[00],-0.5801,0.8872
uncorr_bkguncrt16cat_3b1f_0_Xhh-0.0-0.95[01],0.2396,0.8804
uncorr_bkguncrt16cat_3b1f_0_Xhh-0.0-0.95[02],0.4688,0.8737
uncorr_bkguncrt16cat_3b1f_0_Xhh-0.0-0.95[03],0.5960,0.8729
uncorr_bkguncrt16cat_3b1f_0_Xhh-0.0-0.95[04],-0.2135,0.8789
uncorr_bkguncrt16cat_3b1f_0_Xhh-0.0-0.95[05],0.0035,0.8895
uncorr_bkguncrt16cat_3b1f_0_Xhh-0.0-0.95[06],-0.1682,0.8930
uncorr_bkguncrt16cat_3b1f_0_Xhh-0.0-0.95[07],0.0934,0.9025
uncorr_bkguncrt16cat_3b1f_0_Xhh-0.0-0.95[08],-0.0629,0.9008
uncorr_bkguncrt16cat_3b1f_0_Xhh-0.0-0.95[09],0.7168,0.9129
uncorr_bkguncrt16cat_3b1f_0_Xhh-0.0-0.95[10],0.2692,0.9025
uncorr_bkguncrt16cat_3b1f_0_Xhh-0.0-0.95[11],-1.0932,0.8759
uncorr_bkguncrt16cat_3b1f_0_Xhh-0.0-0.95[12],-0.2458,0.8798
uncorr_bkguncrt16cat_3b1f_0_Xhh-0.0-0.95[13],0.6978,0.9381
uncorr_bkguncrt16cat_3b1f_0_Xhh-0.0-0.95[14],-0.3581,0.9090
uncorr_bkguncrt16cat_3b1f_0_Xhh-0.0-0.95[15],-0.0717,0.9060
uncorr_bkguncrt16cat_3b1f_0_Xhh-0.0-0.95[16],0.4455,0.9569
uncorr_bkguncrt16cat_3b1f_0_Xhh-0.0-0.95[17],-0.1389,0.9220
uncorr_bkguncrt16cat_3b1f_0_Xhh-0.95-1.6[00],-0.4017,0.8698
uncorr_bkguncrt16cat_3b1f_0_Xhh-0.95-1.6[01],-0.4116,0.8540
uncorr_bkguncrt16cat_3b1f_0_Xhh-0.95-1.6[02],-0.6125,0.8335
uncorr_bkguncrt16cat_3b1f_0_Xhh-0.95-1.6[03],0.1592,0.8324
uncorr_bkguncrt16cat_3b1f_0_Xhh-0.95-1.6[04],1.2635,0.8467
uncorr_bkguncrt16cat_3b1f_0_Xhh-0.95-1.6[05],-0.2560,0.8533
uncorr_bkguncrt16cat_3b1f_0_Xhh-0.95-1.6[06],0.3687,0.8606
uncorr_bkguncrt16cat_3b1f_0_Xhh-0.95-1.6[07],0.1567,0.8627
uncorr_bkguncrt16cat_3b1f_0_Xhh-0.95-1.6[08],-0.0156,0.8752
uncorr_bkguncrt16cat_3b1f_0_Xhh-0.95-1.6[09],0.4629,0.8822
uncorr_bkguncrt16cat_3b1f_0_Xhh-0.95-1.6[10],0.2871,0.8806
uncorr_bkguncrt16cat_3b1f_0_Xhh-0.95-1.6[11],0.5060,0.8620
uncorr_bkguncrt16cat_3b1f_0_Xhh-0.95-1.6[12],0.6367,0.8972
uncorr_bkguncrt16cat_3b1f_0_Xhh-0.95-1.6[13],-0.6406,0.8845
uncorr_bkguncrt16cat_3b1f_0_Xhh-0.95-1.6[14],0.2578,0.8995
uncorr_bkguncrt16cat_3b1f_0_Xhh-0.95-1.6[15],0.2428,0.8809
uncorr_bkguncrt16cat_3b1f_0_Xhh-0.95-1.6[16],0.5771,0.9278
uncorr_bkguncrt16cat_3b1f_0_Xhh-0.95-1.6[17],0.9232,0.9717
uncorr_bkguncrt16cat_3b1f_1_Xhh-0.0-0.95[00],-0.5046,0.8650
uncorr_bkguncrt16cat_3b1f_1_Xhh-0.0-0.95[01],-0.3561,0.8724
uncorr_bkguncrt16cat_3b1f_1_Xhh-0.0-0.95[02],0.1484,0.8780
uncorr_bkguncrt16cat_3b1f_1_Xhh-0.0-0.95[03],0.9111,0.8930
uncorr_bkguncrt16cat_3b1f_1_Xhh-0.0-0.95[04],0.9393,0.8973
uncorr_bkguncrt16cat_3b1f_1_Xhh-0.0-0.95[05],0.3820,0.8949
uncorr_bkguncrt16cat_3b1f_1_Xhh-0.0-0.95[06],-0.4452,0.8896
uncorr_bkguncrt16cat_3b1f_1_Xhh-0.0-0.95[07],-0.1483,0.8914
uncorr_bkguncrt16cat_3b1f_1_Xhh-0.0-0.95[08],-0.0540,0.8899
uncorr_bkguncrt16cat_3b1f_1_Xhh-0.0-0.95[09],0.1476,0.8960
uncorr_bkguncrt16cat_3b1f_1_Xhh-0.0-0.95[10],0.2182,0.9069
uncorr_bkguncrt16cat_3b1f_1_Xhh-0.0-0.95[11],-0.3742,0.8997
uncorr_bkguncrt16cat_3b1f_1_Xhh-0.0-0.95[12],-0.2307,0.9035
uncorr_bkguncrt16cat_3b1f_1_Xhh-0.0-0.95[13],0.4009,0.9264
uncorr_bkguncrt16cat_3b1f_1_Xhh-0.0-0.95[14],-0.2638,0.9041
uncorr_bkguncrt16cat_3b1f_1_Xhh-0.0-0.95[15],-0.3275,0.9048
uncorr_bkguncrt16cat_3b1f_1_Xhh-0.0-0.95[16],0.4236,0.9457
uncorr_bkguncrt16cat_3b1f_1_Xhh-0.0-0.95[17],0.3746,0.9381
uncorr_bkguncrt16cat_3b1f_1_Xhh-0.95-1.6[00],0.1846,0.8734
uncorr_bkguncrt16cat_3b1f_1_Xhh-0.95-1.6[01],0.1908,0.8597
uncorr_bkguncrt16cat_3b1f_1_Xhh-0.95-1.6[02],0.0033,0.8282
uncorr_bkguncrt16cat_3b1f_1_Xhh-0.95-1.6[03],0.2118,0.8535
uncorr_bkguncrt16cat_3b1f_1_Xhh-0.95-1.6[04],-0.1423,0.8511
uncorr_bkguncrt16cat_3b1f_1_Xhh-0.95-1.6[05],0.1961,0.8532
uncorr_bkguncrt16cat_3b1f_1_Xhh-0.95-1.6[06],0.3814,0.8645
uncorr_bkguncrt16cat_3b1f_1_Xhh-0.95-1.6[07],-0.0972,0.8596
uncorr_bkguncrt16cat_3b1f_1_Xhh-0.95-1.6[08],-0.5271,0.8612
uncorr_bkguncrt16cat_3b1f_1_Xhh-0.95-1.6[09],-0.2444,0.8666
uncorr_bkguncrt16cat_3b1f_1_Xhh-0.95-1.6[10],0.1754,0.8747
uncorr_bkguncrt16cat_3b1f_1_Xhh-0.95-1.6[11],0.0668,0.8749
uncorr_bkguncrt16cat_3b1f_1_Xhh-0.95-1.6[12],0.4430,0.8924
uncorr_bkguncrt16cat_3b1f_1_Xhh-0.95-1.6[13],-0.1355,0.8838
uncorr_bkguncrt16cat_3b1f_1_Xhh-0.95-1.6[14],0.1904,0.9072
uncorr_bkguncrt16cat_3b1f_1_Xhh-0.95-1.6[15],0.8105,0.8961
uncorr_bkguncrt16cat_3b1f_1_Xhh-0.95-1.6[16],-0.2508,0.8976
uncorr_bkguncrt16cat_3b1f_1_Xhh-0.95-1.6[17],0.4197,0.8917
uncorr_bkguncrt17cat_3b1f_0_Xhh-0.0-0.95[00],-0.0753,0.8665
uncorr_bkguncrt17cat_3b1f_0_Xhh-0.0-0.95[01],0.1255,0.8610
uncorr_bkguncrt17cat_3b1f_0_Xhh-0.0-0.95[02],0.5073,0.8605
uncorr_bkguncrt17cat_3b1f_0_Xhh-0.0-0.95[03],-0.2396,0.8405
uncorr_bkguncrt17cat_3b1f_0_Xhh-0.0-0.95[04],-0.1098,0.8646
uncorr_bkguncrt17cat_3b1f_0_Xhh-0.0-0.95[05],0.0944,0.8530
uncorr_bkguncrt17cat_3b1f_0_Xhh-0.0-0.95[06],0.4802,0.8733
uncorr_bkguncrt17cat_3b1f_0_Xhh-0.0-0.95[07],0.6801,0.8895
uncorr_bkguncrt17cat_3b1f_0_Xhh-0.0-0.95[08],2.0779,0.9173
uncorr_bkguncrt17cat_3b1f_0_Xhh-0.0-0.95[09],0.4277,0.8899
uncorr_bkguncrt17cat_3b1f_0_Xhh-0.0-0.95[10],0.3066,0.8978
uncorr_bkguncrt17cat_3b1f_0_Xhh-0.0-0.95[11],0.8162,0.8940
uncorr_bkguncrt17cat_3b1f_0_Xhh-0.0-0.95[12],-0.2260,0.8819
uncorr_bkguncrt17cat_3b1f_0_Xhh-0.0-0.95[13],-0.3182,0.8384
uncorr_bkguncrt17cat_3b1f_0_Xhh-0.0-0.95[14],0.1210,0.9118
uncorr_bkguncrt17cat_3b1f_0_Xhh-0.0-0.95[15],-0.4734,0.7867
uncorr_bkguncrt17cat_3b1f_0_Xhh-0.0-0.95[16],-0.3680,0.8948
uncorr_bkguncrt17cat_3b1f_0_Xhh-0.0-0.95[17],0.6759,0.9259
uncorr_bkguncrt17cat_3b1f_0_Xhh-0.95-1.6[00],-0.7036,0.8459
uncorr_bkguncrt17cat_3b1f_0_Xhh-0.95-1.6[01],-0.4162,0.8595
uncorr_bkguncrt17cat_3b1f_0_Xhh-0.95-1.6[02],0.2735,0.8191
uncorr_bkguncrt17cat_3b1f_0_Xhh-0.95-1.6[03],-0.7649,0.7798
uncorr_bkguncrt17cat_3b1f_0_Xhh-0.95-1.6[04],-0.9412,0.8150
uncorr_bkguncrt17cat_3b1f_0_Xhh-0.95-1.6[05],-0.0821,0.8261
uncorr_bkguncrt17cat_3b1f_0_Xhh-0.95-1.6[06],-0.1545,0.8331
uncorr_bkguncrt17cat_3b1f_0_Xhh-0.95-1.6[07],0.6550,0.8464
uncorr_bkguncrt17cat_3b1f_0_Xhh-0.95-1.6[08],0.5336,0.8605
uncorr_bkguncrt17cat_3b1f_0_Xhh-0.95-1.6[09],-0.4786,0.8484
uncorr_bkguncrt17cat_3b1f_0_Xhh-0.95-1.6[10],0.2506,0.8571
uncorr_bkguncrt17cat_3b1f_0_Xhh-0.95-1.6[11],-1.4270,0.8165
uncorr_bkguncrt17cat_3b1f_0_Xhh-0.95-1.6[12],-1.1793,0.8360
uncorr_bkguncrt17cat_3b1f_0_Xhh-0.95-1.6[13],0.0494,0.8584
uncorr_bkguncrt17cat_3b1f_0_Xhh-0.95-1.6[14],0.4573,0.8825
uncorr_bkguncrt17cat_3b1f_0_Xhh-0.95-1.6[15],-0.1629,0.8564
uncorr_bkguncrt17cat_3b1f_0_Xhh-0.95-1.6[16],0.1068,0.8869
uncorr_bkguncrt17cat_3b1f_0_Xhh-0.95-1.6[17],0.0501,0.8951
uncorr_bkguncrt17cat_3b1f_1_Xhh-0.0-0.95[00],0.5336,0.9148
uncorr_bkguncrt17cat_3b1f_1_Xhh-0.0-0.95[01],-0.1199,0.8518
uncorr_bkguncrt17cat_3b1f_1_Xhh-0.0-0.95[02],-0.8356,0.8297
uncorr_bkguncrt17cat_3b1f_1_Xhh-0.0-0.95[03],0.6369,0.8626
uncorr_bkguncrt17cat_3b1f_1_Xhh-0.0-0.95[04],0.3209,0.8635
uncorr_bkguncrt17cat_3b1f_1_Xhh-0.0-0.95[05],0.1942,0.8676
uncorr_bkguncrt17cat_3b1f_1_Xhh-0.0-0.95[06],0.5143,0.8732
uncorr_bkguncrt17cat_3b1f_1_Xhh-0.0-0.95[07],-0.0109,0.8824
uncorr_bkguncrt17cat_3b1f_1_Xhh-0.0-0.95[08],0.4386,0.8939
uncorr_bkguncrt17cat_3b1f_1_Xhh-0.0-0.95[09],1.3042,0.9045
uncorr_bkguncrt17cat_3b1f_1_Xhh-0.0-0.95[10],0.5754,0.8957
uncorr_bkguncrt17cat_3b1f_1_Xhh-0.0-0.95[11],0.4004,0.8953
uncorr_bkguncrt17cat_3b1f_1_Xhh-0.0-0.95[12],-0.2043,0.8747
uncorr_bkguncrt17cat_3b1f_1_Xhh-0.0-0.95[13],-0.2498,0.8847
uncorr_bkguncrt17cat_3b1f_1_Xhh-0.0-0.95[14],0.1916,0.9017
uncorr_bkguncrt17cat_3b1f_1_Xhh-0.0-0.95[15],0.2210,0.9062
uncorr_bkguncrt17cat_3b1f_1_Xhh-0.0-0.95[16],-0.4411,0.8843
uncorr_bkguncrt17cat_3b1f_1_Xhh-0.0-0.95[17],-0.7465,0.8094
uncorr_bkguncrt17cat_3b1f_1_Xhh-0.95-1.6[00],0.2926,0.8625
uncorr_bkguncrt17cat_3b1f_1_Xhh-0.95-1.6[01],0.9603,0.8458
uncorr_bkguncrt17cat_3b1f_1_Xhh-0.95-1.6[02],0.0770,0.7941
uncorr_bkguncrt17cat_3b1f_1_Xhh-0.95-1.6[03],1.5794,0.8062
uncorr_bkguncrt17cat_3b1f_1_Xhh-0.95-1.6[04],0.2565,0.8251
uncorr_bkguncrt17cat_3b1f_1_Xhh-0.95-1.6[05],-0.2907,0.8272
uncorr_bkguncrt17cat_3b1f_1_Xhh-0.95-1.6[06],0.0276,0.8386
uncorr_bkguncrt17cat_3b1f_1_Xhh-0.95-1.6[07],0.4814,0.8462
uncorr_bkguncrt17cat_3b1f_1_Xhh-0.95-1.6[08],0.1275,0.8412
uncorr_bkguncrt17cat_3b1f_1_Xhh-0.95-1.6[09],0.1628,0.8478
uncorr_bkguncrt17cat_3b1f_1_Xhh-0.95-1.6[10],0.7539,0.8673
uncorr_bkguncrt17cat_3b1f_1_Xhh-0.95-1.6[11],0.0036,0.8704
uncorr_bkguncrt17cat_3b1f_1_Xhh-0.95-1.6[12],-0.7988,0.8326
uncorr_bkguncrt17cat_3b1f_1_Xhh-0.95-1.6[13],0.3122,0.8636
uncorr_bkguncrt17cat_3b1f_1_Xhh-0.95-1.6[14],-0.2732,0.8692
uncorr_bkguncrt17cat_3b1f_1_Xhh-0.95-1.6[15],0.4840,0.8863
uncorr_bkguncrt17cat_3b1f_1_Xhh-0.95-1.6[16],0.5874,0.8852
uncorr_bkguncrt17cat_3b1f_1_Xhh-0.95-1.6[17],-0.2507,0.8289
uncorr_bkguncrt18cat_3b1f_0_Xhh-0.0-0.95[00],-0.5688,0.8441
uncorr_bkguncrt18cat_3b1f_0_Xhh-0.0-0.95[01],-0.0634,0.8326
uncorr_bkguncrt18cat_3b1f_0_Xhh-0.0-0.95[02],0.8323,0.8533
uncorr_bkguncrt18cat_3b1f_0_Xhh-0.0-0.95[03],2.5198,0.8602
uncorr_bkguncrt18cat_3b1f_0_Xhh-0.0-0.95[04],1.0042,0.8762
uncorr_bkguncrt18cat_3b1f_0_Xhh-0.0-0.95[05],-0.3851,0.8859
uncorr_bkguncrt18cat_3b1f_0_Xhh-0.0-0.95[06],0.4584,0.8870
uncorr_bkguncrt18cat_3b1f_0_Xhh-0.0-0.95[07],0.6244,0.8788
uncorr_bkguncrt18cat_3b1f_0_Xhh-0.0-0.95[08],1.5833,0.8759
uncorr_bkguncrt18cat_3b1f_0_Xhh-0.0-0.95[09],1.0031,0.8912
uncorr_bkguncrt18cat_3b1f_0_Xhh-0.0-0.95[10],1.1423,0.8926
uncorr_bkguncrt18cat_3b1f_0_Xhh-0.0-0.95[11],0.3097,0.8676
uncorr_bkguncrt18cat_3b1f_0_Xhh-0.0-0.95[12],-0.1761,0.8751
uncorr_bkguncrt18cat_3b1f_0_Xhh-0.0-0.95[13],0.1719,0.8737
uncorr_bkguncrt18cat_3b1f_0_Xhh-0.0-0.95[14],-0.1332,0.8824
uncorr_bkguncrt18cat_3b1f_0_Xhh-0.0-0.95[15],0.7215,0.9228
uncorr_bkguncrt18cat_3b1f_0_Xhh-0.0-0.95[16],-0.1338,0.8887
uncorr_bkguncrt18cat_3b1f_0_Xhh-0.0-0.95[17],-0.7425,0.8256
uncorr_bkguncrt18cat_3b1f_0_Xhh-0.95-1.6[00],-1.3629,0.7762
uncorr_bkguncrt18cat_3b1f_0_Xhh-0.95-1.6[01],-1.1689,0.8006
uncorr_bkguncrt18cat_3b1f_0_Xhh-0.95-1.6[02],0.5612,0.8060
uncorr_bkguncrt18cat_3b1f_0_Xhh-0.95-1.6[03],2.0593,0.8142
uncorr_bkguncrt18cat_3b1f_0_Xhh-0.95-1.6[04],1.2796,0.8434
uncorr_bkguncrt18cat_3b1f_0_Xhh-0.95-1.6[05],1.2171,0.8636
uncorr_bkguncrt18cat_3b1f_0_Xhh-0.95-1.6[06],1.7186,0.8448
uncorr_bkguncrt18cat_3b1f_0_Xhh-0.95-1.6[07],1.0010,0.8397
uncorr_bkguncrt18cat_3b1f_0_Xhh-0.95-1.6[08],1.9357,0.8438
uncorr_bkguncrt18cat_3b1f_0_Xhh-0.95-1.6[09],1.0895,0.8344
uncorr_bkguncrt18cat_3b1f_0_Xhh-0.95-1.6[10],0.8585,0.8476
uncorr_bkguncrt18cat_3b1f_0_Xhh-0.95-1.6[11],-0.1866,0.8220
uncorr_bkguncrt18cat_3b1f_0_Xhh-0.95-1.6[12],0.1166,0.8408
uncorr_bkguncrt18cat_3b1f_0_Xhh-0.95-1.6[13],0.1819,0.8256
uncorr_bkguncrt18cat_3b1f_0_Xhh-0.95-1.6[14],0.5873,0.8474
uncorr_bkguncrt18cat_3b1f_0_Xhh-0.95-1.6[15],-0.6398,0.8298
uncorr_bkguncrt18cat_3b1f_0_Xhh-0.95-1.6[16],-0.1133,0.8620
uncorr_bkguncrt18cat_3b1f_0_Xhh-0.95-1.6[17],0.0414,0.8271
uncorr_bkguncrt18cat_3b1f_1_Xhh-0.0-0.95[00],0.2469,0.8490
uncorr_bkguncrt18cat_3b1f_1_Xhh-0.0-0.95[01],0.6951,0.8250
uncorr_bkguncrt18cat_3b1f_1_Xhh-0.0-0.95[02],-0.5592,0.8228
uncorr_bkguncrt18cat_3b1f_1_Xhh-0.0-0.95[03],0.6999,0.8699
uncorr_bkguncrt18cat_3b1f_1_Xhh-0.0-0.95[04],0.4665,0.8804
uncorr_bkguncrt18cat_3b1f_1_Xhh-0.0-0.95[05],0.2004,0.8923
uncorr_bkguncrt18cat_3b1f_1_Xhh-0.0-0.95[06],0.0495,0.8940
uncorr_bkguncrt18cat_3b1f_1_Xhh-0.0-0.95[07],0.7474,0.9030
uncorr_bkguncrt18cat_3b1f_1_Xhh-0.0-0.95[08],-0.0573,0.8844
uncorr_bkguncrt18cat_3b1f_1_Xhh-0.0-0.95[09],1.4896,0.8989
uncorr_bkguncrt18cat_3b1f_1_Xhh-0.0-0.95[10],1.0772,0.8930
uncorr_bkguncrt18cat_3b1f_1_Xhh-0.0-0.95[11],1.0077,0.8946
uncorr_bkguncrt18cat_3b1f_1_Xhh-0.0-0.95[12],0.1126,0.8636
uncorr_bkguncrt18cat_3b1f_1_Xhh-0.0-0.95[13],0.1229,0.8505
uncorr_bkguncrt18cat_3b1f_1_Xhh-0.0-0.95[14],0.4703,0.8816
uncorr_bkguncrt18cat_3b1f_1_Xhh-0.0-0.95[15],0.4158,0.9020
uncorr_bkguncrt18cat_3b1f_1_Xhh-0.0-0.95[16],0.3342,0.9178
uncorr_bkguncrt18cat_3b1f_1_Xhh-0.0-0.95[17],-0.1401,0.7819
uncorr_bkguncrt18cat_3b1f_1_Xhh-0.95-1.6[00],0.1184,0.7938
uncorr_bkguncrt18cat_3b1f_1_Xhh-0.95-1.6[01],-0.8265,0.7496
uncorr_bkguncrt18cat_3b1f_1_Xhh-0.95-1.6[02],-0.8006,0.7731
uncorr_bkguncrt18cat_3b1f_1_Xhh-0.95-1.6[03],-0.1391,0.7960
uncorr_bkguncrt18cat_3b1f_1_Xhh-0.95-1.6[04],0.5368,0.8328
uncorr_bkguncrt18cat_3b1f_1_Xhh-0.95-1.6[05],0.6632,0.8566
uncorr_bkguncrt18cat_3b1f_1_Xhh-0.95-1.6[06],-0.8045,0.8675
uncorr_bkguncrt18cat_3b1f_1_Xhh-0.95-1.6[07],-0.7039,0.8654
uncorr_bkguncrt18cat_3b1f_1_Xhh-0.95-1.6[08],-0.2041,0.8472
uncorr_bkguncrt18cat_3b1f_1_Xhh-0.95-1.6[09],0.7868,0.8402
uncorr_bkguncrt18cat_3b1f_1_Xhh-0.95-1.6[10],2.4805,0.8718
uncorr_bkguncrt18cat_3b1f_1_Xhh-0.95-1.6[11],0.2126,0.8341
uncorr_bkguncrt18cat_3b1f_1_Xhh-0.95-1.6[12],0.6796,0.8425
uncorr_bkguncrt18cat_3b1f_1_Xhh-0.95-1.6[13],0.4446,0.8305
uncorr_bkguncrt18cat_3b1f_1_Xhh-0.95-1.6[14],-0.2152,0.8316
uncorr_bkguncrt18cat_3b1f_1_Xhh-0.95-1.6[15],0.7507,0.8637
uncorr_bkguncrt18cat_3b1f_1_Xhh-0.95-1.6[16],0.6200,0.8750
uncorr_bkguncrt18cat_3b1f_1_Xhh-0.95-1.6[17],0.3032,0.7163
