label,pull,err
high_HT16_3b1f_0_Xhh-0.0-0.95,0.3581,0.4862
high_HT16_3b1f_0_Xhh-0.95-1.6,1.3452,0.3884
high_HT16_3b1f_1_Xhh-0.0-0.95,0.4508,0.6066
high_HT16_3b1f_1_Xhh-0.95-1.6,0.9158,0.4693
high_HT17_3b1f_0_Xhh-0.0-0.95,0.2807,0.3243
high_HT17_3b1f_0_Xhh-0.95-1.6,0.0088,0.2511
high_HT17_3b1f_1_Xhh-0.0-0.95,0.2542,0.5123
high_HT17_3b1f_1_Xhh-0.95-1.6,0.5696,0.4731
high_HT18_3b1f_0_Xhh-0.0-0.95,2.4880,0.6379
high_HT18_3b1f_0_Xhh-0.95-1.6,1.1813,0.4492
high_HT18_3b1f_1_Xhh-0.0-0.95,0.4002,0.3650
high_HT18_3b1f_1_Xhh-0.95-1.6,0.8355,0.3479
low_HT16_3b1f_0_Xhh-0.0-0.95,1.2655,0.3097
low_HT16_3b1f_0_Xhh-0.95-1.6,0.6414,0.2309
low_HT16_3b1f_1_Xhh-0.0-0.95,1.5039,0.5865
low_HT16_3b1f_1_Xhh-0.95-1.6,0.8724,0.4659
low_HT17_3b1f_0_Xhh-0.0-0.95,1.0118,0.3983
low_HT17_3b1f_0_Xhh-0.95-1.6,0.6684,0.2798
low_HT17_3b1f_1_Xhh-0.0-0.95,0.4418,0.8332
low_HT17_3b1f_1_Xhh-0.95-1.6,1.4525,0.6490
low_HT18_3b1f_0_Xhh-0.0-0.95,1.5472,0.3724
low_HT18_3b1f_0_Xhh-0.95-1.6,1.1487,0.2536
low_HT18_3b1f_1_Xhh-0.0-0.95,1.2213,0.6931
low_HT18_3b1f_1_Xhh-0.95-1.6,0.7080,0.4364
uncorr_bkguncrt16cat_3b1f_0_Xhh-0.0-0.95[00],-0.6957,0.8860
uncorr_bkguncrt16cat_3b1f_0_Xhh-0.0-0.95[01],-0.1347,0.9148
uncorr_bkguncrt16cat_3b1f_0_Xhh-0.0-0.95[02],0.3666,0.9182
uncorr_bkguncrt16cat_3b1f_0_Xhh-0.0-0.95[03],0.8640,0.8956
uncorr_bkguncrt16cat_3b1f_0_Xhh-0.0-0.95[04],-0.0682,0.8939
uncorr_bkguncrt16cat_3b1f_0_Xhh-0.0-0.95[05],-0.1031,0.9011
uncorr_bkguncrt16cat_3b1f_0_Xhh-0.0-0.95[06],-0.3707,0.9079
uncorr_bkguncrt16cat_3b1f_0_Xhh-0.0-0.95[07],-0.0426,0.9217
uncorr_bkguncrt16cat_3b1f_0_Xhh-0.0-0.95[08],-0.2143,0.9242
uncorr_bkguncrt16cat_3b1f_0_Xhh-0.0-0.95[09],0.4625,0.9330
uncorr_bkguncrt16cat_3b1f_0_Xhh-0.0-0.95[10],-0.1797,0.9191
uncorr_bkguncrt16cat_3b1f_0_Xhh-0.0-0.95[11],-1.3708,0.8854
uncorr_bkguncrt16cat_3b1f_0_Xhh-0.0-0.95[12],-0.6272,0.8849
uncorr_bkguncrt16cat_3b1f_0_Xhh-0.0-0.95[13],0.2615,0.9423
uncorr_bkguncrt16cat_3b1f_0_Xhh-0.0-0.95[14],-0.6728,0.9052
uncorr_bkguncrt16cat_3b1f_0_Xhh-0.0-0.95[15],-0.4973,0.8939
uncorr_bkguncrt16cat_3b1f_0_Xhh-0.0-0.95[16],-0.0101,0.9440
uncorr_bkguncrt16cat_3b1f_0_Xhh-0.0-0.95[17],-0.4479,0.9029
uncorr_bkguncrt16cat_3b1f_0_Xhh-0.95-1.6[00],-0.1863,0.8855
uncorr_bkguncrt16cat_3b1f_0_Xhh-0.95-1.6[01],0.0846,0.9052
uncorr_bkguncrt16cat_3b1f_0_Xhh-0.95-1.6[02],-0.0398,0.8727
uncorr_bkguncrt16cat_3b1f_0_Xhh-0.95-1.6[03],0.5334,0.8570
uncorr_bkguncrt16cat_3b1f_0_Xhh-0.95-1.6[04],1.2145,0.8587
uncorr_bkguncrt16cat_3b1f_0_Xhh-0.95-1.6[05],-0.4701,0.8615
uncorr_bkguncrt16cat_3b1f_0_Xhh-0.95-1.6[06],0.1019,0.8715
uncorr_bkguncrt16cat_3b1f_0_Xhh-0.95-1.6[07],-0.1663,0.8766
uncorr_bkguncrt16cat_3b1f_0_Xhh-0.95-1.6[08],-0.2535,0.8900
uncorr_bkguncrt16cat_3b1f_0_Xhh-0.95-1.6[09],0.2516,0.8969
uncorr_bkguncrt16cat_3b1f_0_Xhh-0.95-1.6[10],0.0198,0.8926
uncorr_bkguncrt16cat_3b1f_0_Xhh-0.95-1.6[11],0.1376,0.8672
uncorr_bkguncrt16cat_3b1f_0_Xhh-0.95-1.6[12],0.3890,0.9042
uncorr_bkguncrt16cat_3b1f_0_Xhh-0.95-1.6[13],-0.8446,0.8870
uncorr_bkguncrt16cat_3b1f_0_Xhh-0.95-1.6[14],-0.0343,0.8987
uncorr_bkguncrt16cat_3b1f_0_Xhh-0.95-1.6[15],-0.1313,0.8700
uncorr_bkguncrt16cat_3b1f_0_Xhh-0.95-1.6[16],0.2994,0.9177
uncorr_bkguncrt16cat_3b1f_0_Xhh-0.95-1.6[17],0.6063,0.9606
uncorr_bkguncrt16cat_3b1f_1_Xhh-0.0-0.95[00],-0.5629,0.8626
uncorr_bkguncrt16cat_3b1f_1_Xhh-0.0-0.95[01],-0.4593,0.8720
uncorr_bkguncrt16cat_3b1f_1_Xhh-0.0-0.95[02],-0.1130,0.9127
uncorr_bkguncrt16cat_3b1f_1_Xhh-0.0-0.95[03],0.6555,0.9197
uncorr_bkguncrt16cat_3b1f_1_Xhh-0.0-0.95[04],0.6996,0.9029
uncorr_bkguncrt16cat_3b1f_1_Xhh-0.0-0.95[05],0.1354,0.8967
uncorr_bkguncrt16cat_3b1f_1_Xhh-0.0-0.95[06],-0.5731,0.8951
uncorr_bkguncrt16cat_3b1f_1_Xhh-0.0-0.95[07],-0.1268,0.9052
uncorr_bkguncrt16cat_3b1f_1_Xhh-0.0-0.95[08],0.0576,0.9127
uncorr_bkguncrt16cat_3b1f_1_Xhh-0.0-0.95[09],0.2402,0.9196
uncorr_bkguncrt16cat_3b1f_1_Xhh-0.0-0.95[10],0.2535,0.9257
uncorr_bkguncrt16cat_3b1f_1_Xhh-0.0-0.95[11],-0.3359,0.9127
uncorr_bkguncrt16cat_3b1f_1_Xhh-0.0-0.95[12],-0.3642,0.9107
uncorr_bkguncrt16cat_3b1f_1_Xhh-0.0-0.95[13],0.1190,0.9290
uncorr_bkguncrt16cat_3b1f_1_Xhh-0.0-0.95[14],-0.4768,0.9032
uncorr_bkguncrt16cat_3b1f_1_Xhh-0.0-0.95[15],-0.5300,0.8999
uncorr_bkguncrt16cat_3b1f_1_Xhh-0.0-0.95[16],0.2218,0.9388
uncorr_bkguncrt16cat_3b1f_1_Xhh-0.0-0.95[17],-0.0920,0.9196
uncorr_bkguncrt16cat_3b1f_1_Xhh-0.95-1.6[00],0.1636,0.8729
uncorr_bkguncrt16cat_3b1f_1_Xhh-0.95-1.6[01],0.1675,0.8820
uncorr_bkguncrt16cat_3b1f_1_Xhh-0.95-1.6[02],-0.0076,0.8828
uncorr_bkguncrt16cat_3b1f_1_Xhh-0.95-1.6[03],0.3445,0.8918
uncorr_bkguncrt16cat_3b1f_1_Xhh-0.95-1.6[04],-0.1180,0.8618
uncorr_bkguncrt16cat_3b1f_1_Xhh-0.95-1.6[05],0.0737,0.8562
uncorr_bkguncrt16cat_3b1f_1_Xhh-0.95-1.6[06],0.2731,0.8698
uncorr_bkguncrt16cat_3b1f_1_Xhh-0.95-1.6[07],-0.0278,0.8761
uncorr_bkguncrt16cat_3b1f_1_Xhh-0.95-1.6[08],-0.3958,0.8822
uncorr_bkguncrt16cat_3b1f_1_Xhh-0.95-1.6[09],-0.0200,0.8933
uncorr_bkguncrt16cat_3b1f_1_Xhh-0.95-1.6[10],0.3150,0.8956
uncorr_bkguncrt16cat_3b1f_1_Xhh-0.95-1.6[11],0.0248,0.8855
uncorr_bkguncrt16cat_3b1f_1_Xhh-0.95-1.6[12],0.4150,0.9008
uncorr_bkguncrt16cat_3b1f_1_Xhh-0.95-1.6[13],-0.2590,0.8847
uncorr_bkguncrt16cat_3b1f_1_Xhh-0.95-1.6[14],-0.0172,0.9052
uncorr_bkguncrt16cat_3b1f_1_Xhh-0.95-1.6[15],0.5325,0.8897
uncorr_bkguncrt16cat_3b1f_1_Xhh-0.95-1.6[16],-0.5128,0.8878
uncorr_bkguncrt16cat_3b1f_1_Xhh-0.95-1.6[17],-0.2067,0.8680
uncorr_bkguncrt17cat_3b1f_0_Xhh-0.0-0.95[00],-0.1608,0.8711
uncorr_bkguncrt17cat_3b1f_0_Xhh-0.0-0.95[01],-0.0218,0.8927
uncorr_bkguncrt17cat_3b1f_0_Xhh-0.0-0.95[02],0.4447,0.9044
uncorr_bkguncrt17cat_3b1f_0_Xhh-0.0-0.95[03],0.0266,0.8701
uncorr_bkguncrt17cat_3b1f_0_Xhh-0.0-0.95[04],0.1475,0.8957
uncorr_bkguncrt17cat_3b1f_0_Xhh-0.0-0.95[05],-0.0477,0.8752
uncorr_bkguncrt17cat_3b1f_0_Xhh-0.0-0.95[06],-0.0867,0.8846
uncorr_bkguncrt17cat_3b1f_0_Xhh-0.0-0.95[07],0.0454,0.9018
uncorr_bkguncrt17cat_3b1f_0_Xhh-0.0-0.95[08],1.2626,0.9279
uncorr_bkguncrt17cat_3b1f_0_Xhh-0.0-0.95[09],-0.1029,0.9014
uncorr_bkguncrt17cat_3b1f_0_Xhh-0.0-0.95[10],-0.0155,0.9166
uncorr_bkguncrt17cat_3b1f_0_Xhh-0.0-0.95[11],0.4029,0.9151
uncorr_bkguncrt17cat_3b1f_0_Xhh-0.0-0.95[12],-0.4365,0.9036
uncorr_bkguncrt17cat_3b1f_0_Xhh-0.0-0.95[13],-0.5952,0.8561
uncorr_bkguncrt17cat_3b1f_0_Xhh-0.0-0.95[14],-0.0522,0.9297
uncorr_bkguncrt17cat_3b1f_0_Xhh-0.0-0.95[15],-0.6862,0.8146
uncorr_bkguncrt17cat_3b1f_0_Xhh-0.0-0.95[16],-0.5894,0.9053
uncorr_bkguncrt17cat_3b1f_0_Xhh-0.0-0.95[17],0.1580,0.9280
uncorr_bkguncrt17cat_3b1f_0_Xhh-0.95-1.6[00],-0.5669,0.8623
uncorr_bkguncrt17cat_3b1f_0_Xhh-0.95-1.6[01],-0.1406,0.8972
uncorr_bkguncrt17cat_3b1f_0_Xhh-0.95-1.6[02],0.8797,0.8553
uncorr_bkguncrt17cat_3b1f_0_Xhh-0.95-1.6[03],0.1456,0.8109
uncorr_bkguncrt17cat_3b1f_0_Xhh-0.95-1.6[04],-0.0861,0.8481
uncorr_bkguncrt17cat_3b1f_0_Xhh-0.95-1.6[05],0.3458,0.8504
uncorr_bkguncrt17cat_3b1f_0_Xhh-0.95-1.6[06],-0.0664,0.8517
uncorr_bkguncrt17cat_3b1f_0_Xhh-0.95-1.6[07],0.4467,0.8632
uncorr_bkguncrt17cat_3b1f_0_Xhh-0.95-1.6[08],0.3965,0.8748
uncorr_bkguncrt17cat_3b1f_0_Xhh-0.95-1.6[09],-0.4813,0.8647
uncorr_bkguncrt17cat_3b1f_0_Xhh-0.95-1.6[10],0.4030,0.8811
uncorr_bkguncrt17cat_3b1f_0_Xhh-0.95-1.6[11],-1.0598,0.8493
uncorr_bkguncrt17cat_3b1f_0_Xhh-0.95-1.6[12],-0.8499,0.8681
uncorr_bkguncrt17cat_3b1f_0_Xhh-0.95-1.6[13],0.2571,0.8843
uncorr_bkguncrt17cat_3b1f_0_Xhh-0.95-1.6[14],0.5418,0.9073
uncorr_bkguncrt17cat_3b1f_0_Xhh-0.95-1.6[15],0.0757,0.8875
uncorr_bkguncrt17cat_3b1f_0_Xhh-0.95-1.6[16],0.0851,0.9047
uncorr_bkguncrt17cat_3b1f_0_Xhh-0.95-1.6[17],0.0578,0.9105
uncorr_bkguncrt17cat_3b1f_1_Xhh-0.0-0.95[00],0.5685,0.9193
uncorr_bkguncrt17cat_3b1f_1_Xhh-0.0-0.95[01],-0.1131,0.8539
uncorr_bkguncrt17cat_3b1f_1_Xhh-0.0-0.95[02],-0.8684,0.8363
uncorr_bkguncrt17cat_3b1f_1_Xhh-0.0-0.95[03],0.5390,0.8792
uncorr_bkguncrt17cat_3b1f_1_Xhh-0.0-0.95[04],0.2313,0.8832
uncorr_bkguncrt17cat_3b1f_1_Xhh-0.0-0.95[05],0.0967,0.8790
uncorr_bkguncrt17cat_3b1f_1_Xhh-0.0-0.95[06],0.3298,0.8824
uncorr_bkguncrt17cat_3b1f_1_Xhh-0.0-0.95[07],-0.3567,0.8851
uncorr_bkguncrt17cat_3b1f_1_Xhh-0.0-0.95[08],-0.0156,0.8960
uncorr_bkguncrt17cat_3b1f_1_Xhh-0.0-0.95[09],0.9150,0.9108
uncorr_bkguncrt17cat_3b1f_1_Xhh-0.0-0.95[10],0.3049,0.9061
uncorr_bkguncrt17cat_3b1f_1_Xhh-0.0-0.95[11],0.2573,0.9097
uncorr_bkguncrt17cat_3b1f_1_Xhh-0.0-0.95[12],-0.2590,0.8945
uncorr_bkguncrt17cat_3b1f_1_Xhh-0.0-0.95[13],-0.1355,0.9126
uncorr_bkguncrt17cat_3b1f_1_Xhh-0.0-0.95[14],0.0761,0.9184
uncorr_bkguncrt17cat_3b1f_1_Xhh-0.0-0.95[15],0.2584,0.9270
uncorr_bkguncrt17cat_3b1f_1_Xhh-0.0-0.95[16],-0.3765,0.9055
uncorr_bkguncrt17cat_3b1f_1_Xhh-0.0-0.95[17],-0.8161,0.8352
uncorr_bkguncrt17cat_3b1f_1_Xhh-0.95-1.6[00],0.1932,0.8644
uncorr_bkguncrt17cat_3b1f_1_Xhh-0.95-1.6[01],0.7643,0.8558
uncorr_bkguncrt17cat_3b1f_1_Xhh-0.95-1.6[02],-0.2827,0.8292
uncorr_bkguncrt17cat_3b1f_1_Xhh-0.95-1.6[03],1.2544,0.8337
uncorr_bkguncrt17cat_3b1f_1_Xhh-0.95-1.6[04],-0.0047,0.8434
uncorr_bkguncrt17cat_3b1f_1_Xhh-0.95-1.6[05],-0.4355,0.8410
uncorr_bkguncrt17cat_3b1f_1_Xhh-0.95-1.6[06],-0.2105,0.8467
uncorr_bkguncrt17cat_3b1f_1_Xhh-0.95-1.6[07],0.0935,0.8502
uncorr_bkguncrt17cat_3b1f_1_Xhh-0.95-1.6[08],-0.2424,0.8449
uncorr_bkguncrt17cat_3b1f_1_Xhh-0.95-1.6[09],-0.1347,0.8533
uncorr_bkguncrt17cat_3b1f_1_Xhh-0.95-1.6[10],0.5140,0.8753
uncorr_bkguncrt17cat_3b1f_1_Xhh-0.95-1.6[11],-0.1254,0.8826
uncorr_bkguncrt17cat_3b1f_1_Xhh-0.95-1.6[12],-0.8503,0.8491
uncorr_bkguncrt17cat_3b1f_1_Xhh-0.95-1.6[13],0.3850,0.8881
uncorr_bkguncrt17cat_3b1f_1_Xhh-0.95-1.6[14],-0.1907,0.8899
uncorr_bkguncrt17cat_3b1f_1_Xhh-0.95-1.6[15],0.6054,0.9128
uncorr_bkguncrt17cat_3b1f_1_Xhh-0.95-1.6[16],0.6237,0.8982
uncorr_bkguncrt17cat_3b1f_1_Xhh-0.95-1.6[17],-0.2387,0.8462
uncorr_bkguncrt18cat_3b1f_0_Xhh-0.0-0.95[00],-0.5578,0.8506
uncorr_bkguncrt18cat_3b1f_0_Xhh-0.0-0.95[01],-0.1484,0.8769
uncorr_bkguncrt18cat_3b1f_0_Xhh-0.0-0.95[02],0.1981,0.9077
uncorr_bkguncrt18cat_3b1f_0_Xhh-0.0-0.95[03],1.1859,0.8846
uncorr_bkguncrt18cat_3b1f_0_Xhh-0.0-0.95[04],-0.1355,0.8836
uncorr_bkguncrt18cat_3b1f_0_Xhh-0.0-0.95[05],-0.7791,0.8990
uncorr_bkguncrt18cat_3b1f_0_Xhh-0.0-0.95[06],0.0359,0.9117
uncorr_bkguncrt18cat_3b1f_0_Xhh-0.0-0.95[07],-0.0204,0.8989
uncorr_bkguncrt18cat_3b1f_0_Xhh-0.0-0.95[08],0.4887,0.8850
uncorr_bkguncrt18cat_3b1f_0_Xhh-0.0-0.95[09],0.0134,0.8966
uncorr_bkguncrt18cat_3b1f_0_Xhh-0.0-0.95[10],0.1455,0.8941
uncorr_bkguncrt18cat_3b1f_0_Xhh-0.0-0.95[11],-0.5245,0.8686
uncorr_bkguncrt18cat_3b1f_0_Xhh-0.0-0.95[12],-0.8975,0.8718
uncorr_bkguncrt18cat_3b1f_0_Xhh-0.0-0.95[13],-0.4766,0.8731
uncorr_bkguncrt18cat_3b1f_0_Xhh-0.0-0.95[14],-0.5650,0.8823
uncorr_bkguncrt18cat_3b1f_0_Xhh-0.0-0.95[15],0.3411,0.9313
uncorr_bkguncrt18cat_3b1f_0_Xhh-0.0-0.95[16],-0.3535,0.9002
uncorr_bkguncrt18cat_3b1f_0_Xhh-0.0-0.95[17],-0.7115,0.8638
uncorr_bkguncrt18cat_3b1f_0_Xhh-0.95-1.6[00],-0.7757,0.8140
uncorr_bkguncrt18cat_3b1f_0_Xhh-0.95-1.6[01],-0.2767,0.8700
uncorr_bkguncrt18cat_3b1f_0_Xhh-0.95-1.6[02],0.7719,0.8466
uncorr_bkguncrt18cat_3b1f_0_Xhh-0.95-1.6[03],1.1478,0.8644
uncorr_bkguncrt18cat_3b1f_0_Xhh-0.95-1.6[04],0.3088,0.8598
uncorr_bkguncrt18cat_3b1f_0_Xhh-0.95-1.6[05],0.5671,0.8694
uncorr_bkguncrt18cat_3b1f_0_Xhh-0.95-1.6[06],1.1446,0.8642
uncorr_bkguncrt18cat_3b1f_0_Xhh-0.95-1.6[07],0.3351,0.8553
uncorr_bkguncrt18cat_3b1f_0_Xhh-0.95-1.6[08],1.1025,0.8526
uncorr_bkguncrt18cat_3b1f_0_Xhh-0.95-1.6[09],0.3703,0.8402
uncorr_bkguncrt18cat_3b1f_0_Xhh-0.95-1.6[10],0.0738,0.8502
uncorr_bkguncrt18cat_3b1f_0_Xhh-0.95-1.6[11],-0.7714,0.8232
uncorr_bkguncrt18cat_3b1f_0_Xhh-0.95-1.6[12],-0.4479,0.8411
uncorr_bkguncrt18cat_3b1f_0_Xhh-0.95-1.6[13],-0.2981,0.8268
uncorr_bkguncrt18cat_3b1f_0_Xhh-0.95-1.6[14],0.2960,0.8480
uncorr_bkguncrt18cat_3b1f_0_Xhh-0.95-1.6[15],-0.7895,0.8364
uncorr_bkguncrt18cat_3b1f_0_Xhh-0.95-1.6[16],-0.1916,0.8702
uncorr_bkguncrt18cat_3b1f_0_Xhh-0.95-1.6[17],0.0628,0.8663
uncorr_bkguncrt18cat_3b1f_1_Xhh-0.0-0.95[00],0.3152,0.8615
uncorr_bkguncrt18cat_3b1f_1_Xhh-0.0-0.95[01],0.8329,0.8518
uncorr_bkguncrt18cat_3b1f_1_Xhh-0.0-0.95[02],-0.4664,0.8537
uncorr_bkguncrt18cat_3b1f_1_Xhh-0.0-0.95[03],0.6335,0.8915
uncorr_bkguncrt18cat_3b1f_1_Xhh-0.0-0.95[04],0.1808,0.8845
uncorr_bkguncrt18cat_3b1f_1_Xhh-0.0-0.95[05],-0.1687,0.8990
uncorr_bkguncrt18cat_3b1f_1_Xhh-0.0-0.95[06],-0.3944,0.9139
uncorr_bkguncrt18cat_3b1f_1_Xhh-0.0-0.95[07],0.3063,0.9231
uncorr_bkguncrt18cat_3b1f_1_Xhh-0.0-0.95[08],-0.5352,0.8978
uncorr_bkguncrt18cat_3b1f_1_Xhh-0.0-0.95[09],0.9364,0.9034
uncorr_bkguncrt18cat_3b1f_1_Xhh-0.0-0.95[10],0.5927,0.8949
uncorr_bkguncrt18cat_3b1f_1_Xhh-0.0-0.95[11],0.5048,0.8957
uncorr_bkguncrt18cat_3b1f_1_Xhh-0.0-0.95[12],-0.2947,0.8642
uncorr_bkguncrt18cat_3b1f_1_Xhh-0.0-0.95[13],-0.1720,0.8510
uncorr_bkguncrt18cat_3b1f_1_Xhh-0.0-0.95[14],0.2120,0.8816
uncorr_bkguncrt18cat_3b1f_1_Xhh-0.0-0.95[15],0.0581,0.9019
uncorr_bkguncrt18cat_3b1f_1_Xhh-0.0-0.95[16],0.0932,0.9175
uncorr_bkguncrt18cat_3b1f_1_Xhh-0.0-0.95[17],-0.2987,0.7878
uncorr_bkguncrt18cat_3b1f_1_Xhh-0.95-1.6[00],0.5647,0.8333
uncorr_bkguncrt18cat_3b1f_1_Xhh-0.95-1.6[01],-0.1507,0.8185
uncorr_bkguncrt18cat_3b1f_1_Xhh-0.95-1.6[02],-0.1455,0.8407
uncorr_bkguncrt18cat_3b1f_1_Xhh-0.95-1.6[03],0.1606,0.8309
uncorr_bkguncrt18cat_3b1f_1_Xhh-0.95-1.6[04],0.4408,0.8384
uncorr_bkguncrt18cat_3b1f_1_Xhh-0.95-1.6[05],0.4681,0.8621
uncorr_bkguncrt18cat_3b1f_1_Xhh-0.95-1.6[06],-0.8872,0.8867
uncorr_bkguncrt18cat_3b1f_1_Xhh-0.95-1.6[07],-0.6486,0.8978
uncorr_bkguncrt18cat_3b1f_1_Xhh-0.95-1.6[08],-0.2403,0.8720
uncorr_bkguncrt18cat_3b1f_1_Xhh-0.95-1.6[09],0.6502,0.8549
uncorr_bkguncrt18cat_3b1f_1_Xhh-0.95-1.6[10],2.1632,0.8776
uncorr_bkguncrt18cat_3b1f_1_Xhh-0.95-1.6[11],-0.0564,0.8365
uncorr_bkguncrt18cat_3b1f_1_Xhh-0.95-1.6[12],0.3578,0.8430
uncorr_bkguncrt18cat_3b1f_1_Xhh-0.95-1.6[13],0.0984,0.8304
uncorr_bkguncrt18cat_3b1f_1_Xhh-0.95-1.6[14],-0.4869,0.8305
uncorr_bkguncrt18cat_3b1f_1_Xhh-0.95-1.6[15],0.5332,0.8635
uncorr_bkguncrt18cat_3b1f_1_Xhh-0.95-1.6[16],0.4489,0.8762
uncorr_bkguncrt18cat_3b1f_1_Xhh-0.95-1.6[17],0.3696,0.7362
