label,post_dn,post_up,pre_dn,pre_up
lumi,0.0001,0.0000,0.0001,0.0000
bkg_norm17_4b,0.0013,-0.0013,0.0013,-0.0013
Theory,0.0014,0.0014,0.0014,0.0014
low_HT17_4b,-0.0382,0.0381,-0.1038,0.0930
high_HT17_4b,0.5721,-0.5629,0.8633,-0.8468
