label,pull,err
Theory,0.0000,0.9934
bkg_norm17_4b,-0.0000,0.9933
high_HT17_4b,-0.0006,0.7461
low_HT17_4b,-0.0000,0.5045
lumi,0.0000,0.9933
uncorr_bkguncrt174b[0],0.0000,0.9163
uncorr_bkguncrt174b[10],-0.0001,0.9486
uncorr_bkguncrt174b[11],-0.0000,0.9557
uncorr_bkguncrt174b[12],-0.0000,0.9661
uncorr_bkguncrt174b[13],-0.0000,0.9711
uncorr_bkguncrt174b[14],-0.0000,0.9746
uncorr_bkguncrt174b[15],-0.0000,0.9778
uncorr_bkguncrt174b[16],-0.0000,0.9785
uncorr_bkguncrt174b[17],-0.0000,0.9823
uncorr_bkguncrt174b[18],-0.0000,0.9837
uncorr_bkguncrt174b[19],-0.0000,0.9852
uncorr_bkguncrt174b[1],0.0000,0.7820
uncorr_bkguncrt174b[20],-0.0000,0.9857
uncorr_bkguncrt174b[21],-0.0000,0.9858
uncorr_bkguncrt174b[22],-0.0000,0.9882
uncorr_bkguncrt174b[23],-0.0000,0.9892
uncorr_bkguncrt174b[24],-0.0000,0.9889
uncorr_bkguncrt174b[25],-0.0000,0.9890
uncorr_bkguncrt174b[26],-0.0000,0.9881
uncorr_bkguncrt174b[27],-0.0000,0.9890
uncorr_bkguncrt174b[28],-0.0000,0.9886
uncorr_bkguncrt174b[29],-0.0000,0.9905
uncorr_bkguncrt174b[2],0.0000,0.7570
uncorr_bkguncrt174b[30],-0.0000,0.9911
uncorr_bkguncrt174b[31],-0.0000,0.9921
uncorr_bkguncrt174b[32],-0.0000,0.9937
uncorr_bkguncrt174b[33],-0.0000,0.9936
uncorr_bkguncrt174b[34],-0.0000,0.9942
uncorr_bkguncrt174b[35],-0.0000,0.9954
uncorr_bkguncrt174b[36],-0.0000,0.9959
uncorr_bkguncrt174b[37],-0.0000,0.9967
uncorr_bkguncrt174b[38],-0.0000,0.9973
uncorr_bkguncrt174b[39],0.0009,0.9980
uncorr_bkguncrt174b[3],-0.0000,0.8148
uncorr_bkguncrt174b[4],-0.0000,0.8356
uncorr_bkguncrt174b[5],-0.0000,0.7994
uncorr_bkguncrt174b[6],-0.0001,0.8392
uncorr_bkguncrt174b[7],-0.0002,0.8922
uncorr_bkguncrt174b[8],-0.0001,0.9177
uncorr_bkguncrt174b[9],-0.0001,0.9320
